14
Coordinates from ORCA-job butane_PBE_STO-3G
  C   -1.31390889130073      0.17328820309238     -0.02837806012757
  C   0.24129239956850      0.16739208327080     -0.02460647842482
  H   -1.70621858260703      0.56264827896638      0.92981573997316
  H   -1.70783101289017     -0.85008946154742     -0.17378760420893
  H   -1.70068480081274      0.81256720458545     -0.84408951382334
  H   0.60569778710583     -0.49944255713923      0.78423512379570
  C   0.84160331116310      1.59371842710652      0.17744385606440
  H   0.61067165076028     -0.25104245893385     -0.98386609152596
  H   0.47223005279701      2.01214952577545      1.13670727071176
  H   0.47719165134548      2.26055511118826     -0.63139327162138
  C   2.39680460864531      1.58782402303213      0.18120491730010
  H   2.78358663469457      0.94853552958690      0.99690605654905
  H   2.79072690109301      2.61120024931447      0.32662423758479
  H   2.78910829043760      1.19847584170175     -0.77699618224695
