-------------------------------------------------------------
----------------------- !PROPERTIES! ------------------------
-------------------------------------------------------------
# -----------------------------------------------------------
$ SCF_Energy
   description: The SCF energy
   geom. index: 1
   prop. index: 1
        SCF Energy:     -158.2705783331
# -----------------------------------------------------------
$ DFT_Energy
   description: The DFT energy
   geom. index: 1
   prop. index: 1
   Number of Alpha Electrons        17.0000673877 
   Number of Alpha Electrons        17.0000673877 
   Total nuber of  Electrons        34.0001347754 
   Exchange energy                 -24.1502172604 
   Correlation energy               -1.0830019669 
   Correlantion energy NL            0.0000000000 
   Exchange-Correlation energy     -25.2332192273 
   Embedding correction              0.0000000000 
# -----------------------------------------------------------
$ SCF_Energy
   description: The SCF energy
   geom. index: 2
   prop. index: 1
        SCF Energy:     -158.2714836706
# -----------------------------------------------------------
$ DFT_Energy
   description: The DFT energy
   geom. index: 2
   prop. index: 1
   Number of Alpha Electrons        17.0000696517 
   Number of Alpha Electrons        17.0000696517 
   Total nuber of  Electrons        34.0001393035 
   Exchange energy                 -24.1193635474 
   Correlation energy               -1.0808957793 
   Correlantion energy NL            0.0000000000 
   Exchange-Correlation energy     -25.2002593267 
   Embedding correction              0.0000000000 
# -----------------------------------------------------------
$ SCF_Energy
   description: The SCF energy
   geom. index: 3
   prop. index: 1
        SCF Energy:     -158.2715536723
# -----------------------------------------------------------
$ DFT_Energy
   description: The DFT energy
   geom. index: 3
   prop. index: 1
   Number of Alpha Electrons        17.0000692992 
   Number of Alpha Electrons        17.0000692992 
   Total nuber of  Electrons        34.0001385984 
   Exchange energy                 -24.1161242507 
   Correlation energy               -1.0806898378 
   Correlantion energy NL            0.0000000000 
   Exchange-Correlation energy     -25.1968140885 
   Embedding correction              0.0000000000 
# -----------------------------------------------------------
$ SCF_Energy
   description: The SCF energy
   geom. index: 4
   prop. index: 1
        SCF Energy:     -158.2715704733
# -----------------------------------------------------------
$ DFT_Energy
   description: The DFT energy
   geom. index: 4
   prop. index: 1
   Number of Alpha Electrons        17.0000687414 
   Number of Alpha Electrons        17.0000687414 
   Total nuber of  Electrons        34.0001374828 
   Exchange energy                 -24.1168907807 
   Correlation energy               -1.0807809579 
   Correlantion energy NL            0.0000000000 
   Exchange-Correlation energy     -25.1976717385 
   Embedding correction              0.0000000000 
# -----------------------------------------------------------
$ SCF_Energy
   description: The SCF energy
   geom. index: 5
   prop. index: 1
        SCF Energy:     -158.2715738294
# -----------------------------------------------------------
$ DFT_Energy
   description: The DFT energy
   geom. index: 5
   prop. index: 1
   Number of Alpha Electrons        17.0000683345 
   Number of Alpha Electrons        17.0000683345 
   Total nuber of  Electrons        34.0001366690 
   Exchange energy                 -24.1179035458 
   Correlation energy               -1.0808774257 
   Correlantion energy NL            0.0000000000 
   Exchange-Correlation energy     -25.1987809715 
   Embedding correction              0.0000000000 
# -----------------------------------------------------------
$ SCF_Energy
   description: The SCF energy
   geom. index: 6
   prop. index: 1
        SCF Energy:     -158.2715741386
# -----------------------------------------------------------
$ DFT_Energy
   description: The DFT energy
   geom. index: 6
   prop. index: 1
   Number of Alpha Electrons        17.0000681980 
   Number of Alpha Electrons        17.0000681980 
   Total nuber of  Electrons        34.0001363960 
   Exchange energy                 -24.1181342029 
   Correlation energy               -1.0808987474 
   Correlantion energy NL            0.0000000000 
   Exchange-Correlation energy     -25.1990329503 
   Embedding correction              0.0000000000 
# -----------------------------------------------------------
$ SCF_Electric_Properties
   description: The SCF Calculated Electric Properties
   geom. index: 6
   prop. index: 1
       Filename                          : butane_PBE_def2-TZVP.scfp 
       Do Dipole Moment Calculation      : true 
       Do Quadrupole Moment Calculation  : false 
       Do Polarizability Calculation     : false 
** Dipole moment part of electric properties **
        Magnitude of dipole moment (Debye) :        0.0000004016
        Electronic Contribution:
                  0    
      0      -0.000000
      1      -0.000000
      2       0.000002
        Nuclear Contribution:
                  0    
      0       0.000000
      1       0.000000
      2      -0.000002
        Total Dipole moment:
                  0    
      0       0.000000
      1      -0.000000
      2       0.000000
# -----------------------------------------------------------
$ Hessian
   description: Details about the Hessian
   geom. index: 6
   prop. index: 1
Normal modes:
Number of Rows: 42 Number of Columns: 42
                  0          1          2          3          4          5    
      0       0.000000   0.000000   0.000000   0.000000   0.000000   0.000000
      1       0.000000   0.000000   0.000000   0.000000   0.000000   0.000000
      2       0.000000   0.000000   0.000000   0.000000   0.000000   0.000000
      3       0.000000   0.000000   0.000000   0.000000   0.000000   0.000000
      4       0.000000   0.000000   0.000000   0.000000   0.000000   0.000000
      5       0.000000   0.000000   0.000000   0.000000   0.000000   0.000000
      6       0.000000   0.000000   0.000000   0.000000   0.000000   0.000000
      7       0.000000   0.000000   0.000000   0.000000   0.000000   0.000000
      8       0.000000   0.000000   0.000000   0.000000   0.000000   0.000000
      9       0.000000   0.000000   0.000000   0.000000   0.000000   0.000000
     10       0.000000   0.000000   0.000000   0.000000   0.000000   0.000000
     11       0.000000   0.000000   0.000000   0.000000   0.000000   0.000000
     12       0.000000   0.000000   0.000000   0.000000   0.000000   0.000000
     13       0.000000   0.000000   0.000000   0.000000   0.000000   0.000000
     14       0.000000   0.000000   0.000000   0.000000   0.000000   0.000000
     15       0.000000   0.000000   0.000000   0.000000   0.000000   0.000000
     16       0.000000   0.000000   0.000000   0.000000   0.000000   0.000000
     17       0.000000   0.000000   0.000000   0.000000   0.000000   0.000000
     18       0.000000   0.000000   0.000000   0.000000   0.000000   0.000000
     19       0.000000   0.000000   0.000000   0.000000   0.000000   0.000000
     20       0.000000   0.000000   0.000000   0.000000   0.000000   0.000000
     21       0.000000   0.000000   0.000000   0.000000   0.000000   0.000000
     22       0.000000   0.000000   0.000000   0.000000   0.000000   0.000000
     23       0.000000   0.000000   0.000000   0.000000   0.000000   0.000000
     24       0.000000   0.000000   0.000000   0.000000   0.000000   0.000000
     25       0.000000   0.000000   0.000000   0.000000   0.000000   0.000000
     26       0.000000   0.000000   0.000000   0.000000   0.000000   0.000000
     27       0.000000   0.000000   0.000000   0.000000   0.000000   0.000000
     28       0.000000   0.000000   0.000000   0.000000   0.000000   0.000000
     29       0.000000   0.000000   0.000000   0.000000   0.000000   0.000000
     30       0.000000   0.000000   0.000000   0.000000   0.000000   0.000000
     31       0.000000   0.000000   0.000000   0.000000   0.000000   0.000000
     32       0.000000   0.000000   0.000000   0.000000   0.000000   0.000000
     33       0.000000   0.000000   0.000000   0.000000   0.000000   0.000000
     34       0.000000   0.000000   0.000000   0.000000   0.000000   0.000000
     35       0.000000   0.000000   0.000000   0.000000   0.000000   0.000000
     36       0.000000   0.000000   0.000000   0.000000   0.000000   0.000000
     37       0.000000   0.000000   0.000000   0.000000   0.000000   0.000000
     38       0.000000   0.000000   0.000000   0.000000   0.000000   0.000000
     39       0.000000   0.000000   0.000000   0.000000   0.000000   0.000000
     40       0.000000   0.000000   0.000000   0.000000   0.000000   0.000000
     41       0.000000   0.000000   0.000000   0.000000   0.000000   0.000000
                  6          7          8          9         10         11    
      0      -0.000404  -0.000075   0.002441   0.000016   0.206896  -0.000033
      1      -0.019068  -0.004547   0.149557   0.000325   0.104921  -0.001149
      2       0.136605   0.028753   0.021097  -0.002400   0.015322   0.008161
      3       0.000459   0.000067   0.008805   0.000187   0.146692  -0.000152
      4       0.020835   0.005654  -0.179563   0.010026  -0.032905  -0.007383
      5      -0.149389  -0.035773  -0.025337  -0.071245  -0.004200   0.052538
      6       0.177437   0.049374   0.146969   0.048912   0.324620  -0.173652
      7      -0.175254   0.362733   0.269506   0.342762   0.208861   0.049738
      8       0.275311  -0.098845   0.033974  -0.120168   0.023687  -0.087701
      9      -0.000532  -0.000367  -0.281219  -0.001118  -0.024037   0.000296
     10      -0.008304  -0.064034   0.260753  -0.055046   0.197139   0.008764
     11       0.061371   0.447185   0.039091   0.389531   0.027664  -0.062301
     12      -0.178897  -0.049509   0.146839  -0.047972   0.324679   0.174161
     13       0.093114  -0.323048   0.263281  -0.296238   0.206841  -0.023753
     14       0.312013  -0.195917   0.038980  -0.210628   0.036612  -0.096929
     15       0.152426   0.027932  -0.073199   0.040251   0.203355   0.174000
     16      -0.022706   0.025789  -0.218941  -0.080738   0.021430  -0.307346
     17      -0.255816  -0.031500  -0.022366  -0.165860   0.013445  -0.285552
     18       0.000459   0.000067   0.008805  -0.000189  -0.146692  -0.000152
     19       0.020835   0.005655  -0.179566  -0.009996   0.032905  -0.007383
     20      -0.149389  -0.035773  -0.025315   0.071249   0.004200   0.052538
     21      -0.151104  -0.027336  -0.073392  -0.039454   0.203503  -0.172613
     22       0.092088  -0.014643  -0.217034   0.123360   0.024139   0.374263
     23      -0.240548  -0.037274  -0.039332  -0.137430  -0.005845  -0.190794
     24      -0.151105  -0.027336  -0.073379   0.039466  -0.203503  -0.172614
     25       0.092088  -0.014643  -0.217072  -0.123324  -0.024137   0.374262
     26      -0.240548  -0.037274  -0.039288   0.137436   0.005844  -0.190793
     27       0.152425   0.027931  -0.073212  -0.040239  -0.203354   0.173999
     28      -0.022706   0.025789  -0.218916   0.080774  -0.021431  -0.307345
     29      -0.255817  -0.031500  -0.022314   0.165864  -0.013446  -0.285553
     30      -0.000403  -0.000075   0.002441  -0.000017  -0.206896  -0.000032
     31      -0.019068  -0.004546   0.149557  -0.000350  -0.104922  -0.001149
     32       0.136605   0.028753   0.021098   0.002396  -0.015322   0.008161
     33      -0.178894  -0.049509   0.146856   0.047948  -0.324680   0.174161
     34       0.093114  -0.323045   0.263380   0.296193  -0.206841  -0.023752
     35       0.312014  -0.195920   0.039050   0.210624  -0.036612  -0.096930
     36      -0.000534  -0.000365  -0.281219   0.001163   0.024037   0.000297
     37      -0.008303  -0.064037   0.260771   0.055007  -0.197139   0.008764
     38       0.061371   0.447184   0.038963  -0.389538  -0.027664  -0.062301
     39       0.177440   0.049374   0.146951  -0.048936  -0.324618  -0.173652
     40      -0.175254   0.362734   0.269392  -0.342808  -0.208860   0.049739
     41       0.275310  -0.098842   0.034014   0.120160  -0.023687  -0.087700
                 12         13         14         15         16         17    
      0      -0.000109  -0.099074  -0.000390  -0.045287  -0.211408   0.132342
      1      -0.005004  -0.072464  -0.008939  -0.081533   0.057689  -0.038849
      2       0.035538  -0.010486   0.061714  -0.011821   0.007439  -0.005052
      3      -0.000163   0.033452   0.000239   0.022736   0.244172  -0.177182
      4      -0.008921  -0.159149   0.005268   0.023131  -0.023272  -0.097858
      5       0.063407  -0.022257  -0.036962   0.003458  -0.002530  -0.014222
      6      -0.325075   0.118384  -0.312676   0.163344  -0.380782   0.213540
      7       0.045878   0.150262   0.041261   0.159190  -0.107724   0.020115
      8      -0.126548  -0.006454  -0.097180  -0.016987   0.001832   0.002835
      9       0.000627  -0.575754  -0.000840  -0.489017   0.016044   0.039460
     10       0.022485   0.114773   0.023852   0.096543  -0.039344  -0.001596
     11      -0.159492   0.014464  -0.167164   0.012715  -0.005191  -0.000181
     12       0.325754   0.118473   0.313968   0.161133  -0.381219   0.213679
     13      -0.009486   0.142237  -0.012286   0.147986  -0.102623   0.019966
     14      -0.132231   0.048326  -0.102453   0.061915  -0.033648   0.004146
     15       0.277429   0.105009   0.227060   0.215875   0.177551  -0.347760
     16      -0.104414  -0.093905   0.260115   0.145825  -0.079962  -0.225147
     17      -0.150831  -0.004491   0.073704   0.016409  -0.014061  -0.040302
     18       0.000163  -0.033452   0.000239   0.022736   0.244172   0.177182
     19       0.008921   0.159149   0.005268   0.023131  -0.023272   0.097858
     20      -0.063407   0.022258  -0.036962   0.003458  -0.002530   0.014222
     21      -0.276645   0.105157  -0.225718   0.217381   0.178003  -0.347477
     22       0.142038  -0.091692  -0.269198   0.146365  -0.080448  -0.226953
     23      -0.117720  -0.020910  -0.001846   0.025605  -0.007429  -0.025138
     24       0.276646  -0.105156  -0.225719   0.217381   0.178003   0.347476
     25      -0.142038   0.091694  -0.269198   0.146365  -0.080446   0.226955
     26       0.117719   0.020910  -0.001845   0.025604  -0.007430   0.025136
     27      -0.277428  -0.105010   0.227059   0.215876   0.177551   0.347761
     28       0.104414   0.093903   0.260115   0.145826  -0.079963   0.225146
     29       0.150833   0.004491   0.073704   0.016409  -0.014063   0.040300
     30       0.000109   0.099074  -0.000390  -0.045287  -0.211408  -0.132342
     31       0.005004   0.072464  -0.008939  -0.081533   0.057689   0.038849
     32      -0.035538   0.010486   0.061714  -0.011821   0.007440   0.005052
     33      -0.325753  -0.118476   0.313966   0.161135  -0.381221  -0.213680
     34       0.009486  -0.142236  -0.012286   0.147985  -0.102623  -0.019966
     35       0.132232  -0.048326  -0.102455   0.061915  -0.033647  -0.004146
     36      -0.000628   0.575754  -0.000837  -0.489017   0.016044  -0.039459
     37      -0.022486  -0.114773   0.023852   0.096542  -0.039344   0.001596
     38       0.159492  -0.014466  -0.167164   0.012717  -0.005190   0.000182
     39       0.325076  -0.118380  -0.312679   0.163342  -0.380781  -0.213540
     40      -0.045878  -0.150262   0.041260   0.159190  -0.107725  -0.020115
     41       0.126546   0.006455  -0.097178  -0.016987   0.001832  -0.002835
                 18         19         20         21         22         23    
      0       0.020406   0.000286  -0.000203  -0.008172  -0.000164  -0.027739
      1      -0.111539   0.014520  -0.011578   0.058294  -0.004874  -0.034415
      2      -0.015615  -0.103295   0.081772   0.008280   0.034534  -0.004956
      3      -0.074239  -0.000447   0.000274  -0.073556  -0.000038   0.140157
      4       0.177921  -0.021407   0.009033  -0.081854  -0.005555   0.074811
      5       0.024755   0.152504  -0.063571  -0.011802   0.040063   0.010874
      6       0.253913   0.308485  -0.197516  -0.008431  -0.096180   0.043451
      7       0.200518  -0.082149   0.075363  -0.090162   0.012231   0.107420
      8      -0.037264   0.077592  -0.045061   0.058467  -0.010153  -0.031193
      9      -0.358443  -0.000774   0.000164   0.215385   0.000131  -0.029046
     10       0.050723  -0.028384   0.021945  -0.030577   0.002940  -0.029512
     11       0.005856   0.200944  -0.154749  -0.003695  -0.021219  -0.004186
     12       0.253707  -0.308739   0.197642  -0.007482   0.096378   0.043098
     13       0.181917   0.057881  -0.060025  -0.070494  -0.008904   0.094596
     14       0.092671   0.095289  -0.062618  -0.081280  -0.012530   0.059993
     15       0.042113   0.181316  -0.409714   0.386520  -0.362031  -0.385048
     16       0.225862  -0.236720  -0.135190   0.234909  -0.322905  -0.267121
     17       0.014646  -0.124081   0.003186   0.040562  -0.059539  -0.034790
     18       0.074239   0.000447   0.000274  -0.073556   0.000039  -0.140157
     19      -0.177921   0.021407   0.009033  -0.081854   0.005555  -0.074811
     20      -0.024755  -0.152504  -0.063571  -0.011803  -0.040063  -0.010873
     21       0.041800  -0.180699   0.408570   0.387852   0.362010  -0.385431
     22       0.220982   0.261824   0.128226   0.237051   0.326496  -0.266386
     23       0.048287  -0.054994   0.042369   0.027918   0.033623  -0.042194
     24      -0.041799   0.180700   0.408570   0.387849  -0.362013   0.385431
     25      -0.220981  -0.261824   0.128226   0.237048  -0.326498   0.266386
     26      -0.048287   0.054992   0.042368   0.027916  -0.033622   0.042193
     27      -0.042114  -0.181315  -0.409713   0.386523   0.362028   0.385049
     28      -0.225863   0.236719  -0.135190   0.234912   0.322904   0.267122
     29      -0.014647   0.124082   0.003187   0.040562   0.059538   0.034789
     30      -0.020406  -0.000286  -0.000202  -0.008172   0.000164   0.027739
     31       0.111539  -0.014520  -0.011578   0.058294   0.004874   0.034415
     32       0.015615   0.103295   0.081772   0.008280  -0.034534   0.004956
     33      -0.253709   0.308738   0.197641  -0.007484  -0.096379  -0.043099
     34      -0.181916  -0.057882  -0.060025  -0.070492   0.008904  -0.094595
     35      -0.092671  -0.095291  -0.062620  -0.081280   0.012531  -0.059994
     36       0.358443   0.000776   0.000165   0.215385  -0.000133   0.029046
     37      -0.050723   0.028386   0.021947  -0.030577  -0.002940   0.029512
     38      -0.005856  -0.200943  -0.154749  -0.003694   0.021219   0.004187
     39      -0.253911  -0.308487  -0.197517  -0.008429   0.096179  -0.043450
     40      -0.200519   0.082148   0.075363  -0.090164  -0.012231  -0.107420
     41       0.037264  -0.077590  -0.045059   0.058467   0.010152   0.031192
                 24         25         26         27         28         29    
      0      -0.098649  -0.101929  -0.000833   0.002156  -0.000149   0.000130
      1       0.006157  -0.010339   0.003802  -0.024210  -0.004825   0.004306
      2       0.000549  -0.001756   0.000498  -0.003425   0.035219  -0.030989
      3      -0.004209   0.019045   0.029133  -0.029741   0.000015   0.000126
      4      -0.011257   0.010042  -0.038933   0.020295  -0.002365   0.001992
      5      -0.001629   0.001439  -0.005382   0.002746   0.017521  -0.015007
      6       0.357833   0.368224   0.040126  -0.101336   0.227396  -0.234733
      7       0.052329   0.093687  -0.079380   0.285471   0.267812  -0.264813
      8       0.159497   0.141803   0.049343  -0.165001   0.004707  -0.005502
      9       0.379955   0.351457  -0.048638   0.192722   0.000611  -0.001358
     10      -0.167702  -0.171631   0.016235  -0.084147   0.070134  -0.068921
     11      -0.022324  -0.023051   0.002574  -0.010959  -0.494063   0.487821
     12       0.359009   0.369272   0.040905  -0.102369  -0.225937   0.234067
     13       0.094204   0.128927  -0.062220   0.229106  -0.260912   0.256548
     14      -0.136506  -0.108046  -0.068980   0.236976  -0.073654   0.070364
     15       0.046768  -0.050816  -0.220738   0.170338   0.015022  -0.051348
     16       0.006665  -0.024722   0.266586  -0.163588  -0.021069  -0.005007
     17      -0.004427   0.003420   0.342546  -0.228080  -0.005716  -0.002559
     18       0.004209   0.019045  -0.029133  -0.029741  -0.000015   0.000125
     19       0.011257   0.010042   0.038933   0.020295   0.002365   0.001992
     20       0.001629   0.001438   0.005382   0.002746  -0.017521  -0.015007
     21       0.046601  -0.050528  -0.219108   0.169342  -0.015439   0.050327
     22       0.004898  -0.022729   0.350786  -0.220192   0.021638   0.007151
     23       0.006325  -0.010340  -0.257127   0.175157   0.000230  -0.002047
     24      -0.046602  -0.050527   0.219109   0.169343   0.015439   0.050329
     25      -0.004899  -0.022730  -0.350788  -0.220191  -0.021639   0.007148
     26      -0.006325  -0.010340   0.257126   0.175156  -0.000230  -0.002045
     27      -0.046769  -0.050815   0.220739   0.170336  -0.015022  -0.051346
     28      -0.006666  -0.024721  -0.266586  -0.163587   0.021068  -0.005009
     29       0.004427   0.003420  -0.342548  -0.228080   0.005715  -0.002561
     30       0.098647  -0.101930   0.000833   0.002156   0.000149   0.000130
     31      -0.006157  -0.010339  -0.003802  -0.024210   0.004825   0.004306
     32      -0.000549  -0.001756  -0.000498  -0.003426  -0.035219  -0.030989
     33      -0.359002   0.369279  -0.040908  -0.102368   0.225935   0.234067
     34      -0.094203   0.128930   0.062217   0.229103   0.260909   0.256551
     35       0.136504  -0.108049   0.068981   0.236978   0.073655   0.070368
     36      -0.379948   0.351465   0.048639   0.192722  -0.000609  -0.001355
     37       0.167698  -0.171634  -0.016235  -0.084147  -0.070138  -0.068926
     38       0.022326  -0.023054  -0.002579  -0.010961   0.494059   0.487823
     39      -0.357826   0.368232  -0.040124  -0.101336  -0.227394  -0.234736
     40      -0.052326   0.093687   0.079384   0.285472  -0.267810  -0.264813
     41      -0.159494   0.141806  -0.049342  -0.164998  -0.004709  -0.005505
                 30         31         32         33         34         35    
      0       0.000692   0.002445  -0.000640  -0.007916  -0.000239   0.034052
      1      -0.032022  -0.025946  -0.004376   0.007322  -0.001549  -0.003518
      2      -0.004374  -0.003576  -0.000582   0.000918   0.011131  -0.000312
      3      -0.005903   0.024301  -0.026175   0.026738   0.000280   0.005436
      4      -0.036876  -0.046856   0.039163  -0.038337   0.008629  -0.009255
      5      -0.005118  -0.006465   0.005180  -0.005172  -0.062667  -0.001276
      6      -0.129454  -0.102482  -0.005111   0.040479   0.034434  -0.141727
      7       0.367377   0.251154   0.000693  -0.040898  -0.034397   0.144425
      8      -0.211722  -0.153578   0.007969  -0.106598  -0.080135   0.360427
      9       0.262243   0.154943   0.013910   0.007356   0.000732  -0.121874
     10      -0.117867  -0.075735   0.048577   0.021777   0.001520  -0.338311
     11      -0.017853  -0.011535   0.006906   0.003052   0.003574  -0.048104
     12      -0.133024  -0.105023  -0.005286   0.040313  -0.032317  -0.139944
     13       0.292495   0.197596   0.003225  -0.069652   0.052468   0.239306
     14       0.303698   0.216058  -0.007931   0.092373  -0.064134  -0.308125
     15       0.003718  -0.133568   0.158926  -0.155489   0.165381  -0.033261
     16       0.071008   0.214249  -0.293866   0.284569  -0.298310   0.065972
     17       0.078661   0.269391   0.371108  -0.359936   0.348195  -0.082124
     18       0.005904   0.024301   0.026175   0.026738  -0.000280   0.005436
     19       0.036876  -0.046856  -0.039163  -0.038337  -0.008629  -0.009255
     20       0.005118  -0.006466  -0.005180  -0.005172   0.062667  -0.001276
     21       0.003958  -0.132564   0.159849  -0.156938  -0.168800  -0.033721
     22       0.090109   0.280215  -0.178972   0.173768   0.192544   0.040802
     23      -0.056043  -0.200685  -0.433615   0.421802   0.419534   0.096852
     24      -0.003958  -0.132564  -0.159847  -0.156935   0.168801  -0.033719
     25      -0.090109   0.280215   0.178971   0.173765  -0.192545   0.040800
     26       0.056043  -0.200684   0.433616   0.421798  -0.419539   0.096848
     27      -0.003718  -0.133568  -0.158929  -0.155491  -0.165381  -0.033262
     28      -0.071008   0.214248   0.293869   0.284571   0.298308   0.065974
     29      -0.078661   0.269391  -0.371109  -0.359936  -0.348190  -0.082126
     30      -0.000692   0.002445   0.000640  -0.007916   0.000239   0.034056
     31       0.032022  -0.025946   0.004376   0.007322   0.001550  -0.003518
     32       0.004374  -0.003576   0.000582   0.000918  -0.011131  -0.000312
     33       0.133024  -0.105022   0.005286   0.040314   0.032318  -0.139963
     34      -0.292492   0.197594  -0.003226  -0.069654  -0.052470   0.239339
     35      -0.303701   0.216060   0.007931   0.092374   0.064135  -0.308162
     36      -0.262243   0.154943  -0.013910   0.007357  -0.000731  -0.121888
     37       0.117867  -0.075735  -0.048577   0.021777  -0.001517  -0.338349
     38       0.017857  -0.011536  -0.006907   0.003052  -0.003574  -0.048112
     39       0.129454  -0.102484   0.005111   0.040478  -0.034433  -0.141744
     40      -0.367379   0.251155  -0.000693  -0.040897   0.034396   0.144440
     41       0.211718  -0.153576  -0.007969  -0.106598   0.080133   0.360474
                 36         37         38         39         40         41    
      0       0.034916   0.000109  -0.000348  -0.000323  -0.004104  -0.003385
      1      -0.006564   0.003221  -0.010230  -0.010007  -0.063718  -0.063582
      2      -0.000653  -0.022143   0.063292   0.060075  -0.010312  -0.010477
      3      -0.000857  -0.000240   0.000013   0.000019   0.002291   0.002986
      4       0.000739  -0.008523  -0.001851  -0.003385  -0.004122  -0.004536
      5      -0.000225   0.061445   0.012576   0.023227  -0.000795  -0.001077
      6      -0.147827  -0.060116   0.175453   0.168693  -0.091768  -0.095592
      7       0.151201   0.064762  -0.177614  -0.168359   0.075323   0.077970
      8       0.378205   0.148981  -0.415985  -0.395232   0.222683   0.229811
      9      -0.117633  -0.000427   0.004601   0.005271   0.221435   0.218263
     10      -0.324036   0.000049   0.009640   0.011589   0.565555   0.558566
     11      -0.046055  -0.008841   0.017880   0.016513   0.080174   0.079145
     12      -0.146414   0.059263  -0.175987  -0.170220  -0.083384  -0.086044
     13       0.251531  -0.103461   0.290275   0.276879   0.122392   0.125203
     14      -0.324347   0.125686  -0.358208  -0.342553  -0.179393  -0.183417
     15       0.004011  -0.155109  -0.032889  -0.057337  -0.012881  -0.014756
     16      -0.007605   0.285057   0.053059   0.106187   0.020210   0.029002
     17       0.007780  -0.333587  -0.066401  -0.124790  -0.025629  -0.034468
     18       0.000858  -0.000240  -0.000013   0.000019  -0.002291   0.002986
     19      -0.000740  -0.008523   0.001851  -0.003385   0.004122  -0.004536
     20       0.000225   0.061445  -0.012577   0.023226   0.000796  -0.001077
     21       0.002326   0.157951   0.032761   0.057218  -0.014166  -0.017115
     22      -0.003197  -0.183228  -0.032247  -0.066718   0.013493   0.020924
     23      -0.005244  -0.400548  -0.077070  -0.146532   0.032799   0.046595
     24      -0.002329   0.157950  -0.032763   0.057216   0.014168  -0.017116
     25       0.003201  -0.183227   0.032249  -0.066716  -0.013495   0.020925
     26       0.005255  -0.400550   0.077075  -0.146530  -0.032802   0.046597
     27      -0.004015  -0.155110   0.032891  -0.057336   0.012880  -0.014756
     28       0.007613   0.285056  -0.053063   0.106186  -0.020206   0.029001
     29      -0.007790  -0.333585   0.066406  -0.124788   0.025625  -0.034468
     30      -0.034912   0.000109   0.000347  -0.000323   0.004104  -0.003385
     31       0.006564   0.003221   0.010231  -0.010009   0.063717  -0.063582
     32       0.000653  -0.022143  -0.063294   0.060072   0.010314  -0.010478
     33       0.146399   0.059263   0.175995  -0.170217   0.083379  -0.086044
     34      -0.251506  -0.103461  -0.290289   0.276874  -0.122385   0.125202
     35       0.324308   0.125684   0.358218  -0.342542   0.179380  -0.183413
     36       0.117618  -0.000427  -0.004605   0.005277  -0.221432   0.218266
     37       0.323995   0.000049  -0.009648   0.011604  -0.565547   0.558573
     38       0.046052  -0.008841  -0.017882   0.016514  -0.080176   0.079150
     39       0.147808  -0.060117  -0.175457   0.168683   0.091770  -0.095594
     40      -0.151180   0.064761   0.177616  -0.168348  -0.075324   0.077971
     41      -0.378162   0.148984   0.415999  -0.395215  -0.222691   0.229820
# -----------------------------------------------------------
$ THERMOCHEMISTRY_Energies
   description: The Thermochemistry energies
   geom. index: 6
   prop. index: 1
        Temperature (Kelvin)           :        298.1500000000
        Pressure (atm)                 :          1.0000000000
        Total Mass (AMU)               :         58.1240000000
        Spin Degeneracy                :          1.0000000000
        Electronic Energy (Hartree)    :       -158.2715741386
        Translational Energy (Hartree) :          0.0014162714
        Rotational Energy (Hartree)    :          0.0014162714
        Vibrational Energy (Hartree)   :          0.0030743744
        Number of frequencies          :     42      
        Scaling Factor for frequencies :          1.0000000000
        Vibrational frequencies        :     
                  0    
      0       0.000000
      1       0.000000
      2       0.000000
      3       0.000000
      4       0.000000
      5       0.000000
      6     117.000318
      7     214.125893
      8     248.910817
      9     251.753034
     10     413.378623
     11     714.503397
     12     784.874528
     13     824.548120
     14     930.925371
     15     949.621053
     16     1002.369620
     17     1051.621108
     18     1134.416172
     19     1166.223686
     20     1245.390056
     21     1274.739340
     22     1287.948994
     23     1340.943515
     24     1357.221909
     25     1359.225935
     26     1431.925075
     27     1437.277388
     28     1445.474345
     29     1447.192683
     30     1452.227133
     31     1458.164460
     32     2938.724209
     33     2948.401865
     34     2960.307682
     35     2961.915338
     36     2962.314526
     37     2984.979031
     38     3025.934150
     39     3028.763979
     40     3034.899193
     41     3035.676037
        Zero Point Energy (Hartree)    :          0.1280875113
        Inner Energy (Hartree)         :       -158.1375797101
        Enthalpy (Hartree)             :       -158.1366355010
        Electronic entropy             :          0.0000000000
        Rotational entropy             :          0.0116578069
        Vibrational entropy            :          0.0051523901
        Translational entropy          :          0.0116578069
        Entropy                        :          0.0349129822
        Gibbs Energy (Hartree)         :       -158.1715484833
        Is Linear                      :                 false
# -------------------------------------------------------------
----------------------- !GEOMETRIES! ------------------------
# -------------------------------------------------------------
------------------------ !GEOMETRY! -------------------------
    Number of atoms:    14 
    Geometry Index:     1 
    Coordinates:
               0 C     -1.265080000000    0.193850000000   -0.025430000000
               1 C      0.255200000000    0.179570000000   -0.022990000000
               2 H     -1.655350000000    0.575980000000    0.923260000000
               3 H     -1.653420000000   -0.819310000000   -0.169030000000
               4 H     -1.650210000000    0.823100000000   -0.834170000000
               5 H      0.607390000000   -0.483440000000    0.775850000000
               6 C      0.827700000000    1.581540000000    0.175840000000
               7 H      0.612500000000   -0.237690000000   -0.971680000000
               8 H      0.470410000000    1.998790000000    1.124540000000
               9 H      0.475480000000    2.244560000000   -0.622990000000
              10 C      2.347970000000    1.567260000000    0.178250000000
              11 H      2.733130000000    0.937990000000    0.986960000000
              12 H      2.736320000000    2.580420000000    0.321870000000
              13 H      2.738230000000    1.185160000000   -0.770460000000
------------------------ !GEOMETRY! -------------------------
    Number of atoms:    14 
    Geometry Index:     2 
    Coordinates:
               0 C     -1.287261196167    0.182928705111   -0.026974849624
               1 C      0.244091035563    0.181751309180   -0.022639910048
               2 H     -1.684933272509    0.566857131024    0.924091423719
               3 H     -1.682434472695   -0.833541803177   -0.171226713442
               4 H     -1.679544526422    0.814765994069   -0.837513597448
               5 H      0.605274237833   -0.485388860658    0.777351934201
               6 C      0.838806613286    1.579358086429    0.175485991359
               7 H      0.610270257236   -0.239235622772   -0.973539720945
               8 H      0.472636385876    2.000336585494    1.126393410696
               9 H      0.477601655003    2.246503052420   -0.624493409634
              10 C      2.370153764752    1.578183664779    0.179795942140
              11 H      2.762460575335    0.946329022929    0.990310081930
              12 H      2.765332345594    2.594650829944    0.324065114601
              13 H      2.767816597316    1.194281905229   -0.771285697505
------------------------ !GEOMETRY! -------------------------
    Number of atoms:    14 
    Geometry Index:     3 
    Coordinates:
               0 C     -1.290819804730    0.180208370359   -0.027327192172
               1 C      0.240808438683    0.183466394309   -0.022353513551
               2 H     -1.691172250118    0.565089110480    0.923198123347
               3 H     -1.689087376915   -0.834985048531   -0.171545359108
               4 H     -1.685612632086    0.812992346400   -0.837049464330
               5 H      0.606498779451   -0.484777021345    0.776365945661
               6 C      0.842087971096    1.577642996386    0.175195835297
               7 H      0.611398603446   -0.239028905987   -0.972313496678
               8 H      0.471505577008    2.000131876170    1.125161821886
               9 H      0.476382697002    2.245889608305   -0.623513947243
              10 C      2.373714001313    1.580904485489    0.180150589958
              11 H      2.768522956143    0.948106026518    0.989853952052
              12 H      2.771984407038    2.596094839382    0.324383450517
              13 H      2.774058632668    1.196044922065   -0.770386745636
------------------------ !GEOMETRY! -------------------------
    Number of atoms:    14 
    Geometry Index:     4 
    Coordinates:
               0 C     -1.290216429227    0.179547919975   -0.027384784724
               1 C      0.239788526265    0.184261206481   -0.022195005716
               2 H     -1.691964568833    0.565223145141    0.922420086597
               3 H     -1.690715817415   -0.834439225608   -0.171574982457
               4 H     -1.686267811449    0.813077460739   -0.836135297812
               5 H      0.608198970883   -0.484657365979    0.775154904785
               6 C      0.843107225857    1.576848673656    0.175033621992
               7 H      0.613016426337   -0.239369387132   -0.970997367008
               8 H      0.469885514584    2.000474994621    1.123840332799
               9 H      0.474687957668    2.245769454943   -0.622310105415
              10 C      2.373111684769    1.581564734386    0.180210741090
              11 H      2.769172336879    0.948023920557    0.988948050311
              12 H      2.773612179153    2.595549698927    0.324412668638
              13 H      2.774853804528    1.195904769295   -0.769602863081
------------------------ !GEOMETRY! -------------------------
    Number of atoms:    14 
    Geometry Index:     5 
    Coordinates:
               0 C     -1.288897352817    0.179702616667   -0.027338330384
               1 C      0.239891658194    0.184290355527   -0.022155174744
               2 H     -1.691175471952    0.565770083590    0.922057969520
               3 H     -1.690569651386   -0.833715036029   -0.171556689811
               4 H     -1.685400226868    0.813636245146   -0.835522889669
               5 H      0.609378023409   -0.484907717257    0.774442202746
               6 C      0.843003949695    1.576820171414    0.174991108086
               7 H      0.614151025611   -0.239907456242   -0.970282233185
               8 H      0.468749151589    2.001015329025    1.123121133562
               9 H      0.473512662128    2.246019791413   -0.621602638863
              10 C      2.371793017255    1.581409564557    0.180166258749
              11 H      2.768300825129    0.947467547454    0.988341898704
              12 H      2.773465589452    2.594825796090    0.324393558376
              13 H      2.774066800562    1.195352708645   -0.769236173085
------------------------ !GEOMETRY! -------------------------
    Number of atoms:    14 
    Geometry Index:     6 
    Coordinates:
               0 C     -1.288415585737    0.179863361920   -0.027305271387
               1 C      0.240127088905    0.184124760297   -0.022159290738
               2 H     -1.690788636299    0.565968976061    0.922010020031
               3 H     -1.690401920080   -0.833455119212   -0.171570222941
               4 H     -1.684985387134    0.813891226674   -0.835353949654
               5 H      0.609755817693   -0.485066330602    0.774303894419
               6 C      0.842768576358    1.576986140960    0.174993902185
               7 H      0.614519587092   -0.240158544998   -0.970133370755
               8 H      0.468379472719    2.001267599759    1.122970131346
               9 H      0.473136503292    2.246178376920   -0.621466790715
              10 C      2.371311285470    1.581248504442    0.180134217521
              11 H      2.767884367075    0.947214131250    0.988176225182
              12 H      2.773297705424    2.594565946535    0.324406211550
              13 H      2.773681125223    1.195150969994   -0.769185706043
