8
Coordinates from ORCA-job ethane_PBE_6-311G_d-p_ E -79.723255512005
  C      -1.069770      0.342760      0.000000
  C       0.442290      0.342760     -0.000000
  H      -1.454140      0.727780      0.949230
  H      -1.454140     -0.671810     -0.141180
  H      -1.454140      0.972310     -0.808050
  H       0.826660     -0.286790      0.808050
  H       0.826660      1.357330      0.141180
  H       0.826660     -0.042260     -0.949230
8
Coordinates from ORCA-job ethane_PBE_6-311G_d-p_ E -79.723878937077
  C      -1.079122      0.342757      0.000002
  C       0.451642      0.342763     -0.000002
  H      -1.474318      0.728828      0.951787
  H      -1.474318     -0.674550     -0.141568
  H      -1.474327      0.974009     -0.810226
  H       0.846847     -0.288489      0.810226
  H       0.846838      1.360070      0.141568
  H       0.846838     -0.043308     -0.951787
8
Coordinates from ORCA-job ethane_PBE_6-311G_d-p_ E -79.723915466658
  C      -1.080546      0.342756      0.000004
  C       0.453066      0.342764     -0.000004
  H      -1.480001      0.728428      0.950784
  H      -1.479997     -0.673480     -0.141425
  H      -1.480013      0.973344     -0.809370
  H       0.852533     -0.287824      0.809370
  H       0.852517      1.359000      0.141425
  H       0.852521     -0.042908     -0.950784
8
Coordinates from ORCA-job ethane_PBE_6-311G_d-p_ E -79.723923525569
  C      -1.080190      0.342756      0.000007
  C       0.452710      0.342764     -0.000007
  H      -1.481998      0.728100      0.949964
  H      -1.481991     -0.672604     -0.141306
  H      -1.482010      0.972799     -0.808670
  H       0.854530     -0.287279      0.808670
  H       0.854511      1.358124      0.141306
  H       0.854518     -0.042580     -0.949964
8
Coordinates from ORCA-job ethane_PBE_6-311G_d-p_ E -79.723925844126
  C      -1.079434      0.342756      0.000008
  C       0.451954      0.342764     -0.000008
  H      -1.482467      0.727920      0.949514
  H      -1.482458     -0.672123     -0.141242
  H      -1.482479      0.972500     -0.808286
  H       0.854999     -0.286980      0.808286
  H       0.854978      1.357643      0.141242
  H       0.854987     -0.042400     -0.949514
8
Coordinates from ORCA-job ethane_PBE_6-311G_d-p_ E -79.723926001786
  C      -1.079177      0.342756      0.000009
  C       0.451697      0.342764     -0.000009
  H      -1.482277      0.727913      0.949498
  H      -1.482268     -0.672104     -0.141240
  H      -1.482289      0.972488     -0.808272
  H       0.854809     -0.286968      0.808272
  H       0.854788      1.357624      0.141240
  H       0.854797     -0.042393     -0.949498
