5
Coordinates from ORCA-job methane_PBE_STO-3G E -39.967715920458
  C      -0.857070      0.342760      0.000000
  H       0.235130      0.342760     -0.000000
  H      -1.221130      0.729800      0.954230
  H      -1.221130     -0.677150     -0.141920
  H      -1.221130      0.975630     -0.812300
5
Coordinates from ORCA-job methane_PBE_STO-3G E -39.967970093969
  C      -0.857068      0.342760      0.000002
  H       0.245905      0.342757     -0.000002
  H      -1.224725      0.733622      0.963645
  H      -1.224720     -0.687212     -0.143323
  H      -1.224723      0.981873     -0.820312
5
Coordinates from ORCA-job methane_PBE_STO-3G E -39.967974836114
  C      -0.857067      0.342761      0.000002
  H       0.244642      0.342756     -0.000002
  H      -1.224304      0.733175      0.962540
  H      -1.224298     -0.686032     -0.143159
  H      -1.224303      0.981141     -0.819371
5
Coordinates from ORCA-job methane_PBE_STO-3G E -39.967974838938
  C      -0.857067      0.342761      0.000003
  H       0.244611      0.342755     -0.000002
  H      -1.224294      0.733164      0.962512
  H      -1.224287     -0.686002     -0.143155
  H      -1.224293      0.981122     -0.819347
