17
Coordinates from ORCA-job pentane_PBE_cc-pVDZ
  C   -1.36692763771423      0.12143618849954     -0.03869425571384
  C   0.16370829904070      0.09678800826755     -0.03373043991878
  H   -1.76739524475321      0.52117581986386      0.91684698376395
  H   -1.79375050768632     -0.89188688648086     -0.18149608642792
  H   -1.75752637658970      0.76651737062573     -0.85388545750779
  H   0.52358641686071     -0.58549353983395      0.76913206365202
  C   0.79524349403484      1.48000715241500      0.16153454084074
  H   0.53331755645191     -0.34129009762687     -0.98819086261317
  H   0.42748337107825      1.92053544483500      1.11706955880747
  H   0.43590849445967      2.16476102331374     -0.64128714875331
  C   2.32835212084739      1.46822902500569      0.16706578850939
  H   2.68518425334371      0.78462924765771      0.97015740370238
  C   2.94702309007595      2.85506502732883      0.36091813293147
  H   2.69322344052894      1.02614152346634     -0.78737019207023
  H   2.62745617375830      3.30767142260930      1.32326925414643
  H   2.63896380866308      3.55090934210120     -0.44785904503474
  H   4.05502924760002      2.81428392795220      0.36233976168595
