17
Coordinates from ORCA-job pentane_PBE_6-311G_d-p_
  C   -1.36735745337536      0.12223988460754     -0.03865293038866
  C   0.16433663930675      0.09639348670492     -0.03356214223067
  H   -1.76248523839852      0.51901102729797      0.91071752588757
  H   -1.78959785780300     -0.88457292821458     -0.18032863756297
  H   -1.75227540099760      0.76220942974766     -0.84931672181380
  H   0.52003567695420     -0.57943869815011      0.76510170196654
  C   0.79483805734617      1.48064254128632      0.16162821104716
  H   0.52978210425265     -0.33701661813127     -0.98208516960633
  H   0.43120167298473      1.91622858398096      1.11141544649211
  H   0.43912325837652      2.15883864750860     -0.63695308510217
  C   2.32853042856807      1.46750640154759      0.16675441508205
  H   2.68204483141316      0.79051973333934      0.96540087147872
  C   2.94645600873711      2.85574371777249      0.36106541364682
  H   2.68968300323830      1.03083704119033     -0.78189328884351
  H   2.62843508264638      3.30206748085561      1.31732665695976
  H   2.63957619946650      3.54444367357612     -0.44292265863472
  H   4.04655298728395      2.81382659508051      0.36212439162210
