-------------------------------------------------------------
----------------------- !PROPERTIES! ------------------------
-------------------------------------------------------------
# -----------------------------------------------------------
$ SCF_Energy
   description: The SCF energy
   geom. index: 1
   prop. index: 1
        SCF Energy:     -119.0010999752
# -----------------------------------------------------------
$ DFT_Energy
   description: The DFT energy
   geom. index: 1
   prop. index: 1
   Number of Alpha Electrons        13.0000238715 
   Number of Alpha Electrons        13.0000238715 
   Total nuber of  Electrons        26.0000477429 
   Exchange energy                 -18.2694337620 
   Correlation energy               -0.8213041968 
   Correlantion energy NL            0.0000000000 
   Exchange-Correlation energy     -19.0907379588 
   Embedding correction              0.0000000000 
# -----------------------------------------------------------
$ SCF_Energy
   description: The SCF energy
   geom. index: 2
   prop. index: 1
        SCF Energy:     -119.0016060333
# -----------------------------------------------------------
$ DFT_Energy
   description: The DFT energy
   geom. index: 2
   prop. index: 1
   Number of Alpha Electrons        13.0000230403 
   Number of Alpha Electrons        13.0000230403 
   Total nuber of  Electrons        26.0000460807 
   Exchange energy                 -18.2472861378 
   Correlation energy               -0.8198324757 
   Correlantion energy NL            0.0000000000 
   Exchange-Correlation energy     -19.0671186135 
   Embedding correction              0.0000000000 
# -----------------------------------------------------------
$ SCF_Energy
   description: The SCF energy
   geom. index: 3
   prop. index: 1
        SCF Energy:     -119.0016433176
# -----------------------------------------------------------
$ DFT_Energy
   description: The DFT energy
   geom. index: 3
   prop. index: 1
   Number of Alpha Electrons        13.0000224672 
   Number of Alpha Electrons        13.0000224672 
   Total nuber of  Electrons        26.0000449344 
   Exchange energy                 -18.2445350449 
   Correlation energy               -0.8196276114 
   Correlantion energy NL            0.0000000000 
   Exchange-Correlation energy     -19.0641626564 
   Embedding correction              0.0000000000 
# -----------------------------------------------------------
$ SCF_Energy
   description: The SCF energy
   geom. index: 4
   prop. index: 1
        SCF Energy:     -119.0016518233
# -----------------------------------------------------------
$ DFT_Energy
   description: The DFT energy
   geom. index: 4
   prop. index: 1
   Number of Alpha Electrons        13.0000222152 
   Number of Alpha Electrons        13.0000222152 
   Total nuber of  Electrons        26.0000444303 
   Exchange energy                 -18.2448238986 
   Correlation energy               -0.8196566375 
   Correlantion energy NL            0.0000000000 
   Exchange-Correlation energy     -19.0644805361 
   Embedding correction              0.0000000000 
# -----------------------------------------------------------
$ SCF_Energy
   description: The SCF energy
   geom. index: 5
   prop. index: 1
        SCF Energy:     -119.0016537127
# -----------------------------------------------------------
$ DFT_Energy
   description: The DFT energy
   geom. index: 5
   prop. index: 1
   Number of Alpha Electrons        13.0000221521 
   Number of Alpha Electrons        13.0000221521 
   Total nuber of  Electrons        26.0000443041 
   Exchange energy                 -18.2454966226 
   Correlation energy               -0.8197200677 
   Correlantion energy NL            0.0000000000 
   Exchange-Correlation energy     -19.0652166903 
   Embedding correction              0.0000000000 
# -----------------------------------------------------------
$ SCF_Energy
   description: The SCF energy
   geom. index: 6
   prop. index: 1
        SCF Energy:     -119.0016538536
# -----------------------------------------------------------
$ DFT_Energy
   description: The DFT energy
   geom. index: 6
   prop. index: 1
   Number of Alpha Electrons        13.0000221680 
   Number of Alpha Electrons        13.0000221680 
   Total nuber of  Electrons        26.0000443360 
   Exchange energy                 -18.2456766526 
   Correlation energy               -0.8197386678 
   Correlantion energy NL            0.0000000000 
   Exchange-Correlation energy     -19.0654153204 
   Embedding correction              0.0000000000 
# -----------------------------------------------------------
$ SCF_Electric_Properties
   description: The SCF Calculated Electric Properties
   geom. index: 6
   prop. index: 1
       Filename                          : propane_PBE_aug-cc-pVTZ.scfp 
       Do Dipole Moment Calculation      : true 
       Do Quadrupole Moment Calculation  : false 
       Do Polarizability Calculation     : false 
** Dipole moment part of electric properties **
        Magnitude of dipole moment (Debye) :        0.0978211695
        Electronic Contribution:
                  0    
      0       0.263656
      1      -0.404710
      2      -0.054504
        Nuclear Contribution:
                  0    
      0      -0.242889
      1       0.372589
      2       0.050259
        Total Dipole moment:
                  0    
      0       0.020767
      1      -0.032122
      2      -0.004245
# -----------------------------------------------------------
$ Hessian
   description: Details about the Hessian
   geom. index: 6
   prop. index: 1
Normal modes:
Number of Rows: 33 Number of Columns: 33
                  0          1          2          3          4          5    
      0       0.000000   0.000000   0.000000   0.000000   0.000000   0.000000
      1       0.000000   0.000000   0.000000   0.000000   0.000000   0.000000
      2       0.000000   0.000000   0.000000   0.000000   0.000000   0.000000
      3       0.000000   0.000000   0.000000   0.000000   0.000000   0.000000
      4       0.000000   0.000000   0.000000   0.000000   0.000000   0.000000
      5       0.000000   0.000000   0.000000   0.000000   0.000000   0.000000
      6       0.000000   0.000000   0.000000   0.000000   0.000000   0.000000
      7       0.000000   0.000000   0.000000   0.000000   0.000000   0.000000
      8       0.000000   0.000000   0.000000   0.000000   0.000000   0.000000
      9       0.000000   0.000000   0.000000   0.000000   0.000000   0.000000
     10       0.000000   0.000000   0.000000   0.000000   0.000000   0.000000
     11       0.000000   0.000000   0.000000   0.000000   0.000000   0.000000
     12       0.000000   0.000000   0.000000   0.000000   0.000000   0.000000
     13       0.000000   0.000000   0.000000   0.000000   0.000000   0.000000
     14       0.000000   0.000000   0.000000   0.000000   0.000000   0.000000
     15       0.000000   0.000000   0.000000   0.000000   0.000000   0.000000
     16       0.000000   0.000000   0.000000   0.000000   0.000000   0.000000
     17       0.000000   0.000000   0.000000   0.000000   0.000000   0.000000
     18       0.000000   0.000000   0.000000   0.000000   0.000000   0.000000
     19       0.000000   0.000000   0.000000   0.000000   0.000000   0.000000
     20       0.000000   0.000000   0.000000   0.000000   0.000000   0.000000
     21       0.000000   0.000000   0.000000   0.000000   0.000000   0.000000
     22       0.000000   0.000000   0.000000   0.000000   0.000000   0.000000
     23       0.000000   0.000000   0.000000   0.000000   0.000000   0.000000
     24       0.000000   0.000000   0.000000   0.000000   0.000000   0.000000
     25       0.000000   0.000000   0.000000   0.000000   0.000000   0.000000
     26       0.000000   0.000000   0.000000   0.000000   0.000000   0.000000
     27       0.000000   0.000000   0.000000   0.000000   0.000000   0.000000
     28       0.000000   0.000000   0.000000   0.000000   0.000000   0.000000
     29       0.000000   0.000000   0.000000   0.000000   0.000000   0.000000
     30       0.000000   0.000000   0.000000   0.000000   0.000000   0.000000
     31       0.000000   0.000000   0.000000   0.000000   0.000000   0.000000
     32       0.000000   0.000000   0.000000   0.000000   0.000000   0.000000
                  6          7          8          9         10         11    
      0       0.000056   0.000369   0.113307  -0.000171   0.213693  -0.000255
      1       0.004025   0.005481   0.137430  -0.002364   0.066378   0.009246
      2      -0.029955  -0.038356   0.019271   0.016903   0.009671  -0.065393
      3      -0.000061  -0.000182   0.092234  -0.000280  -0.104398   0.000416
      4       0.000095  -0.012691  -0.142023  -0.010457   0.160686  -0.000064
      5       0.000112   0.091309  -0.019286   0.076829   0.021516   0.000026
      6      -0.015728  -0.105426   0.282360  -0.275387   0.053535   0.379510
      7       0.380012  -0.331014   0.276732   0.064302  -0.100835  -0.054053
      8      -0.194348   0.058892   0.031403  -0.127944   0.011706   0.124586
      9      -0.001192   0.001215  -0.208566   0.000108   0.601993   0.001075
     10      -0.049059   0.062009   0.271567   0.015959  -0.092491  -0.027776
     11       0.361396  -0.453561   0.038235  -0.117684  -0.009790   0.200571
     12       0.017066   0.106028   0.281419   0.276438   0.052004  -0.384146
     13      -0.315118   0.304713   0.271858  -0.028169  -0.094119   0.017650
     14      -0.288214   0.145670   0.043929  -0.138309  -0.037028   0.131049
     15      -0.006888  -0.052333   0.080626   0.250841  -0.099347  -0.300358
     16      -0.004191   0.057506  -0.126133  -0.347203   0.152068  -0.191758
     17      -0.000454   0.173617  -0.003478  -0.326436   0.015251  -0.027308
     18      -0.000008  -0.000196  -0.173234   0.000014  -0.149760   0.000309
     19      -0.004066   0.005132  -0.045142  -0.002242  -0.164991  -0.009023
     20       0.029863  -0.038475  -0.006609   0.016864  -0.022818   0.065410
     21       0.006805   0.051417   0.080085  -0.248613  -0.097588   0.299031
     22       0.004370  -0.102288  -0.121329   0.422079   0.152545   0.190379
     23       0.000775   0.152229  -0.031127  -0.223781   0.025147   0.026892
     24       0.312154   0.333651  -0.369586   0.072352   0.068567   0.124103
     25      -0.191756  -0.050291  -0.139774   0.285785  -0.088761   0.375404
     26       0.221605   0.098558  -0.027326  -0.096304   0.012587  -0.078821
     27      -0.314159  -0.336514  -0.368053  -0.071287   0.067969  -0.126673
     28       0.126264   0.022022  -0.140990  -0.249719  -0.085931  -0.342881
     29       0.261351   0.104708  -0.014179  -0.169827  -0.036915  -0.177319
     30       0.002104   0.002063  -0.163236   0.000751  -0.164964   0.001855
     31       0.048833   0.062094   0.300688   0.016449  -0.582110   0.031136
     32      -0.362346  -0.452636   0.041467  -0.117535  -0.080686  -0.200154
                 12         13         14         15         16         17    
      0      -0.023550  -0.174795  -0.042302  -0.000529  -0.000237   0.008576
      1       0.083194   0.013283   0.130677  -0.015792  -0.009836  -0.053937
      2       0.011609   0.001278   0.017345   0.117853   0.072903  -0.007194
      3       0.032250   0.223077   0.104181   0.000885  -0.000245   0.150447
      4       0.020673   0.142068  -0.160633   0.024069  -0.000168   0.095825
      5       0.002926   0.020158  -0.021032  -0.179398  -0.000032   0.013637
      6      -0.275483  -0.201537  -0.302228  -0.344277  -0.176115  -0.063753
      7      -0.174859   0.032871  -0.207652   0.102261   0.058160   0.100067
      8       0.012766  -0.013822   0.044144  -0.088039  -0.030918  -0.090871
      9       0.468747  -0.211650   0.394118   0.001328   0.000716  -0.230582
     10      -0.124594   0.029452  -0.063996   0.031827   0.014797   0.043907
     11      -0.016587   0.002923  -0.006933  -0.235677  -0.109920   0.005022
     12      -0.270186  -0.200699  -0.302683   0.344157   0.176591  -0.064157
     13      -0.165088   0.028171  -0.187863  -0.076018  -0.048139   0.072335
     14      -0.062435   0.020320  -0.099551  -0.109645  -0.044079   0.113605
     15      -0.178226   0.464330   0.092541  -0.195386  -0.539112  -0.520070
     16      -0.113358   0.295933  -0.145284   0.286915  -0.343227  -0.331165
     17      -0.016105   0.042162  -0.002171   0.137854  -0.048649  -0.046983
     18       0.066492  -0.060345  -0.102427  -0.000657   0.000392  -0.045940
     19      -0.055896  -0.163028   0.092455  -0.015789   0.009901   0.030163
     20      -0.007703  -0.022532   0.011905   0.117865  -0.072887   0.003798
     21      -0.182126   0.464681   0.092002   0.194931   0.539860  -0.518483
     22      -0.115883   0.295831  -0.139221  -0.314345   0.343981  -0.329953
     23      -0.016443   0.042043  -0.036217   0.057656   0.048705  -0.046933
     24      -0.269664  -0.055553   0.306493   0.061694  -0.024392   0.051750
     25      -0.172974  -0.196459   0.180646   0.361040  -0.185895  -0.107762
     26      -0.062348  -0.009488   0.099583  -0.051086   0.012657   0.089919
     27      -0.268551  -0.055007   0.307586  -0.060110   0.024111   0.053124
     28      -0.178138  -0.191133   0.200696  -0.333747   0.176116  -0.079557
     29       0.013551  -0.043514  -0.044319  -0.146377   0.062341  -0.114705
     30       0.079523  -0.060831  -0.104680   0.001250  -0.000588  -0.055293
     31       0.473278  -0.203197  -0.382058   0.031573  -0.014563  -0.226409
     32       0.066197  -0.027563  -0.052448  -0.235779   0.110050  -0.031082
                 18         19         20         21         22         23    
      0       0.102141   0.101923  -0.005502   0.000089  -0.007530  -0.000153
      1       0.013609  -0.004449  -0.014159  -0.004481   0.034478  -0.004517
      2       0.002228  -0.000214  -0.000769   0.035049   0.004903   0.031102
      3      -0.043366  -0.006267  -0.028536   0.000740   0.031416   0.000112
      4      -0.027632   0.009439   0.044146  -0.001534   0.019793  -0.004546
      5      -0.003898   0.001251   0.005917  -0.000191   0.002859   0.030079
      6      -0.366532  -0.368011  -0.057474   0.233096   0.136931   0.239361
      7      -0.107544  -0.045119   0.218063   0.260332  -0.372050   0.264471
      8      -0.125609  -0.163933  -0.114753   0.001494   0.225175   0.003325
      9      -0.335364  -0.364607   0.153833  -0.001799  -0.242505   0.003982
     10       0.177225   0.174998  -0.064618   0.068291   0.114603   0.065135
     11       0.022721   0.022116  -0.024498  -0.493112   0.010823  -0.489342
     12      -0.367154  -0.369269  -0.073671  -0.230054   0.135518  -0.241204
     13      -0.136530  -0.086725   0.163188  -0.258879  -0.302862  -0.250498
     14       0.089879   0.143310   0.163352  -0.076622  -0.315958  -0.063634
     15       0.109722  -0.000353   0.253393   0.038874  -0.076123   0.023536
     16       0.069721   0.002625  -0.336790   0.040681  -0.047280  -0.036321
     17       0.009852  -0.010468  -0.410776   0.017420  -0.005738  -0.003121
     18       0.055153  -0.037833   0.015204  -0.000497   0.028617   0.000053
     19       0.087063  -0.093102  -0.000796   0.004984  -0.021074  -0.004304
     20       0.012088  -0.012843  -0.001216  -0.034949  -0.002902   0.031156
     21       0.109671  -0.000550   0.247729  -0.054094  -0.076594  -0.025666
     22       0.069780  -0.000451  -0.436198  -0.015325  -0.047161   0.040255
     23       0.009923   0.010817   0.307588  -0.014058  -0.007688   0.003145
     24      -0.266589   0.212585  -0.136636   0.340747  -0.250370  -0.337610
     25      -0.297133   0.324008   0.161332   0.088494   0.300003  -0.104195
     26       0.068783  -0.110416  -0.121279   0.058138  -0.235696  -0.048752
     27      -0.265098   0.210605  -0.160242  -0.328087  -0.256742   0.334725
     28      -0.267193   0.282176   0.116451  -0.111326   0.225569   0.115550
     29      -0.148390   0.195118   0.159894   0.014105   0.304734  -0.011969
     30       0.023816  -0.009408  -0.002520  -0.002635   0.004268   0.002737
     31      -0.378651   0.398395  -0.169272  -0.059984  -0.266383   0.064879
     32      -0.051308   0.054127  -0.006379   0.493727  -0.033556  -0.489916
                 24         25         26         27         28         29    
      0       0.004779   0.009698  -0.034698  -0.033369  -0.000146  -0.000414
      1       0.030108  -0.010486   0.006925   0.003195  -0.003466  -0.009857
      2       0.004343  -0.001187   0.000660   0.000194   0.025516   0.064929
      3      -0.036200  -0.034937   0.000814  -0.010180   0.000633  -0.000016
      4       0.055873   0.053933   0.000946   0.015686   0.010858  -0.000059
      5       0.007704   0.006486   0.000050   0.001998  -0.083491   0.000449
      6       0.110516  -0.053827   0.143651   0.133494   0.071256   0.174463
      7      -0.318750   0.053598  -0.157356  -0.144471  -0.077385  -0.189109
      8       0.185766   0.138012  -0.379886  -0.347166  -0.173918  -0.426938
      9      -0.222808  -0.009218   0.123198   0.130185   0.000242   0.004120
     10       0.111622  -0.018070   0.327059   0.337398  -0.000543   0.007848
     11       0.010293  -0.002395   0.044686   0.046145   0.008484   0.019201
     12       0.108451  -0.053911   0.141706   0.131615  -0.069748  -0.173592
     13      -0.262086   0.090198  -0.253999  -0.232554   0.120335   0.298925
     14      -0.263967  -0.121434   0.327066   0.298484  -0.146964  -0.367311
     15       0.150614   0.208609  -0.000390   0.060208   0.208352  -0.003409
     16      -0.197942  -0.398851  -0.003652  -0.115453  -0.392099   0.000495
     17      -0.274925   0.502209   0.003034   0.147489   0.457323  -0.002571
     18      -0.029597   0.005631  -0.007869   0.011102  -0.000065  -0.000758
     19       0.008096  -0.012890  -0.033732   0.031929  -0.003333   0.008975
     20       0.001230  -0.001497  -0.004367   0.004206   0.025371  -0.064051
     21       0.148517   0.209183  -0.000791   0.060964  -0.215967   0.003470
     22      -0.263534  -0.246195  -0.002210  -0.071385   0.260457   0.000112
     23       0.213310  -0.579693  -0.002847  -0.171289   0.554242  -0.002757
     24       0.216381  -0.042890  -0.129356   0.121481   0.062554  -0.151077
     25      -0.249960   0.058873   0.162811  -0.155622  -0.082778   0.199748
     26       0.194956   0.136257   0.375322  -0.353583  -0.174425   0.422540
     27       0.225013  -0.042546  -0.126706   0.118751  -0.059946   0.147807
     28      -0.187086   0.095360   0.259750  -0.246375   0.124704  -0.308667
     29      -0.252488  -0.118590  -0.322465   0.302630  -0.144554   0.359561
     30      -0.009615   0.018242   0.346215  -0.370081  -0.001773   0.012363
     31       0.246743   0.000982  -0.024258   0.023020  -0.001066   0.001854
     32       0.028844   0.000320  -0.001317   0.001052   0.008322  -0.017535
                 30         31         32    
      0      -0.000484  -0.005035  -0.004864
      1      -0.010341  -0.065747  -0.061130
      2       0.057963  -0.009956  -0.010744
      3       0.000090  -0.000294   0.006457
      4      -0.005597  -0.000551  -0.009719
      5       0.038451  -0.000033  -0.002787
      6       0.158168  -0.090916  -0.093652
      7      -0.166501   0.080255   0.080701
      8      -0.377299   0.227490   0.228138
      9       0.009115   0.237612   0.221824
     10       0.020458   0.577521   0.536987
     11       0.016103   0.078777   0.072964
     12      -0.161851  -0.083912  -0.078922
     13       0.270148   0.128505   0.116490
     14      -0.334383  -0.187216  -0.172116
     15      -0.093076  -0.001512  -0.029344
     16       0.175740   0.001394   0.055765
     17      -0.208046  -0.002197  -0.067982
     18       0.002376  -0.059482   0.061639
     19      -0.008946   0.021530  -0.021922
     20       0.059338   0.003829  -0.005273
     21       0.092384  -0.001396  -0.036968
     22      -0.111001   0.000471   0.044108
     23      -0.240271   0.001930   0.098585
     24       0.135743   0.061483  -0.066979
     25      -0.185815  -0.093297   0.105501
     26      -0.386355  -0.220059   0.243579
     27      -0.136124   0.053719  -0.052846
     28       0.294176  -0.137208   0.141738
     29      -0.338974   0.174413  -0.178467
     30      -0.027967   0.597189  -0.616561
     31      -0.000699  -0.024195   0.024138
     32       0.013328   0.000265  -0.000639
# -----------------------------------------------------------
$ THERMOCHEMISTRY_Energies
   description: The Thermochemistry energies
   geom. index: 6
   prop. index: 1
        Temperature (Kelvin)           :        298.1500000000
        Pressure (atm)                 :          1.0000000000
        Total Mass (AMU)               :         44.0970000000
        Spin Degeneracy                :          1.0000000000
        Electronic Energy (Hartree)    :       -119.0016538536
        Translational Energy (Hartree) :          0.0014162714
        Rotational Energy (Hartree)    :          0.0014162714
        Vibrational Energy (Hartree)   :          0.0017934220
        Number of frequencies          :     33      
        Scaling Factor for frequencies :          1.0000000000
        Vibrational frequencies        :     
                  0    
      0       0.000000
      1       0.000000
      2       0.000000
      3       0.000000
      4       0.000000
      5       0.000000
      6     214.735116
      7     257.657239
      8     354.325923
      9     723.629217
     10     858.905012
     11     878.773449
     12     898.070803
     13     1042.297580
     14     1137.567809
     15     1168.679940
     16     1272.318528
     17     1315.078550
     18     1346.906541
     19     1365.202521
     20     1435.441045
     21     1435.695430
     22     1442.326919
     23     1453.323803
     24     1458.235382
     25     2950.812837
     26     2954.623475
     27     2957.800360
     28     2974.073705
     29     3015.538299
     30     3024.849757
     31     3027.213093
     32     3029.197801
        Zero Point Energy (Hartree)    :          0.1002240667
        Inner Energy (Hartree)         :       -118.8968038220
        Enthalpy (Hartree)             :       -118.8958596130
        Electronic entropy             :          0.0000000000
        Rotational entropy             :          0.0107815773
        Vibrational entropy            :          0.0028176610
        Translational entropy          :          0.0107815773
        Entropy                        :          0.0313108679
        Gibbs Energy (Hartree)         :       -118.9271704809
        Is Linear                      :                 false
# -------------------------------------------------------------
----------------------- !GEOMETRIES! ------------------------
# -------------------------------------------------------------
------------------------ !GEOMETRY! -------------------------
    Number of atoms:    11 
    Geometry Index:     1 
    Coordinates:
               0 C     -1.152140000000    0.231070000000   -0.018920000000
               1 C      0.366720000000    0.193200000000   -0.017650000000
               2 H     -1.535600000000    0.623920000000    0.928200000000
               3 H     -1.556550000000   -0.776480000000   -0.157440000000
               4 H     -1.528180000000    0.862680000000   -0.830140000000
               5 H      0.714460000000   -0.466870000000    0.784710000000
               6 C      0.962020000000    1.578010000000    0.172880000000
               7 H      0.721840000000   -0.229430000000   -0.964050000000
               8 H      0.645370000000    2.013440000000    1.126050000000
               9 H      0.652810000000    2.252170000000   -0.632290000000
              10 H      2.055200000000    1.524570000000    0.170250000000
------------------------ !GEOMETRY! -------------------------
    Number of atoms:    11 
    Geometry Index:     2 
    Coordinates:
               0 C     -1.164007665834    0.220968319505   -0.020287424630
               1 C      0.365481446604    0.195192832615   -0.017496439005
               2 H     -1.553502150186    0.616488435539    0.928833703783
               3 H     -1.575786763785   -0.788958328724   -0.159006839045
               4 H     -1.546285936154    0.855437734816   -0.832887691602
               5 H      0.717686724636   -0.471807520006    0.784540785195
               6 C      0.976288882711    1.584539029506    0.173812237274
               7 H      0.724880289499   -0.234196542571   -0.965481192312
               8 H      0.659221040571    2.026227515632    1.129484989457
               9 H      0.667292624854    2.265621983611   -0.632207050434
              10 H      2.074681507084    1.536766540077    0.172294921319
------------------------ !GEOMETRY! -------------------------
    Number of atoms:    11 
    Geometry Index:     3 
    Coordinates:
               0 C     -1.165892914425    0.217858016504   -0.020669270553
               1 C      0.364950972740    0.196070969944   -0.017490474603
               2 H     -1.557355067910    0.615016113587    0.927816426755
               3 H     -1.581767195150   -0.790424049846   -0.159017511272
               4 H     -1.550353283915    0.853493394328   -0.832337075374
               5 H      0.718990770237   -0.473507084873    0.782620466164
               6 C      0.979979684796    1.584972785166    0.173879301988
               7 H      0.725985451769   -0.236256417600   -0.964386134639
               8 H      0.662106004784    2.029092731520    1.129003928155
               9 H      0.670771325382    2.268389117634   -0.631091838732
              10 H      2.078534251691    1.541574423635    0.173272182110
------------------------ !GEOMETRY! -------------------------
    Number of atoms:    11 
    Geometry Index:     4 
    Coordinates:
               0 C     -1.165314867971    0.217021419964   -0.020736044544
               1 C      0.364835899021    0.196293257729   -0.017562777203
               2 H     -1.557589472688    0.615491948599    0.927028504390
               3 H     -1.584064397890   -0.789817538237   -0.158737121911
               4 H     -1.550786483131    0.853496719837   -0.831460375501
               5 H      0.719950693486   -0.474728816346    0.781051074426
               6 C      0.980543883359    1.584124988426    0.173764987616
               7 H      0.726762967063   -0.237732774104   -0.963497286231
               8 H      0.661731585468    2.029543805618    1.128132906236
               9 H      0.670940175964    2.268681368489   -0.630275404194
              10 H      2.078940017320    1.543905620024    0.173891536917
------------------------ !GEOMETRY! -------------------------
    Number of atoms:    11 
    Geometry Index:     5 
    Coordinates:
               0 C     -1.164319903846    0.217159902566   -0.020679174573
               1 C      0.364954229569    0.196135362366   -0.017658826758
               2 H     -1.556814784822    0.616401803558    0.926672369527
               3 H     -1.584608350233   -0.788953956400   -0.158457321184
               4 H     -1.550160777840    0.854087506865   -0.830875835465
               5 H      0.720571770943   -0.475538457919    0.780184562741
               6 C      0.980019046944    1.583297510864    0.173653269193
               7 H      0.727249300302   -0.238620909522   -0.963116639967
               8 H      0.660538410869    2.029268203845    1.127541694286
               9 H      0.670153440079    2.268296479585   -0.629909680959
              10 H      2.078367618035    1.544746554193    0.174245583159
------------------------ !GEOMETRY! -------------------------
    Number of atoms:    11 
    Geometry Index:     6 
    Coordinates:
               0 C     -1.163984044059    0.217373579691   -0.020634177117
               1 C      0.365060944812    0.195975315529   -0.017708684768
               2 H     -1.556445266712    0.616760303889    0.926653992706
               3 H     -1.584525338459   -0.788666260859   -0.158346342620
               4 H     -1.549850386767    0.854347439440   -0.830763056073
               5 H      0.720744601462   -0.475772804967    0.780026969882
               6 C      0.979682462968    1.583085822146    0.173626594618
               7 H      0.727367413413   -0.238815871650   -0.963132947906
               8 H      0.660029635050    2.029108366021    1.127417066294
               9 H      0.669810154611    2.268105095989   -0.629896559758
              10 H      2.078059823682    1.544779014771    0.174357144742
