11
Coordinates from ORCA-job propane_PBE_cc-pVDZ E -118.955742060754
  C      -1.152140      0.231070     -0.018920
  C       0.366720      0.193200     -0.017650
  H      -1.535600      0.623920      0.928200
  H      -1.556550     -0.776480     -0.157440
  H      -1.528180      0.862680     -0.830140
  H       0.714460     -0.466870      0.784710
  C       0.962020      1.578010      0.172880
  H       0.721840     -0.229430     -0.964050
  H       0.645370      2.013440      1.126050
  H       0.652810      2.252170     -0.632290
  H       2.055200      1.524570      0.170250
11
Coordinates from ORCA-job propane_PBE_cc-pVDZ E -118.957404345533
  C      -1.166323      0.219824     -0.020465
  C       0.366134      0.194177     -0.017618
  H      -1.560296      0.618659      0.936931
  H      -1.582010     -0.798813     -0.160400
  H      -1.552975      0.859767     -0.840150
  H       0.721677     -0.479088      0.791550
  C       0.978293      1.586155      0.174042
  H       0.729011     -0.239349     -0.974081
  H       0.659042      2.032617      1.138187
  H       0.667090      2.274075     -0.638877
  H       2.086307      1.538257      0.172482
11
Coordinates from ORCA-job propane_PBE_cc-pVDZ E -118.957456479844
  C      -1.167801      0.216904     -0.020830
  C       0.365473      0.195239     -0.017564
  H      -1.564610      0.617227      0.936103
  H      -1.587631     -0.800533     -0.160488
  H      -1.557455      0.857999     -0.839749
  H       0.723123     -0.481065      0.789842
  C       0.981631      1.586303      0.174071
  H       0.730325     -0.241615     -0.973194
  H       0.662059      2.035928      1.137951
  H       0.670596      2.277288     -0.637875
  H       2.090240      1.542605      0.173333
11
Coordinates from ORCA-job propane_PBE_cc-pVDZ E -118.957475181954
  C      -1.167265      0.215341     -0.020993
  C       0.365028      0.195972     -0.017572
  H      -1.566302      0.617169      0.934772
  H      -1.591162     -0.800201     -0.160248
  H      -1.559358      0.857380     -0.838463
  H       0.724489     -0.482807      0.787450
  C       0.982889      1.585202      0.173924
  H       0.731514     -0.243789     -0.971657
  H       0.662781      2.037527      1.136743
  H       0.671919      2.278575     -0.636463
  H       2.091417      1.545911      0.174107
11
Coordinates from ORCA-job propane_PBE_cc-pVDZ E -118.957477426051
  C      -1.166349      0.215460     -0.020950
  C       0.365079      0.195908     -0.017624
  H      -1.565853      0.617805      0.934292
  H      -1.591539     -0.799400     -0.160049
  H      -1.559003      0.857775     -0.837806
  H       0.725015     -0.483473      0.786538
  C       0.982412      1.584439      0.173820
  H       0.731955     -0.244592     -0.971102
  H       0.661995      2.037452      1.136100
  H       0.671402      2.278337     -0.635969
  H       2.090838      1.546569      0.174351
11
Coordinates from ORCA-job propane_PBE_cc-pVDZ E -118.957477644345
  C      -1.165952      0.215706     -0.020904
  C       0.365197      0.195729     -0.017666
  H      -1.565468      0.618172      0.934212
  H      -1.591416     -0.799028     -0.159957
  H      -1.558659      0.858070     -0.837612
  H       0.725205     -0.483724      0.786315
  C       0.982022      1.584186      0.173785
  H       0.732101     -0.244842     -0.971026
  H       0.661472      2.037292      1.135908
  H       0.671006      2.278118     -0.635889
  H       2.090441      1.546600      0.174435
