11
Coordinates from ORCA-job propane_PBE_6-311G_d-p_ E -118.989811322528
  C      -1.152140      0.231070     -0.018920
  C       0.366720      0.193200     -0.017650
  H      -1.535600      0.623920      0.928200
  H      -1.556550     -0.776480     -0.157440
  H      -1.528180      0.862680     -0.830140
  H       0.714460     -0.466870      0.784710
  C       0.962020      1.578010      0.172880
  H       0.721840     -0.229430     -0.964050
  H       0.645370      2.013440      1.126050
  H       0.652810      2.252170     -0.632290
  H       2.055200      1.524570      0.170250
11
Coordinates from ORCA-job propane_PBE_6-311G_d-p_ E -118.990542026107
  C      -1.166250      0.219891     -0.020456
  C       0.365791      0.194722     -0.017549
  H      -1.557077      0.615775      0.930179
  H      -1.578559     -0.791797     -0.159385
  H      -1.549817      0.855074     -0.834479
  H       0.718767     -0.473680      0.785728
  C       0.978211      1.586111      0.174044
  H       0.725995     -0.235681     -0.967087
  H       0.661240      2.028979      1.131400
  H       0.669214      2.268800     -0.633223
  H       2.078435      1.538086      0.172428
11
Coordinates from ORCA-job propane_PBE_6-311G_d-p_ E -118.990578331346
  C      -1.168259      0.216918     -0.020832
  C       0.365368      0.195435     -0.017552
  H      -1.561103      0.614301      0.929253
  H      -1.584363     -0.793334     -0.159400
  H      -1.554016      0.853134     -0.834076
  H       0.720108     -0.475471      0.783948
  C       0.981825      1.586711      0.174142
  H       0.727166     -0.237791     -0.966116
  H       0.664248      2.031953      1.131090
  H       0.672699      2.271720     -0.632173
  H       2.082277      1.542704      0.173316
11
Coordinates from ORCA-job propane_PBE_6-311G_d-p_ E -118.990586751335
  C      -1.167841      0.216012     -0.020917
  C       0.365257      0.195654     -0.017617
  H      -1.561578      0.614676      0.928439
  H      -1.586776     -0.792847     -0.159122
  H      -1.554663      0.853002     -0.833260
  H       0.721074     -0.476714      0.782371
  C       0.982520      1.585980      0.174051
  H       0.727967     -0.239288     -0.965206
  H       0.664120      2.032539      1.130284
  H       0.673030      2.272174     -0.631320
  H       2.082839      1.545092      0.173897
11
Coordinates from ORCA-job propane_PBE_6-311G_d-p_ E -118.990588599601
  C      -1.166920      0.216095     -0.020876
  C       0.365351      0.195534     -0.017700
  H      -1.560903      0.615525      0.928050
  H      -1.587381     -0.792045     -0.158846
  H      -1.554114      0.853505     -0.832706
  H       0.721666     -0.477489      0.781511
  C       0.982078      1.585195      0.173950
  H       0.728440     -0.240150     -0.964799
  H       0.663072      2.032297      1.129723
  H       0.672312      2.271844     -0.630919
  H       2.082349      1.545969      0.174212
11
Coordinates from ORCA-job propane_PBE_6-311G_d-p_ E -118.990588741385
  C      -1.166574      0.216299     -0.020837
  C       0.365444      0.195395     -0.017742
  H      -1.560529      0.615885      0.928016
  H      -1.587302     -0.791758     -0.158736
  H      -1.553786      0.853756     -0.832598
  H       0.721823     -0.477704      0.781358
  C       0.981748      1.584971      0.173924
  H       0.728552     -0.240334     -0.964798
  H       0.662585      2.032117      1.129604
  H       0.671946      2.271645     -0.630887
  H       2.082043      1.546008      0.174298
