-------------------------------------------------------------
----------------------- !PROPERTIES! ------------------------
-------------------------------------------------------------
# -----------------------------------------------------------
$ SCF_Energy
   description: The SCF energy
   geom. index: 1
   prop. index: 1
        SCF Energy:     -118.9517099270
# -----------------------------------------------------------
$ DFT_Energy
   description: The DFT energy
   geom. index: 1
   prop. index: 1
   Number of Alpha Electrons        13.0000240666 
   Number of Alpha Electrons        13.0000240666 
   Total nuber of  Electrons        26.0000481332 
   Exchange energy                 -18.2801924096 
   Correlation energy               -0.8273962739 
   Correlantion energy NL            0.0000000000 
   Exchange-Correlation energy     -19.1075886835 
   Embedding correction              0.0000000000 
# -----------------------------------------------------------
$ SCF_Energy
   description: The SCF energy
   geom. index: 2
   prop. index: 1
        SCF Energy:     -118.9527147388
# -----------------------------------------------------------
$ DFT_Energy
   description: The DFT energy
   geom. index: 2
   prop. index: 1
   Number of Alpha Electrons        13.0000225452 
   Number of Alpha Electrons        13.0000225452 
   Total nuber of  Electrons        26.0000450904 
   Exchange energy                 -18.2432239156 
   Correlation energy               -0.8250118055 
   Correlantion energy NL            0.0000000000 
   Exchange-Correlation energy     -19.0682357211 
   Embedding correction              0.0000000000 
# -----------------------------------------------------------
$ SCF_Energy
   description: The SCF energy
   geom. index: 3
   prop. index: 1
        SCF Energy:     -118.9527478371
# -----------------------------------------------------------
$ DFT_Energy
   description: The DFT energy
   geom. index: 3
   prop. index: 1
   Number of Alpha Electrons        13.0000219766 
   Number of Alpha Electrons        13.0000219766 
   Total nuber of  Electrons        26.0000439531 
   Exchange energy                 -18.2404451620 
   Correlation energy               -0.8248037499 
   Correlantion energy NL            0.0000000000 
   Exchange-Correlation energy     -19.0652489119 
   Embedding correction              0.0000000000 
# -----------------------------------------------------------
$ SCF_Energy
   description: The SCF energy
   geom. index: 4
   prop. index: 1
        SCF Energy:     -118.9527562441
# -----------------------------------------------------------
$ DFT_Energy
   description: The DFT energy
   geom. index: 4
   prop. index: 1
   Number of Alpha Electrons        13.0000217225 
   Number of Alpha Electrons        13.0000217225 
   Total nuber of  Electrons        26.0000434449 
   Exchange energy                 -18.2405193947 
   Correlation energy               -0.8248142482 
   Correlantion energy NL            0.0000000000 
   Exchange-Correlation energy     -19.0653336429 
   Embedding correction              0.0000000000 
# -----------------------------------------------------------
$ SCF_Energy
   description: The SCF energy
   geom. index: 5
   prop. index: 1
        SCF Energy:     -118.9527576118
# -----------------------------------------------------------
$ DFT_Energy
   description: The DFT energy
   geom. index: 5
   prop. index: 1
   Number of Alpha Electrons        13.0000217020 
   Number of Alpha Electrons        13.0000217020 
   Total nuber of  Electrons        26.0000434040 
   Exchange energy                 -18.2410760924 
   Correlation energy               -0.8248658735 
   Correlantion energy NL            0.0000000000 
   Exchange-Correlation energy     -19.0659419659 
   Embedding correction              0.0000000000 
# -----------------------------------------------------------
$ SCF_Energy
   description: The SCF energy
   geom. index: 6
   prop. index: 1
        SCF Energy:     -118.9527577230
# -----------------------------------------------------------
$ DFT_Energy
   description: The DFT energy
   geom. index: 6
   prop. index: 1
   Number of Alpha Electrons        13.0000217289 
   Number of Alpha Electrons        13.0000217289 
   Total nuber of  Electrons        26.0000434578 
   Exchange energy                 -18.2412607438 
   Correlation energy               -0.8248840847 
   Correlantion energy NL            0.0000000000 
   Exchange-Correlation energy     -19.0661448285 
   Embedding correction              0.0000000000 
# -----------------------------------------------------------
$ SCF_Electric_Properties
   description: The SCF Calculated Electric Properties
   geom. index: 6
   prop. index: 1
       Filename                          : propane_PBE_6-31G_d_.scfp 
       Do Dipole Moment Calculation      : true 
       Do Quadrupole Moment Calculation  : false 
       Do Polarizability Calculation     : false 
** Dipole moment part of electric properties **
        Magnitude of dipole moment (Debye) :        0.0546253222
        Electronic Contribution:
                  0    
      0       0.255099
      1      -0.391579
      2      -0.052656
        Nuclear Contribution:
                  0    
      0      -0.243493
      1       0.373643
      2       0.050318
        Total Dipole moment:
                  0    
      0       0.011606
      1      -0.017935
      2      -0.002339
# -----------------------------------------------------------
$ Hessian
   description: Details about the Hessian
   geom. index: 6
   prop. index: 1
Normal modes:
Number of Rows: 33 Number of Columns: 33
                  0          1          2          3          4          5    
      0       0.000000   0.000000   0.000000   0.000000   0.000000   0.000000
      1       0.000000   0.000000   0.000000   0.000000   0.000000   0.000000
      2       0.000000   0.000000   0.000000   0.000000   0.000000   0.000000
      3       0.000000   0.000000   0.000000   0.000000   0.000000   0.000000
      4       0.000000   0.000000   0.000000   0.000000   0.000000   0.000000
      5       0.000000   0.000000   0.000000   0.000000   0.000000   0.000000
      6       0.000000   0.000000   0.000000   0.000000   0.000000   0.000000
      7       0.000000   0.000000   0.000000   0.000000   0.000000   0.000000
      8       0.000000   0.000000   0.000000   0.000000   0.000000   0.000000
      9       0.000000   0.000000   0.000000   0.000000   0.000000   0.000000
     10       0.000000   0.000000   0.000000   0.000000   0.000000   0.000000
     11       0.000000   0.000000   0.000000   0.000000   0.000000   0.000000
     12       0.000000   0.000000   0.000000   0.000000   0.000000   0.000000
     13       0.000000   0.000000   0.000000   0.000000   0.000000   0.000000
     14       0.000000   0.000000   0.000000   0.000000   0.000000   0.000000
     15       0.000000   0.000000   0.000000   0.000000   0.000000   0.000000
     16       0.000000   0.000000   0.000000   0.000000   0.000000   0.000000
     17       0.000000   0.000000   0.000000   0.000000   0.000000   0.000000
     18       0.000000   0.000000   0.000000   0.000000   0.000000   0.000000
     19       0.000000   0.000000   0.000000   0.000000   0.000000   0.000000
     20       0.000000   0.000000   0.000000   0.000000   0.000000   0.000000
     21       0.000000   0.000000   0.000000   0.000000   0.000000   0.000000
     22       0.000000   0.000000   0.000000   0.000000   0.000000   0.000000
     23       0.000000   0.000000   0.000000   0.000000   0.000000   0.000000
     24       0.000000   0.000000   0.000000   0.000000   0.000000   0.000000
     25       0.000000   0.000000   0.000000   0.000000   0.000000   0.000000
     26       0.000000   0.000000   0.000000   0.000000   0.000000   0.000000
     27       0.000000   0.000000   0.000000   0.000000   0.000000   0.000000
     28       0.000000   0.000000   0.000000   0.000000   0.000000   0.000000
     29       0.000000   0.000000   0.000000   0.000000   0.000000   0.000000
     30       0.000000   0.000000   0.000000   0.000000   0.000000   0.000000
     31       0.000000   0.000000   0.000000   0.000000   0.000000   0.000000
     32       0.000000   0.000000   0.000000   0.000000   0.000000   0.000000
                  6          7          8          9         10         11    
      0       0.000081   0.000357   0.114099  -0.000170   0.212204   0.000025
      1       0.004054   0.005472   0.138800  -0.002323   0.065787  -0.009078
      2      -0.029997  -0.038413   0.019461   0.016750   0.009733   0.064870
      3      -0.000028  -0.000218   0.092980  -0.000277  -0.103825  -0.000260
      4       0.000066  -0.012789  -0.143174  -0.010417   0.159828  -0.000062
      5      -0.000036   0.092255  -0.019392   0.076511   0.021375  -0.000054
      6      -0.015883  -0.107143   0.281497  -0.274240   0.053293  -0.380930
      7       0.380420  -0.330010   0.275943   0.065891  -0.100239   0.051175
      8      -0.194746   0.057689   0.031945  -0.127993   0.011159  -0.123478
      9      -0.001365   0.001345  -0.207673   0.000116   0.602020  -0.000870
     10      -0.049003   0.061986   0.272671   0.015266  -0.092381   0.027173
     11       0.362240  -0.454517   0.037989  -0.112589  -0.010097  -0.197239
     12       0.017485   0.107556   0.280515   0.275258   0.053371   0.384552
     13      -0.315242   0.303916   0.271903  -0.029764  -0.093942  -0.015609
     14      -0.288549   0.144112   0.043720  -0.138758  -0.036976  -0.129321
     15      -0.005086  -0.050373   0.081287   0.251791  -0.100038   0.301468
     16      -0.003216   0.054688  -0.127181  -0.348523   0.154466   0.192291
     17      -0.000548   0.171166  -0.003592  -0.327518   0.016020   0.027417
     18      -0.000060  -0.000154  -0.174825   0.000014  -0.148603  -0.000068
     19      -0.004090   0.005134  -0.045292  -0.002228  -0.163866   0.009007
     20       0.030025  -0.038430  -0.006686   0.016711  -0.022786  -0.064861
     21       0.005083   0.049348   0.080832  -0.249536  -0.099550  -0.300587
     22       0.003379  -0.098877  -0.122475   0.423618   0.154193  -0.191579
     23       0.000397   0.150601  -0.031132  -0.224481   0.024909  -0.027106
     24       0.311157   0.334646  -0.368911   0.070453   0.067685  -0.127302
     25      -0.192118  -0.048937  -0.138992   0.285406  -0.090025  -0.375206
     26       0.221514   0.098082  -0.026882  -0.096579   0.012379   0.077254
     27      -0.313257  -0.337208  -0.367323  -0.069371   0.067583   0.128761
     28       0.126505   0.020880  -0.140410  -0.249240  -0.085589   0.342603
     29       0.261564   0.104071  -0.014637  -0.169971  -0.036256   0.175929
     30       0.001940   0.002002  -0.164551   0.000681  -0.165064  -0.001480
     31       0.048915   0.062362   0.300357   0.015703  -0.582258  -0.029272
     32      -0.361783  -0.454842   0.041440  -0.112497  -0.080297   0.197072
                 12         13         14         15         16         17    
      0      -0.023616  -0.171278  -0.042483  -0.000506  -0.000256   0.013958
      1       0.082896   0.013871   0.128684  -0.015692  -0.009798  -0.051656
      2       0.011440   0.001358   0.017093   0.116941   0.072393  -0.006913
      3       0.032489   0.215942   0.103359   0.000856  -0.000144   0.149885
      4       0.020810   0.137495  -0.159403   0.024015  -0.000070   0.095472
      5       0.002929   0.019503  -0.020911  -0.179007  -0.000026   0.013594
      6      -0.277592  -0.199256  -0.305375  -0.349486  -0.181348  -0.089132
      7      -0.171828   0.031399  -0.201057   0.097465   0.054957   0.082299
      8       0.011200  -0.012897   0.040588  -0.087454  -0.031244  -0.094334
      9       0.469082  -0.208354   0.397308   0.001136   0.000507  -0.263900
     10      -0.123982   0.029570  -0.065533   0.030727   0.013607   0.059685
     11      -0.015999   0.002892  -0.007141  -0.227604  -0.101150   0.007053
     12      -0.273649  -0.198386  -0.305734   0.349560   0.181933  -0.089840
     13      -0.162639   0.027059  -0.182633  -0.071495  -0.044934   0.054432
     14      -0.059710   0.019056  -0.094446  -0.107671  -0.043453   0.112073
     15      -0.177086   0.469602   0.092624  -0.194905  -0.538640  -0.505357
     16      -0.112591   0.299347  -0.145616   0.286429  -0.342979  -0.321850
     17      -0.015985   0.042691  -0.002322   0.135638  -0.048708  -0.045710
     18       0.066155  -0.058350  -0.100511  -0.000633   0.000371  -0.041573
     19      -0.055842  -0.160067   0.091861  -0.015666   0.009835   0.034126
     20      -0.007564  -0.022096   0.011859   0.116984  -0.072375   0.004407
     21      -0.179825   0.469814   0.092363   0.194305   0.538877  -0.504621
     22      -0.114503   0.298993  -0.139668  -0.313140   0.343249  -0.321183
     23      -0.016241   0.042534  -0.036088   0.055557   0.048689  -0.045688
     24      -0.267959  -0.055702   0.302355   0.068138  -0.029599   0.024663
     25      -0.176066  -0.193619   0.186408   0.363719  -0.189370  -0.123597
     26      -0.060759  -0.010196   0.095852  -0.049383   0.012015   0.088631
     27      -0.267269  -0.055262   0.303359  -0.066506   0.029143   0.025896
     28      -0.182141  -0.188730   0.205394  -0.336762   0.179450  -0.095326
     29       0.010614  -0.042113  -0.039326  -0.145596   0.062661  -0.118068
     30       0.080298  -0.059374  -0.104620   0.001122  -0.000526  -0.054631
     31       0.473416  -0.200349  -0.385834   0.030557  -0.013587  -0.263194
     32       0.065800  -0.027245  -0.052937  -0.227880   0.101282  -0.036075
                 18         19         20         21         22         23    
      0       0.102977   0.102401  -0.001347  -0.000109  -0.008544  -0.000187
      1       0.017154  -0.004353  -0.013028  -0.005074   0.035846  -0.004726
      2       0.002719  -0.000180  -0.001710   0.036528   0.005027   0.032398
      3      -0.054877  -0.005257  -0.031530  -0.000118   0.029283   0.000160
      4      -0.034973   0.007731   0.048758  -0.000099   0.018324  -0.004328
      5      -0.004944   0.001029   0.006529  -0.000015   0.002642   0.028129
      6      -0.361414  -0.366288  -0.068707   0.226068   0.137344   0.234827
      7      -0.116650  -0.050971   0.190693   0.268474  -0.374124   0.266873
      8      -0.119670  -0.162629  -0.110015  -0.002821   0.228112   0.002439
      9      -0.322844  -0.367787   0.127093   0.002717  -0.232623   0.004250
     10       0.177206   0.176976  -0.054405   0.066682   0.112278   0.065189
     11       0.022622   0.022245  -0.007516  -0.496962   0.011219  -0.491971
     12      -0.362136  -0.367623  -0.070317  -0.226642   0.136629  -0.236644
     13      -0.143832  -0.092072   0.154094  -0.255623  -0.303483  -0.251940
     14       0.081750   0.140471   0.155949  -0.073363  -0.319051  -0.064552
     15       0.143265  -0.012121   0.259953   0.040345  -0.068058   0.021887
     16       0.091037   0.018783  -0.347680   0.025905  -0.041707  -0.033950
     17       0.012881   0.007657  -0.428210   0.003845  -0.004589  -0.001939
     18       0.058905  -0.037984   0.012612   0.000019   0.029550   0.000086
     19       0.086609  -0.093238  -0.004299   0.005129  -0.022579  -0.004469
     20       0.012040  -0.012863  -0.000535  -0.036474  -0.003039   0.032428
     21       0.143168  -0.012028   0.256986  -0.039974  -0.068500  -0.024380
     22       0.091066   0.020102  -0.449601  -0.025184  -0.041516   0.038158
     23       0.012985  -0.002415   0.321842  -0.003747  -0.007256   0.003224
     24      -0.272694   0.216232  -0.129588   0.335485  -0.252607  -0.337605
     25      -0.289124   0.319046   0.153509   0.088377   0.302225  -0.099067
     26       0.063177  -0.108734  -0.116335   0.054294  -0.239147  -0.049005
     27      -0.271390   0.214495  -0.131288  -0.332917  -0.257740   0.334320
     28      -0.261021   0.277955   0.116983  -0.101932   0.227033   0.110820
     29      -0.140797   0.192118   0.151792   0.021677   0.308731  -0.013518
     30       0.029007  -0.009800  -0.002664  -0.002603   0.006335   0.002632
     31      -0.368364   0.400917  -0.138117  -0.066179  -0.257130   0.065050
     32      -0.049910   0.054446  -0.018550   0.496614  -0.033186  -0.492311
                 24         25         26         27         28         29    
      0       0.005623   0.007153  -0.034843  -0.034666  -0.000101  -0.000443
      1       0.031836  -0.009111   0.005969   0.003359  -0.003293  -0.010662
      2       0.004610  -0.001039   0.000551   0.000268   0.023833   0.065010
      3      -0.033660  -0.036133   0.001153  -0.006922   0.000649  -0.000011
      4       0.052026   0.055773   0.000963   0.010683   0.011060  -0.000072
      5       0.007200   0.006743   0.000068   0.001289  -0.085001   0.000397
      6       0.109274  -0.040281   0.142191   0.138366   0.065473   0.172887
      7      -0.332528   0.039184  -0.155534  -0.148795  -0.071607  -0.187676
      8       0.192006   0.102303  -0.374191  -0.357355  -0.161022  -0.424049
      9      -0.229499  -0.001764   0.126160   0.134587   0.000248   0.006811
     10       0.116497   0.002994   0.333094   0.346535  -0.000467   0.014475
     11       0.010481   0.000473   0.045423   0.047319   0.007646   0.019149
     12       0.106959  -0.040440   0.140118   0.136057  -0.064584  -0.174315
     13      -0.274229   0.066499  -0.250511  -0.238868   0.112231   0.300366
     14      -0.273694  -0.090424   0.321907   0.306661  -0.137310  -0.370161
     15       0.135252   0.214110  -0.001116   0.041820   0.210732  -0.003546
     16      -0.177401  -0.409192  -0.002656  -0.080261  -0.396848   0.000252
     17      -0.249963   0.513999   0.001635   0.102863   0.464193  -0.002451
     18      -0.031453   0.005446  -0.009042   0.011459  -0.000040  -0.001447
     19       0.007997  -0.010077  -0.033835   0.032678  -0.003172   0.009257
     20       0.001262  -0.001161  -0.004381   0.004310   0.023702  -0.064222
     21       0.133215   0.214910  -0.001453   0.042007  -0.218451   0.003488
     22      -0.237094  -0.253105  -0.001727  -0.049115   0.263206   0.000437
     23       0.194633  -0.593945  -0.001431  -0.118474   0.562077  -0.002291
     24       0.227823  -0.031103  -0.128810   0.122548   0.058051  -0.150072
     25      -0.254434   0.043753   0.162856  -0.158428  -0.076214   0.198217
     26       0.201606   0.101162   0.373675  -0.358191  -0.161605   0.420388
     27       0.237061  -0.030965  -0.126427   0.119967  -0.056115   0.148438
     28      -0.189455   0.070956   0.259451  -0.250312   0.115925  -0.309926
     29      -0.260186  -0.088148  -0.320824   0.306220  -0.135046   0.361898
     30      -0.011225  -0.004039   0.358525  -0.376347  -0.001407   0.018967
     31       0.254078   0.002976  -0.024416   0.022545  -0.000979   0.001464
     32       0.029353   0.000454  -0.001372   0.001053   0.007495  -0.016597
                 30         31         32    
      0      -0.000594  -0.004279  -0.004475
      1      -0.012515  -0.063289  -0.064053
      2       0.058527  -0.009893  -0.013541
      3       0.000298  -0.000543   0.005832
      4      -0.005525  -0.000130  -0.008632
      5       0.035638   0.000320  -0.003851
      6       0.156824  -0.089639  -0.106408
      7      -0.165215   0.081285   0.094538
      8      -0.374302   0.225340   0.259316
      9       0.016229   0.225418   0.229338
     10       0.037814   0.548345   0.556484
     11       0.017663   0.074578   0.075045
     12      -0.166688  -0.081281  -0.078646
     13       0.277484   0.126308   0.116609
     14      -0.345308  -0.181815  -0.172077
     15      -0.087240  -0.000796  -0.023484
     16       0.164829  -0.000088   0.044491
     17      -0.195539  -0.000408  -0.053727
     18       0.005008  -0.062198   0.059037
     19      -0.010058   0.023011  -0.021362
     20       0.059991   0.005278  -0.007473
     21       0.084418   0.000688  -0.036742
     22      -0.101346  -0.002208   0.043921
     23      -0.219986  -0.003858   0.096896
     24       0.133742   0.070173  -0.072370
     25      -0.183036  -0.104359   0.111727
     26      -0.380640  -0.244024   0.254821
     27      -0.139912   0.056777  -0.048462
     28       0.303841  -0.142644   0.129581
     29      -0.351252   0.181022  -0.163173
     30      -0.053519   0.617252  -0.582860
     31       0.000439  -0.025162   0.023280
     32       0.012494   0.000337  -0.000819
# -----------------------------------------------------------
$ THERMOCHEMISTRY_Energies
   description: The Thermochemistry energies
   geom. index: 6
   prop. index: 1
        Temperature (Kelvin)           :        298.1500000000
        Pressure (atm)                 :          1.0000000000
        Total Mass (AMU)               :         44.0970000000
        Spin Degeneracy                :          1.0000000000
        Electronic Energy (Hartree)    :       -118.9527577230
        Translational Energy (Hartree) :          0.0014162714
        Rotational Energy (Hartree)    :          0.0014162714
        Vibrational Energy (Hartree)   :          0.0017360003
        Number of frequencies          :     33      
        Scaling Factor for frequencies :          1.0000000000
        Vibrational frequencies        :     
                  0    
      0       0.000000
      1       0.000000
      2       0.000000
      3       0.000000
      4       0.000000
      5       0.000000
      6     223.546209
      7     269.145752
      8     357.125050
      9     735.574322
     10     870.797387
     11     891.964464
     12     911.176108
     13     1056.316168
     14     1153.918262
     15     1186.444215
     16     1290.253607
     17     1336.693380
     18     1382.407381
     19     1399.129081
     20     1471.503437
     21     1472.714909
     22     1480.735115
     23     1490.963008
     24     1496.456505
     25     2969.938267
     26     2974.264383
     27     2977.859280
     28     2999.771447
     29     3042.570236
     30     3051.971590
     31     3053.028918
     32     3055.244859
        Zero Point Energy (Hartree)    :          0.1016097239
        Inner Energy (Hartree)         :       -118.8465794560
        Enthalpy (Hartree)             :       -118.8456352469
        Electronic entropy             :          0.0000000000
        Rotational entropy             :          0.0107904087
        Vibrational entropy            :          0.0027092328
        Translational entropy          :          0.0107904087
        Entropy                        :          0.0312112711
        Gibbs Energy (Hartree)         :       -118.8768465180
        Is Linear                      :                 false
# -------------------------------------------------------------
----------------------- !GEOMETRIES! ------------------------
# -------------------------------------------------------------
------------------------ !GEOMETRY! -------------------------
    Number of atoms:    11 
    Geometry Index:     1 
    Coordinates:
               0 C     -1.152140000000    0.231070000000   -0.018920000000
               1 C      0.366720000000    0.193200000000   -0.017650000000
               2 H     -1.535600000000    0.623920000000    0.928200000000
               3 H     -1.556550000000   -0.776480000000   -0.157440000000
               4 H     -1.528180000000    0.862680000000   -0.830140000000
               5 H      0.714460000000   -0.466870000000    0.784710000000
               6 C      0.962020000000    1.578010000000    0.172880000000
               7 H      0.721840000000   -0.229430000000   -0.964050000000
               8 H      0.645370000000    2.013440000000    1.126050000000
               9 H      0.652810000000    2.252170000000   -0.632290000000
              10 H      2.055200000000    1.524570000000    0.170250000000
------------------------ !GEOMETRY! -------------------------
    Number of atoms:    11 
    Geometry Index:     2 
    Coordinates:
               0 C     -1.167014921401    0.219629421710   -0.020496008939
               1 C      0.366298984475    0.193932343875   -0.017657723366
               2 H     -1.558563031195    0.616852076934    0.932404498857
               3 H     -1.580775001642   -0.794460753597   -0.159745504396
               4 H     -1.551295246449    0.856686311871   -0.836363063239
               5 H      0.720135411870   -0.476100491974    0.787585421144
               6 C      0.978761322734    1.586696246819    0.174129194604
               7 H      0.727387161860   -0.237513131646   -0.969519483051
               8 H      0.660616407894    2.030602624829    1.133716727540
               9 H      0.668604880631    2.270983369675   -0.635018457678
              10 H      2.081794031224    1.538971981502    0.172564398524
------------------------ !GEOMETRY! -------------------------
    Number of atoms:    11 
    Geometry Index:     3 
    Coordinates:
               0 C     -1.168644604318    0.216997534289   -0.020826834870
               1 C      0.366016987877    0.194419180043   -0.017689730632
               2 H     -1.561869000368    0.615907525254    0.931547946274
               3 H     -1.586154537981   -0.795690497027   -0.159707660656
               4 H     -1.554779955499    0.855255218764   -0.835901103070
               5 H      0.721522928661   -0.477996822022    0.785951828595
               6 C      0.981897610299    1.587096610769    0.174201897063
               7 H      0.728614681927   -0.239672954285   -0.968717428757
               8 H      0.662867692942    2.033153995372    1.133356992768
               9 H      0.671308552645    2.273481109083   -0.634025258227
              10 H      2.085169643816    1.543329099761    0.173409351513
------------------------ !GEOMETRY! -------------------------
    Number of atoms:    11 
    Geometry Index:     4 
    Coordinates:
               0 C     -1.168207106844    0.216050981488   -0.020918984059
               1 C      0.365958130249    0.194555078875   -0.017773050160
               2 H     -1.562202236706    0.616474097094    0.930686300573
               3 H     -1.588741800643   -0.795153865864   -0.159394189435
               4 H     -1.555303041647    0.855246636094   -0.835019503654
               5 H      0.722582787884   -0.479383572733    0.784330351381
               6 C      0.982619902502    1.586330461110    0.174111189652
               7 H      0.729504892772   -0.241302035246   -0.967825099976
               8 H      0.662539111131    2.033688389785    1.132490100058
               9 H      0.671446821459    2.273881025341   -0.633112895231
              10 H      2.085752539843    1.545892804056    0.174025780852
------------------------ !GEOMETRY! -------------------------
    Number of atoms:    11 
    Geometry Index:     5 
    Coordinates:
               0 C     -1.167403148891    0.216145261480   -0.020881566675
               1 C      0.366065981422    0.194408821880   -0.017854696925
               2 H     -1.561516614732    0.617286004865    0.930357425996
               3 H     -1.589244197301   -0.794441604324   -0.159132295826
               4 H     -1.554735315671    0.855725580723   -0.834549523854
               5 H      0.723092778549   -0.480055064607    0.783595920926
               6 C      0.982211582272    1.585654100145    0.174027817368
               7 H      0.729910416837   -0.242030551028   -0.967497411438
               8 H      0.661539182566    2.033412406275    1.132005945935
               9 H      0.670731512338    2.273538023603   -0.632773901372
              10 H      2.085297822610    1.546637020987    0.174302285864
------------------------ !GEOMETRY! -------------------------
    Number of atoms:    11 
    Geometry Index:     6 
    Coordinates:
               0 C     -1.167093920872    0.216329389889   -0.020846103572
               1 C      0.366154237201    0.194276872555   -0.017897024998
               2 H     -1.561160342647    0.617624792597    0.930325944253
               3 H     -1.589185175961   -0.794174240528   -0.159018661364
               4 H     -1.554427175578    0.855944124848   -0.834461121657
               5 H      0.723236514045   -0.480251806891    0.783451675422
               6 C      0.981913791339    1.585453231661    0.174005863536
               7 H      0.730008921931   -0.242191452898   -0.967503515485
               8 H      0.661087566988    2.033234201408    1.131900708600
               9 H      0.670397475542    2.273347565087   -0.632747081388
              10 H      2.085018108011    1.546687322273    0.174389316653
