11
Coordinates from ORCA-job propane_PBE_aug-cc-pVTZ
  C   -1.16398404405916      0.21737357969140     -0.02063417711672
  C   0.36506094481207      0.19597531552850     -0.01770868476835
  H   -1.55644526671218      0.61676030388902      0.92665399270592
  H   -1.58452533845906     -0.78866626085899     -0.15834634262030
  H   -1.54985038676683      0.85434743944000     -0.83076305607279
  H   0.72074460146168     -0.47577280496703      0.78002696988207
  C   0.97968246296763      1.58308582214610      0.17362659461844
  H   0.72736741341291     -0.23881587164978     -0.96313294790615
  H   0.66002963505023      2.02910836602089      1.12741706629386
  H   0.66981015461108      2.26810509598927     -0.62989655975837
  H   2.07805982368163      1.54477901477061      0.17435714474239
