-------------------------------------------------------------
----------------------- !PROPERTIES! ------------------------
-------------------------------------------------------------
# -----------------------------------------------------------
$ SCF_Energy
   description: The SCF energy
   geom. index: 1
   prop. index: 1
        SCF Energy:    -1054.9894205969
# -----------------------------------------------------------
$ DFT_Energy
   description: The DFT energy
   geom. index: 1
   prop. index: 1
   Number of Alpha Electrons        17.9999982271 
   Number of Alpha Electrons        17.9999982271 
   Total nuber of  Electrons        35.9999964542 
   Exchange energy                 -47.8615162946 
   Correlation energy               -1.7644743143 
   Correlantion energy NL            0.0000000000 
   Exchange-Correlation energy     -49.6259906089 
   Embedding correction              0.0000000000 
# -----------------------------------------------------------
$ SCF_Energy
   description: The SCF energy
   geom. index: 2
   prop. index: 1
        SCF Energy:    -1054.9894206013
# -----------------------------------------------------------
$ DFT_Energy
   description: The DFT energy
   geom. index: 2
   prop. index: 1
   Number of Alpha Electrons        17.9999982270 
   Number of Alpha Electrons        17.9999982270 
   Total nuber of  Electrons        35.9999964540 
   Exchange energy                 -47.8615191346 
   Correlation energy               -1.7644743202 
   Correlantion energy NL            0.0000000000 
   Exchange-Correlation energy     -49.6259934547 
   Embedding correction              0.0000000000 
# -----------------------------------------------------------
$ SCF_Electric_Properties
   description: The SCF Calculated Electric Properties
   geom. index: 2
   prop. index: 1
       Filename                          : .\ArAr_F1_G2.scfp 
       Do Dipole Moment Calculation      : true 
       Do Quadrupole Moment Calculation  : false 
       Do Polarizability Calculation     : false 
** Dipole moment part of electric properties **
        Magnitude of dipole moment (Debye) :        0.0000006170
        Electronic Contribution:
                  0    
      0      -0.000000
      1       0.000000
      2       0.000000
        Nuclear Contribution:
                  0    
      0       0.000000
      1       0.000000
      2       0.000000
        Total Dipole moment:
                  0    
      0      -0.000000
      1       0.000000
      2       0.000000
# -----------------------------------------------------------
$ SCF_Energy
   description: The SCF energy
   geom. index: 3
   prop. index: 1
        SCF Energy:    -1054.9909848915
# -----------------------------------------------------------
$ DFT_Energy
   description: The DFT energy
   geom. index: 3
   prop. index: 1
   Number of Alpha Electrons        17.9999958522 
   Number of Alpha Electrons        17.9999958522 
   Total nuber of  Electrons        35.9999917045 
   Exchange energy                 -47.8596797027 
   Correlation energy               -1.7638768233 
   Correlantion energy NL            0.0000000000 
   Exchange-Correlation energy     -49.6235565260 
   Embedding correction              0.0000000000 
# -----------------------------------------------------------
$ SCF_Energy
   description: The SCF energy
   geom. index: 4
   prop. index: 1
        SCF Energy:    -1054.9909848894
# -----------------------------------------------------------
$ DFT_Energy
   description: The DFT energy
   geom. index: 4
   prop. index: 1
   Number of Alpha Electrons        17.9999958522 
   Number of Alpha Electrons        17.9999958522 
   Total nuber of  Electrons        35.9999917043 
   Exchange energy                 -47.8596980951 
   Correlation energy               -1.7638773571 
   Correlantion energy NL            0.0000000000 
   Exchange-Correlation energy     -49.6235754522 
   Embedding correction              0.0000000000 
# -----------------------------------------------------------
$ SCF_Electric_Properties
   description: The SCF Calculated Electric Properties
   geom. index: 4
   prop. index: 1
       Filename                          : .\ArAr_F1_G2.scfp 
       Do Dipole Moment Calculation      : true 
       Do Quadrupole Moment Calculation  : false 
       Do Polarizability Calculation     : false 
** Dipole moment part of electric properties **
        Magnitude of dipole moment (Debye) :        0.0000008294
        Electronic Contribution:
                  0    
      0      -0.000000
      1      -0.000000
      2       0.000000
        Nuclear Contribution:
                  0    
      0       0.000000
      1       0.000000
      2       0.000000
        Total Dipole moment:
                  0    
      0      -0.000000
      1      -0.000000
      2       0.000000
# -----------------------------------------------------------
$ SCF_Energy
   description: The SCF energy
   geom. index: 5
   prop. index: 1
        SCF Energy:    -1054.9920634642
# -----------------------------------------------------------
$ DFT_Energy
   description: The DFT energy
   geom. index: 5
   prop. index: 1
   Number of Alpha Electrons        17.9999969195 
   Number of Alpha Electrons        17.9999969195 
   Total nuber of  Electrons        35.9999938390 
   Exchange energy                 -47.8583487587 
   Correlation energy               -1.7633708876 
   Correlantion energy NL            0.0000000000 
   Exchange-Correlation energy     -49.6217196463 
   Embedding correction              0.0000000000 
# -----------------------------------------------------------
$ SCF_Energy
   description: The SCF energy
   geom. index: 6
   prop. index: 1
        SCF Energy:    -1054.9920634619
# -----------------------------------------------------------
$ DFT_Energy
   description: The DFT energy
   geom. index: 6
   prop. index: 1
   Number of Alpha Electrons        17.9999969195 
   Number of Alpha Electrons        17.9999969195 
   Total nuber of  Electrons        35.9999938390 
   Exchange energy                 -47.8583341475 
   Correlation energy               -1.7633704843 
   Correlantion energy NL            0.0000000000 
   Exchange-Correlation energy     -49.6217046318 
   Embedding correction              0.0000000000 
# -----------------------------------------------------------
$ SCF_Electric_Properties
   description: The SCF Calculated Electric Properties
   geom. index: 6
   prop. index: 1
       Filename                          : .\ArAr_F1_G2.scfp 
       Do Dipole Moment Calculation      : true 
       Do Quadrupole Moment Calculation  : false 
       Do Polarizability Calculation     : false 
** Dipole moment part of electric properties **
        Magnitude of dipole moment (Debye) :        0.0000001145
        Electronic Contribution:
                  0    
      0      -0.000000
      1       0.000000
      2       0.000000
        Nuclear Contribution:
                  0    
      0      -0.000000
      1       0.000000
      2       0.000000
        Total Dipole moment:
                  0    
      0      -0.000000
      1       0.000000
      2       0.000000
# -----------------------------------------------------------
$ SCF_Energy
   description: The SCF energy
   geom. index: 7
   prop. index: 1
        SCF Energy:    -1054.9928037507
# -----------------------------------------------------------
$ DFT_Energy
   description: The DFT energy
   geom. index: 7
   prop. index: 1
   Number of Alpha Electrons        17.9999982560 
   Number of Alpha Electrons        17.9999982560 
   Total nuber of  Electrons        35.9999965119 
   Exchange energy                 -47.8573639752 
   Correlation energy               -1.7629425667 
   Correlantion energy NL            0.0000000000 
   Exchange-Correlation energy     -49.6203065419 
   Embedding correction              0.0000000000 
# -----------------------------------------------------------
$ SCF_Energy
   description: The SCF energy
   geom. index: 8
   prop. index: 1
        SCF Energy:    -1054.9928037521
# -----------------------------------------------------------
$ DFT_Energy
   description: The DFT energy
   geom. index: 8
   prop. index: 1
   Number of Alpha Electrons        17.9999982559 
   Number of Alpha Electrons        17.9999982559 
   Total nuber of  Electrons        35.9999965119 
   Exchange energy                 -47.8573540127 
   Correlation energy               -1.7629422938 
   Correlantion energy NL            0.0000000000 
   Exchange-Correlation energy     -49.6202963064 
   Embedding correction              0.0000000000 
# -----------------------------------------------------------
$ SCF_Electric_Properties
   description: The SCF Calculated Electric Properties
   geom. index: 8
   prop. index: 1
       Filename                          : .\ArAr_F1_G2.scfp 
       Do Dipole Moment Calculation      : true 
       Do Quadrupole Moment Calculation  : false 
       Do Polarizability Calculation     : false 
** Dipole moment part of electric properties **
        Magnitude of dipole moment (Debye) :        0.0000006441
        Electronic Contribution:
                  0    
      0      -0.000000
      1      -0.000000
      2       0.000000
        Nuclear Contribution:
                  0    
      0       0.000000
      1       0.000000
      2       0.000000
        Total Dipole moment:
                  0    
      0      -0.000000
      1      -0.000000
      2       0.000000
# -----------------------------------------------------------
$ SCF_Energy
   description: The SCF energy
   geom. index: 9
   prop. index: 1
        SCF Energy:    -1054.9933040091
# -----------------------------------------------------------
$ DFT_Energy
   description: The DFT energy
   geom. index: 9
   prop. index: 1
   Number of Alpha Electrons        17.9999967056 
   Number of Alpha Electrons        17.9999967056 
   Total nuber of  Electrons        35.9999934112 
   Exchange energy                 -47.8566525769 
   Correlation energy               -1.7625823196 
   Correlantion energy NL            0.0000000000 
   Exchange-Correlation energy     -49.6192348965 
   Embedding correction              0.0000000000 
# -----------------------------------------------------------
$ SCF_Energy
   description: The SCF energy
   geom. index: 10
   prop. index: 1
        SCF Energy:    -1054.9933040123
# -----------------------------------------------------------
$ DFT_Energy
   description: The DFT energy
   geom. index: 10
   prop. index: 1
   Number of Alpha Electrons        17.9999967056 
   Number of Alpha Electrons        17.9999967056 
   Total nuber of  Electrons        35.9999934112 
   Exchange energy                 -47.8566455881 
   Correlation energy               -1.7625821289 
   Correlantion energy NL            0.0000000000 
   Exchange-Correlation energy     -49.6192277170 
   Embedding correction              0.0000000000 
# -----------------------------------------------------------
$ SCF_Electric_Properties
   description: The SCF Calculated Electric Properties
   geom. index: 10
   prop. index: 1
       Filename                          : .\ArAr_F1_G2.scfp 
       Do Dipole Moment Calculation      : true 
       Do Quadrupole Moment Calculation  : false 
       Do Polarizability Calculation     : false 
** Dipole moment part of electric properties **
        Magnitude of dipole moment (Debye) :        0.0000006807
        Electronic Contribution:
                  0    
      0      -0.000000
      1       0.000000
      2       0.000000
        Nuclear Contribution:
                  0    
      0       0.000000
      1       0.000000
      2       0.000000
        Total Dipole moment:
                  0    
      0      -0.000000
      1       0.000000
      2       0.000000
# -----------------------------------------------------------
$ SCF_Energy
   description: The SCF energy
   geom. index: 11
   prop. index: 1
        SCF Energy:    -1054.9936426978
# -----------------------------------------------------------
$ DFT_Energy
   description: The DFT energy
   geom. index: 11
   prop. index: 1
   Number of Alpha Electrons        17.9999982153 
   Number of Alpha Electrons        17.9999982153 
   Total nuber of  Electrons        35.9999964306 
   Exchange energy                 -47.8561462683 
   Correlation energy               -1.7622812419 
   Correlantion energy NL            0.0000000000 
   Exchange-Correlation energy     -49.6184275102 
   Embedding correction              0.0000000000 
# -----------------------------------------------------------
$ SCF_Energy
   description: The SCF energy
   geom. index: 12
   prop. index: 1
        SCF Energy:    -1054.9936427000
# -----------------------------------------------------------
$ DFT_Energy
   description: The DFT energy
   geom. index: 12
   prop. index: 1
   Number of Alpha Electrons        17.9999982152 
   Number of Alpha Electrons        17.9999982152 
   Total nuber of  Electrons        35.9999964304 
   Exchange energy                 -47.8561413983 
   Correlation energy               -1.7622811092 
   Correlantion energy NL            0.0000000000 
   Exchange-Correlation energy     -49.6184225075 
   Embedding correction              0.0000000000 
# -----------------------------------------------------------
$ SCF_Electric_Properties
   description: The SCF Calculated Electric Properties
   geom. index: 12
   prop. index: 1
       Filename                          : .\ArAr_F1_G2.scfp 
       Do Dipole Moment Calculation      : true 
       Do Quadrupole Moment Calculation  : false 
       Do Polarizability Calculation     : false 
** Dipole moment part of electric properties **
        Magnitude of dipole moment (Debye) :        0.0000007658
        Electronic Contribution:
                  0    
      0      -0.000000
      1      -0.000000
      2      -0.000000
        Nuclear Contribution:
                  0    
      0       0.000000
      1       0.000000
      2       0.000000
        Total Dipole moment:
                  0    
      0      -0.000000
      1      -0.000000
      2      -0.000000
# -----------------------------------------------------------
$ SCF_Energy
   description: The SCF energy
   geom. index: 13
   prop. index: 1
        SCF Energy:    -1054.9938739020
# -----------------------------------------------------------
$ DFT_Energy
   description: The DFT energy
   geom. index: 13
   prop. index: 1
   Number of Alpha Electrons        18.0000007875 
   Number of Alpha Electrons        18.0000007875 
   Total nuber of  Electrons        36.0000015749 
   Exchange energy                 -47.8557983922 
   Correlation energy               -1.7620306686 
   Correlantion energy NL            0.0000000000 
   Exchange-Correlation energy     -49.6178290607 
   Embedding correction              0.0000000000 
# -----------------------------------------------------------
$ SCF_Energy
   description: The SCF energy
   geom. index: 14
   prop. index: 1
        SCF Energy:    -1054.9938739044
# -----------------------------------------------------------
$ DFT_Energy
   description: The DFT energy
   geom. index: 14
   prop. index: 1
   Number of Alpha Electrons        18.0000007874 
   Number of Alpha Electrons        18.0000007874 
   Total nuber of  Electrons        36.0000015748 
   Exchange energy                 -47.8557949873 
   Correlation energy               -1.7620305759 
   Correlantion energy NL            0.0000000000 
   Exchange-Correlation energy     -49.6178255632 
   Embedding correction              0.0000000000 
# -----------------------------------------------------------
$ SCF_Electric_Properties
   description: The SCF Calculated Electric Properties
   geom. index: 14
   prop. index: 1
       Filename                          : .\ArAr_F1_G2.scfp 
       Do Dipole Moment Calculation      : true 
       Do Quadrupole Moment Calculation  : false 
       Do Polarizability Calculation     : false 
** Dipole moment part of electric properties **
        Magnitude of dipole moment (Debye) :        0.0000006503
        Electronic Contribution:
                  0    
      0      -0.000000
      1      -0.000000
      2       0.000000
        Nuclear Contribution:
                  0    
      0       0.000000
      1       0.000000
      2       0.000000
        Total Dipole moment:
                  0    
      0      -0.000000
      1      -0.000000
      2       0.000000
# -----------------------------------------------------------
$ SCF_Energy
   description: The SCF energy
   geom. index: 15
   prop. index: 1
        SCF Energy:    -1054.9940280653
# -----------------------------------------------------------
$ DFT_Energy
   description: The DFT energy
   geom. index: 15
   prop. index: 1
   Number of Alpha Electrons        17.9999993353 
   Number of Alpha Electrons        17.9999993353 
   Total nuber of  Electrons        35.9999986706 
   Exchange energy                 -47.8555644961 
   Correlation energy               -1.7618230810 
   Correlantion energy NL            0.0000000000 
   Exchange-Correlation energy     -49.6173875771 
   Embedding correction              0.0000000000 
# -----------------------------------------------------------
$ SCF_Energy
   description: The SCF energy
   geom. index: 16
   prop. index: 1
        SCF Energy:    -1054.9940280663
# -----------------------------------------------------------
$ DFT_Energy
   description: The DFT energy
   geom. index: 16
   prop. index: 1
   Number of Alpha Electrons        17.9999993353 
   Number of Alpha Electrons        17.9999993353 
   Total nuber of  Electrons        35.9999986705 
   Exchange energy                 -47.8555620758 
   Correlation energy               -1.7618230155 
   Correlantion energy NL            0.0000000000 
   Exchange-Correlation energy     -49.6173850913 
   Embedding correction              0.0000000000 
# -----------------------------------------------------------
$ SCF_Electric_Properties
   description: The SCF Calculated Electric Properties
   geom. index: 16
   prop. index: 1
       Filename                          : .\ArAr_F1_G2.scfp 
       Do Dipole Moment Calculation      : true 
       Do Quadrupole Moment Calculation  : false 
       Do Polarizability Calculation     : false 
** Dipole moment part of electric properties **
        Magnitude of dipole moment (Debye) :        0.0000008372
        Electronic Contribution:
                  0    
      0      -0.000000
      1       0.000000
      2       0.000000
        Nuclear Contribution:
                  0    
      0      -0.000000
      1       0.000000
      2       0.000000
        Total Dipole moment:
                  0    
      0      -0.000000
      1       0.000000
      2       0.000000
# -----------------------------------------------------------
$ SCF_Energy
   description: The SCF energy
   geom. index: 17
   prop. index: 1
        SCF Energy:    -1054.9941291822
# -----------------------------------------------------------
$ DFT_Energy
   description: The DFT energy
   geom. index: 17
   prop. index: 1
   Number of Alpha Electrons        17.9999986564 
   Number of Alpha Electrons        17.9999986564 
   Total nuber of  Electrons        35.9999973127 
   Exchange energy                 -47.8554095917 
   Correlation energy               -1.7616526035 
   Correlantion energy NL            0.0000000000 
   Exchange-Correlation energy     -49.6170621952 
   Embedding correction              0.0000000000 
# -----------------------------------------------------------
$ SCF_Energy
   description: The SCF energy
   geom. index: 18
   prop. index: 1
        SCF Energy:    -1054.9941291839
# -----------------------------------------------------------
$ DFT_Energy
   description: The DFT energy
   geom. index: 18
   prop. index: 1
   Number of Alpha Electrons        17.9999986563 
   Number of Alpha Electrons        17.9999986563 
   Total nuber of  Electrons        35.9999973126 
   Exchange energy                 -47.8554079076 
   Correlation energy               -1.7616525577 
   Correlantion energy NL            0.0000000000 
   Exchange-Correlation energy     -49.6170604654 
   Embedding correction              0.0000000000 
# -----------------------------------------------------------
$ SCF_Electric_Properties
   description: The SCF Calculated Electric Properties
   geom. index: 18
   prop. index: 1
       Filename                          : .\ArAr_F1_G2.scfp 
       Do Dipole Moment Calculation      : true 
       Do Quadrupole Moment Calculation  : false 
       Do Polarizability Calculation     : false 
** Dipole moment part of electric properties **
        Magnitude of dipole moment (Debye) :        0.0000005098
        Electronic Contribution:
                  0    
      0      -0.000000
      1      -0.000000
      2      -0.000000
        Nuclear Contribution:
                  0    
      0       0.000000
      1       0.000000
      2       0.000000
        Total Dipole moment:
                  0    
      0      -0.000000
      1      -0.000000
      2      -0.000000
# -----------------------------------------------------------
$ SCF_Energy
   description: The SCF energy
   geom. index: 19
   prop. index: 1
        SCF Energy:    -1054.9942006296
# -----------------------------------------------------------
$ DFT_Energy
   description: The DFT energy
   geom. index: 19
   prop. index: 1
   Number of Alpha Electrons        18.0000013316 
   Number of Alpha Electrons        18.0000013316 
   Total nuber of  Electrons        36.0000026633 
   Exchange energy                 -47.8553155210 
   Correlation energy               -1.7615136336 
   Correlantion energy NL            0.0000000000 
   Exchange-Correlation energy     -49.6168291547 
   Embedding correction              0.0000000000 
# -----------------------------------------------------------
$ SCF_Energy
   description: The SCF energy
   geom. index: 20
   prop. index: 1
        SCF Energy:    -1054.9942006287
# -----------------------------------------------------------
$ DFT_Energy
   description: The DFT energy
   geom. index: 20
   prop. index: 1
   Number of Alpha Electrons        18.0000013316 
   Number of Alpha Electrons        18.0000013316 
   Total nuber of  Electrons        36.0000026632 
   Exchange energy                 -47.8553144003 
   Correlation energy               -1.7615136030 
   Correlantion energy NL            0.0000000000 
   Exchange-Correlation energy     -49.6168280032 
   Embedding correction              0.0000000000 
# -----------------------------------------------------------
$ SCF_Electric_Properties
   description: The SCF Calculated Electric Properties
   geom. index: 20
   prop. index: 1
       Filename                          : .\ArAr_F1_G2.scfp 
       Do Dipole Moment Calculation      : true 
       Do Quadrupole Moment Calculation  : false 
       Do Polarizability Calculation     : false 
** Dipole moment part of electric properties **
        Magnitude of dipole moment (Debye) :        0.0000004349
        Electronic Contribution:
                  0    
      0      -0.000000
      1      -0.000000
      2       0.000000
        Nuclear Contribution:
                  0    
      0       0.000000
      1       0.000000
      2       0.000000
        Total Dipole moment:
                  0    
      0      -0.000000
      1      -0.000000
      2       0.000000
# -----------------------------------------------------------
$ SCF_Energy
   description: The SCF energy
   geom. index: 21
   prop. index: 1
        SCF Energy:    -1054.9942517257
# -----------------------------------------------------------
$ DFT_Energy
   description: The DFT energy
   geom. index: 21
   prop. index: 1
   Number of Alpha Electrons        18.0000019958 
   Number of Alpha Electrons        18.0000019958 
   Total nuber of  Electrons        36.0000039916 
   Exchange energy                 -47.8552625116 
   Correlation energy               -1.7614005638 
   Correlantion energy NL            0.0000000000 
   Exchange-Correlation energy     -49.6166630753 
   Embedding correction              0.0000000000 
# -----------------------------------------------------------
$ SCF_Energy
   description: The SCF energy
   geom. index: 22
   prop. index: 1
        SCF Energy:    -1054.9942517246
# -----------------------------------------------------------
$ DFT_Energy
   description: The DFT energy
   geom. index: 22
   prop. index: 1
   Number of Alpha Electrons        18.0000019958 
   Number of Alpha Electrons        18.0000019958 
   Total nuber of  Electrons        36.0000039915 
   Exchange energy                 -47.8552617770 
   Correlation energy               -1.7614005439 
   Correlantion energy NL            0.0000000000 
   Exchange-Correlation energy     -49.6166623208 
   Embedding correction              0.0000000000 
# -----------------------------------------------------------
$ SCF_Electric_Properties
   description: The SCF Calculated Electric Properties
   geom. index: 22
   prop. index: 1
       Filename                          : .\ArAr_F1_G2.scfp 
       Do Dipole Moment Calculation      : true 
       Do Quadrupole Moment Calculation  : false 
       Do Polarizability Calculation     : false 
** Dipole moment part of electric properties **
        Magnitude of dipole moment (Debye) :        0.0000008509
        Electronic Contribution:
                  0    
      0      -0.000000
      1       0.000000
      2       0.000000
        Nuclear Contribution:
                  0    
      0       0.000000
      1       0.000000
      2       0.000000
        Total Dipole moment:
                  0    
      0      -0.000000
      1       0.000000
      2       0.000000
# -----------------------------------------------------------
$ SCF_Energy
   description: The SCF energy
   geom. index: 23
   prop. index: 1
        SCF Energy:    -1054.9942843695
# -----------------------------------------------------------
$ DFT_Energy
   description: The DFT energy
   geom. index: 23
   prop. index: 1
   Number of Alpha Electrons        17.9999988290 
   Number of Alpha Electrons        17.9999988290 
   Total nuber of  Electrons        35.9999976579 
   Exchange energy                 -47.8552343933 
   Correlation energy               -1.7613092206 
   Correlantion energy NL            0.0000000000 
   Exchange-Correlation energy     -49.6165436138 
   Embedding correction              0.0000000000 
# -----------------------------------------------------------
$ SCF_Energy
   description: The SCF energy
   geom. index: 24
   prop. index: 1
        SCF Energy:    -1054.9942843693
# -----------------------------------------------------------
$ DFT_Energy
   description: The DFT energy
   geom. index: 24
   prop. index: 1
   Number of Alpha Electrons        17.9999988289 
   Number of Alpha Electrons        17.9999988289 
   Total nuber of  Electrons        35.9999976579 
   Exchange energy                 -47.8552339257 
   Correlation energy               -1.7613092081 
   Correlantion energy NL            0.0000000000 
   Exchange-Correlation energy     -49.6165431338 
   Embedding correction              0.0000000000 
# -----------------------------------------------------------
$ SCF_Electric_Properties
   description: The SCF Calculated Electric Properties
   geom. index: 24
   prop. index: 1
       Filename                          : .\ArAr_F1_G2.scfp 
       Do Dipole Moment Calculation      : true 
       Do Quadrupole Moment Calculation  : false 
       Do Polarizability Calculation     : false 
** Dipole moment part of electric properties **
        Magnitude of dipole moment (Debye) :        0.0000007387
        Electronic Contribution:
                  0    
      0      -0.000000
      1       0.000000
      2      -0.000000
        Nuclear Contribution:
                  0    
      0       0.000000
      1       0.000000
      2       0.000000
        Total Dipole moment:
                  0    
      0      -0.000000
      1       0.000000
      2      -0.000000
# -----------------------------------------------------------
$ SCF_Energy
   description: The SCF energy
   geom. index: 25
   prop. index: 1
        SCF Energy:    -1054.9943069021
# -----------------------------------------------------------
$ DFT_Energy
   description: The DFT energy
   geom. index: 25
   prop. index: 1
   Number of Alpha Electrons        17.9999976352 
   Number of Alpha Electrons        17.9999976352 
   Total nuber of  Electrons        35.9999952703 
   Exchange energy                 -47.8552260636 
   Correlation energy               -1.7612365146 
   Correlantion energy NL            0.0000000000 
   Exchange-Correlation energy     -49.6164625782 
   Embedding correction              0.0000000000 
# -----------------------------------------------------------
$ SCF_Energy
   description: The SCF energy
   geom. index: 26
   prop. index: 1
        SCF Energy:    -1054.9943069029
# -----------------------------------------------------------
$ DFT_Energy
   description: The DFT energy
   geom. index: 26
   prop. index: 1
   Number of Alpha Electrons        17.9999976351 
   Number of Alpha Electrons        17.9999976351 
   Total nuber of  Electrons        35.9999952702 
   Exchange energy                 -47.8552257987 
   Correlation energy               -1.7612365073 
   Correlantion energy NL            0.0000000000 
   Exchange-Correlation energy     -49.6164623060 
   Embedding correction              0.0000000000 
# -----------------------------------------------------------
$ SCF_Electric_Properties
   description: The SCF Calculated Electric Properties
   geom. index: 26
   prop. index: 1
       Filename                          : .\ArAr_F1_G2.scfp 
       Do Dipole Moment Calculation      : true 
       Do Quadrupole Moment Calculation  : false 
       Do Polarizability Calculation     : false 
** Dipole moment part of electric properties **
        Magnitude of dipole moment (Debye) :        0.0000010274
        Electronic Contribution:
                  0    
      0      -0.000000
      1      -0.000000
      2       0.000000
        Nuclear Contribution:
                  0    
      0       0.000000
      1       0.000000
      2       0.000000
        Total Dipole moment:
                  0    
      0      -0.000000
      1      -0.000000
      2       0.000000
# -----------------------------------------------------------
$ SCF_Energy
   description: The SCF energy
   geom. index: 27
   prop. index: 1
        SCF Energy:    -1054.9943278785
# -----------------------------------------------------------
$ DFT_Energy
   description: The DFT energy
   geom. index: 27
   prop. index: 1
   Number of Alpha Electrons        18.0000002068 
   Number of Alpha Electrons        18.0000002068 
   Total nuber of  Electrons        36.0000004136 
   Exchange energy                 -47.8552348159 
   Correlation energy               -1.7611792639 
   Correlantion energy NL            0.0000000000 
   Exchange-Correlation energy     -49.6164140798 
   Embedding correction              0.0000000000 
# -----------------------------------------------------------
$ SCF_Energy
   description: The SCF energy
   geom. index: 28
   prop. index: 1
        SCF Energy:    -1054.9943278822
# -----------------------------------------------------------
$ DFT_Energy
   description: The DFT energy
   geom. index: 28
   prop. index: 1
   Number of Alpha Electrons        18.0000002068 
   Number of Alpha Electrons        18.0000002068 
   Total nuber of  Electrons        36.0000004135 
   Exchange energy                 -47.8552323131 
   Correlation energy               -1.7611791894 
   Correlantion energy NL            0.0000000000 
   Exchange-Correlation energy     -49.6164115025 
   Embedding correction              0.0000000000 
# -----------------------------------------------------------
$ SCF_Electric_Properties
   description: The SCF Calculated Electric Properties
   geom. index: 28
   prop. index: 1
       Filename                          : .\ArAr_F1_G2.scfp 
       Do Dipole Moment Calculation      : true 
       Do Quadrupole Moment Calculation  : false 
       Do Polarizability Calculation     : false 
** Dipole moment part of electric properties **
        Magnitude of dipole moment (Debye) :        0.0000008212
        Electronic Contribution:
                  0    
      0      -0.000000
      1       0.000000
      2       0.000000
        Nuclear Contribution:
                  0    
      0       0.000000
      1       0.000000
      2       0.000000
        Total Dipole moment:
                  0    
      0      -0.000000
      1       0.000000
      2       0.000000
# -----------------------------------------------------------
$ SCF_Energy
   description: The SCF energy
   geom. index: 29
   prop. index: 1
        SCF Energy:    -1054.9943472291
# -----------------------------------------------------------
$ DFT_Energy
   description: The DFT energy
   geom. index: 29
   prop. index: 1
   Number of Alpha Electrons        18.0000020737 
   Number of Alpha Electrons        18.0000020737 
   Total nuber of  Electrons        36.0000041474 
   Exchange energy                 -47.8552427658 
   Correlation energy               -1.7611338387 
   Correlantion energy NL            0.0000000000 
   Exchange-Correlation energy     -49.6163766044 
   Embedding correction              0.0000000000 
# -----------------------------------------------------------
$ SCF_Energy
   description: The SCF energy
   geom. index: 30
   prop. index: 1
        SCF Energy:    -1054.9943472347
# -----------------------------------------------------------
$ DFT_Energy
   description: The DFT energy
   geom. index: 30
   prop. index: 1
   Number of Alpha Electrons        18.0000020737 
   Number of Alpha Electrons        18.0000020737 
   Total nuber of  Electrons        36.0000041473 
   Exchange energy                 -47.8552466944 
   Correlation energy               -1.7611339555 
   Correlantion energy NL            0.0000000000 
   Exchange-Correlation energy     -49.6163806499 
   Embedding correction              0.0000000000 
# -----------------------------------------------------------
$ SCF_Electric_Properties
   description: The SCF Calculated Electric Properties
   geom. index: 30
   prop. index: 1
       Filename                          : .\ArAr_F1_G2.scfp 
       Do Dipole Moment Calculation      : true 
       Do Quadrupole Moment Calculation  : false 
       Do Polarizability Calculation     : false 
** Dipole moment part of electric properties **
        Magnitude of dipole moment (Debye) :        0.0000004212
        Electronic Contribution:
                  0    
      0      -0.000000
      1      -0.000000
      2       0.000000
        Nuclear Contribution:
                  0    
      0       0.000000
      1       0.000000
      2       0.000000
        Total Dipole moment:
                  0    
      0      -0.000000
      1      -0.000000
      2       0.000000
# -----------------------------------------------------------
$ SCF_Energy
   description: The SCF energy
   geom. index: 31
   prop. index: 1
        SCF Energy:    -1054.9943588399
# -----------------------------------------------------------
$ DFT_Energy
   description: The DFT energy
   geom. index: 31
   prop. index: 1
   Number of Alpha Electrons        17.9999995336 
   Number of Alpha Electrons        17.9999995336 
   Total nuber of  Electrons        35.9999990673 
   Exchange energy                 -47.8552492356 
   Correlation energy               -1.7610978812 
   Correlantion energy NL            0.0000000000 
   Exchange-Correlation energy     -49.6163471167 
   Embedding correction              0.0000000000 
# -----------------------------------------------------------
$ SCF_Energy
   description: The SCF energy
   geom. index: 32
   prop. index: 1
        SCF Energy:    -1054.9943588429
# -----------------------------------------------------------
$ DFT_Energy
   description: The DFT energy
   geom. index: 32
   prop. index: 1
   Number of Alpha Electrons        17.9999995336 
   Number of Alpha Electrons        17.9999995336 
   Total nuber of  Electrons        35.9999990671 
   Exchange energy                 -47.8552572277 
   Correlation energy               -1.7610981195 
   Correlantion energy NL            0.0000000000 
   Exchange-Correlation energy     -49.6163553472 
   Embedding correction              0.0000000000 
# -----------------------------------------------------------
$ SCF_Electric_Properties
   description: The SCF Calculated Electric Properties
   geom. index: 32
   prop. index: 1
       Filename                          : .\ArAr_F1_G2.scfp 
       Do Dipole Moment Calculation      : true 
       Do Quadrupole Moment Calculation  : false 
       Do Polarizability Calculation     : false 
** Dipole moment part of electric properties **
        Magnitude of dipole moment (Debye) :        0.0000003021
        Electronic Contribution:
                  0    
      0      -0.000000
      1       0.000000
      2       0.000000
        Nuclear Contribution:
                  0    
      0       0.000000
      1       0.000000
      2       0.000000
        Total Dipole moment:
                  0    
      0      -0.000000
      1       0.000000
      2       0.000000
# -----------------------------------------------------------
$ SCF_Energy
   description: The SCF energy
   geom. index: 33
   prop. index: 1
        SCF Energy:    -1054.9943652202
# -----------------------------------------------------------
$ DFT_Energy
   description: The DFT energy
   geom. index: 33
   prop. index: 1
   Number of Alpha Electrons        17.9999957077 
   Number of Alpha Electrons        17.9999957077 
   Total nuber of  Electrons        35.9999914153 
   Exchange energy                 -47.8552713208 
   Correlation energy               -1.7610704028 
   Correlantion energy NL            0.0000000000 
   Exchange-Correlation energy     -49.6163417236 
   Embedding correction              0.0000000000 
# -----------------------------------------------------------
$ SCF_Energy
   description: The SCF energy
   geom. index: 34
   prop. index: 1
        SCF Energy:    -1054.9943652207
# -----------------------------------------------------------
$ DFT_Energy
   description: The DFT energy
   geom. index: 34
   prop. index: 1
   Number of Alpha Electrons        17.9999957076 
   Number of Alpha Electrons        17.9999957076 
   Total nuber of  Electrons        35.9999914153 
   Exchange energy                 -47.8552627541 
   Correlation energy               -1.7610701513 
   Correlantion energy NL            0.0000000000 
   Exchange-Correlation energy     -49.6163329054 
   Embedding correction              0.0000000000 
# -----------------------------------------------------------
$ SCF_Electric_Properties
   description: The SCF Calculated Electric Properties
   geom. index: 34
   prop. index: 1
       Filename                          : .\ArAr_F1_G2.scfp 
       Do Dipole Moment Calculation      : true 
       Do Quadrupole Moment Calculation  : false 
       Do Polarizability Calculation     : false 
** Dipole moment part of electric properties **
        Magnitude of dipole moment (Debye) :        0.0000005449
        Electronic Contribution:
                  0    
      0      -0.000000
      1       0.000000
      2       0.000000
        Nuclear Contribution:
                  0    
      0      -0.000000
      1       0.000000
      2       0.000000
        Total Dipole moment:
                  0    
      0      -0.000000
      1       0.000000
      2       0.000000
# -----------------------------------------------------------
$ SCF_Energy
   description: The SCF energy
   geom. index: 35
   prop. index: 1
        SCF Energy:    -1054.9943755376
# -----------------------------------------------------------
$ DFT_Energy
   description: The DFT energy
   geom. index: 35
   prop. index: 1
   Number of Alpha Electrons        17.9999960765 
   Number of Alpha Electrons        17.9999960765 
   Total nuber of  Electrons        35.9999921531 
   Exchange energy                 -47.8552869842 
   Correlation energy               -1.7610493986 
   Correlantion energy NL            0.0000000000 
   Exchange-Correlation energy     -49.6163363828 
   Embedding correction              0.0000000000 
# -----------------------------------------------------------
$ SCF_Energy
   description: The SCF energy
   geom. index: 36
   prop. index: 1
        SCF Energy:    -1054.9943755375
# -----------------------------------------------------------
$ DFT_Energy
   description: The DFT energy
   geom. index: 36
   prop. index: 1
   Number of Alpha Electrons        17.9999960765 
   Number of Alpha Electrons        17.9999960765 
   Total nuber of  Electrons        35.9999921530 
   Exchange energy                 -47.8552829957 
   Correlation energy               -1.7610492830 
   Correlantion energy NL            0.0000000000 
   Exchange-Correlation energy     -49.6163322787 
   Embedding correction              0.0000000000 
# -----------------------------------------------------------
$ SCF_Electric_Properties
   description: The SCF Calculated Electric Properties
   geom. index: 36
   prop. index: 1
       Filename                          : .\ArAr_F1_G2.scfp 
       Do Dipole Moment Calculation      : true 
       Do Quadrupole Moment Calculation  : false 
       Do Polarizability Calculation     : false 
** Dipole moment part of electric properties **
        Magnitude of dipole moment (Debye) :        0.0000004955
        Electronic Contribution:
                  0    
      0      -0.000000
      1      -0.000000
      2      -0.000000
        Nuclear Contribution:
                  0    
      0      -0.000000
      1       0.000000
      2       0.000000
        Total Dipole moment:
                  0    
      0      -0.000000
      1      -0.000000
      2      -0.000000
# -----------------------------------------------------------
$ SCF_Energy
   description: The SCF energy
   geom. index: 37
   prop. index: 1
        SCF Energy:    -1054.9943900151
# -----------------------------------------------------------
$ DFT_Energy
   description: The DFT energy
   geom. index: 37
   prop. index: 1
   Number of Alpha Electrons        18.0000006839 
   Number of Alpha Electrons        18.0000006839 
   Total nuber of  Electrons        36.0000013678 
   Exchange energy                 -47.8553084458 
   Correlation energy               -1.7610338185 
   Correlantion energy NL            0.0000000000 
   Exchange-Correlation energy     -49.6163422643 
   Embedding correction              0.0000000000 
# -----------------------------------------------------------
$ SCF_Energy
   description: The SCF energy
   geom. index: 38
   prop. index: 1
        SCF Energy:    -1054.9943900162
# -----------------------------------------------------------
$ DFT_Energy
   description: The DFT energy
   geom. index: 38
   prop. index: 1
   Number of Alpha Electrons        18.0000006838 
   Number of Alpha Electrons        18.0000006838 
   Total nuber of  Electrons        36.0000013677 
   Exchange energy                 -47.8553019306 
   Correlation energy               -1.7610336305 
   Correlantion energy NL            0.0000000000 
   Exchange-Correlation energy     -49.6163355611 
   Embedding correction              0.0000000000 
# -----------------------------------------------------------
$ SCF_Electric_Properties
   description: The SCF Calculated Electric Properties
   geom. index: 38
   prop. index: 1
       Filename                          : .\ArAr_F1_G2.scfp 
       Do Dipole Moment Calculation      : true 
       Do Quadrupole Moment Calculation  : false 
       Do Polarizability Calculation     : false 
** Dipole moment part of electric properties **
        Magnitude of dipole moment (Debye) :        0.0000008987
        Electronic Contribution:
                  0    
      0       0.000000
      1       0.000000
      2      -0.000000
        Nuclear Contribution:
                  0    
      0       0.000000
      1       0.000000
      2       0.000000
        Total Dipole moment:
                  0    
      0       0.000000
      1       0.000000
      2      -0.000000
# -----------------------------------------------------------
$ SCF_Energy
   description: The SCF energy
   geom. index: 39
   prop. index: 1
        SCF Energy:    -1054.9944030039
# -----------------------------------------------------------
$ DFT_Energy
   description: The DFT energy
   geom. index: 39
   prop. index: 1
   Number of Alpha Electrons        18.0000046881 
   Number of Alpha Electrons        18.0000046881 
   Total nuber of  Electrons        36.0000093762 
   Exchange energy                 -47.8553237767 
   Correlation energy               -1.7610218079 
   Correlantion energy NL            0.0000000000 
   Exchange-Correlation energy     -49.6163455846 
   Embedding correction              0.0000000000 
# -----------------------------------------------------------
$ SCF_Energy
   description: The SCF energy
   geom. index: 40
   prop. index: 1
        SCF Energy:    -1054.9944030056
# -----------------------------------------------------------
$ DFT_Energy
   description: The DFT energy
   geom. index: 40
   prop. index: 1
   Number of Alpha Electrons        18.0000046881 
   Number of Alpha Electrons        18.0000046881 
   Total nuber of  Electrons        36.0000093761 
   Exchange energy                 -47.8553151296 
   Correlation energy               -1.7610215551 
   Correlantion energy NL            0.0000000000 
   Exchange-Correlation energy     -49.6163366846 
   Embedding correction              0.0000000000 
# -----------------------------------------------------------
$ SCF_Electric_Properties
   description: The SCF Calculated Electric Properties
   geom. index: 40
   prop. index: 1
       Filename                          : .\ArAr_F1_G2.scfp 
       Do Dipole Moment Calculation      : true 
       Do Quadrupole Moment Calculation  : false 
       Do Polarizability Calculation     : false 
** Dipole moment part of electric properties **
        Magnitude of dipole moment (Debye) :        0.0000007407
        Electronic Contribution:
                  0    
      0       0.000000
      1       0.000000
      2      -0.000000
        Nuclear Contribution:
                  0    
      0       0.000000
      1       0.000000
      2       0.000000
        Total Dipole moment:
                  0    
      0       0.000000
      1       0.000000
      2      -0.000000
# -----------------------------------------------------------
$ SCF_Energy
   description: The SCF energy
   geom. index: 41
   prop. index: 1
        SCF Energy:    -1054.9944074706
# -----------------------------------------------------------
$ DFT_Energy
   description: The DFT energy
   geom. index: 41
   prop. index: 1
   Number of Alpha Electrons        18.0000037893 
   Number of Alpha Electrons        18.0000037893 
   Total nuber of  Electrons        36.0000075787 
   Exchange energy                 -47.8553277799 
   Correlation energy               -1.7610121127 
   Correlantion energy NL            0.0000000000 
   Exchange-Correlation energy     -49.6163398926 
   Embedding correction              0.0000000000 
# -----------------------------------------------------------
$ SCF_Energy
   description: The SCF energy
   geom. index: 42
   prop. index: 1
        SCF Energy:    -1054.9944074723
# -----------------------------------------------------------
$ DFT_Energy
   description: The DFT energy
   geom. index: 42
   prop. index: 1
   Number of Alpha Electrons        18.0000037893 
   Number of Alpha Electrons        18.0000037893 
   Total nuber of  Electrons        36.0000075786 
   Exchange energy                 -47.8553193446 
   Correlation energy               -1.7610118643 
   Correlantion energy NL            0.0000000000 
   Exchange-Correlation energy     -49.6163312089 
   Embedding correction              0.0000000000 
# -----------------------------------------------------------
$ SCF_Electric_Properties
   description: The SCF Calculated Electric Properties
   geom. index: 42
   prop. index: 1
       Filename                          : .\ArAr_F1_G2.scfp 
       Do Dipole Moment Calculation      : true 
       Do Quadrupole Moment Calculation  : false 
       Do Polarizability Calculation     : false 
** Dipole moment part of electric properties **
        Magnitude of dipole moment (Debye) :        0.0000006896
        Electronic Contribution:
                  0    
      0       0.000000
      1       0.000000
      2      -0.000000
        Nuclear Contribution:
                  0    
      0       0.000000
      1       0.000000
      2       0.000000
        Total Dipole moment:
                  0    
      0       0.000000
      1       0.000000
      2      -0.000000
# -----------------------------------------------------------
$ SCF_Energy
   description: The SCF energy
   geom. index: 43
   prop. index: 1
        SCF Energy:    -1054.9944060858
# -----------------------------------------------------------
$ DFT_Energy
   description: The DFT energy
   geom. index: 43
   prop. index: 1
   Number of Alpha Electrons        17.9999979604 
   Number of Alpha Electrons        17.9999979604 
   Total nuber of  Electrons        35.9999959208 
   Exchange energy                 -47.8553268327 
   Correlation energy               -1.7610043374 
   Correlantion energy NL            0.0000000000 
   Exchange-Correlation energy     -49.6163311702 
   Embedding correction              0.0000000000 
# -----------------------------------------------------------
$ SCF_Energy
   description: The SCF energy
   geom. index: 44
   prop. index: 1
        SCF Energy:    -1054.9944060864
# -----------------------------------------------------------
$ DFT_Energy
   description: The DFT energy
   geom. index: 44
   prop. index: 1
   Number of Alpha Electrons        17.9999979604 
   Number of Alpha Electrons        17.9999979604 
   Total nuber of  Electrons        35.9999959207 
   Exchange energy                 -47.8553208630 
   Correlation energy               -1.7610041611 
   Correlantion energy NL            0.0000000000 
   Exchange-Correlation energy     -49.6163250241 
   Embedding correction              0.0000000000 
# -----------------------------------------------------------
$ SCF_Electric_Properties
   description: The SCF Calculated Electric Properties
   geom. index: 44
   prop. index: 1
       Filename                          : .\ArAr_F1_G2.scfp 
       Do Dipole Moment Calculation      : true 
       Do Quadrupole Moment Calculation  : false 
       Do Polarizability Calculation     : false 
** Dipole moment part of electric properties **
        Magnitude of dipole moment (Debye) :        0.0000006943
        Electronic Contribution:
                  0    
      0       0.000000
      1      -0.000000
      2      -0.000000
        Nuclear Contribution:
                  0    
      0       0.000000
      1       0.000000
      2       0.000000
        Total Dipole moment:
                  0    
      0       0.000000
      1      -0.000000
      2      -0.000000
# -----------------------------------------------------------
$ SCF_Energy
   description: The SCF energy
   geom. index: 45
   prop. index: 1
        SCF Energy:    -1054.9944081380
# -----------------------------------------------------------
$ DFT_Energy
   description: The DFT energy
   geom. index: 45
   prop. index: 1
   Number of Alpha Electrons        17.9999925460 
   Number of Alpha Electrons        17.9999925460 
   Total nuber of  Electrons        35.9999850920 
   Exchange energy                 -47.8553311341 
   Correlation energy               -1.7609986784 
   Correlantion energy NL            0.0000000000 
   Exchange-Correlation energy     -49.6163298126 
   Embedding correction              0.0000000000 
# -----------------------------------------------------------
$ SCF_Energy
   description: The SCF energy
   geom. index: 46
   prop. index: 1
        SCF Energy:    -1054.9944081396
# -----------------------------------------------------------
$ DFT_Energy
   description: The DFT energy
   geom. index: 46
   prop. index: 1
   Number of Alpha Electrons        17.9999925460 
   Number of Alpha Electrons        17.9999925460 
   Total nuber of  Electrons        35.9999850919 
   Exchange energy                 -47.8553281096 
   Correlation energy               -1.7609985906 
   Correlantion energy NL            0.0000000000 
   Exchange-Correlation energy     -49.6163267002 
   Embedding correction              0.0000000000 
# -----------------------------------------------------------
$ SCF_Electric_Properties
   description: The SCF Calculated Electric Properties
   geom. index: 46
   prop. index: 1
       Filename                          : .\ArAr_F1_G2.scfp 
       Do Dipole Moment Calculation      : true 
       Do Quadrupole Moment Calculation  : false 
       Do Polarizability Calculation     : false 
** Dipole moment part of electric properties **
        Magnitude of dipole moment (Debye) :        0.0000009515
        Electronic Contribution:
                  0    
      0       0.000000
      1      -0.000000
      2      -0.000000
        Nuclear Contribution:
                  0    
      0      -0.000000
      1       0.000000
      2       0.000000
        Total Dipole moment:
                  0    
      0       0.000000
      1      -0.000000
      2      -0.000000
# -----------------------------------------------------------
$ SCF_Energy
   description: The SCF energy
   geom. index: 47
   prop. index: 1
        SCF Energy:    -1054.9944181176
# -----------------------------------------------------------
$ DFT_Energy
   description: The DFT energy
   geom. index: 47
   prop. index: 1
   Number of Alpha Electrons        17.9999931522 
   Number of Alpha Electrons        17.9999931522 
   Total nuber of  Electrons        35.9999863044 
   Exchange energy                 -47.8553432574 
   Correlation energy               -1.7609952371 
   Correlantion energy NL            0.0000000000 
   Exchange-Correlation energy     -49.6163384945 
   Embedding correction              0.0000000000 
# -----------------------------------------------------------
$ SCF_Energy
   description: The SCF energy
   geom. index: 48
   prop. index: 1
        SCF Energy:    -1054.9944181183
# -----------------------------------------------------------
$ DFT_Energy
   description: The DFT energy
   geom. index: 48
   prop. index: 1
   Number of Alpha Electrons        17.9999931522 
   Number of Alpha Electrons        17.9999931522 
   Total nuber of  Electrons        35.9999863043 
   Exchange energy                 -47.8553412144 
   Correlation energy               -1.7609951812 
   Correlantion energy NL            0.0000000000 
   Exchange-Correlation energy     -49.6163363956 
   Embedding correction              0.0000000000 
# -----------------------------------------------------------
$ SCF_Electric_Properties
   description: The SCF Calculated Electric Properties
   geom. index: 48
   prop. index: 1
       Filename                          : .\ArAr_F1_G2.scfp 
       Do Dipole Moment Calculation      : true 
       Do Quadrupole Moment Calculation  : false 
       Do Polarizability Calculation     : false 
** Dipole moment part of electric properties **
        Magnitude of dipole moment (Debye) :        0.0000009993
        Electronic Contribution:
                  0    
      0      -0.000000
      1      -0.000000
      2      -0.000000
        Nuclear Contribution:
                  0    
      0       0.000000
      1       0.000000
      2       0.000000
        Total Dipole moment:
                  0    
      0      -0.000000
      1      -0.000000
      2      -0.000000
# -----------------------------------------------------------
$ SCF_Energy
   description: The SCF energy
   geom. index: 49
   prop. index: 1
        SCF Energy:    -1054.9944329151
# -----------------------------------------------------------
$ DFT_Energy
   description: The DFT energy
   geom. index: 49
   prop. index: 1
   Number of Alpha Electrons        18.0000001941 
   Number of Alpha Electrons        18.0000001941 
   Total nuber of  Electrons        36.0000003881 
   Exchange energy                 -47.8553577291 
   Correlation energy               -1.7609934626 
   Correlantion energy NL            0.0000000000 
   Exchange-Correlation energy     -49.6163511917 
   Embedding correction              0.0000000000 
# -----------------------------------------------------------
$ SCF_Energy
   description: The SCF energy
   geom. index: 50
   prop. index: 1
        SCF Energy:    -1054.9944329153
# -----------------------------------------------------------
$ DFT_Energy
   description: The DFT energy
   geom. index: 50
   prop. index: 1
   Number of Alpha Electrons        18.0000001940 
   Number of Alpha Electrons        18.0000001940 
   Total nuber of  Electrons        36.0000003880 
   Exchange energy                 -47.8553541803 
   Correlation energy               -1.7609933629 
   Correlantion energy NL            0.0000000000 
   Exchange-Correlation energy     -49.6163475432 
   Embedding correction              0.0000000000 
# -----------------------------------------------------------
$ SCF_Electric_Properties
   description: The SCF Calculated Electric Properties
   geom. index: 50
   prop. index: 1
       Filename                          : .\ArAr_F1_G2.scfp 
       Do Dipole Moment Calculation      : true 
       Do Quadrupole Moment Calculation  : false 
       Do Polarizability Calculation     : false 
** Dipole moment part of electric properties **
        Magnitude of dipole moment (Debye) :        0.0000012285
        Electronic Contribution:
                  0    
      0      -0.000000
      1      -0.000000
      2      -0.000000
        Nuclear Contribution:
                  0    
      0      -0.000000
      1       0.000000
      2       0.000000
        Total Dipole moment:
                  0    
      0      -0.000000
      1      -0.000000
      2      -0.000000
# -----------------------------------------------------------
$ SCF_Energy
   description: The SCF energy
   geom. index: 51
   prop. index: 1
        SCF Energy:    -1054.9944437005
# -----------------------------------------------------------
$ DFT_Energy
   description: The DFT energy
   geom. index: 51
   prop. index: 1
   Number of Alpha Electrons        18.0000089066 
   Number of Alpha Electrons        18.0000089066 
   Total nuber of  Electrons        36.0000178133 
   Exchange energy                 -47.8553658179 
   Correlation energy               -1.7609923444 
   Correlantion energy NL            0.0000000000 
   Exchange-Correlation energy     -49.6163581622 
   Embedding correction              0.0000000000 
# -----------------------------------------------------------
$ SCF_Energy
   description: The SCF energy
   geom. index: 52
   prop. index: 1
        SCF Energy:    -1054.9944437029
# -----------------------------------------------------------
$ DFT_Energy
   description: The DFT energy
   geom. index: 52
   prop. index: 1
   Number of Alpha Electrons        18.0000089066 
   Number of Alpha Electrons        18.0000089066 
   Total nuber of  Electrons        36.0000178132 
   Exchange energy                 -47.8553606525 
   Correlation energy               -1.7609921944 
   Correlantion energy NL            0.0000000000 
   Exchange-Correlation energy     -49.6163528469 
   Embedding correction              0.0000000000 
# -----------------------------------------------------------
$ SCF_Electric_Properties
   description: The SCF Calculated Electric Properties
   geom. index: 52
   prop. index: 1
       Filename                          : .\ArAr_F1_G2.scfp 
       Do Dipole Moment Calculation      : true 
       Do Quadrupole Moment Calculation  : false 
       Do Polarizability Calculation     : false 
** Dipole moment part of electric properties **
        Magnitude of dipole moment (Debye) :        0.0000011126
        Electronic Contribution:
                  0    
      0      -0.000000
      1      -0.000000
      2      -0.000000
        Nuclear Contribution:
                  0    
      0       0.000000
      1       0.000000
      2       0.000000
        Total Dipole moment:
                  0    
      0      -0.000000
      1      -0.000000
      2      -0.000000
# -----------------------------------------------------------
$ SCF_Energy
   description: The SCF energy
   geom. index: 53
   prop. index: 1
        SCF Energy:    -1054.9944461182
# -----------------------------------------------------------
$ DFT_Energy
   description: The DFT energy
   geom. index: 53
   prop. index: 1
   Number of Alpha Electrons        18.0000134265 
   Number of Alpha Electrons        18.0000134265 
   Total nuber of  Electrons        36.0000268530 
   Exchange energy                 -47.8553646845 
   Correlation energy               -1.7609910738 
   Correlantion energy NL            0.0000000000 
   Exchange-Correlation energy     -49.6163557583 
   Embedding correction              0.0000000000 
# -----------------------------------------------------------
$ SCF_Energy
   description: The SCF energy
   geom. index: 54
   prop. index: 1
        SCF Energy:    -1054.9944461191
# -----------------------------------------------------------
$ DFT_Energy
   description: The DFT energy
   geom. index: 54
   prop. index: 1
   Number of Alpha Electrons        18.0000134265 
   Number of Alpha Electrons        18.0000134265 
   Total nuber of  Electrons        36.0000268529 
   Exchange energy                 -47.8553591119 
   Correlation energy               -1.7609909084 
   Correlantion energy NL            0.0000000000 
   Exchange-Correlation energy     -49.6163500203 
   Embedding correction              0.0000000000 
# -----------------------------------------------------------
$ SCF_Electric_Properties
   description: The SCF Calculated Electric Properties
   geom. index: 54
   prop. index: 1
       Filename                          : .\ArAr_F1_G2.scfp 
       Do Dipole Moment Calculation      : true 
       Do Quadrupole Moment Calculation  : false 
       Do Polarizability Calculation     : false 
** Dipole moment part of electric properties **
        Magnitude of dipole moment (Debye) :        0.0000011605
        Electronic Contribution:
                  0    
      0      -0.000000
      1      -0.000000
      2      -0.000000
        Nuclear Contribution:
                  0    
      0       0.000000
      1       0.000000
      2       0.000000
        Total Dipole moment:
                  0    
      0      -0.000000
      1      -0.000000
      2      -0.000000
# -----------------------------------------------------------
$ SCF_Energy
   description: The SCF energy
   geom. index: 55
   prop. index: 1
        SCF Energy:    -1054.9944416166
# -----------------------------------------------------------
$ DFT_Energy
   description: The DFT energy
   geom. index: 55
   prop. index: 1
   Number of Alpha Electrons        18.0000106582 
   Number of Alpha Electrons        18.0000106582 
   Total nuber of  Electrons        36.0000213164 
   Exchange energy                 -47.8553555305 
   Correlation energy               -1.7609893845 
   Correlantion energy NL            0.0000000000 
   Exchange-Correlation energy     -49.6163449151 
   Embedding correction              0.0000000000 
# -----------------------------------------------------------
$ SCF_Energy
   description: The SCF energy
   geom. index: 56
   prop. index: 1
        SCF Energy:    -1054.9944416169
# -----------------------------------------------------------
$ DFT_Energy
   description: The DFT energy
   geom. index: 56
   prop. index: 1
   Number of Alpha Electrons        18.0000106582 
   Number of Alpha Electrons        18.0000106582 
   Total nuber of  Electrons        36.0000213163 
   Exchange energy                 -47.8553502908 
   Correlation energy               -1.7609892280 
   Correlantion energy NL            0.0000000000 
   Exchange-Correlation energy     -49.6163395188 
   Embedding correction              0.0000000000 
# -----------------------------------------------------------
$ SCF_Electric_Properties
   description: The SCF Calculated Electric Properties
   geom. index: 56
   prop. index: 1
       Filename                          : .\ArAr_F1_G2.scfp 
       Do Dipole Moment Calculation      : true 
       Do Quadrupole Moment Calculation  : false 
       Do Polarizability Calculation     : false 
** Dipole moment part of electric properties **
        Magnitude of dipole moment (Debye) :        0.0000009213
        Electronic Contribution:
                  0    
      0      -0.000000
      1      -0.000000
      2      -0.000000
        Nuclear Contribution:
                  0    
      0       0.000000
      1       0.000000
      2       0.000000
        Total Dipole moment:
                  0    
      0      -0.000000
      1      -0.000000
      2      -0.000000
# -----------------------------------------------------------
$ SCF_Energy
   description: The SCF energy
   geom. index: 57
   prop. index: 1
        SCF Energy:    -1054.9944328557
# -----------------------------------------------------------
$ DFT_Energy
   description: The DFT energy
   geom. index: 57
   prop. index: 1
   Number of Alpha Electrons        18.0000010712 
   Number of Alpha Electrons        18.0000010712 
   Total nuber of  Electrons        36.0000021425 
   Exchange energy                 -47.8553414426 
   Correlation energy               -1.7609875267 
   Correlantion energy NL            0.0000000000 
   Exchange-Correlation energy     -49.6163289693 
   Embedding correction              0.0000000000 
# -----------------------------------------------------------
$ SCF_Energy
   description: The SCF energy
   geom. index: 58
   prop. index: 1
        SCF Energy:    -1054.9944328564
# -----------------------------------------------------------
$ DFT_Energy
   description: The DFT energy
   geom. index: 58
   prop. index: 1
   Number of Alpha Electrons        18.0000010712 
   Number of Alpha Electrons        18.0000010712 
   Total nuber of  Electrons        36.0000021425 
   Exchange energy                 -47.8553375063 
   Correlation energy               -1.7609874097 
   Correlantion energy NL            0.0000000000 
   Exchange-Correlation energy     -49.6163249160 
   Embedding correction              0.0000000000 
# -----------------------------------------------------------
$ SCF_Electric_Properties
   description: The SCF Calculated Electric Properties
   geom. index: 58
   prop. index: 1
       Filename                          : .\ArAr_F1_G2.scfp 
       Do Dipole Moment Calculation      : true 
       Do Quadrupole Moment Calculation  : false 
       Do Polarizability Calculation     : false 
** Dipole moment part of electric properties **
        Magnitude of dipole moment (Debye) :        0.0000012895
        Electronic Contribution:
                  0    
      0      -0.000000
      1      -0.000000
      2      -0.000000
        Nuclear Contribution:
                  0    
      0       0.000000
      1       0.000000
      2       0.000000
        Total Dipole moment:
                  0    
      0      -0.000000
      1      -0.000000
      2      -0.000000
# -----------------------------------------------------------
$ SCF_Energy
   description: The SCF energy
   geom. index: 59
   prop. index: 1
        SCF Energy:    -1054.9944262644
# -----------------------------------------------------------
$ DFT_Energy
   description: The DFT energy
   geom. index: 59
   prop. index: 1
   Number of Alpha Electrons        17.9999901837 
   Number of Alpha Electrons        17.9999901837 
   Total nuber of  Electrons        35.9999803673 
   Exchange energy                 -47.8553311739 
   Correlation energy               -1.7609862403 
   Correlantion energy NL            0.0000000000 
   Exchange-Correlation energy     -49.6163174142 
   Embedding correction              0.0000000000 
# -----------------------------------------------------------
$ SCF_Energy
   description: The SCF energy
   geom. index: 60
   prop. index: 1
        SCF Energy:    -1054.9944262644
# -----------------------------------------------------------
$ DFT_Energy
   description: The DFT energy
   geom. index: 60
   prop. index: 1
   Number of Alpha Electrons        17.9999901836 
   Number of Alpha Electrons        17.9999901836 
   Total nuber of  Electrons        35.9999803673 
   Exchange energy                 -47.8553301286 
   Correlation energy               -1.7609862098 
   Correlantion energy NL            0.0000000000 
   Exchange-Correlation energy     -49.6163163384 
   Embedding correction              0.0000000000 
# -----------------------------------------------------------
$ SCF_Electric_Properties
   description: The SCF Calculated Electric Properties
   geom. index: 60
   prop. index: 1
       Filename                          : .\ArAr_F1_G2.scfp 
       Do Dipole Moment Calculation      : true 
       Do Quadrupole Moment Calculation  : false 
       Do Polarizability Calculation     : false 
** Dipole moment part of electric properties **
        Magnitude of dipole moment (Debye) :        0.0000012876
        Electronic Contribution:
                  0    
      0      -0.000000
      1      -0.000000
      2      -0.000000
        Nuclear Contribution:
                  0    
      0       0.000000
      1       0.000000
      2       0.000000
        Total Dipole moment:
                  0    
      0      -0.000000
      1      -0.000000
      2      -0.000000
# -----------------------------------------------------------
$ SCF_Energy
   description: The SCF energy
   geom. index: 61
   prop. index: 1
        SCF Energy:    -1054.9944280547
# -----------------------------------------------------------
$ DFT_Energy
   description: The DFT energy
   geom. index: 61
   prop. index: 1
   Number of Alpha Electrons        17.9999856694 
   Number of Alpha Electrons        17.9999856694 
   Total nuber of  Electrons        35.9999713387 
   Exchange energy                 -47.8553314977 
   Correlation energy               -1.7609861246 
   Correlantion energy NL            0.0000000000 
   Exchange-Correlation energy     -49.6163176223 
   Embedding correction              0.0000000000 
# -----------------------------------------------------------
$ SCF_Energy
   description: The SCF energy
   geom. index: 62
   prop. index: 1
        SCF Energy:    -1054.9944280552
# -----------------------------------------------------------
$ DFT_Energy
   description: The DFT energy
   geom. index: 62
   prop. index: 1
   Number of Alpha Electrons        17.9999856693 
   Number of Alpha Electrons        17.9999856693 
   Total nuber of  Electrons        35.9999713387 
   Exchange energy                 -47.8553325285 
   Correlation energy               -1.7609861579 
   Correlantion energy NL            0.0000000000 
   Exchange-Correlation energy     -49.6163186863 
   Embedding correction              0.0000000000 
# -----------------------------------------------------------
$ SCF_Electric_Properties
   description: The SCF Calculated Electric Properties
   geom. index: 62
   prop. index: 1
       Filename                          : .\ArAr_F1_G2.scfp 
       Do Dipole Moment Calculation      : true 
       Do Quadrupole Moment Calculation  : false 
       Do Polarizability Calculation     : false 
** Dipole moment part of electric properties **
        Magnitude of dipole moment (Debye) :        0.0000009902
        Electronic Contribution:
                  0    
      0      -0.000000
      1      -0.000000
      2      -0.000000
        Nuclear Contribution:
                  0    
      0       0.000000
      1       0.000000
      2       0.000000
        Total Dipole moment:
                  0    
      0      -0.000000
      1      -0.000000
      2      -0.000000
# -------------------------------------------------------------
----------------------- !GEOMETRIES! ------------------------
# -------------------------------------------------------------
------------------------ !GEOMETRY! -------------------------
    Number of atoms:    2 
    Geometry Index:     1 
    Coordinates:
               0 Ar     0.000000000467    0.000000000000    0.000000000000
               1 Ar     2.999999999533    0.000000000000    0.000000000000
------------------------ !GEOMETRY! -------------------------
    Number of atoms:    2 
    Geometry Index:     2 
    Coordinates:
               0 Ar     0.000000000467    0.000000000000    0.000000000000
               1 Ar     2.999999999533    0.000000000000    0.000000000000
------------------------ !GEOMETRY! -------------------------
    Number of atoms:    2 
    Geometry Index:     3 
    Coordinates:
               0 Ar    -0.050000001282    0.000000000000    0.000000000000
               1 Ar     3.050000001282    0.000000000000    0.000000000000
------------------------ !GEOMETRY! -------------------------
    Number of atoms:    2 
    Geometry Index:     4 
    Coordinates:
               0 Ar    -0.050000001282    0.000000000000    0.000000000000
               1 Ar     3.050000001282    0.000000000000    0.000000000000
------------------------ !GEOMETRY! -------------------------
    Number of atoms:    2 
    Geometry Index:     5 
    Coordinates:
               0 Ar    -0.100000000384    0.000000000000    0.000000000000
               1 Ar     3.100000000384    0.000000000000    0.000000000000
------------------------ !GEOMETRY! -------------------------
    Number of atoms:    2 
    Geometry Index:     6 
    Coordinates:
               0 Ar    -0.100000000384    0.000000000000    0.000000000000
               1 Ar     3.100000000384    0.000000000000    0.000000000000
------------------------ !GEOMETRY! -------------------------
    Number of atoms:    2 
    Geometry Index:     7 
    Coordinates:
               0 Ar    -0.149999999487    0.000000000000    0.000000000000
               1 Ar     3.149999999487    0.000000000000    0.000000000000
------------------------ !GEOMETRY! -------------------------
    Number of atoms:    2 
    Geometry Index:     8 
    Coordinates:
               0 Ar    -0.149999999487    0.000000000000    0.000000000000
               1 Ar     3.149999999487    0.000000000000    0.000000000000
------------------------ !GEOMETRY! -------------------------
    Number of atoms:    2 
    Geometry Index:     9 
    Coordinates:
               0 Ar    -0.200000001235    0.000000000000    0.000000000000
               1 Ar     3.200000001235    0.000000000000    0.000000000000
------------------------ !GEOMETRY! -------------------------
    Number of atoms:    2 
    Geometry Index:     10 
    Coordinates:
               0 Ar    -0.200000001235    0.000000000000    0.000000000000
               1 Ar     3.200000001235    0.000000000000    0.000000000000
------------------------ !GEOMETRY! -------------------------
    Number of atoms:    2 
    Geometry Index:     11 
    Coordinates:
               0 Ar    -0.250000000338    0.000000000000    0.000000000000
               1 Ar     3.250000000338    0.000000000000    0.000000000000
------------------------ !GEOMETRY! -------------------------
    Number of atoms:    2 
    Geometry Index:     12 
    Coordinates:
               0 Ar    -0.250000000338    0.000000000000    0.000000000000
               1 Ar     3.250000000338    0.000000000000    0.000000000000
------------------------ !GEOMETRY! -------------------------
    Number of atoms:    2 
    Geometry Index:     13 
    Coordinates:
               0 Ar    -0.299999999440    0.000000000000    0.000000000000
               1 Ar     3.299999999440    0.000000000000    0.000000000000
------------------------ !GEOMETRY! -------------------------
    Number of atoms:    2 
    Geometry Index:     14 
    Coordinates:
               0 Ar    -0.299999999440    0.000000000000    0.000000000000
               1 Ar     3.299999999440    0.000000000000    0.000000000000
------------------------ !GEOMETRY! -------------------------
    Number of atoms:    2 
    Geometry Index:     15 
    Coordinates:
               0 Ar    -0.350000001188    0.000000000000    0.000000000000
               1 Ar     3.350000001188    0.000000000000    0.000000000000
------------------------ !GEOMETRY! -------------------------
    Number of atoms:    2 
    Geometry Index:     16 
    Coordinates:
               0 Ar    -0.350000001188    0.000000000000    0.000000000000
               1 Ar     3.350000001188    0.000000000000    0.000000000000
------------------------ !GEOMETRY! -------------------------
    Number of atoms:    2 
    Geometry Index:     17 
    Coordinates:
               0 Ar    -0.400000000291    0.000000000000    0.000000000000
               1 Ar     3.400000000291    0.000000000000    0.000000000000
------------------------ !GEOMETRY! -------------------------
    Number of atoms:    2 
    Geometry Index:     18 
    Coordinates:
               0 Ar    -0.400000000291    0.000000000000    0.000000000000
               1 Ar     3.400000000291    0.000000000000    0.000000000000
------------------------ !GEOMETRY! -------------------------
    Number of atoms:    2 
    Geometry Index:     19 
    Coordinates:
               0 Ar    -0.449999999393    0.000000000000    0.000000000000
               1 Ar     3.449999999393    0.000000000000    0.000000000000
------------------------ !GEOMETRY! -------------------------
    Number of atoms:    2 
    Geometry Index:     20 
    Coordinates:
               0 Ar    -0.449999999393    0.000000000000    0.000000000000
               1 Ar     3.449999999393    0.000000000000    0.000000000000
------------------------ !GEOMETRY! -------------------------
    Number of atoms:    2 
    Geometry Index:     21 
    Coordinates:
               0 Ar    -0.500000001142    0.000000000000    0.000000000000
               1 Ar     3.500000001142    0.000000000000    0.000000000000
------------------------ !GEOMETRY! -------------------------
    Number of atoms:    2 
    Geometry Index:     22 
    Coordinates:
               0 Ar    -0.500000001142    0.000000000000    0.000000000000
               1 Ar     3.500000001142    0.000000000000    0.000000000000
------------------------ !GEOMETRY! -------------------------
    Number of atoms:    2 
    Geometry Index:     23 
    Coordinates:
               0 Ar    -0.550000000244    0.000000000000    0.000000000000
               1 Ar     3.550000000244    0.000000000000    0.000000000000
------------------------ !GEOMETRY! -------------------------
    Number of atoms:    2 
    Geometry Index:     24 
    Coordinates:
               0 Ar    -0.550000000244    0.000000000000    0.000000000000
               1 Ar     3.550000000244    0.000000000000    0.000000000000
------------------------ !GEOMETRY! -------------------------
    Number of atoms:    2 
    Geometry Index:     25 
    Coordinates:
               0 Ar    -0.599999999347    0.000000000000    0.000000000000
               1 Ar     3.599999999347    0.000000000000    0.000000000000
------------------------ !GEOMETRY! -------------------------
    Number of atoms:    2 
    Geometry Index:     26 
    Coordinates:
               0 Ar    -0.599999999347    0.000000000000    0.000000000000
               1 Ar     3.599999999347    0.000000000000    0.000000000000
------------------------ !GEOMETRY! -------------------------
    Number of atoms:    2 
    Geometry Index:     27 
    Coordinates:
               0 Ar    -0.650000001095    0.000000000000    0.000000000000
               1 Ar     3.650000001095    0.000000000000    0.000000000000
------------------------ !GEOMETRY! -------------------------
    Number of atoms:    2 
    Geometry Index:     28 
    Coordinates:
               0 Ar    -0.650000001095    0.000000000000    0.000000000000
               1 Ar     3.650000001095    0.000000000000    0.000000000000
------------------------ !GEOMETRY! -------------------------
    Number of atoms:    2 
    Geometry Index:     29 
    Coordinates:
               0 Ar    -0.700000000198    0.000000000000    0.000000000000
               1 Ar     3.700000000198    0.000000000000    0.000000000000
------------------------ !GEOMETRY! -------------------------
    Number of atoms:    2 
    Geometry Index:     30 
    Coordinates:
               0 Ar    -0.700000000198    0.000000000000    0.000000000000
               1 Ar     3.700000000198    0.000000000000    0.000000000000
------------------------ !GEOMETRY! -------------------------
    Number of atoms:    2 
    Geometry Index:     31 
    Coordinates:
               0 Ar    -0.749999999300    0.000000000000    0.000000000000
               1 Ar     3.749999999300    0.000000000000    0.000000000000
------------------------ !GEOMETRY! -------------------------
    Number of atoms:    2 
    Geometry Index:     32 
    Coordinates:
               0 Ar    -0.749999999300    0.000000000000    0.000000000000
               1 Ar     3.749999999300    0.000000000000    0.000000000000
------------------------ !GEOMETRY! -------------------------
    Number of atoms:    2 
    Geometry Index:     33 
    Coordinates:
               0 Ar    -0.800000001048    0.000000000000    0.000000000000
               1 Ar     3.800000001048    0.000000000000    0.000000000000
------------------------ !GEOMETRY! -------------------------
    Number of atoms:    2 
    Geometry Index:     34 
    Coordinates:
               0 Ar    -0.800000001048    0.000000000000    0.000000000000
               1 Ar     3.800000001048    0.000000000000    0.000000000000
------------------------ !GEOMETRY! -------------------------
    Number of atoms:    2 
    Geometry Index:     35 
    Coordinates:
               0 Ar    -0.850000000151    0.000000000000    0.000000000000
               1 Ar     3.850000000151    0.000000000000    0.000000000000
------------------------ !GEOMETRY! -------------------------
    Number of atoms:    2 
    Geometry Index:     36 
    Coordinates:
               0 Ar    -0.850000000151    0.000000000000    0.000000000000
               1 Ar     3.850000000151    0.000000000000    0.000000000000
------------------------ !GEOMETRY! -------------------------
    Number of atoms:    2 
    Geometry Index:     37 
    Coordinates:
               0 Ar    -0.899999999253    0.000000000000    0.000000000000
               1 Ar     3.899999999253    0.000000000000    0.000000000000
------------------------ !GEOMETRY! -------------------------
    Number of atoms:    2 
    Geometry Index:     38 
    Coordinates:
               0 Ar    -0.899999999253    0.000000000000    0.000000000000
               1 Ar     3.899999999253    0.000000000000    0.000000000000
------------------------ !GEOMETRY! -------------------------
    Number of atoms:    2 
    Geometry Index:     39 
    Coordinates:
               0 Ar    -0.950000001002    0.000000000000    0.000000000000
               1 Ar     3.950000001002    0.000000000000    0.000000000000
------------------------ !GEOMETRY! -------------------------
    Number of atoms:    2 
    Geometry Index:     40 
    Coordinates:
               0 Ar    -0.950000001002    0.000000000000    0.000000000000
               1 Ar     3.950000001002    0.000000000000    0.000000000000
------------------------ !GEOMETRY! -------------------------
    Number of atoms:    2 
    Geometry Index:     41 
    Coordinates:
               0 Ar    -1.000000000104    0.000000000000    0.000000000000
               1 Ar     4.000000000104    0.000000000000    0.000000000000
------------------------ !GEOMETRY! -------------------------
    Number of atoms:    2 
    Geometry Index:     42 
    Coordinates:
               0 Ar    -1.000000000104    0.000000000000    0.000000000000
               1 Ar     4.000000000104    0.000000000000    0.000000000000
------------------------ !GEOMETRY! -------------------------
    Number of atoms:    2 
    Geometry Index:     43 
    Coordinates:
               0 Ar    -1.049999999207    0.000000000000    0.000000000000
               1 Ar     4.049999999207    0.000000000000    0.000000000000
------------------------ !GEOMETRY! -------------------------
    Number of atoms:    2 
    Geometry Index:     44 
    Coordinates:
               0 Ar    -1.049999999207    0.000000000000    0.000000000000
               1 Ar     4.049999999207    0.000000000000    0.000000000000
------------------------ !GEOMETRY! -------------------------
    Number of atoms:    2 
    Geometry Index:     45 
    Coordinates:
               0 Ar    -1.100000000955    0.000000000000    0.000000000000
               1 Ar     4.100000000955    0.000000000000    0.000000000000
------------------------ !GEOMETRY! -------------------------
    Number of atoms:    2 
    Geometry Index:     46 
    Coordinates:
               0 Ar    -1.100000000955    0.000000000000    0.000000000000
               1 Ar     4.100000000955    0.000000000000    0.000000000000
------------------------ !GEOMETRY! -------------------------
    Number of atoms:    2 
    Geometry Index:     47 
    Coordinates:
               0 Ar    -1.150000000058    0.000000000000    0.000000000000
               1 Ar     4.150000000058    0.000000000000    0.000000000000
------------------------ !GEOMETRY! -------------------------
    Number of atoms:    2 
    Geometry Index:     48 
    Coordinates:
               0 Ar    -1.150000000058    0.000000000000    0.000000000000
               1 Ar     4.150000000058    0.000000000000    0.000000000000
------------------------ !GEOMETRY! -------------------------
    Number of atoms:    2 
    Geometry Index:     49 
    Coordinates:
               0 Ar    -1.199999999160    0.000000000000    0.000000000000
               1 Ar     4.199999999160    0.000000000000    0.000000000000
------------------------ !GEOMETRY! -------------------------
    Number of atoms:    2 
    Geometry Index:     50 
    Coordinates:
               0 Ar    -1.199999999160    0.000000000000    0.000000000000
               1 Ar     4.199999999160    0.000000000000    0.000000000000
------------------------ !GEOMETRY! -------------------------
    Number of atoms:    2 
    Geometry Index:     51 
    Coordinates:
               0 Ar    -1.250000000908    0.000000000000    0.000000000000
               1 Ar     4.250000000908    0.000000000000    0.000000000000
------------------------ !GEOMETRY! -------------------------
    Number of atoms:    2 
    Geometry Index:     52 
    Coordinates:
               0 Ar    -1.250000000908    0.000000000000    0.000000000000
               1 Ar     4.250000000908    0.000000000000    0.000000000000
------------------------ !GEOMETRY! -------------------------
    Number of atoms:    2 
    Geometry Index:     53 
    Coordinates:
               0 Ar    -1.300000000011    0.000000000000    0.000000000000
               1 Ar     4.300000000011    0.000000000000    0.000000000000
------------------------ !GEOMETRY! -------------------------
    Number of atoms:    2 
    Geometry Index:     54 
    Coordinates:
               0 Ar    -1.300000000011    0.000000000000    0.000000000000
               1 Ar     4.300000000011    0.000000000000    0.000000000000
------------------------ !GEOMETRY! -------------------------
    Number of atoms:    2 
    Geometry Index:     55 
    Coordinates:
               0 Ar    -1.349999999113    0.000000000000    0.000000000000
               1 Ar     4.349999999113    0.000000000000    0.000000000000
------------------------ !GEOMETRY! -------------------------
    Number of atoms:    2 
    Geometry Index:     56 
    Coordinates:
               0 Ar    -1.349999999113    0.000000000000    0.000000000000
               1 Ar     4.349999999113    0.000000000000    0.000000000000
------------------------ !GEOMETRY! -------------------------
    Number of atoms:    2 
    Geometry Index:     57 
    Coordinates:
               0 Ar    -1.400000000862    0.000000000000    0.000000000000
               1 Ar     4.400000000862    0.000000000000    0.000000000000
------------------------ !GEOMETRY! -------------------------
    Number of atoms:    2 
    Geometry Index:     58 
    Coordinates:
               0 Ar    -1.400000000862    0.000000000000    0.000000000000
               1 Ar     4.400000000862    0.000000000000    0.000000000000
------------------------ !GEOMETRY! -------------------------
    Number of atoms:    2 
    Geometry Index:     59 
    Coordinates:
               0 Ar    -1.449999999964    0.000000000000    0.000000000000
               1 Ar     4.449999999964    0.000000000000    0.000000000000
------------------------ !GEOMETRY! -------------------------
    Number of atoms:    2 
    Geometry Index:     60 
    Coordinates:
               0 Ar    -1.449999999964    0.000000000000    0.000000000000
               1 Ar     4.449999999964    0.000000000000    0.000000000000
------------------------ !GEOMETRY! -------------------------
    Number of atoms:    2 
    Geometry Index:     61 
    Coordinates:
               0 Ar    -1.499999999067    0.000000000000    0.000000000000
               1 Ar     4.499999999067    0.000000000000    0.000000000000
------------------------ !GEOMETRY! -------------------------
    Number of atoms:    2 
    Geometry Index:     62 
    Coordinates:
               0 Ar    -1.499999999067    0.000000000000    0.000000000000
               1 Ar     4.499999999067    0.000000000000    0.000000000000
