14
Coordinates from ORCA-job butane_BHLYP_cc-pVDZ E -158.347587385074
  C      -1.265080      0.193850     -0.025430
  C       0.255200      0.179570     -0.022990
  H      -1.655350      0.575980      0.923260
  H      -1.653420     -0.819310     -0.169030
  H      -1.650210      0.823100     -0.834170
  H       0.607390     -0.483440      0.775850
  C       0.827700      1.581540      0.175840
  H       0.612500     -0.237690     -0.971680
  H       0.470410      1.998790      1.124540
  H       0.475480      2.244560     -0.622990
  C       2.347970      1.567260      0.178250
  H       2.733130      0.937990      0.986960
  H       2.736320      2.580420      0.321870
  H       2.738230      1.185160     -0.770460
14
Coordinates from ORCA-job butane_BHLYP_cc-pVDZ E -158.348098351475
  C      -1.278880      0.186011     -0.026436
  C       0.245552      0.184971     -0.022135
  H      -1.674326      0.568254      0.920056
  H      -1.671899     -0.825359     -0.170246
  H      -1.668987      0.815167     -0.832867
  H       0.604694     -0.478336      0.773745
  C       0.837345      1.576138      0.174982
  H       0.610084     -0.233541     -0.967862
  H       0.472823      1.994642      1.120716
  H       0.478182      2.239450     -0.620886
  C       2.361774      1.575102      0.179257
  H       2.751904      0.945929      0.985664
  H       2.754796      2.586469      0.323083
  H       2.757209      1.192884     -0.767250
14
Coordinates from ORCA-job butane_BHLYP_cc-pVDZ E -158.348172404414
  C      -1.280041      0.184038     -0.026625
  C       0.242456      0.187617     -0.021695
  H      -1.678361      0.567130      0.918818
  H      -1.676150     -0.825427     -0.170519
  H      -1.672926      0.814030     -0.831661
  H       0.606067     -0.476750      0.772390
  C       0.840440      1.573493      0.174538
  H       0.611647     -0.232580     -0.965815
  H       0.471257      1.993683      1.118664
  H       0.476815      2.237863     -0.619538
  C       2.362936      1.577075      0.179448
  H       2.755836      0.947069      0.984467
  H       2.759047      2.586537      0.323355
  H       2.761247      1.194002     -0.766006
14
Coordinates from ORCA-job butane_BHLYP_cc-pVDZ E -158.348183480360
  C      -1.278692      0.183949     -0.026598
  C       0.242115      0.187940     -0.021613
  H      -1.678155      0.567617      0.918322
  H      -1.676507     -0.824786     -0.170580
  H      -1.672701      0.814538     -0.830855
  H       0.607447     -0.477207      0.771405
  C       0.840780      1.573170      0.174453
  H       0.613093     -0.233440     -0.964818
  H       0.469810      1.994546      1.117662
  H       0.475440      2.238319     -0.618559
  C       2.361587      1.577163      0.179424
  H       2.755606      0.946564      0.983667
  H       2.759403      2.585897      0.323416
  H       2.761044      1.193509     -0.765505
14
Coordinates from ORCA-job butane_BHLYP_cc-pVDZ E -158.348185240633
  C      -1.277811      0.184144     -0.026558
  C       0.242403      0.187700     -0.021625
  H      -1.677696      0.568023      0.918144
  H      -1.676405     -0.824332     -0.170607
  H      -1.672242      0.815000     -0.830455
  H       0.608306     -0.477731      0.770928
  C       0.840493      1.573410      0.174462
  H       0.613970     -0.234185     -0.964398
  H       0.468931      1.995293      1.117239
  H       0.474584      2.238843     -0.618086
  C       2.360706      1.576968      0.179385
  H       2.755144      0.946104      0.983272
  H       2.759301      2.585443      0.323442
  H       2.760586      1.193100     -0.765324
14
Coordinates from ORCA-job butane_BHLYP_cc-pVDZ E -158.348185339594
  C      -1.277672      0.184209     -0.026546
  C       0.242559      0.187568     -0.021631
  H      -1.677609      0.568078      0.918132
  H      -1.676437     -0.824222     -0.170633
  H      -1.672153      0.815114     -0.830372
  H       0.608520     -0.477839      0.770878
  C       0.840336      1.573542      0.174467
  H       0.614188     -0.234358     -0.964330
  H       0.468712      1.995467      1.117169
  H       0.474371      2.238951     -0.618038
  C       2.360567      1.576903      0.179374
  H       2.755054      0.945991      0.983193
  H       2.759333      2.585333      0.323467
  H       2.760500      1.193043     -0.765309
