-------------------------------------------------------------
----------------------- !PROPERTIES! ------------------------
-------------------------------------------------------------
# -----------------------------------------------------------
$ SCF_Energy
   description: The SCF energy
   geom. index: 1
   prop. index: 1
        SCF Energy:     -158.3867444586
# -----------------------------------------------------------
$ DFT_Energy
   description: The DFT energy
   geom. index: 1
   prop. index: 1
   Number of Alpha Electrons        17.0000634037 
   Number of Alpha Electrons        17.0000634037 
   Total nuber of  Electrons        34.0001268075 
   Exchange energy                 -12.1576924160 
   Correlation energy               -1.0698518935 
   Correlantion energy NL            0.0000000000 
   Exchange-Correlation energy     -13.2275443095 
   Embedding correction              0.0000000000 
# -----------------------------------------------------------
$ SCF_Energy
   description: The SCF energy
   geom. index: 2
   prop. index: 1
        SCF Energy:     -158.3876250369
# -----------------------------------------------------------
$ DFT_Energy
   description: The DFT energy
   geom. index: 2
   prop. index: 1
   Number of Alpha Electrons        17.0000629801 
   Number of Alpha Electrons        17.0000629801 
   Total nuber of  Electrons        34.0001259602 
   Exchange energy                 -12.1698945466 
   Correlation energy               -1.0707344269 
   Correlantion energy NL            0.0000000000 
   Exchange-Correlation energy     -13.2406289734 
   Embedding correction              0.0000000000 
# -----------------------------------------------------------
$ SCF_Energy
   description: The SCF energy
   geom. index: 3
   prop. index: 1
        SCF Energy:     -158.3876687395
# -----------------------------------------------------------
$ DFT_Energy
   description: The DFT energy
   geom. index: 3
   prop. index: 1
   Number of Alpha Electrons        17.0000625500 
   Number of Alpha Electrons        17.0000625500 
   Total nuber of  Electrons        34.0001251000 
   Exchange energy                 -12.1705971737 
   Correlation energy               -1.0708119322 
   Correlantion energy NL            0.0000000000 
   Exchange-Correlation energy     -13.2414091059 
   Embedding correction              0.0000000000 
# -----------------------------------------------------------
$ SCF_Energy
   description: The SCF energy
   geom. index: 4
   prop. index: 1
        SCF Energy:     -158.3876798804
# -----------------------------------------------------------
$ DFT_Energy
   description: The DFT energy
   geom. index: 4
   prop. index: 1
   Number of Alpha Electrons        17.0000620151 
   Number of Alpha Electrons        17.0000620151 
   Total nuber of  Electrons        34.0001240303 
   Exchange energy                 -12.1705857486 
   Correlation energy               -1.0708444450 
   Correlantion energy NL            0.0000000000 
   Exchange-Correlation energy     -13.2414301935 
   Embedding correction              0.0000000000 
# -----------------------------------------------------------
$ SCF_Energy
   description: The SCF energy
   geom. index: 5
   prop. index: 1
        SCF Energy:     -158.3876808357
# -----------------------------------------------------------
$ DFT_Energy
   description: The DFT energy
   geom. index: 5
   prop. index: 1
   Number of Alpha Electrons        17.0000617715 
   Number of Alpha Electrons        17.0000617715 
   Total nuber of  Electrons        34.0001235431 
   Exchange energy                 -12.1705344124 
   Correlation energy               -1.0708499856 
   Correlantion energy NL            0.0000000000 
   Exchange-Correlation energy     -13.2413843980 
   Embedding correction              0.0000000000 
# -----------------------------------------------------------
$ SCF_Electric_Properties
   description: The SCF Calculated Electric Properties
   geom. index: 5
   prop. index: 1
       Filename                          : butane_BHLYP_6-311G_d-p_.scfp 
       Do Dipole Moment Calculation      : true 
       Do Quadrupole Moment Calculation  : false 
       Do Polarizability Calculation     : false 
** Dipole moment part of electric properties **
        Magnitude of dipole moment (Debye) :        0.0000014095
        Electronic Contribution:
                  0    
      0       0.000000
      1      -0.000000
      2       0.000001
        Nuclear Contribution:
                  0    
      0       0.000000
      1      -0.000000
      2      -0.000001
        Total Dipole moment:
                  0    
      0       0.000000
      1      -0.000000
      2      -0.000000
# -----------------------------------------------------------
$ Hessian
   description: Details about the Hessian
   geom. index: 5
   prop. index: 1
Normal modes:
Number of Rows: 42 Number of Columns: 42
                  0          1          2          3          4          5    
      0       0.000000   0.000000   0.000000   0.000000   0.000000   0.000000
      1       0.000000   0.000000   0.000000   0.000000   0.000000   0.000000
      2       0.000000   0.000000   0.000000   0.000000   0.000000   0.000000
      3       0.000000   0.000000   0.000000   0.000000   0.000000   0.000000
      4       0.000000   0.000000   0.000000   0.000000   0.000000   0.000000
      5       0.000000   0.000000   0.000000   0.000000   0.000000   0.000000
      6       0.000000   0.000000   0.000000   0.000000   0.000000   0.000000
      7       0.000000   0.000000   0.000000   0.000000   0.000000   0.000000
      8       0.000000   0.000000   0.000000   0.000000   0.000000   0.000000
      9       0.000000   0.000000   0.000000   0.000000   0.000000   0.000000
     10       0.000000   0.000000   0.000000   0.000000   0.000000   0.000000
     11       0.000000   0.000000   0.000000   0.000000   0.000000   0.000000
     12       0.000000   0.000000   0.000000   0.000000   0.000000   0.000000
     13       0.000000   0.000000   0.000000   0.000000   0.000000   0.000000
     14       0.000000   0.000000   0.000000   0.000000   0.000000   0.000000
     15       0.000000   0.000000   0.000000   0.000000   0.000000   0.000000
     16       0.000000   0.000000   0.000000   0.000000   0.000000   0.000000
     17       0.000000   0.000000   0.000000   0.000000   0.000000   0.000000
     18       0.000000   0.000000   0.000000   0.000000   0.000000   0.000000
     19       0.000000   0.000000   0.000000   0.000000   0.000000   0.000000
     20       0.000000   0.000000   0.000000   0.000000   0.000000   0.000000
     21       0.000000   0.000000   0.000000   0.000000   0.000000   0.000000
     22       0.000000   0.000000   0.000000   0.000000   0.000000   0.000000
     23       0.000000   0.000000   0.000000   0.000000   0.000000   0.000000
     24       0.000000   0.000000   0.000000   0.000000   0.000000   0.000000
     25       0.000000   0.000000   0.000000   0.000000   0.000000   0.000000
     26       0.000000   0.000000   0.000000   0.000000   0.000000   0.000000
     27       0.000000   0.000000   0.000000   0.000000   0.000000   0.000000
     28       0.000000   0.000000   0.000000   0.000000   0.000000   0.000000
     29       0.000000   0.000000   0.000000   0.000000   0.000000   0.000000
     30       0.000000   0.000000   0.000000   0.000000   0.000000   0.000000
     31       0.000000   0.000000   0.000000   0.000000   0.000000   0.000000
     32       0.000000   0.000000   0.000000   0.000000   0.000000   0.000000
     33       0.000000   0.000000   0.000000   0.000000   0.000000   0.000000
     34       0.000000   0.000000   0.000000   0.000000   0.000000   0.000000
     35       0.000000   0.000000   0.000000   0.000000   0.000000   0.000000
     36       0.000000   0.000000   0.000000   0.000000   0.000000   0.000000
     37       0.000000   0.000000   0.000000   0.000000   0.000000   0.000000
     38       0.000000   0.000000   0.000000   0.000000   0.000000   0.000000
     39       0.000000   0.000000   0.000000   0.000000   0.000000   0.000000
     40       0.000000   0.000000   0.000000   0.000000   0.000000   0.000000
     41       0.000000   0.000000   0.000000   0.000000   0.000000   0.000000
                  6          7          8          9         10         11    
      0       0.000419  -0.000066  -0.002391  -0.000084  -0.209727  -0.000005
      1       0.018947  -0.004740  -0.150608  -0.000212  -0.106573   0.001151
      2      -0.135498   0.031305  -0.021237   0.001986  -0.015519  -0.008016
      3      -0.000470   0.000067  -0.008684  -0.000216  -0.146817   0.000198
      4      -0.020669   0.005822   0.180419  -0.010110   0.031091   0.007315
      5       0.147835  -0.038322   0.025512   0.071275   0.003879  -0.052421
      6      -0.173810   0.051113  -0.145841  -0.046737  -0.325738   0.175849
      7       0.184972   0.361700  -0.268471  -0.343376  -0.207018  -0.048510
      8      -0.276008  -0.095059  -0.034112   0.120900  -0.024094   0.087640
      9       0.000516  -0.000761   0.281459   0.001013   0.017110  -0.000573
     10       0.006359  -0.064470  -0.261395   0.055454  -0.197038  -0.008819
     11      -0.048045   0.449358  -0.038626  -0.388878  -0.027332   0.062960
     12       0.175363  -0.050797  -0.146158   0.045647  -0.326210  -0.176304
     13      -0.101933  -0.322160  -0.263063   0.296499  -0.205511   0.022646
     14      -0.315506  -0.192397  -0.039126   0.211975  -0.035867   0.096553
     15      -0.150050   0.029791   0.071030  -0.041514  -0.201460  -0.173620
     16       0.024574   0.024273   0.219910   0.079785  -0.021440   0.308107
     17       0.254113  -0.036523   0.023159   0.165248  -0.013347   0.283781
     18      -0.000470   0.000067  -0.008684   0.000227   0.146817   0.000197
     19      -0.020670   0.005822   0.180446   0.009862  -0.031090   0.007315
     20       0.147835  -0.038320   0.025317  -0.071311  -0.003879  -0.052421
     21       0.148593  -0.029363   0.071483   0.040633  -0.201780   0.172356
     22      -0.093445  -0.012235   0.217599  -0.122414  -0.023872  -0.374299
     23       0.238440  -0.041787   0.039300   0.137205   0.005503   0.189215
     24       0.148594  -0.029361   0.071371  -0.040732   0.201781   0.172358
     25      -0.093445  -0.012239   0.217936   0.122115   0.023871  -0.374298
     26       0.238439  -0.041783   0.038923  -0.137260  -0.005501   0.189214
     27      -0.150050   0.029790   0.071144   0.041418   0.201460  -0.173621
     28       0.024573   0.024275   0.219691  -0.080085   0.021442   0.308107
     29       0.254114  -0.036518   0.022705  -0.165281   0.013348   0.283782
     30       0.000419  -0.000065  -0.002391   0.000088   0.209727  -0.000005
     31       0.018947  -0.004740  -0.150608   0.000418   0.106573   0.001151
     32      -0.135498   0.031305  -0.021243  -0.001956   0.015518  -0.008016
     33       0.175362  -0.050795  -0.146286  -0.045448   0.326212  -0.176306
     34      -0.101932  -0.322149  -0.263880  -0.296145   0.205512   0.022645
     35      -0.315507  -0.192394  -0.039709  -0.211929   0.035869   0.096555
     36       0.000517  -0.000760   0.281455  -0.001399  -0.017108  -0.000574
     37       0.006358  -0.064472  -0.261548  -0.055100   0.197037  -0.008820
     38      -0.048046   0.449346  -0.037557   0.388943   0.027328   0.062961
     39      -0.173811   0.051112  -0.145712   0.046939   0.325737   0.175850
     40       0.184974   0.361693  -0.267525   0.343756   0.207013  -0.048511
     41      -0.276006  -0.095052  -0.034445  -0.120853   0.024096   0.087639
                 12         13         14         15         16         17    
      0       0.000162   0.099253   0.000704   0.072532   0.170181  -0.125810
      1       0.005054   0.068650   0.009012   0.074983  -0.074434   0.036355
      2      -0.035263   0.010006  -0.060318   0.011250  -0.009913   0.004736
      3       0.000187  -0.038682  -0.000496  -0.053695  -0.206731   0.170405
      4       0.009034   0.161805  -0.005271  -0.020458   0.027232   0.101893
      5      -0.063097   0.022651   0.036505  -0.003358   0.003166   0.014708
      6       0.327125  -0.115014   0.312969  -0.120375   0.392727  -0.211354
      7      -0.043144  -0.147105  -0.038325  -0.144924   0.138597  -0.016712
      8       0.125105   0.005004   0.095407   0.015195  -0.002757  -0.005836
      9      -0.000391   0.573263   0.002394   0.498585  -0.159715  -0.048258
     10      -0.022532  -0.115430  -0.023377  -0.092732   0.062066   0.005339
     11       0.158404  -0.014785   0.160547  -0.012782   0.007829   0.000615
     12      -0.327912  -0.114735  -0.314620  -0.115876   0.393205  -0.211109
     13       0.007016  -0.139390   0.009155  -0.134691   0.131969  -0.017612
     14       0.129958  -0.046343   0.099557  -0.056875   0.043520  -0.000642
     15      -0.277228  -0.109736  -0.229670  -0.241631  -0.095348   0.347022
     16       0.104847   0.101942  -0.262083  -0.137159   0.114645   0.231857
     17       0.149253   0.007489  -0.073769  -0.014508   0.019270   0.040236
     18      -0.000186   0.038682  -0.000496  -0.053695  -0.206730  -0.170406
     19      -0.009034  -0.161805  -0.005271  -0.020457   0.027233  -0.101892
     20       0.063097  -0.022651   0.036504  -0.003358   0.003167  -0.014707
     21       0.276352  -0.110967   0.226445  -0.245163  -0.095355   0.346401
     22      -0.141631   0.100758   0.270056  -0.140201   0.115161   0.233377
     23       0.116310   0.019599   0.002007  -0.025070   0.012523   0.026682
     24      -0.276350   0.110967   0.226447  -0.245165  -0.095355  -0.346401
     25       0.141630  -0.100758   0.270056  -0.140202   0.115161  -0.233377
     26      -0.116308  -0.019600   0.002008  -0.025069   0.012523  -0.026680
     27       0.277226   0.109735  -0.229670  -0.241632  -0.095343  -0.347022
     28      -0.104846  -0.101943  -0.262083  -0.137159   0.114650  -0.231856
     29      -0.149253  -0.007490  -0.073769  -0.014508   0.019272  -0.040236
     30      -0.000162  -0.099253   0.000704   0.072532   0.170180   0.125811
     31      -0.005054  -0.068649   0.009012   0.074983  -0.074434  -0.036356
     32       0.035263  -0.010006  -0.060318   0.011251  -0.009913  -0.004737
     33       0.327909   0.114735  -0.314618  -0.115876   0.393208   0.211112
     34      -0.007015   0.139389   0.009155  -0.134690   0.131969   0.017615
     35      -0.129958   0.046343   0.099559  -0.056876   0.043519   0.000644
     36       0.000393  -0.573261   0.002392   0.498586  -0.159716   0.048255
     37       0.022533   0.115430  -0.023378  -0.092732   0.062066  -0.005338
     38      -0.158403   0.014788   0.160548  -0.012783   0.007827  -0.000615
     39      -0.327126   0.115011   0.312970  -0.120373   0.392722   0.211358
     40       0.043145   0.147105  -0.038324  -0.144925   0.138598   0.016713
     41      -0.125104  -0.005004   0.095406   0.015194  -0.002757   0.005836
                 18         19         20         21         22         23    
      0      -0.020707  -0.000273   0.000216  -0.010882   0.000167   0.033653
      1       0.110202  -0.014144   0.011491   0.057005   0.004791  -0.032212
      2       0.015305   0.101509  -0.080994   0.008113  -0.033776  -0.004413
      3       0.076444   0.000466  -0.000321  -0.072805   0.000080   0.116070
      4      -0.166718   0.020886  -0.009049  -0.081466   0.005486   0.067368
      5      -0.022884  -0.150644   0.063512  -0.011756  -0.040224   0.009779
      6      -0.261580  -0.313010   0.204765   0.000822   0.095779  -0.169165
      7      -0.189737   0.076257  -0.071361  -0.084841  -0.011664   0.064136
      8       0.031683  -0.074924   0.044247   0.061203   0.009606  -0.119167
      9       0.369544   0.001497  -0.000318   0.229419  -0.000185  -0.236595
     10      -0.052600   0.027175  -0.021407  -0.035604  -0.002555   0.068060
     11      -0.005612  -0.191335   0.149762  -0.004286   0.018332   0.008577
     12      -0.262426   0.312443  -0.204656   0.001905  -0.096047  -0.170116
     13      -0.172689  -0.053501   0.056366  -0.064422   0.008360   0.028354
     14      -0.084333  -0.091402   0.060685  -0.082463   0.011773   0.131081
     15      -0.031937  -0.185143   0.409443   0.381673   0.360918  -0.343834
     16      -0.223764   0.236865   0.131437   0.236537   0.324136  -0.209829
     17      -0.020224   0.122411  -0.004127   0.044172   0.059821  -0.016719
     18      -0.076443  -0.000467  -0.000320  -0.072806  -0.000075  -0.116068
     19       0.166718  -0.020887  -0.009048  -0.081467  -0.005481  -0.067367
     20       0.022884   0.150645   0.063512  -0.011754   0.040224  -0.009778
     21      -0.031674   0.184333  -0.407989   0.383371  -0.361108  -0.343852
     22      -0.219445  -0.261844  -0.124135   0.239812  -0.327983  -0.206161
     23      -0.042197   0.053500  -0.042268   0.024760  -0.033631  -0.043490
     24       0.031674  -0.184337  -0.407987   0.383402   0.361084   0.343844
     25       0.219445   0.261846  -0.124133   0.239839   0.327970   0.206158
     26       0.042197  -0.053501  -0.042267   0.024762   0.033629   0.043487
     27       0.031936   0.185147   0.409438   0.381643  -0.360946   0.343831
     28       0.223765  -0.236863   0.131437   0.236513  -0.324152   0.209828
     29       0.020225  -0.122412  -0.004126   0.044168  -0.059823   0.016720
     30       0.020706   0.000273   0.000216  -0.010882  -0.000167  -0.033658
     31      -0.110202   0.014145   0.011491   0.057004  -0.004795   0.032211
     32      -0.015305  -0.101510  -0.080992   0.008116   0.033776   0.004412
     33       0.262430  -0.312443  -0.204653   0.001914   0.096050   0.170132
     34       0.172688   0.053502   0.056366  -0.064422  -0.008356  -0.028347
     35       0.084333   0.091405   0.060686  -0.082465  -0.011770  -0.131087
     36      -0.369545  -0.001496  -0.000321   0.229421   0.000173   0.236611
     37       0.052600  -0.027178  -0.021407  -0.035604   0.002557  -0.068069
     38       0.005611   0.191337   0.149760  -0.004290  -0.018335  -0.008578
     39       0.261577   0.313014   0.204762   0.000816  -0.095776   0.169185
     40       0.189739  -0.076258  -0.071359  -0.084840   0.011672  -0.064132
     41      -0.031682   0.074923   0.044244   0.061202  -0.009609   0.119173
                 24         25         26         27         28         29    
      0       0.103121   0.103625   0.004313  -0.004393   0.000174  -0.000171
      1       0.010960   0.011031  -0.009053   0.027115   0.005373  -0.004383
      2       0.001872   0.001864  -0.001005   0.003484  -0.036595   0.032743
      3      -0.064518  -0.021729  -0.030628   0.028688  -0.000100   0.000302
      4      -0.028192  -0.013564   0.038407  -0.016211   0.002945  -0.002242
      5      -0.004082  -0.001941   0.005365  -0.002322  -0.016058   0.013799
      6      -0.336004  -0.367962  -0.058516   0.109095  -0.220173   0.229324
      7      -0.104633  -0.094900   0.123170  -0.309529  -0.273147   0.264625
      8      -0.124803  -0.142136  -0.078096   0.180118  -0.001946   0.005975
      9      -0.329697  -0.346624   0.065192  -0.197076  -0.003490  -0.000091
     10       0.167029   0.172084  -0.024654   0.087133  -0.069824   0.070605
     11       0.022676   0.023370  -0.006831   0.017057   0.497577  -0.491516
     12      -0.336898  -0.368991  -0.062252   0.115494   0.221145  -0.227167
     13      -0.134896  -0.130244   0.092976  -0.241854   0.259387  -0.260232
     14       0.088569   0.107760   0.107807  -0.256826   0.072264  -0.074131
     15       0.132876   0.053876   0.217081  -0.159530  -0.012099   0.046504
     16       0.123877   0.041266  -0.253702   0.141831   0.017548   0.007656
     17       0.027028   0.008317  -0.332338   0.203206   0.001933   0.005900
     18       0.064542  -0.021668   0.030628   0.028689   0.000100   0.000303
     19       0.028207  -0.013538  -0.038407  -0.016215  -0.002945  -0.002242
     20       0.004084  -0.001937  -0.005365  -0.002323   0.016061   0.013795
     21       0.133231   0.053724   0.215217  -0.157466   0.015023  -0.050134
     22       0.126894   0.041973  -0.335265   0.192502  -0.024313  -0.003710
     23       0.008819   0.003602   0.251127  -0.157392   0.001955  -0.000801
     24      -0.133290   0.053606  -0.215214  -0.157475  -0.015032  -0.050137
     25      -0.126942   0.041854   0.335264   0.192517   0.024311  -0.003712
     26      -0.008821   0.003596  -0.251125  -0.157402  -0.001954  -0.000806
     27      -0.132935   0.053753  -0.217080  -0.159537   0.012110   0.046497
     28      -0.123923   0.041145   0.253699   0.141842  -0.017548   0.007665
     29      -0.027038   0.008288   0.332336   0.203221  -0.001934   0.005907
     30      -0.103234   0.103519  -0.004313  -0.004394  -0.000174  -0.000171
     31      -0.010972   0.011021   0.009053   0.027113  -0.005375  -0.004382
     32      -0.001874   0.001862   0.001004   0.003484   0.036602   0.032734
     33       0.337301  -0.368639   0.062252   0.115486  -0.221201  -0.227113
     34       0.135041  -0.130109  -0.092961  -0.241839  -0.259445  -0.260174
     35      -0.088685   0.107663  -0.107797  -0.256815  -0.072280  -0.074121
     36       0.330076  -0.346278  -0.065186  -0.197062   0.003491  -0.000096
     37      -0.167217   0.171911   0.024650   0.087128   0.069844   0.070594
     38      -0.022702   0.023349   0.006842   0.017052  -0.497693  -0.491399
     39       0.336405  -0.367613   0.058506   0.109094   0.220226   0.229275
     40       0.104736  -0.094795  -0.123167  -0.309510   0.273214   0.264555
     41       0.124958  -0.142003   0.078089   0.180104   0.001948   0.005981
                 30         31         32         33         34         35    
      0      -0.000835   0.000146   0.005947   0.010691  -0.033686  -0.034771
      1       0.031984   0.024681   0.004052  -0.008752   0.002140   0.007043
      2       0.004860   0.003570   0.000603  -0.001196   0.000351   0.001173
      3       0.005469  -0.028195   0.025801  -0.026436  -0.007073   0.005269
      4       0.041836   0.047531  -0.039302   0.037565   0.012022  -0.006671
      5       0.006027   0.006601  -0.005651   0.005269   0.001581  -0.001910
      6       0.123516   0.084333  -0.017340  -0.053059   0.137892   0.148041
      7      -0.354990  -0.227567   0.021919   0.053069  -0.140687  -0.150702
      8       0.205022   0.135493   0.049442   0.137198  -0.350600  -0.377626
      9      -0.251769  -0.139875  -0.033188  -0.013248   0.123814   0.115122
     10       0.116131   0.071788  -0.103608  -0.037158   0.342594   0.313928
     11       0.011323   0.008760  -0.014825  -0.005316   0.049143   0.045069
     12       0.121521   0.084626  -0.017058  -0.052247   0.134767   0.144016
     13      -0.288587  -0.182017   0.034884   0.089260  -0.231271  -0.247206
     14      -0.296136  -0.193181  -0.041594  -0.117475   0.296722   0.318476
     15       0.013866   0.153385  -0.155099   0.151775   0.044463  -0.025292
     16      -0.106752  -0.225835   0.287399  -0.277414  -0.086424   0.046069
     17      -0.118345  -0.289433  -0.362293   0.350660   0.108171  -0.056769
     18      -0.005472  -0.028195  -0.025801  -0.026436  -0.007070  -0.005272
     19      -0.041832   0.047533   0.039303   0.037565   0.012019   0.006676
     20      -0.006027   0.006602   0.005651   0.005272   0.001581   0.001911
     21       0.013096   0.151754  -0.158552   0.154398   0.044737  -0.030758
     22      -0.134779  -0.296830   0.178311  -0.171088  -0.052965   0.034562
     23       0.084581   0.217164   0.429342  -0.413604  -0.126453   0.079915
     24      -0.013079   0.151754   0.158551   0.154402   0.044724   0.030774
     25       0.134752  -0.296832  -0.178312  -0.171093  -0.052950  -0.034582
     26      -0.084560   0.217165  -0.429346  -0.413617  -0.126418  -0.079963
     27      -0.013849   0.153384   0.155103   0.151769   0.044448   0.025309
     28       0.106731  -0.225838  -0.287405  -0.277402  -0.086397  -0.046102
     29       0.118318  -0.289437   0.362300   0.350644   0.108137   0.056811
     30       0.000835   0.000146  -0.005947   0.010691  -0.033701   0.034757
     31      -0.031984   0.024683  -0.004052  -0.008752   0.002143  -0.007042
     32      -0.004860   0.003571  -0.000603  -0.001197   0.000351  -0.001173
     33      -0.121525   0.084633   0.017059  -0.052248   0.134828  -0.143959
     34       0.288586  -0.182033  -0.034887   0.089263  -0.231377   0.247110
     35       0.296144  -0.193201   0.041598  -0.117475   0.296854  -0.318347
     36       0.251772  -0.139890   0.033189  -0.013249   0.123862  -0.115070
     37      -0.116132   0.071795   0.103611  -0.037162   0.342722  -0.313782
     38      -0.011329   0.008762   0.014827  -0.005317   0.049164  -0.045051
     39      -0.123518   0.084341   0.017342  -0.053062   0.137953  -0.147982
     40       0.354999  -0.227590  -0.021921   0.053070  -0.140747   0.150639
     41      -0.205021   0.135503  -0.049447   0.137206  -0.350760   0.377480
                 36         37         38         39         40         41    
      0       0.000511  -0.000011  -0.000244   0.000279   0.003980   0.003154
      1      -0.001856  -0.004096  -0.010505   0.011020   0.064178   0.063681
      2       0.012066   0.028143   0.063586  -0.057852   0.010595   0.011657
      3       0.000011   0.000163   0.000027  -0.000107  -0.002441  -0.003617
      4       0.009136   0.008317  -0.001951   0.004325   0.004213   0.005080
      5      -0.063369  -0.059345   0.013114  -0.028867   0.000867   0.001886
      6       0.031927   0.074638   0.173217  -0.158900   0.091894   0.098504
      7      -0.032585  -0.079359  -0.175469   0.158588  -0.077707  -0.083235
      8      -0.076362  -0.185365  -0.414268   0.374593  -0.224730  -0.238532
      9      -0.001766  -0.000028   0.004698  -0.009046  -0.219634  -0.215507
     10      -0.005155  -0.001331   0.010097  -0.021604  -0.564642  -0.554668
     11       0.002135   0.008890   0.016016  -0.015405  -0.080660  -0.079010
     12      -0.036167  -0.074488  -0.175068   0.164779   0.082742   0.082994
     13       0.060624   0.129494   0.290679  -0.269013  -0.124226  -0.123304
     14      -0.074918  -0.158707  -0.359856   0.334322   0.178902   0.178152
     15       0.165660   0.148027  -0.034926   0.072493   0.014330   0.016724
     16      -0.299024  -0.273904   0.055988  -0.133315  -0.022419  -0.031539
     17       0.353255   0.322616  -0.070182   0.157646   0.028426   0.038194
     18      -0.000010   0.000163  -0.000027  -0.000107   0.002437  -0.003619
     19      -0.009138   0.008317   0.001952   0.004325  -0.004207   0.005083
     20       0.063370  -0.059344  -0.013120  -0.028865  -0.000869   0.001887
     21      -0.165848  -0.149963   0.034589  -0.071380   0.016017   0.022795
     22       0.188362   0.174807  -0.033837   0.082503  -0.015233  -0.026586
     23       0.415411   0.384356  -0.080849   0.182160  -0.036936  -0.060175
     24       0.165843  -0.149960  -0.034601  -0.071372  -0.016006   0.022811
     25      -0.188357   0.174804   0.033852   0.082496   0.015219  -0.026601
     26      -0.415401   0.384352   0.080881   0.182143   0.036905  -0.060212
     27      -0.165670   0.148024   0.034941   0.072490  -0.014304   0.016736
     28       0.299041  -0.273896  -0.056015  -0.133309   0.022370  -0.031558
     29      -0.353274   0.322606   0.070214   0.157638  -0.028366   0.038218
     30      -0.000511  -0.000011   0.000244   0.000279  -0.003977   0.003158
     31       0.001857  -0.004097   0.010510   0.011028  -0.064116   0.063741
     32      -0.012067   0.028143  -0.063595  -0.057839  -0.010593   0.011670
     33       0.036169  -0.074490   0.175100   0.164763  -0.082638   0.083067
     34      -0.060628   0.129498  -0.290733  -0.268986   0.124069  -0.123413
     35       0.074922  -0.158709   0.359915   0.334284  -0.178680   0.178307
     36       0.001765  -0.000027  -0.004707  -0.009078   0.219428  -0.215716
     37       0.005151  -0.001331  -0.010119  -0.021686   0.564111  -0.555204
     38      -0.002136   0.008890  -0.016022  -0.015415   0.080587  -0.079091
     39      -0.031928   0.074638  -0.173239  -0.158855  -0.091823   0.098597
     40       0.032586  -0.079357   0.175488   0.158542   0.077649  -0.083313
     41       0.076365  -0.185368   0.414323   0.374489   0.224559  -0.238760
# -----------------------------------------------------------
$ THERMOCHEMISTRY_Energies
   description: The Thermochemistry energies
   geom. index: 5
   prop. index: 1
        Temperature (Kelvin)           :        298.1500000000
        Pressure (atm)                 :          1.0000000000
        Total Mass (AMU)               :         58.1240000000
        Spin Degeneracy                :          1.0000000000
        Electronic Energy (Hartree)    :       -158.3876808357
        Translational Energy (Hartree) :          0.0014162714
        Rotational Energy (Hartree)    :          0.0014162714
        Vibrational Energy (Hartree)   :          0.0028498587
        Number of frequencies          :     42      
        Scaling Factor for frequencies :          1.0000000000
        Vibrational frequencies        :     
                  0    
      0       0.000000
      1       0.000000
      2       0.000000
      3       0.000000
      4       0.000000
      5       0.000000
      6     122.671457
      7     229.874876
      8     266.381917
      9     266.859808
     10     437.943243
     11     760.270675
     12     839.211269
     13     872.623832
     14     995.304326
     15     1014.176917
     16     1056.959799
     17     1106.149344
     18     1213.298263
     19     1254.440000
     20     1337.108869
     21     1373.365927
     22     1381.181507
     23     1454.658243
     24     1467.816840
     25     1468.484039
     26     1541.597104
     27     1544.603269
     28     1551.142234
     29     1552.493289
     30     1558.066660
     31     1565.287960
     32     3089.174753
     33     3096.536492
     34     3103.836716
     35     3104.760794
     36     3108.601118
     37     3131.127887
     38     3165.146136
     39     3170.293080
     40     3172.219461
     41     3173.174202
        Zero Point Energy (Hartree)    :          0.1356576886
        Inner Energy (Hartree)         :       -158.2463407456
        Enthalpy (Hartree)             :       -158.2453965366
        Electronic entropy             :          0.0000000000
        Rotational entropy             :          0.0116373104
        Vibrational entropy            :          0.0047644082
        Translational entropy          :          0.0116373104
        Entropy                        :          0.0345045039
        Gibbs Energy (Hartree)         :       -158.2799010404
        Is Linear                      :                 false
# -------------------------------------------------------------
----------------------- !GEOMETRIES! ------------------------
# -------------------------------------------------------------
------------------------ !GEOMETRY! -------------------------
    Number of atoms:    14 
    Geometry Index:     1 
    Coordinates:
               0 C     -1.265080000000    0.193850000000   -0.025430000000
               1 C      0.255200000000    0.179570000000   -0.022990000000
               2 H     -1.655350000000    0.575980000000    0.923260000000
               3 H     -1.653420000000   -0.819310000000   -0.169030000000
               4 H     -1.650210000000    0.823100000000   -0.834170000000
               5 H      0.607390000000   -0.483440000000    0.775850000000
               6 C      0.827700000000    1.581540000000    0.175840000000
               7 H      0.612500000000   -0.237690000000   -0.971680000000
               8 H      0.470410000000    1.998790000000    1.124540000000
               9 H      0.475480000000    2.244560000000   -0.622990000000
              10 C      2.347970000000    1.567260000000    0.178250000000
              11 H      2.733130000000    0.937990000000    0.986960000000
              12 H      2.736320000000    2.580420000000    0.321870000000
              13 H      2.738230000000    1.185160000000   -0.770460000000
------------------------ !GEOMETRY! -------------------------
    Number of atoms:    14 
    Geometry Index:     2 
    Coordinates:
               0 C     -1.278470118118    0.186219228852   -0.026398659997
               1 C      0.245639156261    0.185085964396   -0.021981801011
               2 H     -1.670955216965    0.565343229153    0.913339896948
               3 H     -1.668675990539   -0.817864459565   -0.169372042592
               4 H     -1.665483534272    0.810692425210   -0.827048867143
               5 H      0.602049324152   -0.473273372462    0.768239795105
               6 C      0.837258178115    1.576023758464    0.174826895317
               7 H      0.607092949392   -0.230302571795   -0.960960489172
               8 H      0.475812941225    1.991404469413    1.113812625539
               9 H      0.480827965929    2.234387305149   -0.615382745350
              10 C      2.361362960435    1.574893183525    0.179220348212
              11 H      2.748398018271    0.950402998849    0.979847098099
              12 H      2.751574088119    2.578973152715    0.322210660935
              13 H      2.753839277995    1.195794688096   -0.760532714890
------------------------ !GEOMETRY! -------------------------
    Number of atoms:    14 
    Geometry Index:     3 
    Coordinates:
               0 C     -1.279492168753    0.184789161308   -0.026506003400
               1 C      0.243630743065    0.186746536649   -0.021599937853
               2 H     -1.673540043910    0.564363349701    0.912373550207
               3 H     -1.671747467330   -0.817534505952   -0.169693107103
               4 H     -1.667862621149    0.809920085844   -0.825976629498
               5 H      0.603232477803   -0.471725371933    0.767261691615
               6 C      0.839265507777    1.574363303291    0.174440505806
               7 H      0.608262289056   -0.229411038634   -0.959188154622
               8 H      0.474640497974    1.990515294322    1.112033896017
               9 H      0.479650846942    2.232837963600   -0.614412746849
              10 C      2.362386530990    1.576323526457    0.179330597881
              11 H      2.750770660261    0.951178457914    0.978783783143
              12 H      2.754644763831    2.578644009428    0.322532444946
              13 H      2.756427983442    1.196769228003   -0.759559890289
------------------------ !GEOMETRY! -------------------------
    Number of atoms:    14 
    Geometry Index:     4 
    Coordinates:
               0 C     -1.278665679366    0.184366396757   -0.026478748434
               1 C      0.242959353281    0.187306144556   -0.021380043236
               2 H     -1.673843771332    0.564548017542    0.912089785334
               3 H     -1.672914533550   -0.817130043694   -0.170015047080
               4 H     -1.667978689476    0.810509306082   -0.825195208881
               5 H      0.604868487485   -0.471691400404    0.766650132306
               6 C      0.839936384305    1.573804465607    0.174215574248
               7 H      0.609890335014   -0.229935497078   -0.958158906794
               8 H      0.473009235931    1.991043278828    1.110997257209
               9 H      0.478021655594    2.232803537565   -0.613810670972
              10 C      2.361561023904    1.576745857669    0.179306853275
              11 H      2.750879305596    0.950592577511    0.978012776111
              12 H      2.755811052489    2.578240129436    0.322854644304
              13 H      2.756735840124    1.196577229624   -0.759268397391
------------------------ !GEOMETRY! -------------------------
    Number of atoms:    14 
    Geometry Index:     5 
    Coordinates:
               0 C     -1.278061584728    0.184453512368   -0.026434740289
               1 C      0.243115132512    0.187139301261   -0.021341052688
               2 H     -1.673530644379    0.564748718602    0.912080460839
               3 H     -1.672982755977   -0.816880213185   -0.170164678236
               4 H     -1.667593374077    0.810969759060   -0.824891126336
               5 H      0.605532001994   -0.472000254708    0.766479214615
               6 C      0.839780583695    1.573971798193    0.174174238492
               7 H      0.610565049662   -0.230497768129   -0.957858949554
               8 H      0.472332612375    1.991607484150    1.110693552540
               9 H      0.477361161986    2.233112119920   -0.613644204149
              10 C      2.360957146864    1.576658324192    0.179264616290
              11 H      2.750491026321    0.950134501056    0.977714135068
              12 H      2.755878815200    2.577990504927    0.323003451631
              13 H      2.756424828552    1.196372212294   -0.759254918223
