14
Coordinates from ORCA-job butane_BHLYP_aug-cc-pVTZ
  C   -1.27383383178415      0.18602944969002     -0.02650331639071
  C   0.24385389741690      0.18897060777728     -0.02172038515074
  H   -1.66805611083945      0.56679037934022      0.90942374696221
  H   -1.66811201107019     -0.81313584479894     -0.16802250807846
  H   -1.66270210997095      0.81024594962769     -0.82368638796273
  H   0.60581360868475     -0.46926319160288      0.76365463633151
  C   0.83904273614611      1.57213592066826      0.17455529747725
  H   0.61058313138303     -0.22716903655206     -0.95628630981115
  H   0.47231521956459      1.98826983669720      1.10912483991913
  H   0.47707599478513      2.23037112178144     -0.61081514090330
  C   2.35673012813152      1.57508527218138      0.17933159045135
  H   2.74560613881736      0.95084468157855      0.97649215406893
  H   2.75100394986871      2.57424801934239      0.32088160913876
  H   2.75094925886665      1.19435683426945     -0.75660982605206
