8
Coordinates from ORCA-job ethane_BHLYP_6-31G_d_ E -79.767750632783
  C      -1.069770      0.342760      0.000000
  C       0.442290      0.342760     -0.000000
  H      -1.454140      0.727780      0.949230
  H      -1.454140     -0.671810     -0.141180
  H      -1.454140      0.972310     -0.808050
  H       0.826660     -0.286790      0.808050
  H       0.826660      1.357330      0.141180
  H       0.826660     -0.042260     -0.949230
8
Coordinates from ORCA-job ethane_BHLYP_6-31G_d_ E -79.768152453267
  C      -1.075053      0.342825      0.000016
  C       0.447573      0.342695     -0.000016
  H      -1.464843      0.724360      0.940622
  H      -1.464738     -0.662655     -0.139932
  H      -1.464914      0.966664     -0.800738
  H       0.837434     -0.281145      0.800738
  H       0.837258      1.348174      0.139932
  H       0.837363     -0.038840     -0.940622
8
Coordinates from ORCA-job ethane_BHLYP_6-31G_d_ E -79.768170244079
  C      -1.075512      0.342858      0.000026
  C       0.448032      0.342662     -0.000026
  H      -1.468186      0.723960      0.939553
  H      -1.468012     -0.661502     -0.139793
  H      -1.468278      0.965962     -0.799821
  H       0.840798     -0.280442      0.799820
  H       0.840532      1.347022      0.139793
  H       0.840706     -0.038440     -0.939553
8
Coordinates from ORCA-job ethane_BHLYP_6-31G_d_ E -79.768175130957
  C      -1.075019      0.342877      0.000031
  C       0.447539      0.342643     -0.000032
  H      -1.469627      0.723781      0.939068
  H      -1.469419     -0.660976     -0.139734
  H      -1.469735      0.965640     -0.799405
  H       0.842254     -0.280120      0.799405
  H       0.841939      1.346496      0.139735
  H       0.842147     -0.038261     -0.939068
8
Coordinates from ORCA-job ethane_BHLYP_6-31G_d_ E -79.768175715430
  C      -1.074636      0.342877      0.000032
  C       0.447156      0.342643     -0.000032
  H      -1.469657      0.723755      0.939005
  H      -1.469453     -0.660906     -0.139727
  H      -1.469767      0.965595     -0.799352
  H       0.842287     -0.280075      0.799352
  H       0.841973      1.346426      0.139727
  H       0.842178     -0.038235     -0.939005
8
Coordinates from ORCA-job ethane_BHLYP_6-31G_d_ E -79.768175753637
  C      -1.074557      0.342874      0.000032
  C       0.447077      0.342646     -0.000032
  H      -1.469565      0.723758      0.939020
  H      -1.469368     -0.660922     -0.139729
  H      -1.469674      0.965603     -0.799365
  H       0.842194     -0.280083      0.799365
  H       0.841888      1.346442      0.139729
  H       0.842085     -0.038238     -0.939020
