5
Coordinates from ORCA-job methane_BHLYP_6-31G_d_
  C   -0.85710878685954      0.34276867041265      0.00009232033495
  H   0.22808116926086      0.34280246301487     -0.00006629807474
  H   -1.21878941754600      0.72730221350377      0.94813413917975
  H   -1.21880351867916     -0.67059568507191     -0.14103720066446
  H   -1.21870944617615      0.97152233814063     -0.80711296077550
