17
Coordinates from ORCA-job pentane_BHLYP_cc-pVDZ
  C   -1.34888201649769      0.13173458754476     -0.03746558024200
  C   0.17133801878411      0.10517119516588     -0.03248803023103
  H   -1.74130885724685      0.52294083350954      0.90732941066026
  H   -1.76719832779844     -0.86866141313561     -0.18201178538249
  H   -1.73107548451546      0.77055531623691     -0.84092252482917
  H   0.52292670573881     -0.56773700011115      0.75989024517028
  C   0.79573417358965      1.47897410062255      0.16323014253949
  H   0.53391573941756     -0.32433811117052     -0.97502327958483
  H   0.43471090739565      1.90962641541445      1.10717185448298
  H   0.44270703377448      2.15328182209057     -0.62897203247368
  C   2.31744872661698      1.46459798479439      0.16718687949035
  H   2.66950889342241      0.79404737195945      0.96141744117291
  C   2.93013505413861      2.84310103462332      0.35774454040920
  H   2.67662982481963      1.03075905529593     -0.77464997277973
  H   2.61163170603659      3.28946094758378      1.30584175723258
  H   2.62758983905119      3.52546318659996     -0.44382387875505
  H   4.02306806327273      2.80050267297577      0.36136481311994
