17
Coordinates from ORCA-job pentane_BHLYP_aug-cc-pVTZ E -197.703472124926
  C      -1.333200      0.144910     -0.035010
  C       0.186620      0.103590     -0.032780
  H      -1.716420      0.536170      0.912830
  H      -1.739520     -0.861520     -0.176140
  H      -1.707250      0.778990     -0.845180
  H       0.526950     -0.563560      0.767720
  C       0.784530      1.496590      0.162720
  H       0.536070     -0.322110     -0.980600
  H       0.428530      1.919760      1.109990
  H       0.437700      2.161140     -0.638050
  C       2.312290      1.450560      0.164380
  H       2.664220      0.790800      0.965990
  C       2.911190      2.834450      0.358570
  H       2.673390      1.032170     -0.782340
  H       2.595150      3.268370      1.312600
  H       2.604400      3.511060     -0.445430
  H       4.004230      2.778110      0.356550
17
Coordinates from ORCA-job pentane_BHLYP_aug-cc-pVTZ E -197.705034394405
  C      -1.344909      0.135460     -0.035640
  C       0.176046      0.105951     -0.032868
  H      -1.728036      0.524241      0.901199
  H      -1.753091     -0.859484     -0.174205
  H      -1.720208      0.763051     -0.836183
  H       0.519293     -0.555341      0.757087
  C       0.792388      1.484726      0.159907
  H       0.527367     -0.317614     -0.968995
  H       0.437728      1.907603      1.095989
  H       0.447024      2.145371     -0.630914
  C       2.314765      1.461041      0.165109
  H       2.661537      0.801947      0.955382
  C       2.924712      2.840865      0.360181
  H       2.671582      1.041093     -0.770564
  H       2.611545      3.274318      1.303369
  H       2.623290      3.515100     -0.433628
  H       4.007846      2.791151      0.360594
17
Coordinates from ORCA-job pentane_BHLYP_aug-cc-pVTZ E -197.705108167679
  C      -1.345175      0.134521     -0.035176
  C       0.174412      0.107200     -0.033111
  H      -1.728726      0.524800      0.900610
  H      -1.756130     -0.858291     -0.172559
  H      -1.722145      0.762276     -0.834520
  H       0.520914     -0.554519      0.755086
  C       0.794980      1.480897      0.158508
  H       0.527966     -0.317454     -0.967921
  H       0.438952      1.906200      1.093349
  H       0.448540      2.143023     -0.631033
  C       2.314477      1.463003      0.164928
  H       2.660404      0.801030      0.953182
  C       2.925646      2.840607      0.360646
  H       2.671165      1.040368     -0.769590
  H       2.610815      3.275301      1.302465
  H       2.624919      3.516153     -0.432023
  H       4.007865      2.794365      0.362980
17
Coordinates from ORCA-job pentane_BHLYP_aug-cc-pVTZ E -197.705124643000
  C      -1.344163      0.134575     -0.034607
  C       0.173924      0.107721     -0.033475
  H      -1.727912      0.526443      0.900917
  H      -1.757618     -0.857401     -0.171056
  H      -1.722588      0.762892     -0.833387
  H       0.522940     -0.555094      0.753516
  C       0.796115      1.479289      0.157546
  H       0.528925     -0.318252     -0.967825
  H       0.438668      1.906944      1.091604
  H       0.448605      2.143043     -0.631137
  C       2.314343      1.463629      0.164695
  H       2.660198      0.799203      0.951736
  C       2.925135      2.839652      0.360936
  H       2.671595      1.038830     -0.769312
  H       2.608357      3.275572      1.302019
  H       2.624838      3.516396     -0.431448
  H       4.007520      2.796039      0.365097
17
Coordinates from ORCA-job pentane_BHLYP_aug-cc-pVTZ E -197.705126146786
  C      -1.343635      0.134742     -0.034323
  C       0.174031      0.107660     -0.033713
  H      -1.727328      0.527123      0.901160
  H      -1.757900     -0.857081     -0.170413
  H      -1.722631      0.763198     -0.832897
  H       0.523802     -0.555629      0.752739
  C       0.796119      1.479334      0.157262
  H       0.529229     -0.318712     -0.967971
  H       0.438185      1.907745      1.090935
  H       0.448335      2.143564     -0.631078
  C       2.314402      1.463495      0.164603
  H       2.660317      0.798390      0.951237
  C       2.924736      2.839233      0.361041
  H       2.671985      1.038112     -0.769178
  H       2.607146      3.275647      1.301772
  H       2.624814      3.516277     -0.431405
  H       4.007273      2.796383      0.366048
