17
Coordinates from ORCA-job pentane_BHLYP_6-311G_d-p_ E -197.683680011907
  C      -1.333200      0.144910     -0.035010
  C       0.186620      0.103590     -0.032780
  H      -1.716420      0.536170      0.912830
  H      -1.739520     -0.861520     -0.176140
  H      -1.707250      0.778990     -0.845180
  H       0.526950     -0.563560      0.767720
  C       0.784530      1.496590      0.162720
  H       0.536070     -0.322110     -0.980600
  H       0.428530      1.919760      1.109990
  H       0.437700      2.161140     -0.638050
  C       2.312290      1.450560      0.164380
  H       2.664220      0.790800      0.965990
  C       2.911190      2.834450      0.358570
  H       2.673390      1.032170     -0.782340
  H       2.595150      3.268370      1.312600
  H       2.604400      3.511060     -0.445430
  H       4.004230      2.778110      0.356550
17
Coordinates from ORCA-job pentane_BHLYP_6-311G_d-p_ E -197.684875160493
  C      -1.350005      0.133287     -0.036930
  C       0.173958      0.103055     -0.032315
  H      -1.735310      0.521989      0.901935
  H      -1.759567     -0.863419     -0.177752
  H      -1.725053      0.763306     -0.838998
  H       0.516901     -0.560415      0.759368
  C       0.792363      1.484286      0.161598
  H       0.526779     -0.321279     -0.970370
  H       0.437133      1.907720      1.100130
  H       0.445765      2.146920     -0.630372
  C       2.318022      1.461772      0.165824
  H       2.666673      0.801658      0.957843
  C       2.929047      2.844717      0.359741
  H       2.675114      1.040459     -0.772004
  H       2.616583      3.279672      1.305220
  H       2.625879      3.520193     -0.435721
  H       4.014597      2.795557      0.358621
17
Coordinates from ORCA-job pentane_BHLYP_6-311G_d-p_ E -197.684936497696
  C      -1.350705      0.132505     -0.037276
  C       0.172282      0.103621     -0.031812
  H      -1.737378      0.522033      0.900586
  H      -1.763283     -0.861898     -0.178517
  H      -1.726239      0.763657     -0.838126
  H       0.517444     -0.560528      0.758523
  C       0.794954      1.480215      0.161545
  H       0.528053     -0.321726     -0.968473
  H       0.438773      1.905542      1.099384
  H       0.446894      2.144701     -0.628856
  C       2.318217      1.463525      0.165973
  H       2.666804      0.800959      0.956170
  C       2.930137      2.845006      0.359499
  H       2.674578      1.039322     -0.770980
  H       2.617033      3.281315      1.304063
  H       2.626386      3.521544     -0.434736
  H       4.014929      2.799687      0.358852
17
Coordinates from ORCA-job pentane_BHLYP_6-311G_d-p_ E -197.684950115125
  C      -1.349646      0.132909     -0.037472
  C       0.171933      0.103796     -0.031407
  H      -1.737321      0.523312      0.900015
  H      -1.764779     -0.860407     -0.179236
  H      -1.725351      0.765400     -0.837669
  H       0.518454     -0.561389      0.758155
  C       0.796089      1.478423      0.161801
  H       0.529788     -0.322810     -0.967297
  H       0.439067      1.905435      1.099268
  H       0.446640      2.144692     -0.627339
  C       2.318218      1.463910      0.165960
  H       2.667390      0.799464      0.955016
  C       2.929384      2.844216      0.359107
  H       2.674477      1.037538     -0.770630
  H       2.615413      3.281598      1.303298
  H       2.624786      3.521609     -0.434562
  H       4.014337      2.801785      0.358812
17
Coordinates from ORCA-job pentane_BHLYP_6-311G_d-p_ E -197.684951574879
  C      -1.349063      0.133202     -0.037557
  C       0.172082      0.103679     -0.031278
  H      -1.737079      0.523806      0.899825
  H      -1.765001     -0.859860     -0.179572
  H      -1.724766      0.766154     -0.837534
  H       0.518836     -0.561867      0.758030
  C       0.796112      1.478374      0.162021
  H       0.530499     -0.323397     -0.966865
  H       0.438896      1.905849      1.099313
  H       0.446202      2.145195     -0.626579
  C       2.318268      1.463722      0.165921
  H       2.667781      0.798806      0.954580
  C       2.928891      2.843819      0.358922
  H       2.674544      1.036761     -0.770521
  H       2.614653      3.281557      1.302978
  H       2.624039      3.521423     -0.434612
  H       4.013987      2.802257      0.358747
