17
Coordinates from ORCA-job pentane_BHLYP_STO-3G E -195.310313235695
  C      -1.333200      0.144910     -0.035010
  C       0.186620      0.103590     -0.032780
  H      -1.716420      0.536170      0.912830
  H      -1.739520     -0.861520     -0.176140
  H      -1.707250      0.778990     -0.845180
  H       0.526950     -0.563560      0.767720
  C       0.784530      1.496590      0.162720
  H       0.536070     -0.322110     -0.980600
  H       0.428530      1.919760      1.109990
  H       0.437700      2.161140     -0.638050
  C       2.312290      1.450560      0.164380
  H       2.664220      0.790800      0.965990
  C       2.911190      2.834450      0.358570
  H       2.673390      1.032170     -0.782340
  H       2.595150      3.268370      1.312600
  H       2.604400      3.511060     -0.445430
  H       4.004230      2.778110      0.356550
17
Coordinates from ORCA-job pentane_BHLYP_STO-3G E -195.311835128860
  C      -1.378095      0.119949     -0.038787
  C       0.166074      0.088289     -0.034960
  H      -1.761608      0.511184      0.904532
  H      -1.785528     -0.882753     -0.179418
  H      -1.752267      0.752750     -0.844739
  H       0.511151     -0.576351      0.762416
  C       0.786955      1.492833      0.162445
  H       0.520455     -0.335570     -0.979044
  H       0.431342      1.915940      1.106167
  H       0.440343      2.156609     -0.634700
  C       2.334992      1.462554      0.166210
  H       2.683011      0.799848      0.963934
  C       2.952912      2.864363      0.362813
  H       2.691943      1.040186     -0.777607
  H       2.637486      3.298755      1.312353
  H       2.646679      3.540124     -0.436912
  H       4.043036      2.810770      0.361118
17
Coordinates from ORCA-job pentane_BHLYP_STO-3G E -195.311876709651
  C      -1.374116      0.122680     -0.038471
  C       0.168573      0.089083     -0.034795
  H      -1.755208      0.515727      0.906162
  H      -1.781257     -0.880498     -0.179134
  H      -1.745708      0.757485     -0.845325
  H       0.514486     -0.574478      0.764238
  C       0.786713      1.493212      0.162669
  H       0.523961     -0.333185     -0.980178
  H       0.431528      1.915455      1.108174
  H       0.440383      2.156825     -0.636188
  C       2.333238      1.460621      0.165943
  H       2.679704      0.797451      0.965078
  C       2.948754      2.861931      0.362376
  H       2.688448      1.038154     -0.779431
  H       2.630463      3.294770      1.312785
  H       2.639735      3.536304     -0.438733
  H       4.039182      2.807944      0.360652
17
Coordinates from ORCA-job pentane_BHLYP_STO-3G E -195.311882279835
  C      -1.373267      0.123391     -0.038456
  C       0.169185      0.089014     -0.034746
  H      -1.752512      0.517490      0.906336
  H      -1.780410     -0.879744     -0.179053
  H      -1.742849      0.759099     -0.845351
  H       0.515601     -0.573464      0.764771
  C       0.786579      1.493412      0.162868
  H       0.525243     -0.332001     -0.980268
  H       0.431906      1.914868      1.108714
  H       0.440565      2.156561     -0.636275
  C       2.333059      1.460034      0.165846
  H       2.678289      0.796775      0.965242
  C       2.947757      2.861466      0.362237
  H       2.686817      1.037569     -0.779905
  H       2.627699      3.293000      1.312498
  H       2.637073      3.534461     -0.439217
  H       4.038143      2.807550      0.360581
17
Coordinates from ORCA-job pentane_BHLYP_STO-3G E -195.311882754184
  C      -1.373513      0.123300     -0.038526
  C       0.169125      0.088797     -0.034734
  H      -1.752245      0.517767      0.906306
  H      -1.780791     -0.879742     -0.179045
  H      -1.742475      0.759234     -0.845513
  H       0.515742     -0.573380      0.764927
  C       0.786553      1.493441      0.162976
  H       0.525495     -0.331869     -0.980281
  H       0.432038      1.914680      1.108969
  H       0.440545      2.156549     -0.636192
  C       2.333285      1.460002      0.165813
  H       2.678172      0.796614      0.965235
  C       2.947950      2.861651      0.362226
  H       2.686547      1.037475     -0.780082
  H       2.627335      3.292814      1.312457
  H       2.636818      3.534242     -0.439377
  H       4.038299      2.807906      0.360661
