17
Coordinates from ORCA-job pentane_BHLYP_def2-TZVP
  C   -1.34365608812801      0.13594103534546     -0.03789523757534
  C   0.17384919120070      0.10598672941698     -0.02963811492850
  H   -1.73225948330295      0.52584775820462      0.89764457785720
  H   -1.75932890808941     -0.85532731452475     -0.18087232989865
  H   -1.71724191697048      0.76879848807096     -0.83681063388756
  H   0.51920670480658     -0.55833846807494      0.75925893732928
  C   0.79658435001332      1.47720990084356      0.16282286638592
  H   0.53271665049769     -0.32155468343421     -0.96306785770577
  H   0.44049429954595      1.90421528461001      1.09898999970702
  H   0.44589127508217      2.14329198408438     -0.62397099717556
  C   2.31497688388820      1.46357915562034      0.16530275803523
  H   2.66511386488331      0.79890819860174      0.95182950776412
  C   2.92425987813202      2.84025478510678      0.35804942123162
  H   2.67021011477704      1.03773794966377     -0.77026942526927
  H   2.61087781999046      3.27719625125439      1.30094337620250
  H   2.61941521966962      3.51709066303602     -0.43391379502978
  H   4.00777014400380      2.79864228217490      0.35741694695755
