-------------------------------------------------------------
----------------------- !PROPERTIES! ------------------------
-------------------------------------------------------------
# -----------------------------------------------------------
$ SCF_Energy
   description: The SCF energy
   geom. index: 1
   prop. index: 1
        SCF Energy:     -117.6583245526
# -----------------------------------------------------------
$ DFT_Energy
   description: The DFT energy
   geom. index: 1
   prop. index: 1
   Number of Alpha Electrons        13.0000193696 
   Number of Alpha Electrons        13.0000193696 
   Total nuber of  Electrons        26.0000387393 
   Exchange energy                  -9.1935149606 
   Correlation energy               -0.8086852689 
   Correlantion energy NL            0.0000000000 
   Exchange-Correlation energy     -10.0022002295 
   Embedding correction              0.0000000000 
# -----------------------------------------------------------
$ SCF_Energy
   description: The SCF energy
   geom. index: 2
   prop. index: 1
        SCF Energy:     -117.6592073484
# -----------------------------------------------------------
$ DFT_Energy
   description: The DFT energy
   geom. index: 2
   prop. index: 1
   Number of Alpha Electrons        13.0000172505 
   Number of Alpha Electrons        13.0000172505 
   Total nuber of  Electrons        26.0000345010 
   Exchange energy                  -9.1885910878 
   Correlation energy               -0.8075508830 
   Correlantion energy NL            0.0000000000 
   Exchange-Correlation energy      -9.9961419708 
   Embedding correction              0.0000000000 
# -----------------------------------------------------------
$ SCF_Energy
   description: The SCF energy
   geom. index: 3
   prop. index: 1
        SCF Energy:     -117.6592269475
# -----------------------------------------------------------
$ DFT_Energy
   description: The DFT energy
   geom. index: 3
   prop. index: 1
   Number of Alpha Electrons        13.0000174402 
   Number of Alpha Electrons        13.0000174402 
   Total nuber of  Electrons        26.0000348804 
   Exchange energy                  -9.1882720713 
   Correlation energy               -0.8075407148 
   Correlantion energy NL            0.0000000000 
   Exchange-Correlation energy      -9.9958127861 
   Embedding correction              0.0000000000 
# -----------------------------------------------------------
$ SCF_Energy
   description: The SCF energy
   geom. index: 4
   prop. index: 1
        SCF Energy:     -117.6592304204
# -----------------------------------------------------------
$ DFT_Energy
   description: The DFT energy
   geom. index: 4
   prop. index: 1
   Number of Alpha Electrons        13.0000174723 
   Number of Alpha Electrons        13.0000174723 
   Total nuber of  Electrons        26.0000349447 
   Exchange energy                  -9.1884216661 
   Correlation energy               -0.8075725333 
   Correlantion energy NL            0.0000000000 
   Exchange-Correlation energy      -9.9959941994 
   Embedding correction              0.0000000000 
# -----------------------------------------------------------
$ SCF_Energy
   description: The SCF energy
   geom. index: 5
   prop. index: 1
        SCF Energy:     -117.6592305695
# -----------------------------------------------------------
$ DFT_Energy
   description: The DFT energy
   geom. index: 5
   prop. index: 1
   Number of Alpha Electrons        13.0000174554 
   Number of Alpha Electrons        13.0000174554 
   Total nuber of  Electrons        26.0000349108 
   Exchange energy                  -9.1883741163 
   Correlation energy               -0.8075636425 
   Correlantion energy NL            0.0000000000 
   Exchange-Correlation energy      -9.9959377588 
   Embedding correction              0.0000000000 
# -----------------------------------------------------------
$ SCF_Electric_Properties
   description: The SCF Calculated Electric Properties
   geom. index: 5
   prop. index: 1
       Filename                          : propane_BHLYP_STO-3G.scfp 
       Do Dipole Moment Calculation      : true 
       Do Quadrupole Moment Calculation  : false 
       Do Polarizability Calculation     : false 
** Dipole moment part of electric properties **
        Magnitude of dipole moment (Debye) :        0.0210803546
        Electronic Contribution:
                  0    
      0       0.238802
      1      -0.367723
      2      -0.048993
        Nuclear Contribution:
                  0    
      0      -0.234394
      1       0.360749
      2       0.048149
        Total Dipole moment:
                  0    
      0       0.004408
      1      -0.006974
      2      -0.000844
# -----------------------------------------------------------
$ Hessian
   description: Details about the Hessian
   geom. index: 5
   prop. index: 1
Normal modes:
Number of Rows: 33 Number of Columns: 33
                  0          1          2          3          4          5    
      0       0.000000   0.000000   0.000000   0.000000   0.000000   0.000000
      1       0.000000   0.000000   0.000000   0.000000   0.000000   0.000000
      2       0.000000   0.000000   0.000000   0.000000   0.000000   0.000000
      3       0.000000   0.000000   0.000000   0.000000   0.000000   0.000000
      4       0.000000   0.000000   0.000000   0.000000   0.000000   0.000000
      5       0.000000   0.000000   0.000000   0.000000   0.000000   0.000000
      6       0.000000   0.000000   0.000000   0.000000   0.000000   0.000000
      7       0.000000   0.000000   0.000000   0.000000   0.000000   0.000000
      8       0.000000   0.000000   0.000000   0.000000   0.000000   0.000000
      9       0.000000   0.000000   0.000000   0.000000   0.000000   0.000000
     10       0.000000   0.000000   0.000000   0.000000   0.000000   0.000000
     11       0.000000   0.000000   0.000000   0.000000   0.000000   0.000000
     12       0.000000   0.000000   0.000000   0.000000   0.000000   0.000000
     13       0.000000   0.000000   0.000000   0.000000   0.000000   0.000000
     14       0.000000   0.000000   0.000000   0.000000   0.000000   0.000000
     15       0.000000   0.000000   0.000000   0.000000   0.000000   0.000000
     16       0.000000   0.000000   0.000000   0.000000   0.000000   0.000000
     17       0.000000   0.000000   0.000000   0.000000   0.000000   0.000000
     18       0.000000   0.000000   0.000000   0.000000   0.000000   0.000000
     19       0.000000   0.000000   0.000000   0.000000   0.000000   0.000000
     20       0.000000   0.000000   0.000000   0.000000   0.000000   0.000000
     21       0.000000   0.000000   0.000000   0.000000   0.000000   0.000000
     22       0.000000   0.000000   0.000000   0.000000   0.000000   0.000000
     23       0.000000   0.000000   0.000000   0.000000   0.000000   0.000000
     24       0.000000   0.000000   0.000000   0.000000   0.000000   0.000000
     25       0.000000   0.000000   0.000000   0.000000   0.000000   0.000000
     26       0.000000   0.000000   0.000000   0.000000   0.000000   0.000000
     27       0.000000   0.000000   0.000000   0.000000   0.000000   0.000000
     28       0.000000   0.000000   0.000000   0.000000   0.000000   0.000000
     29       0.000000   0.000000   0.000000   0.000000   0.000000   0.000000
     30       0.000000   0.000000   0.000000   0.000000   0.000000   0.000000
     31       0.000000   0.000000   0.000000   0.000000   0.000000   0.000000
     32       0.000000   0.000000   0.000000   0.000000   0.000000   0.000000
                  6          7          8          9         10         11    
      0      -0.000086   0.000212   0.117932  -0.000091   0.201335   0.000247
      1      -0.004042   0.005397   0.144613  -0.001979   0.059412   0.008345
      2       0.030065  -0.039375   0.020161   0.014441   0.008928  -0.060934
      3       0.000034  -0.000357   0.094632  -0.000316  -0.101608   0.000024
      4      -0.000012  -0.012437  -0.145766  -0.010593   0.156557   0.000041
      5      -0.000287   0.091099  -0.019472   0.077794   0.020880   0.000021
      6       0.014218  -0.097268   0.282832  -0.279619   0.061772   0.385232
      7      -0.379706  -0.334371   0.273098   0.055642  -0.094943  -0.047640
      8       0.193275   0.063926   0.031926  -0.122425   0.009509   0.117764
      9       0.001412   0.001724  -0.198303   0.000234   0.602172  -0.000147
     10       0.048907   0.061331   0.272217   0.015917  -0.089463  -0.024643
     11      -0.360972  -0.452218   0.036721  -0.117174  -0.009775   0.181106
     12      -0.015991   0.096706   0.282478   0.280788   0.062608  -0.386852
     13       0.314853   0.305555   0.270592  -0.021268  -0.089107   0.014674
     14       0.287126   0.151317   0.043781  -0.130493  -0.034095   0.122946
     15       0.007966  -0.055405   0.083688   0.254072  -0.108816  -0.306953
     16       0.004719   0.061837  -0.130876  -0.353521   0.169128  -0.195601
     17       0.000173   0.176287  -0.003936  -0.317289   0.018115  -0.027927
     18       0.000066   0.000099  -0.181733  -0.000035  -0.138268  -0.000231
     19       0.004040   0.005373  -0.046316  -0.001935  -0.156788  -0.008360
     20      -0.029818  -0.039582  -0.007006   0.014421  -0.021895   0.060934
     21      -0.007924   0.054045   0.083669  -0.251835  -0.109236   0.306853
     22      -0.004686  -0.106811  -0.127016   0.425679   0.168006   0.195614
     23      -0.001188   0.153814  -0.030718  -0.213548   0.026669   0.027805
     24      -0.313878   0.331387  -0.366912   0.081386   0.059160   0.131778
     25       0.190628  -0.058643  -0.141382   0.285632  -0.096764   0.377153
     26      -0.220750   0.101382  -0.026759  -0.089596   0.009343  -0.070822
     27       0.315650  -0.332518  -0.366981  -0.080294   0.059370  -0.131214
     28      -0.125238   0.029761  -0.142794  -0.251208  -0.090939  -0.344784
     29      -0.260935   0.110520  -0.014735  -0.163234  -0.034400  -0.170010
     30      -0.001620   0.001867  -0.167856   0.000532  -0.167797   0.000823
     31      -0.049310   0.061209   0.291783   0.015985  -0.581102   0.024920
     32       0.363750  -0.449699   0.038989  -0.117119  -0.079660  -0.181109
                 12         13         14         15         16         17    
      0      -0.020915  -0.153028  -0.038144  -0.000445  -0.000252   0.016132
      1       0.079519   0.017964   0.118131  -0.014712  -0.009373  -0.047074
      2       0.010751   0.001856   0.015829   0.108904   0.069096  -0.006273
      3       0.029921   0.189429   0.096466   0.000719  -0.000114   0.152702
      4       0.019205   0.120615  -0.148637   0.023342  -0.000031   0.097281
      5       0.002748   0.017153  -0.019676  -0.172758  -0.000011   0.013833
      6      -0.280351  -0.215462  -0.322587  -0.369578  -0.204334  -0.116125
      7      -0.159699   0.022494  -0.165143   0.077351   0.037791   0.057740
      8       0.008176  -0.013499   0.025166  -0.076230  -0.027063  -0.099402
      9       0.474774  -0.195471   0.407666   0.000862   0.000320  -0.309483
     10      -0.117087   0.027689  -0.060345   0.025204   0.009389   0.077267
     11      -0.014167   0.002809  -0.006511  -0.186381  -0.069540   0.009162
     12      -0.279117  -0.215130  -0.322263   0.370088   0.204740  -0.116823
     13      -0.151507   0.018369  -0.152162  -0.054801  -0.029460   0.029338
     14      -0.052893   0.017187  -0.070715  -0.091073  -0.034482   0.110190
     15      -0.179449   0.474166   0.100476  -0.197784  -0.533275  -0.480409
     16      -0.114159   0.302082  -0.156600   0.292586  -0.339638  -0.305919
     17      -0.016267   0.043075  -0.011240   0.125726  -0.048391  -0.043567
     18       0.064240  -0.046952  -0.092644  -0.000495   0.000331  -0.036514
     19      -0.052020  -0.145311   0.083426  -0.014724   0.009370   0.034073
     20      -0.006838  -0.019958   0.010857   0.108914  -0.069092   0.004461
     21      -0.180074   0.474313   0.100544   0.197283   0.533558  -0.479695
     22      -0.114526   0.301966  -0.153449  -0.316037   0.339924  -0.305574
     23      -0.016312   0.043046  -0.030172   0.044730   0.048409  -0.043540
     24      -0.258812  -0.070596   0.279111   0.093177  -0.054107  -0.008868
     25      -0.183864  -0.204547   0.218070   0.372382  -0.202489  -0.137327
     26      -0.057089  -0.012477   0.079724  -0.034182   0.003540   0.087993
     27      -0.258893  -0.070470   0.279618  -0.092184   0.053754  -0.007915
     28      -0.191612  -0.200296   0.231568  -0.349256   0.194123  -0.108790
     29       0.004025  -0.043105  -0.016112  -0.133044   0.057990  -0.121527
     30       0.089148  -0.055638  -0.113595   0.000765  -0.000251  -0.057365
     31       0.475941  -0.187542  -0.392511   0.025177  -0.009224  -0.310984
     32       0.065160  -0.025730  -0.053659  -0.186468   0.069624  -0.042539
                 18         19         20         21         22         23    
      0      -0.113528   0.106897   0.005171  -0.000170   0.008372  -0.004456
      1      -0.019128  -0.005297  -0.020190  -0.005725  -0.031589   0.023574
      2      -0.003059  -0.000275  -0.002739   0.041844  -0.023429  -0.030960
      3       0.077962  -0.007221  -0.034836  -0.000076  -0.022667   0.012697
      4       0.049693   0.010702   0.053676   0.000049  -0.013087   0.010342
      5       0.007062   0.001428   0.007170  -0.000034  -0.011588  -0.015892
      6       0.357326  -0.358883  -0.074742   0.202638  -0.214592  -0.124877
      7       0.122692  -0.055363   0.217775   0.274230   0.200886  -0.423530
      8       0.122540  -0.162418  -0.130346  -0.001640  -0.203633   0.112199
      9       0.303335  -0.371330   0.112879   0.002436   0.186510  -0.106442
     10      -0.181124   0.180499  -0.056523   0.068750  -0.132415  -0.004662
     11      -0.023128   0.022780  -0.006890  -0.509443   0.235735   0.448894
     12       0.358300  -0.360270  -0.075842  -0.202563  -0.007603   0.248230
     13       0.150552  -0.096246   0.175680  -0.262741   0.396868   0.079072
     14      -0.082619   0.138934   0.183010  -0.075169   0.319440  -0.094570
     15      -0.165939  -0.027028   0.246353   0.012248   0.037348  -0.039374
     16      -0.105515   0.038977  -0.327481   0.007419   0.041025   0.006420
     17      -0.014964   0.031153  -0.416419   0.000691   0.003410  -0.002833
     18      -0.064876  -0.039152   0.016417   0.000138  -0.027902   0.015742
     19      -0.094933  -0.098077  -0.013044   0.005754   0.024173  -0.007494
     20      -0.013187  -0.013505  -0.001679  -0.041970  -0.015828  -0.035014
     21      -0.165759  -0.026892   0.243263  -0.011654   0.053268  -0.010893
     22      -0.105456   0.045852  -0.426921  -0.008042   0.016390  -0.037403
     23      -0.015092  -0.019835   0.315927  -0.000787   0.000753  -0.008751
     24       0.275615   0.218108  -0.149141   0.331955   0.392050   0.162271
     25       0.281627   0.311816   0.170773   0.065847  -0.221191   0.210607
     26      -0.065845  -0.109595  -0.137090   0.050145   0.237576  -0.077125
     27       0.274566   0.216676  -0.149986  -0.331546   0.069901  -0.420036
     28       0.253446   0.270962   0.128332  -0.077260  -0.234208   0.031820
     29       0.140946   0.190693   0.176406   0.026912  -0.262029   0.172570
     30      -0.040603  -0.011566   0.005070  -0.002223  -0.014073   0.005358
     31       0.350766   0.407752  -0.125203  -0.069124   0.176954  -0.177168
     32       0.047600   0.055465  -0.017378   0.511200   0.274605   0.425105
                 24         25         26         27         28         29    
      0       0.007066  -0.051551  -0.011490  -0.000369  -0.000087  -0.000427
      1       0.034483   0.001366   0.000391   0.003470  -0.002655  -0.017746
      2       0.004687  -0.000049   0.000002   0.000466   0.019530   0.067487
      3      -0.033719   0.003656   0.000900   0.039138   0.000405  -0.000028
      4       0.052024  -0.000905  -0.004430  -0.060307   0.012425  -0.000091
      5       0.006933  -0.000106  -0.000592  -0.007986  -0.091671   0.001103
      6       0.088511   0.188693   0.041633  -0.005506   0.044459   0.160766
      7      -0.329053  -0.205259  -0.044673   0.002941  -0.053785  -0.175403
      8       0.186756  -0.490657  -0.107305   0.002914  -0.123887  -0.409304
      9      -0.204476   0.201409   0.042847  -0.013831   0.000040   0.026710
     10       0.114065   0.518428   0.109434  -0.040802  -0.000373   0.066452
     11       0.014681   0.070968   0.014983  -0.005586   0.003770   0.015272
     12       0.090447   0.185063   0.040835  -0.005474  -0.043523  -0.181801
     13      -0.267590  -0.328664  -0.071664   0.003586   0.084830   0.319300
     14      -0.266732   0.420223   0.091952  -0.002038  -0.105503  -0.403887
     15       0.152003  -0.002101  -0.007974  -0.219120   0.213554  -0.007723
     16      -0.199032   0.009769   0.012042   0.418412  -0.405726   0.001231
     17      -0.279124  -0.011615  -0.018344  -0.522293   0.494468  -0.006105
     18      -0.034550  -0.004351   0.020251  -0.003037  -0.000031  -0.009764
     19       0.007876  -0.009907   0.047134   0.001789  -0.002643   0.012975
     20       0.000956  -0.001350   0.006422   0.000228   0.019373  -0.063350
     21       0.149926  -0.002200  -0.008108  -0.223644  -0.218299   0.007700
     22      -0.266406   0.006298   0.006689   0.263837   0.259573  -0.000433
     23       0.217110   0.013748   0.020760   0.612609   0.583676  -0.007167
     24       0.235163  -0.036780   0.169356  -0.000684   0.045523  -0.130439
     25      -0.234703   0.046478  -0.217154   0.005897  -0.052304   0.168132
     26       0.199477   0.105832  -0.492230   0.003168  -0.122675   0.371427
     27       0.237653  -0.036007   0.165756  -0.000655  -0.044599   0.153151
     28      -0.173123   0.073220  -0.341479   0.006516   0.083334  -0.317199
     29      -0.252950  -0.090060   0.418597  -0.001468  -0.104810   0.383303
     30      -0.019947   0.124469  -0.559466   0.043152  -0.000574   0.093402
     31       0.231200  -0.007717   0.033295  -0.004455  -0.000479  -0.004140
     32       0.030921  -0.000503   0.002104  -0.000419   0.003736  -0.005983
                 30         31         32    
      0      -0.001076   0.001904   0.000159
      1      -0.063547   0.068699   0.005006
      2      -0.019742   0.004388  -0.061383
      3       0.000036  -0.001828   0.000228
      4       0.000166   0.003056   0.003420
      5      -0.000572  -0.001327  -0.026517
      6      -0.122596   0.086782  -0.161453
      7       0.127288  -0.087198   0.172144
      8       0.314498  -0.221814   0.405603
      9       0.205037  -0.213417   0.010128
     10       0.516452  -0.540307   0.026237
     11       0.069761  -0.074358  -0.000847
     12      -0.065999   0.109330   0.149043
     13       0.111205  -0.185236  -0.258235
     14      -0.150258   0.244551   0.325736
     15       0.000582   0.016089   0.062992
     16      -0.003672  -0.029525  -0.119857
     17       0.003482   0.031410   0.144289
     18      -0.062127  -0.060931   0.004970
     19       0.025672   0.025987   0.007019
     20       0.011734   0.000098  -0.066662
     21      -0.003722   0.007864  -0.065802
     22      -0.000122  -0.010161   0.079035
     23       0.003116  -0.015898   0.173982
     24       0.101050   0.071951  -0.154738
     25      -0.134848  -0.098203   0.204522
     26      -0.307727  -0.225340   0.449997
     27       0.061866   0.083741   0.139061
     28      -0.136640  -0.183496  -0.290864
     29       0.170228   0.225742   0.347663
     30       0.576460   0.562786  -0.043065
     31      -0.030342  -0.030527   0.002979
     32      -0.000870  -0.001947  -0.004708
# -----------------------------------------------------------
$ THERMOCHEMISTRY_Energies
   description: The Thermochemistry energies
   geom. index: 5
   prop. index: 1
        Temperature (Kelvin)           :        298.1500000000
        Pressure (atm)                 :          1.0000000000
        Total Mass (AMU)               :         44.0970000000
        Spin Degeneracy                :          1.0000000000
        Electronic Energy (Hartree)    :       -117.6592305695
        Translational Energy (Hartree) :          0.0014162714
        Rotational Energy (Hartree)    :          0.0014162714
        Vibrational Energy (Hartree)   :          0.0015338769
        Number of frequencies          :     33      
        Scaling Factor for frequencies :          1.0000000000
        Vibrational frequencies        :     
                  0    
      0       0.000000
      1       0.000000
      2       0.000000
      3       0.000000
      4       0.000000
      5       0.000000
      6     221.647936
      7     263.854067
      8     394.697311
      9     839.410577
     10     993.057032
     11     1034.266768
     12     1063.482086
     13     1200.786591
     14     1328.435131
     15     1379.777985
     16     1477.195849
     17     1569.332361
     18     1644.290042
     19     1651.346175
     20     1733.452569
     21     1746.967733
     22     1753.499402
     23     1753.519272
     24     1765.164233
     25     3435.163850
     26     3435.272566
     27     3469.634675
     28     3575.878616
     29     3610.215062
     30     3610.708001
     31     3612.538347
     32     3613.649231
        Zero Point Energy (Hartree)    :          0.1188685071
        Inner Energy (Hartree)         :       -117.5359956427
        Enthalpy (Hartree)             :       -117.5350514337
        Electronic entropy             :          0.0000000000
        Rotational entropy             :          0.0107907050
        Vibrational entropy            :          0.0024438084
        Translational entropy          :          0.0107907050
        Entropy                        :          0.0309461430
        Gibbs Energy (Hartree)         :       -117.5659975766
        Is Linear                      :                 false
# -------------------------------------------------------------
----------------------- !GEOMETRIES! ------------------------
# -------------------------------------------------------------
------------------------ !GEOMETRY! -------------------------
    Number of atoms:    11 
    Geometry Index:     1 
    Coordinates:
               0 C     -1.152140000000    0.231070000000   -0.018920000000
               1 C      0.366720000000    0.193200000000   -0.017650000000
               2 H     -1.535600000000    0.623920000000    0.928200000000
               3 H     -1.556550000000   -0.776480000000   -0.157440000000
               4 H     -1.528180000000    0.862680000000   -0.830140000000
               5 H      0.714460000000   -0.466870000000    0.784710000000
               6 C      0.962020000000    1.578010000000    0.172880000000
               7 H      0.721840000000   -0.229430000000   -0.964050000000
               8 H      0.645370000000    2.013440000000    1.126050000000
               9 H      0.652810000000    2.252170000000   -0.632290000000
              10 H      2.055200000000    1.524570000000    0.170250000000
------------------------ !GEOMETRY! -------------------------
    Number of atoms:    11 
    Geometry Index:     2 
    Coordinates:
               0 C     -1.174873686449    0.217967827700   -0.020804707924
               1 C      0.368620329694    0.190278508680   -0.018082497038
               2 H     -1.558153569042    0.610971489160    0.921860749016
               3 H     -1.580113521212   -0.785955377188   -0.158643102148
               4 H     -1.550813805653    0.848260604976   -0.827891462715
               5 H      0.717315592826   -0.470908115132    0.780937013811
               6 C      0.983515047539    1.593080315642    0.175051921488
               7 H      0.724666986589   -0.234262421396   -0.961563598314
               8 H      0.667343963792    2.028566390497    1.123851340755
               9 H      0.674735081737    2.266297516826   -0.625822318929
              10 H      2.073707580180    1.541983260235    0.172706661998
------------------------ !GEOMETRY! -------------------------
    Number of atoms:    11 
    Geometry Index:     3 
    Coordinates:
               0 C     -1.173610028208    0.218884969492   -0.020675228119
               1 C      0.369007578951    0.189697254874   -0.018194420916
               2 H     -1.554354586196    0.613716502157    0.923365619595
               3 H     -1.578569991419   -0.785570485449   -0.158461565344
               4 H     -1.547055260560    0.851126532405   -0.828702933713
               5 H      0.717260226528   -0.471020535239    0.782120288691
               6 C      0.982161855997    1.592318822671    0.174958779738
               7 H      0.724602483803   -0.233991696191   -0.962833064398
               8 H      0.663171285892    2.026123312711    1.124718512206
               9 H      0.670629975871    2.264212037889   -0.627272470389
              10 H      2.072706459340    1.540783284679    0.172576482649
------------------------ !GEOMETRY! -------------------------
    Number of atoms:    11 
    Geometry Index:     4 
    Coordinates:
               0 C     -1.173257160572    0.219328514746   -0.020614787492
               1 C      0.369335717000    0.189203164691   -0.018296079910
               2 H     -1.551896166808    0.615259376350    0.923651646463
               3 H     -1.578096872408   -0.785093277487   -0.158254306904
               4 H     -1.544654316345    0.852478539009   -0.828685967579
               5 H      0.717189494741   -0.470994373044    0.782470856608
               6 C      0.981614592903    1.592182518635    0.174960322986
               7 H      0.724509328323   -0.233788090193   -0.963278061225
               8 H      0.660810576333    2.024469708497    1.124637872095
               9 H      0.668331940201    2.262652295988   -0.627591955232
              10 H      2.072062866630    1.540581622809    0.172600460189
------------------------ !GEOMETRY! -------------------------
    Number of atoms:    11 
    Geometry Index:     5 
    Coordinates:
               0 C     -1.173378931051    0.219318910575   -0.020616244477
               1 C      0.369442857397    0.189041029006   -0.018335664123
               2 H     -1.551676619936    0.615453875539    0.923683348735
               3 H     -1.578294869061   -0.785045758012   -0.158175520646
               4 H     -1.544467081625    0.852567112846   -0.828731822753
               5 H      0.717267039762   -0.471126469392    0.782448279357
               6 C      0.981673093716    1.592286856787    0.174986190925
               7 H      0.724569116462   -0.233869319098   -0.963354269929
               8 H      0.660581040235    2.024329053247    1.124661480066
               9 H      0.668142888266    2.262541011856   -0.627628289364
              10 H      2.072091465834    1.540783696646    0.172662512208
