11
Coordinates from ORCA-job propane_BHLYP_6-311G_d-p_ E -119.089766698576
  C      -1.152140      0.231070     -0.018920
  C       0.366720      0.193200     -0.017650
  H      -1.535600      0.623920      0.928200
  H      -1.556550     -0.776480     -0.157440
  H      -1.528180      0.862680     -0.830140
  H       0.714460     -0.466870      0.784710
  C       0.962020      1.578010      0.172880
  H       0.721840     -0.229430     -0.964050
  H       0.645370      2.013440      1.126050
  H       0.652810      2.252170     -0.632290
  H       2.055200      1.524570      0.170250
11
Coordinates from ORCA-job propane_BHLYP_6-311G_d-p_ E -119.090292555298
  C      -1.158556      0.223225     -0.019965
  C       0.364016      0.197410     -0.016925
  H      -1.543412      0.613802      0.918418
  H      -1.565403     -0.774918     -0.157746
  H      -1.535892      0.850736     -0.823084
  H       0.711793     -0.461335      0.775884
  C       0.971969      1.580492      0.173194
  H       0.719091     -0.226644     -0.953710
  H       0.658755      2.016844      1.117902
  H       0.666070      2.253333     -0.623599
  H       2.057519      1.533335      0.171230
11
Coordinates from ORCA-job propane_BHLYP_6-311G_d-p_ E -119.090314236713
  C      -1.159052      0.221334     -0.020189
  C       0.363524      0.198191     -0.016744
  H      -1.545037      0.612788      0.917348
  H      -1.568809     -0.774861     -0.158064
  H      -1.537449      0.849784     -0.822069
  H       0.712331     -0.461902      0.774264
  C       0.973962      1.580132      0.173105
  H       0.719622     -0.227818     -0.952067
  H       0.660286      2.017953      1.116979
  H       0.667597      2.254156     -0.622496
  H       2.058975      1.536524      0.171533
11
Coordinates from ORCA-job propane_BHLYP_6-311G_d-p_ E -119.090320323488
  C      -1.158352      0.220720     -0.020240
  C       0.363461      0.198298     -0.016658
  H      -1.545138      0.613160      0.916935
  H      -1.570864     -0.774277     -0.158331
  H      -1.537468      0.850408     -0.821263
  H       0.713192     -0.463087      0.773305
  C       0.974279      1.579236      0.172934
  H       0.720499     -0.229451     -0.951204
  H       0.659837      2.018278      1.116372
  H       0.667122      2.254287     -0.621949
  H       2.059381      1.538708      0.171699
11
Coordinates from ORCA-job propane_BHLYP_6-311G_d-p_ E -119.090320760859
  C      -1.157862      0.220915     -0.020204
  C       0.363611      0.198065     -0.016662
  H      -1.544774      0.613563      0.916928
  H      -1.571101     -0.773864     -0.158425
  H      -1.537064      0.850994     -0.820996
  H       0.713531     -0.463591      0.773146
  C       0.973905      1.578880      0.172862
  H       0.720860     -0.230092     -0.951072
  H       0.659230      2.018178      1.116201
  H       0.666484      2.254114     -0.621880
  H       2.059129      1.539116      0.171704
