# butane
! PBE D3 aug-cc-pVTZ Opt Freq

* xyz 0 1
   C       -1.26508        0.19385       -0.02543
   C        0.25520        0.17957       -0.02299
   H       -1.65535        0.57598        0.92326
   H       -1.65342       -0.81931       -0.16903
   H       -1.65021        0.82310       -0.83417
   H        0.60739       -0.48344        0.77585
   C        0.82770        1.58154        0.17584
   H        0.61250       -0.23769       -0.97168
   H        0.47041        1.99879        1.12454
   H        0.47548        2.24456       -0.62299
   C        2.34797        1.56726        0.17825
   H        2.73313        0.93799        0.98696
   H        2.73632        2.58042        0.32187
   H        2.73823        1.18516       -0.77046
*