8
Coordinates from ORCA-job ethane_PBE-D3_6-31G_d_ E -79.699673636672
  C      -1.069770      0.342760      0.000000
  C       0.442290      0.342760     -0.000000
  H      -1.454140      0.727780      0.949230
  H      -1.454140     -0.671810     -0.141180
  H      -1.454140      0.972310     -0.808050
  H       0.826660     -0.286790      0.808050
  H       0.826660      1.357330      0.141180
  H       0.826660     -0.042260     -0.949230
8
Coordinates from ORCA-job ethane_PBE-D3_6-31G_d_ E -79.700457456005
  C      -1.079430      0.342756      0.000001
  C       0.451950      0.342764     -0.000001
  H      -1.475306      0.729820      0.954237
  H      -1.475310     -0.677171     -0.141932
  H      -1.475316      0.975635     -0.812314
  H       0.847836     -0.290115      0.812314
  H       0.847830      1.362691      0.141932
  H       0.847826     -0.044300     -0.954237
8
Coordinates from ORCA-job ethane_PBE-D3_6-31G_d_ E -79.700486867233
  C      -1.080522      0.342754      0.000002
  C       0.453042      0.342766     -0.000002
  H      -1.480122      0.729492      0.953413
  H      -1.480125     -0.676293     -0.141813
  H      -1.480135      0.975090     -0.811611
  H       0.852655     -0.289570      0.811611
  H       0.852645      1.361813      0.141813
  H       0.852642     -0.043972     -0.953413
8
Coordinates from ORCA-job ethane_PBE-D3_6-31G_d_ E -79.700494324165
  C      -1.080180      0.342753      0.000004
  C       0.452700      0.342767     -0.000004
  H      -1.482142      0.729163      0.952594
  H      -1.482143     -0.675418     -0.141695
  H      -1.482157      0.974546     -0.810912
  H       0.854677     -0.289026      0.810912
  H       0.854663      1.360938      0.141695
  H       0.854662     -0.043643     -0.952594
8
Coordinates from ORCA-job ethane_PBE-D3_6-31G_d_ E -79.700495893917
  C      -1.079565      0.342753      0.000005
  C       0.452085      0.342767     -0.000005
  H      -1.482459      0.729021      0.952239
  H      -1.482459     -0.675039     -0.141644
  H      -1.482474      0.974310     -0.810610
  H       0.854994     -0.288790      0.810610
  H       0.854979      1.360559      0.141644
  H       0.854979     -0.043501     -0.952239
8
Coordinates from ORCA-job ethane_PBE-D3_6-31G_d_ E -79.700496008872
  C      -1.079346      0.342754      0.000005
  C       0.451866      0.342766     -0.000005
  H      -1.482296      0.729012      0.952218
  H      -1.482296     -0.675015     -0.141641
  H      -1.482311      0.974295     -0.810591
  H       0.854831     -0.288775      0.810591
  H       0.854816      1.360535      0.141641
  H       0.854816     -0.043492     -0.952218
