8
Coordinates from ORCA-job ethane_PBE-D3_6-31G_d_
  C   -1.07934633401797      0.34275366221304      0.00000528269627
  C   0.45186633909729      0.34276634673985     -0.00000528157253
  H   -1.48229610479541      0.72901243864510      0.95221784248727
  H   -1.48229608286134     -0.67501517622083     -0.14164088922438
  H   -1.48231133980101      0.97429527449256     -0.81059124986141
  H   0.85483131694481     -0.28877529818316      0.81059123467439
  H   0.85481611207522      1.36053517483409      0.14164090969862
  H   0.85481609335840     -0.04349242252064     -0.95221784889823
