5
Coordinates from ORCA-job methane_PBE-D3_6-31G_d_ E -40.444841779534
  C      -0.857070      0.342760      0.000000
  H       0.235130      0.342760     -0.000000
  H      -1.221130      0.729800      0.954230
  H      -1.221130     -0.677150     -0.141920
  H      -1.221130      0.975630     -0.812300
5
Coordinates from ORCA-job methane_PBE-D3_6-31G_d_ E -40.445007685357
  C      -0.857067      0.342761      0.000003
  H       0.243132      0.342757     -0.000003
  H      -1.223801      0.732640      0.961225
  H      -1.223795     -0.684621     -0.142964
  H      -1.223799      0.980263     -0.818251
5
Coordinates from ORCA-job methane_PBE-D3_6-31G_d_ E -40.445007765883
  C      -0.857066      0.342762      0.000004
  H       0.243311      0.342755     -0.000004
  H      -1.223862      0.732704      0.961379
  H      -1.223853     -0.684785     -0.142989
  H      -1.223859      0.980365     -0.818381
