# methane
! PBE D3 STO-3G Opt Freq

* xyz 0 1
   C       -0.85707        0.34276        0.00000
   H        0.23513        0.34276       -0.00000
   H       -1.22113        0.72980        0.95423
   H       -1.22113       -0.67715       -0.14192
   H       -1.22113        0.97563       -0.81230
*