17
Coordinates from ORCA-job pentane_PBE-D3_aug-cc-pVTZ
  C   -1.35934287675212      0.12726638168162     -0.03780830451499
  C   0.16838183573366      0.09863260234109     -0.03317987691249
  H   -1.75075811042051      0.52549174920083      0.91008063307365
  H   -1.78377836817049     -0.87635262802629     -0.17900132233450
  H   -1.74065547032970      0.76809064834608     -0.84667907749196
  H   0.52370525042182     -0.57520850960500      0.76428605029315
  C   0.79588174559309      1.47908802958988      0.16122273384761
  H   0.53334412086740     -0.33351749484914     -0.97990155128496
  H   0.43310945183060      1.91392974339822      1.10911189735482
  H   0.44086904189810      2.15578645723522     -0.63587865970057
  C   2.32478722291282      1.46480862550165      0.16612619595025
  H   2.67695834568512      0.78895959977728      0.96327808988758
  C   2.93845906230476      2.85062144880669      0.36043899425766
  H   2.68454974024446      1.02915539416486     -0.78095091946674
  H   2.61752758034264      3.29423310823225      1.31460389289859
  H   2.62930163310608      3.53645201208657     -0.44229015685228
  H   4.03653979473225      2.81204283211819      0.36236138099519
