17
Coordinates from ORCA-job pentane_PBE-D3_6-31G_d_
  C   -1.36556771423777      0.12404704390978     -0.03841201575008
  C   0.16647387745549      0.09522531109449     -0.03371304693821
  H   -1.75876072754925      0.52411278671364      0.91334343627950
  H   -1.79131129645705     -0.88414792177125     -0.18008143102882
  H   -1.74857415628067      0.76747796826511     -0.85071743402006
  H   0.52322567802785     -0.58162096174223      0.76705294145142
  C   0.79454387027503      1.48106097757184      0.16168587696975
  H   0.53304054069736     -0.33862691233697     -0.98448805172457
  H   0.43017447383887      1.91744967674375      1.11355888284810
  H   0.43808903254783      2.16060849205092     -0.63866596348483
  C   2.32864594991181      1.46513097214661      0.16639450399434
  H   2.68239818317474      0.78652448079211      0.96699012031644
  C   2.94403523149462      2.85490592922850      0.36097681736785
  H   2.69002565547186      1.02756747230557     -0.78464636428436
  H   2.62226564716168      3.30064058886593      1.31921106586147
  H   2.63333334070888      3.54365156863649     -0.44501409859689
  H   4.04684241375872      2.81547252752570      0.36234476073894
