11
Coordinates from ORCA-job propane_PBE-D3_6-31G_d_
  C   -1.16554725662052      0.21724465983746     -0.02071793693616
  C   0.36698569831682      0.19299273531127     -0.01807135436701
  H   -1.55764083255242      0.61988915729662      0.93056868589142
  H   -1.58970953572938     -0.79222914984963     -0.15873211103352
  H   -1.55092008730040      0.85813523417681     -0.83410749365843
  H   0.72382671085406     -0.48118069181407      0.78345799226813
  C   0.98042413142830      1.58443661314477      0.17386623958184
  H   0.73060079664191     -0.24307667626178     -0.96776275688932
  H   0.65760265752200      2.03099108599450      1.13153673446652
  H   0.66688947407360      2.27111287137322     -0.63299065460260
  H   2.08343824336602      1.54796416079084      0.17455265527914
