-------------------------------------------------------------
----------------------- !PROPERTIES! ------------------------
-------------------------------------------------------------
# -----------------------------------------------------------
$ SCF_Energy
   description: The SCF energy
   geom. index: 1
   prop. index: 1
        SCF Energy:     -158.4027276479
# -----------------------------------------------------------
$ DFT_Energy
   description: The DFT energy
   geom. index: 1
   prop. index: 1
   Number of Alpha Electrons        17.0000508759 
   Number of Alpha Electrons        17.0000508759 
   Total nuber of  Electrons        34.0001017517 
   Exchange energy                 -12.1543122268 
   Correlation energy               -1.0700336281 
   Correlantion energy NL            0.0000000000 
   Exchange-Correlation energy     -13.2243458549 
   Embedding correction              0.0000000000 
# -----------------------------------------------------------
$ VdW_Correction
   description: The Van der Waals Correction
   geom. index: 1
   prop. index: 1
        Van der Waals Correction:       -0.0109448443
# -----------------------------------------------------------
$ SCF_Energy
   description: The SCF energy
   geom. index: 2
   prop. index: 1
        SCF Energy:     -158.4038914336
# -----------------------------------------------------------
$ DFT_Energy
   description: The DFT energy
   geom. index: 2
   prop. index: 1
   Number of Alpha Electrons        17.0000493921 
   Number of Alpha Electrons        17.0000493921 
   Total nuber of  Electrons        34.0000987841 
   Exchange energy                 -12.1738438028 
   Correlation energy               -1.0717248429 
   Correlantion energy NL            0.0000000000 
   Exchange-Correlation energy     -13.2455686457 
   Embedding correction              0.0000000000 
# -----------------------------------------------------------
$ VdW_Correction
   description: The Van der Waals Correction
   geom. index: 2
   prop. index: 1
        Van der Waals Correction:       -0.0109471675
# -----------------------------------------------------------
$ SCF_Energy
   description: The SCF energy
   geom. index: 3
   prop. index: 1
        SCF Energy:     -158.4039431426
# -----------------------------------------------------------
$ DFT_Energy
   description: The DFT energy
   geom. index: 3
   prop. index: 1
   Number of Alpha Electrons        17.0000486085 
   Number of Alpha Electrons        17.0000486085 
   Total nuber of  Electrons        34.0000972170 
   Exchange energy                 -12.1751004675 
   Correlation energy               -1.0718736480 
   Correlantion energy NL            0.0000000000 
   Exchange-Correlation energy     -13.2469741155 
   Embedding correction              0.0000000000 
# -----------------------------------------------------------
$ VdW_Correction
   description: The Van der Waals Correction
   geom. index: 3
   prop. index: 1
        Van der Waals Correction:       -0.0109470146
# -----------------------------------------------------------
$ SCF_Energy
   description: The SCF energy
   geom. index: 4
   prop. index: 1
        SCF Energy:     -158.4039562391
# -----------------------------------------------------------
$ DFT_Energy
   description: The DFT energy
   geom. index: 4
   prop. index: 1
   Number of Alpha Electrons        17.0000477594 
   Number of Alpha Electrons        17.0000477594 
   Total nuber of  Electrons        34.0000955188 
   Exchange energy                 -12.1750311574 
   Correlation energy               -1.0719067069 
   Correlantion energy NL            0.0000000000 
   Exchange-Correlation energy     -13.2469378643 
   Embedding correction              0.0000000000 
# -----------------------------------------------------------
$ VdW_Correction
   description: The Van der Waals Correction
   geom. index: 4
   prop. index: 1
        Van der Waals Correction:       -0.0109480620
# -----------------------------------------------------------
$ SCF_Energy
   description: The SCF energy
   geom. index: 5
   prop. index: 1
        SCF Energy:     -158.4039567856
# -----------------------------------------------------------
$ DFT_Energy
   description: The DFT energy
   geom. index: 5
   prop. index: 1
   Number of Alpha Electrons        17.0000474509 
   Number of Alpha Electrons        17.0000474509 
   Total nuber of  Electrons        34.0000949017 
   Exchange energy                 -12.1748951816 
   Correlation energy               -1.0719024324 
   Correlantion energy NL            0.0000000000 
   Exchange-Correlation energy     -13.2467976139 
   Embedding correction              0.0000000000 
# -----------------------------------------------------------
$ VdW_Correction
   description: The Van der Waals Correction
   geom. index: 5
   prop. index: 1
        Van der Waals Correction:       -0.0109487392
# -----------------------------------------------------------
$ SCF_Electric_Properties
   description: The SCF Calculated Electric Properties
   geom. index: 5
   prop. index: 1
       Filename                          : butane_BHLYP-D3_aug-cc-pVTZ.scfp 
       Do Dipole Moment Calculation      : true 
       Do Quadrupole Moment Calculation  : false 
       Do Polarizability Calculation     : false 
** Dipole moment part of electric properties **
        Magnitude of dipole moment (Debye) :        0.0000031781
        Electronic Contribution:
                  0    
      0       0.000005
      1       0.000000
      2      -0.000006
        Nuclear Contribution:
                  0    
      0      -0.000005
      1      -0.000001
      2       0.000007
        Total Dipole moment:
                  0    
      0       0.000001
      1      -0.000001
      2       0.000001
# -----------------------------------------------------------
$ Hessian
   description: Details about the Hessian
   geom. index: 5
   prop. index: 1
Normal modes:
Number of Rows: 42 Number of Columns: 42
                  0          1          2          3          4          5    
      0       0.000000   0.000000   0.000000   0.000000   0.000000   0.000000
      1       0.000000   0.000000   0.000000   0.000000   0.000000   0.000000
      2       0.000000   0.000000   0.000000   0.000000   0.000000   0.000000
      3       0.000000   0.000000   0.000000   0.000000   0.000000   0.000000
      4       0.000000   0.000000   0.000000   0.000000   0.000000   0.000000
      5       0.000000   0.000000   0.000000   0.000000   0.000000   0.000000
      6       0.000000   0.000000   0.000000   0.000000   0.000000   0.000000
      7       0.000000   0.000000   0.000000   0.000000   0.000000   0.000000
      8       0.000000   0.000000   0.000000   0.000000   0.000000   0.000000
      9       0.000000   0.000000   0.000000   0.000000   0.000000   0.000000
     10       0.000000   0.000000   0.000000   0.000000   0.000000   0.000000
     11       0.000000   0.000000   0.000000   0.000000   0.000000   0.000000
     12       0.000000   0.000000   0.000000   0.000000   0.000000   0.000000
     13       0.000000   0.000000   0.000000   0.000000   0.000000   0.000000
     14       0.000000   0.000000   0.000000   0.000000   0.000000   0.000000
     15       0.000000   0.000000   0.000000   0.000000   0.000000   0.000000
     16       0.000000   0.000000   0.000000   0.000000   0.000000   0.000000
     17       0.000000   0.000000   0.000000   0.000000   0.000000   0.000000
     18       0.000000   0.000000   0.000000   0.000000   0.000000   0.000000
     19       0.000000   0.000000   0.000000   0.000000   0.000000   0.000000
     20       0.000000   0.000000   0.000000   0.000000   0.000000   0.000000
     21       0.000000   0.000000   0.000000   0.000000   0.000000   0.000000
     22       0.000000   0.000000   0.000000   0.000000   0.000000   0.000000
     23       0.000000   0.000000   0.000000   0.000000   0.000000   0.000000
     24       0.000000   0.000000   0.000000   0.000000   0.000000   0.000000
     25       0.000000   0.000000   0.000000   0.000000   0.000000   0.000000
     26       0.000000   0.000000   0.000000   0.000000   0.000000   0.000000
     27       0.000000   0.000000   0.000000   0.000000   0.000000   0.000000
     28       0.000000   0.000000   0.000000   0.000000   0.000000   0.000000
     29       0.000000   0.000000   0.000000   0.000000   0.000000   0.000000
     30       0.000000   0.000000   0.000000   0.000000   0.000000   0.000000
     31       0.000000   0.000000   0.000000   0.000000   0.000000   0.000000
     32       0.000000   0.000000   0.000000   0.000000   0.000000   0.000000
     33       0.000000   0.000000   0.000000   0.000000   0.000000   0.000000
     34       0.000000   0.000000   0.000000   0.000000   0.000000   0.000000
     35       0.000000   0.000000   0.000000   0.000000   0.000000   0.000000
     36       0.000000   0.000000   0.000000   0.000000   0.000000   0.000000
     37       0.000000   0.000000   0.000000   0.000000   0.000000   0.000000
     38       0.000000   0.000000   0.000000   0.000000   0.000000   0.000000
     39       0.000000   0.000000   0.000000   0.000000   0.000000   0.000000
     40       0.000000   0.000000   0.000000   0.000000   0.000000   0.000000
     41       0.000000   0.000000   0.000000   0.000000   0.000000   0.000000
                  6          7          8          9         10         11    
      0      -0.000424  -0.000044  -0.000505  -0.002183  -0.208908   0.000075
      1      -0.019497   0.000468  -0.000455  -0.150247  -0.106042   0.001155
      2       0.134501  -0.032707   0.002295  -0.019828  -0.015489  -0.007803
      3       0.000440  -0.000374  -0.000519  -0.008785  -0.146292   0.000178
      4       0.021316  -0.000536  -0.009813   0.180036   0.031474   0.007541
      5      -0.146598   0.039957   0.071181   0.023656   0.003561  -0.052646
      6       0.171654  -0.057497  -0.048245  -0.143836  -0.325813   0.175158
      7      -0.190518  -0.367532  -0.343088  -0.242492  -0.204860  -0.048127
      8       0.276163   0.092842   0.121575  -0.041651  -0.024623   0.087279
      9       0.001142   0.011223   0.002696   0.281267   0.019319   0.000627
     10      -0.006889   0.055729   0.054063  -0.265389  -0.197689  -0.009296
     11       0.041262  -0.453109  -0.390537  -0.009658  -0.025723   0.064249
     12      -0.175013   0.047887   0.045527  -0.148742  -0.326037  -0.176197
     13       0.104848   0.312706   0.295282  -0.284083  -0.207123   0.022061
     14       0.316599   0.188317   0.211307  -0.053352  -0.037353   0.096066
     15       0.149877  -0.029781  -0.041723   0.072155  -0.201735  -0.174045
     16      -0.023618  -0.016746   0.079939   0.220743  -0.022254   0.307433
     17      -0.252790   0.040024   0.164997   0.021650  -0.014068   0.283554
     18       0.000441  -0.000376   0.000518  -0.008785   0.146293   0.000179
     19       0.021315  -0.000537   0.009830   0.180034  -0.031474   0.007541
     20      -0.146593   0.039961  -0.071183   0.023668  -0.003559  -0.052645
     21      -0.147847   0.033196   0.039526   0.069852  -0.202613   0.171443
     22       0.094505   0.016684  -0.122662   0.216285  -0.023854  -0.375696
     23      -0.237122   0.045503   0.136805   0.037301   0.004548   0.189141
     24      -0.147844   0.033198  -0.039526   0.069859   0.202612   0.171444
     25       0.094496   0.016675   0.122688   0.216263   0.023852  -0.375694
     26      -0.237113   0.045512  -0.136811   0.037326  -0.004546   0.189137
     27       0.149874  -0.029787   0.041735   0.072149   0.201733  -0.174041
     28      -0.023610  -0.016742  -0.079921   0.220755   0.022252   0.307431
     29      -0.252777   0.040033  -0.165004   0.021677   0.014070   0.283554
     30      -0.000425  -0.000049   0.000506  -0.002184   0.208907   0.000074
     31      -0.019497   0.000465   0.000441  -0.150248   0.106043   0.001156
     32       0.134501  -0.032707  -0.002292  -0.019828   0.015487  -0.007803
     33      -0.175007   0.047880  -0.045540  -0.148739   0.326044  -0.176193
     34       0.104867   0.312710  -0.295273  -0.284028   0.207137   0.022058
     35       0.316623   0.188343  -0.211298  -0.053316   0.037363   0.096066
     36       0.001133   0.011222  -0.002674   0.281261  -0.019316   0.000619
     37      -0.006877   0.055746  -0.054099  -0.265378   0.197691  -0.009296
     38       0.041231  -0.453129   0.390507  -0.009727   0.025701   0.064248
     39       0.171655  -0.057505   0.048237  -0.143832   0.325801   0.175156
     40      -0.190547  -0.367560   0.343040  -0.242551   0.204839  -0.048126
     41       0.276166   0.092834  -0.121547  -0.041628   0.024630   0.087275
                 12         13         14         15         16         17    
      0      -0.000156   0.100223  -0.000590   0.071870   0.171776  -0.126174
      1       0.004656   0.068913   0.007292   0.075106  -0.074306   0.036571
      2      -0.035370   0.009902  -0.060381   0.009900  -0.009900   0.004746
      3       0.000223  -0.038829   0.000400  -0.052989  -0.208127   0.170924
      4       0.008398   0.161623  -0.004894  -0.020442   0.027112   0.103657
      5      -0.062800   0.021940   0.036202  -0.002399   0.003121   0.015260
      6       0.326715  -0.111731   0.313685  -0.112528   0.391523  -0.210197
      7      -0.043867  -0.144268  -0.036694  -0.142337   0.136492  -0.016359
      8       0.124793   0.005902   0.094877   0.017435  -0.003195  -0.005400
      9      -0.002834   0.574539  -0.008653   0.498275  -0.159824  -0.045525
     10      -0.021911  -0.116656  -0.020908  -0.094706   0.063419   0.004369
     11       0.159084  -0.013758   0.161002  -0.008836   0.007939   0.000514
     12      -0.327027  -0.115544  -0.310705  -0.123418   0.393013  -0.210982
     13       0.008876  -0.139033   0.013531  -0.134377   0.131895  -0.017304
     14       0.130675  -0.045909   0.101641  -0.054811   0.043714  -0.000370
     15      -0.277614  -0.113376  -0.225888  -0.247869  -0.094803   0.345475
     16       0.102803   0.100381  -0.258370  -0.146349   0.115970   0.231981
     17       0.149367   0.008266  -0.072519  -0.017704   0.019913   0.040132
     18      -0.000223   0.038829   0.000399  -0.052990  -0.208128  -0.170922
     19      -0.008397  -0.161626  -0.004896  -0.020433   0.027106  -0.103658
     20       0.062800  -0.021940   0.036201  -0.002397   0.003120  -0.015263
     21       0.277398  -0.110309   0.233826  -0.239450  -0.096767   0.346739
     22      -0.141406   0.097140   0.273880  -0.133645   0.114604   0.235339
     23       0.116955   0.019953   0.003120  -0.025477   0.012405   0.027443
     24      -0.277400   0.110298   0.233825  -0.239448  -0.096771  -0.346735
     25       0.141411  -0.097147   0.273875  -0.133633   0.114591  -0.235350
     26      -0.116957  -0.019955   0.003124  -0.025477   0.012406  -0.027441
     27       0.277613   0.113369  -0.225891  -0.247871  -0.094810  -0.345482
     28      -0.102805  -0.100387  -0.258374  -0.146343   0.115966  -0.231977
     29      -0.149371  -0.008266  -0.072523  -0.017705   0.019917  -0.040127
     30       0.000156  -0.100222  -0.000589   0.071872   0.171778   0.126172
     31      -0.004658  -0.068908   0.007292   0.075106  -0.074305  -0.036569
     32       0.035370  -0.009900  -0.060381   0.009901  -0.009901  -0.004743
     33       0.327027   0.115554  -0.310696  -0.123427   0.393018   0.210985
     34      -0.008871   0.139020   0.013530  -0.134376   0.131897   0.017301
     35      -0.130675   0.045903   0.101642  -0.054814   0.043722   0.000370
     36       0.002843  -0.574516  -0.008668   0.498284  -0.159827   0.045536
     37       0.021914   0.116653  -0.020911  -0.094708   0.063421  -0.004370
     38      -0.159085   0.013757   0.161002  -0.008836   0.007937  -0.000522
     39      -0.326719   0.111709   0.313694  -0.112520   0.391520   0.210179
     40       0.043867   0.144273  -0.036691  -0.142341   0.136491   0.016352
     41      -0.124791  -0.005902   0.094875   0.017431  -0.003190   0.005401
                 18         19         20         21         22         23    
      0      -0.021417  -0.000705  -0.000650   0.009495   0.000161   0.013491
      1       0.110212  -0.014877  -0.011549  -0.057630   0.004466  -0.034911
      2       0.015991   0.101614   0.081704  -0.007999  -0.034186  -0.004559
      3       0.077285   0.000469   0.000012   0.073156   0.001252   0.129155
      4      -0.166403   0.022169   0.008800   0.081957   0.006588   0.073645
      5      -0.024185  -0.151040  -0.063967   0.011612  -0.039904   0.011341
      6      -0.261677  -0.308088  -0.203269   0.002838   0.096514  -0.104670
      7      -0.186376   0.080520   0.074632   0.085039  -0.010608   0.086972
      8       0.031765  -0.074966  -0.044428  -0.059838   0.009179  -0.096427
      9       0.371253  -0.000587   0.002032  -0.226842  -0.002137  -0.172107
     10      -0.054310   0.027119   0.020710   0.034410  -0.002203   0.035751
     11      -0.008070  -0.193540  -0.152092   0.005230   0.019092   0.005284
     12      -0.259760   0.313395   0.206717   0.005223  -0.098429  -0.102168
     13      -0.172582  -0.054140  -0.057690   0.067381   0.008883   0.058011
     14      -0.084978  -0.092183  -0.062292   0.081368   0.013345   0.115946
     15      -0.030988  -0.183786  -0.406642  -0.384376   0.358301  -0.373485
     16      -0.222537   0.237977  -0.129661  -0.238297   0.321703  -0.245092
     17      -0.021176   0.122588   0.004810  -0.044399   0.058744  -0.027823
     18      -0.077287  -0.000468   0.000016   0.073151  -0.001256  -0.129160
     19       0.166402  -0.022169   0.008803   0.081955  -0.006590  -0.073649
     20       0.024185   0.151039  -0.063968   0.011613   0.039904  -0.011343
     21      -0.029731   0.183962   0.408749  -0.381674  -0.362829  -0.365148
     22      -0.223278  -0.262771   0.124751  -0.238401  -0.330552  -0.234306
     23      -0.040776   0.054405   0.042662  -0.025428  -0.033333  -0.042191
     24       0.029745  -0.183960   0.408750  -0.381646   0.362845   0.365173
     25       0.223285   0.262773   0.124744  -0.238375   0.330556   0.234325
     26       0.040779  -0.054404   0.042666  -0.025429   0.033340   0.042193
     27       0.030997   0.183778  -0.406644  -0.384384  -0.358281   0.373493
     28       0.222546  -0.237978  -0.129666  -0.238298  -0.321697   0.245104
     29       0.021179  -0.122589   0.004806  -0.044396  -0.058750   0.027829
     30       0.021416   0.000705  -0.000652   0.009495  -0.000161  -0.013479
     31      -0.110213   0.014878  -0.011549  -0.057631  -0.004464   0.034915
     32      -0.015991  -0.101613   0.081704  -0.007997   0.034187   0.004560
     33       0.259781  -0.313391   0.206716   0.005236   0.098431   0.102132
     34       0.172580   0.054140  -0.057690   0.067381  -0.008885  -0.058018
     35       0.084981   0.092188  -0.062299   0.081372  -0.013351  -0.115939
     36      -0.371264   0.000574   0.002043  -0.226837   0.002144   0.172071
     37       0.054314  -0.027126   0.020715   0.034408   0.002203  -0.035732
     38       0.008063   0.193540  -0.152094   0.005226  -0.019092  -0.005269
     39       0.261677   0.308092  -0.203272   0.002836  -0.096513   0.104620
     40       0.186386  -0.080518   0.074631   0.085051   0.010604  -0.087003
     41      -0.031758   0.074961  -0.044422  -0.059836  -0.009176   0.096410
                 24         25         26         27         28         29    
      0       0.104725   0.103406   0.003197  -0.003535  -0.000606   0.000361
      1       0.004944   0.010520  -0.009141   0.028038   0.007524  -0.003698
      2       0.001024   0.001880  -0.001213   0.001907  -0.035860   0.032304
      3      -0.041116  -0.020821  -0.031811   0.027759   0.000537   0.002598
      4      -0.015029  -0.012404   0.037835  -0.015218   0.005286  -0.004240
      5      -0.002640  -0.002176   0.005542  -0.003032  -0.015973   0.013759
      6      -0.359015  -0.372876  -0.055244   0.095266  -0.212194   0.232269
      7      -0.088648  -0.094418   0.123207  -0.328649  -0.295405   0.254110
      8      -0.142229  -0.143029  -0.076638   0.181773   0.012886   0.009959
      9      -0.354059  -0.345416   0.069501  -0.200565  -0.015896  -0.010686
     10       0.171102   0.171425  -0.027257   0.086054  -0.062858   0.073764
     11       0.025999   0.025625  -0.004240   0.042357   0.495702  -0.487188
     12      -0.353956  -0.367428  -0.056233   0.125976   0.232750  -0.227355
     13      -0.119492  -0.125397   0.096542  -0.233122   0.240848  -0.267950
     14       0.111117   0.110065   0.106974  -0.255521   0.051845  -0.080883
     15       0.068913   0.049127   0.220026  -0.158646  -0.012282   0.034221
     16       0.080295   0.035426  -0.252382   0.136749   0.012880   0.020852
     17       0.020679   0.005259  -0.332292   0.196848  -0.003278   0.024081
     18       0.041105  -0.020828   0.031809   0.027761  -0.000538   0.002598
     19       0.015023  -0.012403  -0.037835  -0.015220  -0.005284  -0.004242
     20       0.002641  -0.002176  -0.005544  -0.003033   0.015959   0.013777
     21       0.070099   0.052549   0.219539  -0.150672   0.014910  -0.063709
     22       0.081160   0.035403  -0.331903   0.186206  -0.032322   0.013804
     23       0.003075   0.005606   0.250896  -0.152046   0.006131  -0.014871
     24      -0.070081   0.052550  -0.219520  -0.150686  -0.014851  -0.063734
     25      -0.081143   0.035416   0.331899   0.186229   0.032321   0.013844
     26      -0.003074   0.005608  -0.250886  -0.152062  -0.006125  -0.014882
     27      -0.068882   0.049127  -0.220024  -0.158664   0.012243   0.034225
     28      -0.080273   0.035437   0.252372   0.136762  -0.012892   0.020843
     29      -0.020674   0.005261   0.332284   0.196872   0.003265   0.024088
     30      -0.104673   0.103458  -0.003196  -0.003534   0.000606   0.000363
     31      -0.004938   0.010519   0.009140   0.028037  -0.007521  -0.003698
     32      -0.001024   0.001880   0.001210   0.001907   0.035827   0.032342
     33       0.353767  -0.367608   0.056242   0.125978  -0.232518  -0.227566
     34       0.119426  -0.125455  -0.096496  -0.233104  -0.240574  -0.268272
     35      -0.111061   0.110123  -0.106951  -0.255525  -0.051774  -0.081026
     36       0.353882  -0.345610  -0.069489  -0.200568   0.015906  -0.010732
     37      -0.171011   0.171513   0.027245   0.086051   0.062804   0.073880
     38      -0.026000   0.025646   0.004284   0.042371  -0.495199  -0.487691
     39       0.358838  -0.373062   0.055210   0.095255   0.211954   0.232515
     40       0.088594  -0.094449  -0.123214  -0.328663   0.295143   0.254319
     41       0.142164  -0.143111   0.076617   0.181756  -0.012883   0.010009
                 30         31         32         33         34         35    
      0      -0.000163  -0.000096   0.004882   0.009307  -0.033877  -0.007335
      1       0.031604   0.023908   0.004351  -0.008944   0.003115  -0.000034
      2       0.007123   0.004428   0.000629  -0.001218   0.000354   0.012022
      3       0.005092  -0.028653   0.025966  -0.026597  -0.006288   0.001008
      4       0.041621   0.047893  -0.039216   0.037925   0.010725   0.007609
      5       0.007232   0.007112  -0.005553   0.005158   0.001445  -0.061927
      6       0.135014   0.089733  -0.012353  -0.048213   0.139357   0.064721
      7      -0.337014  -0.213230   0.016882   0.048597  -0.143660  -0.066717
      8       0.204312   0.132837   0.036563   0.125528  -0.356060  -0.160673
      9      -0.252123  -0.134711  -0.029971  -0.007832   0.122874   0.023956
     10       0.121370   0.071497  -0.093945  -0.022551   0.338579   0.064887
     11      -0.020499  -0.006094  -0.013320  -0.003177   0.048006   0.012110
     12       0.104430   0.076396  -0.012112  -0.047511   0.137280  -0.002513
     13      -0.305362  -0.184500   0.026283   0.081438  -0.236056   0.002935
     14      -0.298939  -0.190316  -0.030584  -0.107661   0.303264  -0.000462
     15       0.015625   0.157422  -0.156677   0.153955   0.039364   0.157064
     16      -0.108621  -0.228984   0.289202  -0.281039  -0.076683  -0.282480
     17      -0.119205  -0.293745  -0.364758   0.355115   0.095819   0.332736
     18      -0.005096  -0.028653  -0.025969  -0.026595  -0.006284  -0.001000
     19      -0.041619   0.047895   0.039219   0.037921   0.010708  -0.007624
     20      -0.007229   0.007113   0.005555   0.005162   0.001519   0.061925
     21       0.013586   0.153734  -0.159471   0.155627   0.039725  -0.168122
     22      -0.133247  -0.300339   0.178177  -0.171768  -0.047096   0.190169
     23       0.084829   0.219820   0.431049  -0.416753  -0.112461   0.420466
     24      -0.013575   0.153725   0.159491   0.155627   0.039898   0.168068
     25       0.133229  -0.300349  -0.178195  -0.171765  -0.047291  -0.190102
     26      -0.084811   0.219821  -0.431099  -0.416749  -0.112889  -0.420314
     27      -0.015599   0.157428   0.156690   0.153930   0.039145  -0.157119
     28       0.108606  -0.228982  -0.289225  -0.280996  -0.076287   0.282585
     29       0.119184  -0.293749   0.364784   0.355058   0.095349  -0.332865
     30       0.000164  -0.000096  -0.004884   0.009305  -0.033895   0.007372
     31      -0.031603   0.023910  -0.004351  -0.008944   0.003122   0.000031
     32      -0.007116   0.004429  -0.000630  -0.001219   0.000340  -0.012023
     33      -0.104485   0.076395   0.012122  -0.047505   0.137393   0.002363
     34       0.305276  -0.184523  -0.026303   0.081433  -0.236262  -0.002679
     35       0.298925  -0.190349   0.030607  -0.107645   0.303502   0.000132
     36       0.252117  -0.134733   0.029978  -0.007828   0.122928  -0.024092
     37      -0.121351   0.071509   0.093963  -0.022542   0.338726  -0.065259
     38       0.020379  -0.006105   0.013325  -0.003177   0.048038  -0.012166
     39      -0.134961   0.089750   0.012360  -0.048208   0.139391  -0.064877
     40       0.337073  -0.213255  -0.016888   0.048587  -0.143679   0.066870
     41      -0.204291   0.132844  -0.036581   0.125520  -0.356160   0.161074
                 36         37         38         39         40         41    
      0      -0.034030  -0.000094   0.000194   0.000141   0.004500   0.003644
      1       0.007880  -0.003946   0.009024   0.007720   0.064306   0.063948
      2      -0.001432   0.028356  -0.063712  -0.058156   0.009138   0.008602
      3       0.004136   0.000194   0.000026   0.000121  -0.002553  -0.003664
      4      -0.007095   0.008266   0.001873   0.004058   0.004433   0.005370
      5       0.011825  -0.059136  -0.013207  -0.029244   0.000655   0.000569
      6       0.138117   0.075841  -0.174790  -0.162894   0.086385   0.088438
      7      -0.142255  -0.081189   0.178473   0.163442  -0.072615  -0.073736
      8      -0.355334  -0.188506   0.419242   0.385326  -0.211864  -0.215071
      9       0.112065  -0.000090  -0.000224   0.001524  -0.222380  -0.217721
     10       0.305006  -0.001575   0.001472   0.005676  -0.568418  -0.557268
     11       0.042658   0.009027  -0.014517  -0.011509  -0.080737  -0.079332
     12       0.149566  -0.074625   0.172724   0.159626   0.084880   0.089478
     13      -0.257189   0.129775  -0.287659  -0.261723  -0.127714  -0.133878
     14       0.330879  -0.158953   0.355560   0.323971   0.183456   0.191524
     15      -0.054996   0.148006   0.034657   0.072236   0.015455   0.020296
     16       0.099382  -0.272835  -0.055877  -0.132299  -0.024467  -0.038118
     17      -0.118862   0.321004   0.069863   0.156228   0.031018   0.046015
     18      -0.004142   0.000194  -0.000026   0.000120   0.002540  -0.003673
     19       0.007106   0.008268  -0.001873   0.004059  -0.004413   0.005385
     20      -0.011824  -0.059135   0.013204  -0.029246  -0.000663   0.000572
     21       0.010844  -0.150331  -0.034945  -0.073610   0.015820   0.019744
     22      -0.012446   0.174342   0.034329   0.084566  -0.015153  -0.022985
     23      -0.024834   0.384186   0.081995   0.187421  -0.036808  -0.052414
     24      -0.010806  -0.150327   0.034936  -0.073609  -0.015775   0.019800
     25       0.012400   0.174335  -0.034318   0.084565   0.015101  -0.023038
     26       0.024726   0.384175  -0.081971   0.187421   0.036689  -0.052543
     27       0.055035   0.148010  -0.034651   0.072245  -0.015359   0.020346
     28      -0.099456  -0.272842   0.055866  -0.132314   0.024288  -0.038196
     29       0.118955   0.321011  -0.069850   0.156246  -0.030803   0.046114
     30       0.034006  -0.000094  -0.000194   0.000142  -0.004487   0.003660
     31      -0.007878  -0.003947  -0.009027   0.007745  -0.064077   0.064174
     32       0.001432   0.028355   0.063708  -0.058157  -0.009130   0.008638
     33      -0.149465  -0.074621  -0.172715   0.159667  -0.084506   0.089775
     34       0.257028   0.129776   0.287660  -0.261801   0.127156  -0.134333
     35      -0.330646  -0.158940  -0.355531   0.324048  -0.182659   0.192161
     36      -0.111974  -0.000089   0.000228   0.001448   0.221610  -0.218505
     37      -0.304756  -0.001572  -0.001461   0.005482   0.566446  -0.559269
     38      -0.042635   0.009027   0.014517  -0.011538   0.080477  -0.079641
     39      -0.138015   0.075838   0.174779  -0.162876  -0.086126   0.088746
     40       0.142134  -0.081178  -0.178445   0.163412   0.072401  -0.073987
     41       0.355078  -0.188503  -0.419223   0.385287   0.211237  -0.215831
# -----------------------------------------------------------
$ THERMOCHEMISTRY_Energies
   description: The Thermochemistry energies
   geom. index: 5
   prop. index: 1
        Temperature (Kelvin)           :        298.1500000000
        Pressure (atm)                 :          1.0000000000
        Total Mass (AMU)               :         58.1240000000
        Spin Degeneracy                :          1.0000000000
        Electronic Energy (Hartree)    :       -158.4149055248
        Translational Energy (Hartree) :          0.0014162714
        Rotational Energy (Hartree)    :          0.0014162714
        Vibrational Energy (Hartree)   :          0.0029085409
        Number of frequencies          :     42      
        Scaling Factor for frequencies :          1.0000000000
        Vibrational frequencies        :     
                  0    
      0       0.000000
      1       0.000000
      2       0.000000
      3       0.000000
      4       0.000000
      5       0.000000
      6     118.287059
      7     207.791114
      8     253.743105
      9     266.338012
     10     439.568009
     11     756.859583
     12     838.146441
     13     873.636017
     14     994.542846
     15     1014.582652
     16     1058.605829
     17     1106.982181
     18     1216.686131
     19     1257.234512
     20     1337.801368
     21     1375.817306
     22     1380.680838
     23     1455.197471
     24     1465.928952
     25     1468.011177
     26     1539.287131
     27     1542.784309
     28     1548.269581
     29     1549.699379
     30     1556.435050
     31     1564.658934
     32     3088.089482
     33     3095.740497
     34     3104.337758
     35     3104.966905
     36     3105.099523
     37     3127.734044
     38     3161.932330
     39     3166.987197
     40     3169.800346
     41     3170.713683
        Zero Point Energy (Hartree)    :          0.1355121921
        Inner Energy (Hartree)         :       -158.2736522489
        Enthalpy (Hartree)             :       -158.2727080399
        Electronic entropy             :          0.0000000000
        Rotational entropy             :          0.0116282152
        Vibrational entropy            :          0.0049130018
        Translational entropy          :          0.0116282152
        Entropy                        :          0.0346440022
        Gibbs Energy (Hartree)         :       -158.3073520421
        Is Linear                      :                 false
# -------------------------------------------------------------
----------------------- !GEOMETRIES! ------------------------
# -------------------------------------------------------------
------------------------ !GEOMETRY! -------------------------
    Number of atoms:    14 
    Geometry Index:     1 
    Coordinates:
               0 C     -1.265080000000    0.193850000000   -0.025430000000
               1 C      0.255200000000    0.179570000000   -0.022990000000
               2 H     -1.655350000000    0.575980000000    0.923260000000
               3 H     -1.653420000000   -0.819310000000   -0.169030000000
               4 H     -1.650210000000    0.823100000000   -0.834170000000
               5 H      0.607390000000   -0.483440000000    0.775850000000
               6 C      0.827700000000    1.581540000000    0.175840000000
               7 H      0.612500000000   -0.237690000000   -0.971680000000
               8 H      0.470410000000    1.998790000000    1.124540000000
               9 H      0.475480000000    2.244560000000   -0.622990000000
              10 C      2.347970000000    1.567260000000    0.178250000000
              11 H      2.733130000000    0.937990000000    0.986960000000
              12 H      2.736320000000    2.580420000000    0.321870000000
              13 H      2.738230000000    1.185160000000   -0.770460000000
------------------------ !GEOMETRY! -------------------------
    Number of atoms:    14 
    Geometry Index:     2 
    Coordinates:
               0 C     -1.272320782997    0.188718382185   -0.026122017087
               1 C      0.247826805377    0.186642277390   -0.021966841911
               2 H     -1.662673759911    0.567866674281    0.911456626847
               3 H     -1.662061748834   -0.812846860877   -0.168206441450
               4 H     -1.657389587878    0.812173370913   -0.825000986369
               5 H      0.603789693345   -0.469517563971    0.766609549361
               6 C      0.835070822475    1.574466641045    0.174815306680
               7 H      0.608796137495   -0.226862627829   -0.958871375580
               8 H      0.474111808026    1.987962452878    1.111728421527
               9 H      0.479084969925    2.230630589423   -0.613747802958
              10 C      2.355213877597    1.572394720079    0.178941771163
              11 H      2.740308101716    0.948920922039    0.977793710729
              12 H      2.744959897708    2.573956402330    0.321044179068
              13 H      2.745553765955    1.193274620113   -0.758654100020
------------------------ !GEOMETRY! -------------------------
    Number of atoms:    14 
    Geometry Index:     3 
    Coordinates:
               0 C     -1.272588412588    0.187416038576   -0.026295450865
               1 C      0.246084689630    0.188527229188   -0.021722105364
               2 H     -1.663983114528    0.567618380174    0.910241705545
               3 H     -1.664877726888   -0.812142384493   -0.168048442615
               4 H     -1.658647123953    0.811524831449   -0.823986972643
               5 H      0.605546511279   -0.467661405497    0.765268379602
               6 C      0.836812221479    1.572580325395    0.174561754201
               7 H      0.610456148302   -0.225384989619   -0.957155418644
               8 H      0.472446055886    1.986484332314    1.110001081288
               9 H      0.477335686573    2.228772281761   -0.612418983884
              10 C      2.355483357507    1.573698309770    0.179120336118
              11 H      2.741557421706    0.949565996236    0.976786410255
              12 H      2.747773322484    2.573252819116    0.320900594226
              13 H      2.746870963111    1.193528235631   -0.757432887219
------------------------ !GEOMETRY! -------------------------
    Number of atoms:    14 
    Geometry Index:     4 
    Coordinates:
               0 C     -1.271620538251    0.186824531152   -0.026374400569
               1 C      0.245414822657    0.189145463642   -0.021665333158
               2 H     -1.663898536450    0.568341971313    0.909758316675
               3 H     -1.666530143842   -0.811738671668   -0.167896561744
               4 H     -1.658530181208    0.811946519403   -0.823447941464
               5 H      0.607678476596   -0.467752909165    0.764250338900
               6 C      0.837481843654    1.571963282943    0.174495957201
               7 H      0.612479257335   -0.225652553019   -0.956329316130
               8 H      0.470417738333    1.986753923938    1.109163274086
               9 H      0.475213066306    2.228865394106   -0.611414257626
              10 C      2.354516823670    1.574289270977    0.179204549453
              11 H      2.741429727436    0.949135250538    0.976251517765
              12 H      2.749424186135    2.572847488778    0.320768364475
              13 H      2.746793457631    1.192811037061   -0.756944507865
------------------------ !GEOMETRY! -------------------------
    Number of atoms:    14 
    Geometry Index:     5 
    Coordinates:
               0 C     -1.271077577066    0.186850663642   -0.026372763900
               1 C      0.245570466860    0.188931242630   -0.021709656557
               2 H     -1.663587412361    0.568747761174    0.909651133082
               3 H     -1.666793243808   -0.811543316563   -0.167820776671
               4 H     -1.658218106008    0.812228007597   -0.823298970575
               5 H      0.608449906215   -0.468219539579    0.763880006831
               6 C      0.837326183089    1.572179047365    0.174538643698
               7 H      0.613207264548   -0.226144713101   -0.956167302631
               8 H      0.469688289125    1.987248899492    1.108998653932
               9 H      0.474444799570    2.229333122503   -0.611047383929
              10 C      2.353974070784    1.574262289583    0.179204097571
              11 H      2.741114125498    0.948851650117    0.976104534742
              12 H      2.749687881989    2.572650924838    0.320695281183
              13 H      2.746483351565    1.192403960303   -0.756835496777
