14
Coordinates from ORCA-job butane_BHLYP-D3_cc-pVDZ
  C   -1.27493448122601      0.18500729212422     -0.02641722244991
  C   0.24428997242692      0.18749503223176     -0.02161727211698
  H   -1.67311053373142      0.57004348078092      0.91836195958948
  H   -1.67516554066555     -0.82263645395757     -0.17045079738517
  H   -1.66762195777705      0.81713095294805     -0.82996911865680
  H   0.61119413167333     -0.47678452562024      0.77112014193198
  C   0.83860570598189      1.57361565977866      0.17445307781391
  H   0.61684972753542     -0.23333416941390     -0.96420434639800
  H   0.46605027617734      1.99444268800010      1.11704292198950
  H   0.47169709646808      2.23789687212209     -0.61828095509240
  C   2.35783025932741      1.57610460069136      0.17924538879843
  H   2.75052233731192      0.94397432599449      0.98278986717329
  H   2.75806121388202      2.58374746894393      0.32328543325225
  H   2.75600179261569      1.19107677537613     -0.76553907844958
