8
Coordinates from ORCA-job ethane_BHLYP-D3_def2-TZVP E -79.804205940843
  C      -1.069770      0.342760      0.000000
  C       0.442290      0.342760     -0.000000
  H      -1.454140      0.727780      0.949230
  H      -1.454140     -0.671810     -0.141180
  H      -1.454140      0.972310     -0.808050
  H       0.826660     -0.286790      0.808050
  H       0.826660      1.357330      0.141180
  H       0.826660     -0.042260     -0.949230
8
Coordinates from ORCA-job ethane_BHLYP-D3_def2-TZVP E -79.804736564935
  C      -1.072950      0.342823      0.000021
  C       0.445470      0.342697     -0.000021
  H      -1.460970      0.723402      0.938265
  H      -1.460882     -0.660050     -0.139622
  H      -1.461047      0.965008     -0.798700
  H       0.833568     -0.279488      0.798700
  H       0.833402      1.345570      0.139622
  H       0.833490     -0.037882     -0.938265
8
Coordinates from ORCA-job ethane_BHLYP-D3_def2-TZVP E -79.804755750049
  C      -1.073256      0.342854      0.000036
  C       0.445776      0.342666     -0.000036
  H      -1.464027      0.722922      0.937012
  H      -1.463905     -0.658686     -0.139473
  H      -1.464145      0.964156     -0.797630
  H       0.836665     -0.278636      0.797630
  H       0.836425      1.344206      0.139474
  H       0.836547     -0.037401     -0.937012
8
Coordinates from ORCA-job ethane_BHLYP-D3_def2-TZVP E -79.804762322642
  C      -1.072758      0.342876      0.000049
  C       0.445278      0.342645     -0.000049
  H      -1.465907      0.722696      0.936410
  H      -1.465769     -0.658019     -0.139417
  H      -1.466057      0.963731     -0.797115
  H       0.838577     -0.278211      0.797115
  H       0.838289      1.343539      0.139417
  H       0.838426     -0.037176     -0.936410
8
Coordinates from ORCA-job ethane_BHLYP-D3_def2-TZVP E -79.804762914301
  C      -1.072378      0.342876      0.000052
  C       0.444898      0.342644     -0.000052
  H      -1.465971      0.722681      0.936374
  H      -1.465840     -0.657976     -0.139416
  H      -1.466125      0.963699     -0.797085
  H       0.838645     -0.278179      0.797084
  H       0.838360      1.343496      0.139416
  H       0.838491     -0.037161     -0.936374
8
Coordinates from ORCA-job ethane_BHLYP-D3_def2-TZVP E -79.804762949063
  C      -1.072277      0.342873      0.000051
  C       0.444797      0.342647     -0.000051
  H      -1.465872      0.722687      0.936397
  H      -1.465746     -0.658000     -0.139418
  H      -1.466023      0.963713     -0.797104
  H       0.838544     -0.278193      0.797104
  H       0.838266      1.343520      0.139418
  H       0.838391     -0.037167     -0.936397
