8
Coordinates from ORCA-job ethane_BHLYP-D3_STO-3G E -78.836322170982
  C      -1.069770      0.342760      0.000000
  C       0.442290      0.342760     -0.000000
  H      -1.454140      0.727780      0.949230
  H      -1.454140     -0.671810     -0.141180
  H      -1.454140      0.972310     -0.808050
  H       0.826660     -0.286790      0.808050
  H       0.826660      1.357330      0.141180
  H       0.826660     -0.042260     -0.949230
8
Coordinates from ORCA-job ethane_BHLYP-D3_STO-3G E -78.836893921407
  C      -1.083675      0.342752      0.000004
  C       0.456195      0.342768     -0.000004
  H      -1.471599      0.726027      0.944879
  H      -1.471566     -0.667165     -0.140526
  H      -1.471592      0.969448     -0.804347
  H       0.844112     -0.283928      0.804347
  H       0.844086      1.352685      0.140526
  H       0.844119     -0.040507     -0.944879
8
Coordinates from ORCA-job ethane_BHLYP-D3_STO-3G E -78.836900782689
  C      -1.083130      0.342749      0.000008
  C       0.455650      0.342771     -0.000008
  H      -1.470093      0.726465      0.945938
  H      -1.470054     -0.668308     -0.140685
  H      -1.470078      0.970156     -0.805243
  H       0.842598     -0.284636      0.805243
  H       0.842574      1.353828      0.140685
  H       0.842613     -0.040945     -0.945938
8
Coordinates from ORCA-job ethane_BHLYP-D3_STO-3G E -78.836901446965
  C      -1.083126      0.342747      0.000009
  C       0.455646      0.342773     -0.000009
  H      -1.469469      0.726516      0.946055
  H      -1.469425     -0.668436     -0.140703
  H      -1.469451      0.970237     -0.805341
  H       0.841971     -0.284717      0.805341
  H       0.841945      1.353956      0.140703
  H       0.841989     -0.040996     -0.946055
