20
Coordinates from ORCA-job hexane_BHLYP-D3_6-311G_d-p_ E -236.998780072715
  C      -5.596720     -0.895900     -0.007080
  C      -4.348320     -0.028410     -0.029150
  H      -6.493920     -0.269800     -0.037940
  H      -5.636900     -1.502500      0.903270
  H      -5.622170     -1.568810     -0.870150
  C      -3.076790     -0.875590      0.013070
  H      -4.369730      0.654290      0.828270
  H      -4.355090      0.588360     -0.935380
  C      -1.823340      0.000710     -0.009260
  H      -3.062370     -1.559510     -0.844320
  H      -3.077030     -1.493600      0.919240
  C      -0.551820     -0.846470      0.032960
  H      -1.837760      0.684620      0.848150
  H      -1.823110      0.618730     -0.915420
  C       0.696580      0.021020      0.010930
  H      -0.530400     -1.529150     -0.824480
  H      -0.545060     -1.463280      0.939160
  H       0.736770      0.627660     -0.899400
  H       1.593780     -0.605080      0.041770
  H       0.722030      0.693890      0.874030
20
Coordinates from ORCA-job hexane_BHLYP-D3_6-311G_d-p_ E -237.000237669252
  C      -5.618498     -0.895860     -0.007253
  C      -4.360511     -0.037013     -0.028684
  H      -6.512652     -0.279342     -0.038247
  H      -5.661728     -1.500557      0.894471
  H      -5.646397     -1.566583     -0.861640
  C      -3.081497     -0.865165      0.012686
  H      -4.376338      0.644496      0.819512
  H      -4.361878      0.579368     -0.925502
  C      -1.818639     -0.009717     -0.008867
  H      -3.068385     -1.547298     -0.835829
  H      -3.082649     -1.482130      0.909816
  C      -0.539626     -0.837868      0.032496
  H      -1.831751      0.672406      0.839656
  H      -1.817494      0.607258     -0.905991
  C       0.718360      0.020980      0.011096
  H      -0.523791     -1.519359     -0.815715
  H      -0.538265     -1.454279      0.929294
  H       0.761593      0.625707     -0.890607
  H       1.612516     -0.595537      0.042071
  H       0.746259      0.691672      0.865508
20
Coordinates from ORCA-job hexane_BHLYP-D3_6-311G_d-p_ E -237.000322998050
  C      -5.619406     -0.894904     -0.007284
  C      -4.360918     -0.038721     -0.028428
  H      -6.514768     -0.281908     -0.038679
  H      -5.663039     -1.500779      0.893490
  H      -5.647031     -1.567192     -0.860300
  C      -3.081677     -0.861708      0.012577
  H      -4.374019      0.644745      0.818294
  H      -4.359594      0.579903     -0.923766
  C      -1.818460     -0.013175     -0.008753
  H      -3.069054     -1.546006     -0.834743
  H      -3.083109     -1.481058      0.908586
  C      -0.539218     -0.836161      0.032245
  H      -1.831082      0.671116      0.838572
  H      -1.817033      0.606182     -0.904757
  C       0.719268      0.020023      0.011121
  H      -0.526112     -1.519614     -0.814487
  H      -0.540545     -1.454803      0.927570
  H       0.762900      0.625920     -0.889639
  H       1.614632     -0.592970      0.042500
  H       0.746895      0.692290      0.864153
20
Coordinates from ORCA-job hexane_BHLYP-D3_6-311G_d-p_ E -237.000341734194
  C      -5.618254     -0.894050     -0.007289
  C      -4.360716     -0.038953     -0.028244
  H      -6.515222     -0.283328     -0.039171
  H      -5.661907     -1.500944      0.893267
  H      -5.645202     -1.567893     -0.859594
  C      -3.081578     -0.860303      0.012525
  H      -4.372355      0.646258      0.817749
  H      -4.357959      0.581692     -0.922811
  C      -1.818559     -0.014581     -0.008698
  H      -3.069311     -1.546632     -0.834006
  H      -3.083196     -1.481937      0.907761
  C      -0.539420     -0.835929      0.032067
  H      -1.830826      0.671746      0.837835
  H      -1.816943      0.607056     -0.903932
  C       0.718117      0.019170      0.011119
  H      -0.527779     -1.521135     -0.813931
  H      -0.542177     -1.456582      0.926629
  H       0.761766      0.626075     -0.889430
  H       1.615086     -0.591551      0.042991
  H       0.745066      0.693002      0.863432
20
Coordinates from ORCA-job hexane_BHLYP-D3_6-311G_d-p_ E -237.000343960614
  C      -5.617606     -0.893797     -0.007278
  C      -4.360618     -0.038673     -0.028178
  H      -6.515184     -0.283797     -0.039465
  H      -5.661312     -1.500895      0.893279
  H      -5.644228     -1.568215     -0.859287
  C      -3.081535     -0.860299      0.012504
  H      -4.371949      0.647030      0.817579
  H      -4.357577      0.582630     -0.922438
  C      -1.818602     -0.014584     -0.008677
  H      -3.069429     -1.547219     -0.833692
  H      -3.083251     -1.482707      0.907339
  C      -0.539519     -0.836210      0.032005
  H      -1.830709      0.672335      0.837520
  H      -1.816886      0.607825     -0.903511
  C       0.717469      0.018916      0.011105
  H      -0.528187     -1.521911     -0.813753
  H      -0.542558     -1.457514      0.926263
  H       0.761171      0.626020     -0.889448
  H       1.615047     -0.591083      0.043286
  H       0.744093      0.693329      0.863118
