20
Coordinates from ORCA-job hexane_BHLYP-D3_def2-TZVP E -237.022436330029
  C      -5.596720     -0.895900     -0.007080
  C      -4.348320     -0.028410     -0.029150
  H      -6.493920     -0.269800     -0.037940
  H      -5.636900     -1.502500      0.903270
  H      -5.622170     -1.568810     -0.870150
  C      -3.076790     -0.875590      0.013070
  H      -4.369730      0.654290      0.828270
  H      -4.355090      0.588360     -0.935380
  C      -1.823340      0.000710     -0.009260
  H      -3.062370     -1.559510     -0.844320
  H      -3.077030     -1.493600      0.919240
  C      -0.551820     -0.846470      0.032960
  H      -1.837760      0.684620      0.848150
  H      -1.823110      0.618730     -0.915420
  C       0.696580      0.021020      0.010930
  H      -0.530400     -1.529150     -0.824480
  H      -0.545060     -1.463280      0.939160
  H       0.736770      0.627660     -0.899400
  H       1.593780     -0.605080      0.041770
  H       0.722030      0.693890      0.874030
20
Coordinates from ORCA-job hexane_BHLYP-D3_def2-TZVP E -237.024221610055
  C      -5.611055     -0.894956     -0.007170
  C      -4.356116     -0.037013     -0.028865
  H      -6.504159     -0.279695     -0.037860
  H      -5.653238     -1.498761      0.893215
  H      -5.638375     -1.564598     -0.860364
  C      -3.080195     -0.864352      0.012552
  H      -4.371920      0.643408      0.818143
  H      -4.357553      0.578271     -0.924506
  C      -1.819940     -0.010530     -0.008736
  H      -3.067187     -1.545327     -0.834808
  H      -3.081647     -1.480463      0.908295
  C      -0.544022     -0.837868      0.032677
  H      -1.832948      0.670435      0.838633
  H      -1.818495      0.605590     -0.904472
  C       0.710917      0.020076      0.011015
  H      -0.528208     -1.518271     -0.814347
  H      -0.542592     -1.453182      0.928297
  H       0.753105      0.623911     -0.889350
  H       1.604023     -0.595184      0.041688
  H       0.738236      0.689688      0.864233
20
Coordinates from ORCA-job hexane_BHLYP-D3_def2-TZVP E -237.024331075960
  C      -5.611243     -0.893819     -0.007158
  C      -4.356221     -0.038823     -0.028774
  H      -6.505745     -0.282496     -0.038017
  H      -5.653469     -1.498889      0.892131
  H      -5.638323     -1.565000     -0.858895
  C      -3.080364     -0.860407      0.012324
  H      -4.369254      0.643755      0.816535
  H      -4.354999      0.578749     -0.922834
  C      -1.819773     -0.014477     -0.008506
  H      -3.067876     -1.543618     -0.833730
  H      -3.082317     -1.479183      0.906693
  C      -0.543915     -0.836059      0.032588
  H      -1.832261      0.668728      0.837552
  H      -1.817824      0.604304     -0.902871
  C       0.711105      0.018939      0.011000
  H      -0.530872     -1.518622     -0.812733
  H      -0.545144     -1.453652      0.926633
  H       0.753333      0.624033     -0.888272
  H       1.605609     -0.592381      0.041846
  H       0.738182      0.690097      0.862756
20
Coordinates from ORCA-job hexane_BHLYP-D3_def2-TZVP E -237.024353881480
  C      -5.610113     -0.892908     -0.007124
  C      -4.356123     -0.039057     -0.028746
  H      -6.506443     -0.284106     -0.038245
  H      -5.652135     -1.499173      0.891926
  H      -5.636674     -1.565710     -0.858188
  C      -3.080337     -0.858781      0.012164
  H      -4.367653      0.645590      0.815701
  H      -4.353505      0.580671     -0.922060
  C      -1.819800     -0.016105     -0.008345
  H      -3.068193     -1.544192     -0.833113
  H      -3.082648     -1.480207      0.905642
  C      -0.544012     -0.835826      0.032565
  H      -1.831945      0.669304      0.836933
  H      -1.817490      0.605323     -0.901822
  C       0.709974      0.018029      0.010963
  H      -0.532473     -1.520463     -0.811892
  H      -0.546636     -1.455566      0.925870
  H       0.751998      0.624311     -0.888075
  H       1.606307     -0.590770      0.042075
  H       0.736531      0.690815      0.862040
20
Coordinates from ORCA-job hexane_BHLYP-D3_def2-TZVP E -237.024355561411
  C      -5.609531     -0.892652     -0.007094
  C      -4.356081     -0.038752     -0.028755
  H      -6.506544     -0.284644     -0.038406
  H      -5.651531     -1.499200      0.891937
  H      -5.635880     -1.566050     -0.857874
  C      -3.080312     -0.858762      0.012091
  H      -4.367270      0.646534      0.815371
  H      -4.353192      0.581665     -0.921770
  C      -1.819824     -0.016122     -0.008271
  H      -3.068306     -1.544811     -0.832852
  H      -3.082792     -1.481116      0.905096
  C      -0.544055     -0.836131      0.032575
  H      -1.831831      0.669926      0.836672
  H      -1.817346      0.606232     -0.901275
  C       0.709393      0.017773      0.010931
  H      -0.532858     -1.521409     -0.811557
  H      -0.546949     -1.456557      0.925585
  H       0.751393      0.624334     -0.888091
  H       1.606407     -0.590233      0.042235
  H       0.735739      0.691157      0.861722
