20
Coordinates from ORCA-job hexane_BHLYP-D3_STO-3G E -234.154490437758
  C      -5.596720     -0.895900     -0.007080
  C      -4.348320     -0.028410     -0.029150
  H      -6.493920     -0.269800     -0.037940
  H      -5.636900     -1.502500      0.903270
  H      -5.622170     -1.568810     -0.870150
  C      -3.076790     -0.875590      0.013070
  H      -4.369730      0.654290      0.828270
  H      -4.355090      0.588360     -0.935380
  C      -1.823340      0.000710     -0.009260
  H      -3.062370     -1.559510     -0.844320
  H      -3.077030     -1.493600      0.919240
  C      -0.551820     -0.846470      0.032960
  H      -1.837760      0.684620      0.848150
  H      -1.823110      0.618730     -0.915420
  C       0.696580      0.021020      0.010930
  H      -0.530400     -1.529150     -0.824480
  H      -0.545060     -1.463280      0.939160
  H       0.736770      0.627660     -0.899400
  H       1.593780     -0.605080      0.041770
  H       0.722030      0.693890      0.874030
20
Coordinates from ORCA-job hexane_BHLYP-D3_STO-3G E -234.156112647433
  C      -5.655844     -0.902267     -0.007330
  C      -4.382996     -0.029378     -0.029265
  H      -6.552239     -0.280662     -0.038305
  H      -5.695580     -1.508449      0.898518
  H      -5.680425     -1.574572     -0.865805
  C      -3.088333     -0.874600      0.012994
  H      -4.398336      0.653646      0.824729
  H      -4.383820      0.588051     -0.931973
  C      -1.811804     -0.000281     -0.009175
  H      -3.074492     -1.557575     -0.840674
  H      -3.088903     -1.491987      0.915362
  C      -0.517141     -0.845503      0.033076
  H      -1.825644      0.682683      0.844499
  H      -1.811241      0.617116     -0.911538
  C       0.755707      0.027386      0.011175
  H      -0.501792     -1.528506     -0.820935
  H      -0.516324     -1.462963      0.935763
  H       0.795447      0.633599     -0.894651
  H       1.652103     -0.594219      0.042130
  H       0.780287      0.699659      0.869675
20
Coordinates from ORCA-job hexane_BHLYP-D3_STO-3G E -234.156164642558
  C      -5.649729     -0.901703     -0.007302
  C      -4.378985     -0.028053     -0.029188
  H      -6.546351     -0.279855     -0.038522
  H      -5.686162     -1.508024      0.899734
  H      -5.670652     -1.574420     -0.866763
  C      -3.086918     -0.874950      0.013055
  H      -4.392425      0.654374      0.826357
  H      -4.377881      0.588770     -0.933289
  C      -1.813219      0.000067     -0.009232
  H      -3.073255     -1.557468     -0.842395
  H      -3.087585     -1.491770      0.917141
  C      -0.521152     -0.846828      0.033000
  H      -1.826880      0.682579      0.846224
  H      -1.812557      0.616895     -0.913313
  C       0.749592      0.026822      0.011142
  H      -0.507705     -1.529238     -0.822560
  H      -0.522261     -1.463675      0.937085
  H       0.786027      0.633171     -0.895875
  H       1.646214     -0.595026      0.042345
  H       0.770514      0.699512      0.870625
20
Coordinates from ORCA-job hexane_BHLYP-D3_STO-3G E -234.156170592973
  C      -5.648265     -0.901517     -0.007298
  C      -4.378212     -0.027297     -0.029116
  H      -6.545090     -0.280052     -0.038755
  H      -5.682333     -1.507512      0.899923
  H      -5.666481     -1.574132     -0.866770
  C      -3.086655     -0.875083      0.013092
  H      -4.390239      0.654406      0.826859
  H      -4.375679      0.588905     -0.933479
  C      -1.813482      0.000200     -0.009267
  H      -3.073170     -1.556911     -0.842700
  H      -3.087403     -1.491218      0.917445
  C      -0.521925     -0.847585      0.032932
  H      -1.826965      0.682024      0.846529
  H      -1.812737      0.616341     -0.913616
  C       0.748128      0.026636      0.011135
  H      -0.509894     -1.529274     -0.823056
  H      -0.524461     -1.463803      0.937284
  H       0.782196      0.632653     -0.896071
  H       1.644954     -0.594829      0.042577
  H       0.766344      0.699231      0.870623
20
Coordinates from ORCA-job hexane_BHLYP-D3_STO-3G E -234.156170820106
  C      -5.648562     -0.901520     -0.007303
  C      -4.378481     -0.027043     -0.029074
  H      -6.545541     -0.280376     -0.038911
  H      -5.681961     -1.507364      0.900025
  H      -5.665906     -1.574148     -0.866764
  C      -3.086769     -0.875079      0.013103
  H      -4.390016      0.654473      0.827039
  H      -4.375445      0.589061     -0.933483
  C      -1.813368      0.000197     -0.009278
  H      -3.073366     -1.556768     -0.842788
  H      -3.087549     -1.491091      0.917528
  C      -0.521656     -0.847839      0.032892
  H      -1.826769      0.681882      0.846617
  H      -1.812590      0.616213     -0.913699
  C       0.748424      0.026639      0.011137
  H      -0.510118     -1.529343     -0.823230
  H      -0.524694     -1.463956      0.937293
  H       0.781824      0.632500     -0.896180
  H       1.645404     -0.594505      0.042733
  H       0.765769      0.699251      0.870611
