20
Coordinates from ORCA-job hexane_BHLYP-D3_cc-pVDZ
  C   -5.61758055682418     -0.89328781265726     -0.00725389962957
  C   -4.36107768385521     -0.03902011871217     -0.02821928138864
  H   -6.52251736693154     -0.28008982645028     -0.03990058836079
  H   -5.66271343815813     -1.50589169812624      0.89940251312941
  H   -5.64532707857327     -1.57391533489550     -0.86473884659708
  C   -3.08172281416108     -0.85967255784666      0.01249761107186
  H   -4.37197978390998      0.65321537700116      0.82289018807334
  H   -4.35753218504945      0.58865448657734     -0.92808736009631
  C   -1.81841422293700     -0.01521089304377     -0.00866668199839
  H   -3.06945448447711     -1.55313762233988     -0.83882005152155
  H   -3.08336101420093     -1.48839503606687      0.91277353336957
  C   -0.53905864241414     -0.83586232855177      0.03204151796224
  H   -1.83067989565318      0.67825064661259      0.84265391817436
  H   -1.81677933112466      0.61351589892680     -0.90893963294769
  C   0.71744306923091      0.01840693204956      0.01108172727901
  H   -0.52815716230907     -1.52809054541296     -0.81907392357804
  H   -0.54260218222268     -1.46354468766557      0.93190421308863
  H   0.76257316627558      0.63101965511107     -0.89556873163969
  H   1.62238062732765     -0.59479058627876      0.04372049052314
  H   0.74519097996748      0.69902605176918      0.86857328508618
