5
Coordinates from ORCA-job methane_BHLYP-D3_def2-TZVP
  C   -0.85710467913740      0.34278194712095      0.00011800744317
  H   0.22493469397314      0.34279512076318     -0.00004524181628
  H   -1.21771938629088      0.72620029520242      0.94539586151824
  H   -1.21775587612369     -0.66763493380920     -0.14067387871761
  H   -1.21768475242117      0.96965757072265     -0.80478474842752
