5
Coordinates from ORCA-job methane_BHLYP-D3_aug-cc-pVTZ
  C   -0.85710154306970      0.34280810116462      0.00003464944207
  H   0.22404722068968      0.34271865828197     -0.00001995306001
  H   -1.21744550135056      0.72589272879169      0.94460173061264
  H   -1.21739637960342     -0.66682239096623     -0.14050963955156
  H   -1.21743379666600      0.96920290272795     -0.80409678744314
