5
Coordinates from ORCA-job methane_BHLYP-D3_STO-3G E -40.009270918170
  C      -0.857070      0.342760      0.000000
  H       0.235130      0.342760     -0.000000
  H      -1.221130      0.729800      0.954230
  H      -1.221130     -0.677150     -0.141920
  H      -1.221130      0.975630     -0.812300
5
Coordinates from ORCA-job methane_BHLYP-D3_STO-3G E -40.009320986255
  C      -0.857068      0.342756      0.000023
  H       0.230114      0.342766     -0.000018
  H      -1.219468      0.728037      0.949859
  H      -1.219462     -0.672468     -0.141288
  H      -1.219447      0.972709     -0.808566
5
Coordinates from ORCA-job methane_BHLYP-D3_STO-3G E -40.009323612254
  C      -0.857067      0.342755      0.000032
  H       0.231039      0.342768     -0.000025
  H      -1.219780      0.728369      0.950669
  H      -1.219771     -0.673329     -0.141414
  H      -1.219751      0.973238     -0.809252
5
Coordinates from ORCA-job methane_BHLYP-D3_STO-3G E -40.009323612064
  C      -0.857067      0.342754      0.000037
  H       0.231030      0.342769     -0.000029
  H      -1.219779      0.728368      0.950663
  H      -1.219769     -0.673319     -0.141418
  H      -1.219746      0.973228     -0.809244
