-------------------------------------------------------------
----------------------- !PROPERTIES! ------------------------
-------------------------------------------------------------
# -----------------------------------------------------------
$ SCF_Energy
   description: The SCF energy
   geom. index: 1
   prop. index: 1
        SCF Energy:     -197.6288918828
# -----------------------------------------------------------
$ DFT_Energy
   description: The DFT energy
   geom. index: 1
   prop. index: 1
   Number of Alpha Electrons        21.0000634414 
   Number of Alpha Electrons        21.0000634414 
   Total nuber of  Electrons        42.0001268828 
   Exchange energy                 -15.1086479166 
   Correlation energy               -1.3276185128 
   Correlantion energy NL            0.0000000000 
   Exchange-Correlation energy     -16.4362664294 
   Embedding correction              0.0000000000 
# -----------------------------------------------------------
$ VdW_Correction
   description: The Van der Waals Correction
   geom. index: 1
   prop. index: 1
        Van der Waals Correction:       -0.0145410761
# -----------------------------------------------------------
$ SCF_Energy
   description: The SCF energy
   geom. index: 2
   prop. index: 1
        SCF Energy:     -197.6299028030
# -----------------------------------------------------------
$ DFT_Energy
   description: The DFT energy
   geom. index: 2
   prop. index: 1
   Number of Alpha Electrons        21.0000668079 
   Number of Alpha Electrons        21.0000668079 
   Total nuber of  Electrons        42.0001336158 
   Exchange energy                 -15.1214270800 
   Correlation energy               -1.3285303038 
   Correlantion energy NL            0.0000000000 
   Exchange-Correlation energy     -16.4499573838 
   Embedding correction              0.0000000000 
# -----------------------------------------------------------
$ VdW_Correction
   description: The Van der Waals Correction
   geom. index: 2
   prop. index: 1
        Van der Waals Correction:       -0.0145007147
# -----------------------------------------------------------
$ SCF_Energy
   description: The SCF energy
   geom. index: 3
   prop. index: 1
        SCF Energy:     -197.6299634411
# -----------------------------------------------------------
$ DFT_Energy
   description: The DFT energy
   geom. index: 3
   prop. index: 1
   Number of Alpha Electrons        21.0000667930 
   Number of Alpha Electrons        21.0000667930 
   Total nuber of  Electrons        42.0001335860 
   Exchange energy                 -15.1222657891 
   Correlation energy               -1.3286583116 
   Correlantion energy NL            0.0000000000 
   Exchange-Correlation energy     -16.4509241008 
   Embedding correction              0.0000000000 
# -----------------------------------------------------------
$ VdW_Correction
   description: The Van der Waals Correction
   geom. index: 3
   prop. index: 1
        Van der Waals Correction:       -0.0145003155
# -----------------------------------------------------------
$ SCF_Energy
   description: The SCF energy
   geom. index: 4
   prop. index: 1
        SCF Energy:     -197.6299728109
# -----------------------------------------------------------
$ DFT_Energy
   description: The DFT energy
   geom. index: 4
   prop. index: 1
   Number of Alpha Electrons        21.0000665840 
   Number of Alpha Electrons        21.0000665840 
   Total nuber of  Electrons        42.0001331679 
   Exchange energy                 -15.1222381964 
   Correlation energy               -1.3287084807 
   Correlantion energy NL            0.0000000000 
   Exchange-Correlation energy     -16.4509466771 
   Embedding correction              0.0000000000 
# -----------------------------------------------------------
$ VdW_Correction
   description: The Van der Waals Correction
   geom. index: 4
   prop. index: 1
        Van der Waals Correction:       -0.0145036096
# -----------------------------------------------------------
$ SCF_Energy
   description: The SCF energy
   geom. index: 5
   prop. index: 1
        SCF Energy:     -197.6299725337
# -----------------------------------------------------------
$ DFT_Energy
   description: The DFT energy
   geom. index: 5
   prop. index: 1
   Number of Alpha Electrons        21.0000665234 
   Number of Alpha Electrons        21.0000665234 
   Total nuber of  Electrons        42.0001330467 
   Exchange energy                 -15.1221714013 
   Correlation energy               -1.3287112467 
   Correlantion energy NL            0.0000000000 
   Exchange-Correlation energy     -16.4508826480 
   Embedding correction              0.0000000000 
# -----------------------------------------------------------
$ VdW_Correction
   description: The Van der Waals Correction
   geom. index: 5
   prop. index: 1
        Van der Waals Correction:       -0.0145047844
# -----------------------------------------------------------
$ SCF_Electric_Properties
   description: The SCF Calculated Electric Properties
   geom. index: 5
   prop. index: 1
       Filename                          : pentane_BHLYP-D3_6-31G_d_.scfp 
       Do Dipole Moment Calculation      : true 
       Do Quadrupole Moment Calculation  : false 
       Do Polarizability Calculation     : false 
** Dipole moment part of electric properties **
        Magnitude of dipole moment (Debye) :        0.0581534016
        Electronic Contribution:
                  0    
      0       0.310634
      1      -0.480101
      2      -0.060884
        Nuclear Contribution:
                  0    
      0      -0.298205
      1       0.461047
      2       0.058456
        Total Dipole moment:
                  0    
      0       0.012429
      1      -0.019054
      2      -0.002427
# -----------------------------------------------------------
$ Hessian
   description: Details about the Hessian
   geom. index: 5
   prop. index: 1
Normal modes:
Number of Rows: 51 Number of Columns: 51
                  0          1          2          3          4          5    
      0       0.000000   0.000000   0.000000   0.000000   0.000000   0.000000
      1       0.000000   0.000000   0.000000   0.000000   0.000000   0.000000
      2       0.000000   0.000000   0.000000   0.000000   0.000000   0.000000
      3       0.000000   0.000000   0.000000   0.000000   0.000000   0.000000
      4       0.000000   0.000000   0.000000   0.000000   0.000000   0.000000
      5       0.000000   0.000000   0.000000   0.000000   0.000000   0.000000
      6       0.000000   0.000000   0.000000   0.000000   0.000000   0.000000
      7       0.000000   0.000000   0.000000   0.000000   0.000000   0.000000
      8       0.000000   0.000000   0.000000   0.000000   0.000000   0.000000
      9       0.000000   0.000000   0.000000   0.000000   0.000000   0.000000
     10       0.000000   0.000000   0.000000   0.000000   0.000000   0.000000
     11       0.000000   0.000000   0.000000   0.000000   0.000000   0.000000
     12       0.000000   0.000000   0.000000   0.000000   0.000000   0.000000
     13       0.000000   0.000000   0.000000   0.000000   0.000000   0.000000
     14       0.000000   0.000000   0.000000   0.000000   0.000000   0.000000
     15       0.000000   0.000000   0.000000   0.000000   0.000000   0.000000
     16       0.000000   0.000000   0.000000   0.000000   0.000000   0.000000
     17       0.000000   0.000000   0.000000   0.000000   0.000000   0.000000
     18       0.000000   0.000000   0.000000   0.000000   0.000000   0.000000
     19       0.000000   0.000000   0.000000   0.000000   0.000000   0.000000
     20       0.000000   0.000000   0.000000   0.000000   0.000000   0.000000
     21       0.000000   0.000000   0.000000   0.000000   0.000000   0.000000
     22       0.000000   0.000000   0.000000   0.000000   0.000000   0.000000
     23       0.000000   0.000000   0.000000   0.000000   0.000000   0.000000
     24       0.000000   0.000000   0.000000   0.000000   0.000000   0.000000
     25       0.000000   0.000000   0.000000   0.000000   0.000000   0.000000
     26       0.000000   0.000000   0.000000   0.000000   0.000000   0.000000
     27       0.000000   0.000000   0.000000   0.000000   0.000000   0.000000
     28       0.000000   0.000000   0.000000   0.000000   0.000000   0.000000
     29       0.000000   0.000000   0.000000   0.000000   0.000000   0.000000
     30       0.000000   0.000000   0.000000   0.000000   0.000000   0.000000
     31       0.000000   0.000000   0.000000   0.000000   0.000000   0.000000
     32       0.000000   0.000000   0.000000   0.000000   0.000000   0.000000
     33       0.000000   0.000000   0.000000   0.000000   0.000000   0.000000
     34       0.000000   0.000000   0.000000   0.000000   0.000000   0.000000
     35       0.000000   0.000000   0.000000   0.000000   0.000000   0.000000
     36       0.000000   0.000000   0.000000   0.000000   0.000000   0.000000
     37       0.000000   0.000000   0.000000   0.000000   0.000000   0.000000
     38       0.000000   0.000000   0.000000   0.000000   0.000000   0.000000
     39       0.000000   0.000000   0.000000   0.000000   0.000000   0.000000
     40       0.000000   0.000000   0.000000   0.000000   0.000000   0.000000
     41       0.000000   0.000000   0.000000   0.000000   0.000000   0.000000
     42       0.000000   0.000000   0.000000   0.000000   0.000000   0.000000
     43       0.000000   0.000000   0.000000   0.000000   0.000000   0.000000
     44       0.000000   0.000000   0.000000   0.000000   0.000000   0.000000
     45       0.000000   0.000000   0.000000   0.000000   0.000000   0.000000
     46       0.000000   0.000000   0.000000   0.000000   0.000000   0.000000
     47       0.000000   0.000000   0.000000   0.000000   0.000000   0.000000
     48       0.000000   0.000000   0.000000   0.000000   0.000000   0.000000
     49       0.000000   0.000000   0.000000   0.000000   0.000000   0.000000
     50       0.000000   0.000000   0.000000   0.000000   0.000000   0.000000
                  6          7          8          9         10         11    
      0      -0.000672  -0.001070   0.001797   0.000007  -0.000042  -0.074270
      1      -0.010429  -0.020782   0.191691   0.000896  -0.002107  -0.086348
      2       0.077315   0.145794   0.026618  -0.002782   0.015637  -0.012425
      3       0.000847   0.000145  -0.000874  -0.000191   0.000584  -0.055775
      4       0.019317   0.004069  -0.110121  -0.004369   0.011285   0.177897
      5      -0.140455  -0.027835  -0.014883   0.029534  -0.082336   0.024111
      6       0.125539   0.110772   0.121518  -0.030112   0.077387  -0.226071
      7      -0.240047   0.099507   0.284641  -0.318106   0.374143  -0.205884
      8       0.225405   0.141366   0.037049   0.118139  -0.109838  -0.024902
      9       0.000280  -0.001909  -0.228993   0.001974  -0.003435   0.218421
     10       0.013948  -0.047096   0.287686   0.050436  -0.063244  -0.209734
     11      -0.096875   0.333313   0.041860  -0.356911   0.455608  -0.026772
     12      -0.129065  -0.113193   0.121769   0.028423  -0.074757  -0.226231
     13       0.170575  -0.135498   0.277980   0.275187  -0.329505  -0.205377
     14       0.280491   0.107117   0.038945   0.200907  -0.208594  -0.035808
     15       0.117077   0.090099  -0.090044  -0.018813   0.048522  -0.038227
     16      -0.094993   0.116325  -0.158271   0.036851  -0.039259   0.170249
     17      -0.287576   0.027461  -0.016941   0.072364  -0.145876   0.011907
     18       0.000198   0.001006   0.106383   0.000565  -0.000171   0.128101
     19       0.002229   0.035378  -0.164508   0.007587  -0.000774   0.083173
     20      -0.017714  -0.252954  -0.022712  -0.057816   0.005340   0.012270
     21      -0.113854  -0.089702  -0.089542   0.017541  -0.046613  -0.038831
     22       0.169487  -0.118501  -0.158839  -0.055943   0.077368   0.167373
     23      -0.252532  -0.006271  -0.026116   0.059731  -0.130396   0.033750
     24      -0.079795  -0.092268   0.101544  -0.071608  -0.045894   0.255720
     25      -0.032109   0.217166  -0.155685   0.122230  -0.044913   0.163174
     26      -0.032487  -0.370657  -0.027656  -0.137237   0.008019   0.024393
     27       0.080031   0.095386   0.101383   0.073461   0.045091   0.255501
     28       0.039039  -0.107415  -0.157967  -0.081010   0.040622   0.164200
     29      -0.021968  -0.415031  -0.016052  -0.164850   0.020242   0.024280
     30      -0.000357   0.000241   0.101363   0.000137  -0.000455   0.135595
     31      -0.018570   0.008006  -0.045323  -0.006293  -0.010270  -0.127829
     32       0.134015  -0.057240  -0.006227   0.044562   0.075227  -0.016989
     33      -0.092546  -0.127734   0.182748  -0.040701  -0.027122   0.132293
     34       0.115039  -0.058316   0.013516   0.035601   0.042227  -0.111217
     35       0.287147  -0.056214   0.006684   0.097822   0.131169  -0.003522
     36       0.000060  -0.000178  -0.176549  -0.000476   0.000081  -0.115149
     37       0.007713  -0.022136   0.078632   0.001001   0.001987  -0.035280
     38      -0.055469   0.160035   0.010399  -0.006002  -0.014606  -0.005291
     39       0.091069   0.127804   0.183101   0.041131   0.025886   0.132147
     40      -0.188692   0.071242   0.015108  -0.060716  -0.076030  -0.108189
     41       0.245993  -0.037455  -0.002219   0.084805   0.115079  -0.025574
     42      -0.157396  -0.124267  -0.311251   0.339177   0.294456  -0.289264
     43       0.223411  -0.117250   0.008872  -0.134037  -0.076845  -0.122200
     44      -0.207948   0.162344  -0.002391   0.169939   0.120317  -0.023365
     45       0.158671   0.124250  -0.306478  -0.342651  -0.295400  -0.290204
     46      -0.159189   0.068851   0.007867   0.083520   0.041942  -0.123018
     47      -0.258951   0.189217   0.000369   0.196383   0.133624  -0.012281
     48      -0.000928  -0.000943  -0.168481   0.001672   0.001911  -0.105695
     49      -0.019561  -0.043061   0.326462   0.060021   0.052058   0.282265
     50       0.146794   0.308492   0.047558  -0.430410  -0.380555   0.037923
                 12         13         14         15         16         17    
      0       0.233322   0.000160   0.000115   0.000315  -0.055025  -0.133666
      1       0.094287   0.000688   0.002491   0.006122  -0.066970  -0.064394
      2       0.014465  -0.005054  -0.018167  -0.044016  -0.009629  -0.009986
      3       0.170273   0.000226   0.000426   0.000173   0.022284   0.086509
      4       0.082275   0.005057   0.009072   0.003898  -0.097863  -0.069029
      5       0.012091  -0.036485  -0.065538  -0.028050  -0.013317  -0.008936
      6       0.281562   0.120591   0.247912   0.313020   0.168421   0.034201
      7       0.135573  -0.040455  -0.049608  -0.041806   0.149767   0.113439
      8       0.017368   0.062649   0.107438   0.107954  -0.006251  -0.012361
      9       0.143528  -0.000373  -0.000951  -0.001041  -0.523979  -0.527663
     10       0.133352  -0.005310  -0.015329  -0.021963   0.129215   0.098302
     11       0.018948   0.038650   0.110166   0.157392   0.013998   0.010349
     12       0.281239  -0.121027  -0.249340  -0.314592   0.168645   0.032289
     13       0.135141   0.022267   0.019023   0.011380   0.141926   0.105602
     14       0.024085   0.069576   0.113288   0.110668   0.049010   0.043795
     15       0.240812  -0.119127  -0.218039  -0.261020   0.152675   0.184350
     16       0.134794   0.248693   0.232983  -0.054034  -0.005749  -0.014526
     17       0.024495   0.224400   0.223475   0.040775   0.005039  -0.004518
     18      -0.068228   0.000207   0.000031  -0.000533  -0.092326   0.140001
     19       0.100163   0.006795   0.000009  -0.011937   0.142172   0.089450
     20       0.013240  -0.048545   0.000049   0.086603   0.019222   0.013185
     21       0.240295   0.116723   0.215582   0.259999   0.152468   0.185589
     22       0.136850  -0.300532  -0.285317   0.040319  -0.004135  -0.014314
     23       0.014798   0.149943   0.154573   0.057344  -0.004433   0.002867
     24      -0.063350   0.204630  -0.141584  -0.154658  -0.085979   0.220659
     25       0.085905  -0.351416  -0.089289   0.258050   0.130480   0.141275
     26       0.020511   0.195270  -0.013194  -0.098705   0.026517   0.020257
     27      -0.062839  -0.206400   0.141380   0.155038  -0.086313   0.219341
     28       0.087843   0.284997   0.089190  -0.221358   0.133704   0.139114
     29       0.001703   0.282073   0.012754  -0.164105   0.009955   0.019939
     30      -0.152133   0.000050  -0.000263   0.000206   0.080403  -0.026235
     31      -0.113705   0.005093  -0.009031   0.003731  -0.061478   0.106506
     32      -0.016573  -0.036345   0.065550  -0.028065  -0.008130   0.014514
     33      -0.230522  -0.202905   0.147584   0.152212  -0.060156   0.063982
     34      -0.156118   0.194933  -0.277615   0.207444  -0.140951   0.171382
     35      -0.018394   0.216573  -0.230536   0.079216  -0.014917   0.027779
     36      -0.179860  -0.000030  -0.000097   0.000304   0.085148  -0.114694
     37      -0.169029   0.000603  -0.002519   0.006148   0.021831  -0.093245
     38      -0.024010  -0.005062   0.018202  -0.044047   0.003380  -0.013270
     39      -0.230589   0.201406  -0.146388  -0.152640  -0.059967   0.064736
     40      -0.154182  -0.246509   0.329938  -0.221510  -0.139210   0.172047
     41      -0.027206   0.157301  -0.147953   0.019049  -0.024256   0.020400
     42      -0.231198  -0.022095   0.073085  -0.107619  -0.204668   0.112700
     43      -0.191237  -0.130580   0.253219  -0.308470  -0.086868  -0.020074
     44      -0.030608   0.049096  -0.077308   0.068448  -0.041279   0.026140
     45      -0.230669   0.021521  -0.072310   0.106471  -0.205167   0.113030
     46      -0.192072   0.112266  -0.222887   0.278366  -0.094169  -0.013362
     47      -0.024346   0.082704  -0.143547   0.150354   0.014443  -0.029907
     48      -0.178456  -0.000252   0.000545  -0.000692   0.101630  -0.130253
     49      -0.084242  -0.005643   0.015439  -0.021292   0.528453  -0.512937
     50      -0.011969   0.038564  -0.110296   0.157674   0.073144  -0.071206
                 18         19         20         21         22         23    
      0       0.000687  -0.098409   0.165470   0.046534  -0.020526  -0.000568
      1       0.007408   0.090974  -0.029850   0.022815   0.104998  -0.012384
      2      -0.052398   0.011983  -0.002780   0.003634   0.014381   0.089379
      3      -0.000601   0.142139  -0.206996  -0.053085   0.075928   0.000899
      4      -0.006562  -0.033860  -0.062479  -0.122751  -0.146140   0.018766
      5       0.046323  -0.003813  -0.010073  -0.017472  -0.019612  -0.136600
      6       0.254359  -0.339481   0.247813  -0.024806  -0.262530  -0.279137
      7      -0.036973  -0.138311   0.014984  -0.075861  -0.166126   0.071796
      8       0.074333   0.009144   0.008812   0.011802   0.026280  -0.066948
      9       0.000159   0.285454   0.116612   0.205307   0.355779   0.001377
     10      -0.018244  -0.075131  -0.006408  -0.047017  -0.061049   0.023133
     11       0.129439  -0.008353  -0.000595  -0.005280  -0.005668  -0.166124
     12      -0.255334  -0.338472   0.249469  -0.023377  -0.261933   0.279813
     13       0.015372  -0.129834   0.016218  -0.069806  -0.151973  -0.051552
     14       0.077654  -0.051387  -0.001357  -0.032694  -0.074150  -0.079874
     15      -0.181446   0.026862  -0.334858  -0.283547  -0.038221  -0.146742
     16      -0.250161  -0.102773  -0.133962  -0.278691  -0.205041   0.230600
     17      -0.081234  -0.009502  -0.017598  -0.043969  -0.017073   0.111625
     18      -0.000134   0.006648  -0.064104   0.166703  -0.102493  -0.000630
     19       0.000101   0.004993   0.097920   0.105795   0.158621  -0.018305
     20       0.000004   0.000772   0.013261   0.015269   0.021239   0.134372
     21       0.180127   0.026711  -0.334976  -0.283868  -0.037779   0.144789
     22       0.261415  -0.102383  -0.133126  -0.280260  -0.201161  -0.253146
     23      -0.007934  -0.018299  -0.023931  -0.037168  -0.039777   0.046431
     24       0.306203  -0.238174  -0.078444   0.242111  -0.095295  -0.151381
     25       0.194186  -0.149845   0.124434   0.153551   0.144700   0.246130
     26       0.028200  -0.021845   0.002646   0.022193   0.029344  -0.051223
     27      -0.305788  -0.238290  -0.076358   0.242376  -0.095122   0.151270
     28      -0.193487  -0.150047   0.121968   0.153897   0.149112  -0.222423
     29      -0.028114  -0.021720   0.030758   0.022314   0.011182  -0.115153
     30       0.000254   0.030282   0.144213  -0.134518   0.102277   0.000606
     31       0.006418   0.144146   0.157012   0.004150  -0.129498   0.018592
     32      -0.046348   0.019912   0.022356   0.000297  -0.017239  -0.136715
     33      -0.310414  -0.079472   0.266909  -0.373340   0.201920  -0.160231
     34      -0.061458   0.071075   0.243789  -0.137468  -0.053271   0.221865
     35       0.035683   0.005127   0.037683  -0.016954   0.004851   0.110623
     36      -0.000081   0.041618  -0.042802   0.040288  -0.087602  -0.000454
     37      -0.007274  -0.128755  -0.158809   0.031772   0.062514  -0.012179
     38       0.052460  -0.017530  -0.022173   0.004396   0.008081   0.089555
     39       0.310053  -0.079531   0.264722  -0.375054   0.201813   0.160064
     40       0.049056   0.069671   0.244461  -0.136527  -0.049091  -0.244282
     41       0.053148   0.013698   0.031074  -0.023761  -0.017824   0.047617
     42       0.082572  -0.266110  -0.113601  -0.077013   0.254802   0.060991
     43       0.250338  -0.247352  -0.213528   0.010643   0.161742   0.287746
     44      -0.042691  -0.066144  -0.024010  -0.021369   0.074842  -0.034939
     45      -0.082843  -0.266433  -0.113072  -0.076966   0.255712  -0.059886
     46      -0.229949  -0.255351  -0.210989   0.005870   0.176119  -0.266998
     47      -0.109481  -0.005534  -0.035199   0.023274  -0.025689  -0.111941
     48       0.000861   0.049906  -0.043949   0.042673  -0.092886   0.000830
     49       0.018817   0.286824  -0.113051   0.203809  -0.345652   0.022789
     50      -0.129490   0.039862  -0.015318   0.028635  -0.047927  -0.166609
                 24         25         26         27         28         29    
      0      -0.000567  -0.005672  -0.000363  -0.000141   0.014869  -0.030603
      1      -0.011568   0.054122  -0.006853  -0.002132  -0.042171   0.019644
      2       0.083489   0.007356   0.049477   0.015675  -0.005796   0.002515
      3       0.000596  -0.033389   0.000122  -0.000275   0.106592  -0.093667
      4       0.011817  -0.074842  -0.000520  -0.005605   0.069744  -0.048159
      5      -0.084927  -0.010669   0.004434   0.039911   0.010414  -0.007296
      6      -0.227827  -0.051613  -0.125680  -0.053874  -0.075091   0.157368
      7       0.072884  -0.077405   0.038214  -0.002665   0.066680  -0.040910
      8      -0.050575   0.037623  -0.021305  -0.002193  -0.079766   0.098942
      9       0.001164   0.194930   0.000377   0.000068  -0.220036   0.186377
     10       0.020905  -0.030376   0.009533  -0.001645   0.052841  -0.065937
     11      -0.149996  -0.002585  -0.068011   0.011510   0.005729  -0.007802
     12       0.228343  -0.051441   0.125605   0.053769  -0.076783   0.159003
     13      -0.056763  -0.063978  -0.031205   0.002915   0.042583  -0.012740
     14      -0.065087  -0.057897  -0.028935  -0.000721   0.093864  -0.104095
     15      -0.345015   0.274329  -0.384926  -0.227472  -0.378107   0.248129
     16      -0.028738   0.134770  -0.253403  -0.228107  -0.231129   0.143156
     17       0.033627   0.028086  -0.043826  -0.044611  -0.034125   0.006945
     18      -0.000231  -0.078415   0.000310   0.000213  -0.014501   0.133894
     19      -0.000190  -0.049657   0.012357  -0.000094   0.022625   0.084790
     20       0.000076  -0.007111  -0.090220   0.000534   0.003009   0.012285
     21       0.344711   0.272704   0.385308   0.228624  -0.378971   0.248250
     22       0.018501   0.135462   0.255360   0.231723  -0.231397   0.139420
     23       0.044571   0.013062   0.031776   0.022162  -0.035106   0.035645
     24       0.268250   0.412033   0.087011  -0.443063   0.006609  -0.374511
     25       0.170102   0.261343  -0.144239  -0.279703  -0.014685  -0.237142
     26       0.024678   0.037916   0.010377  -0.040820   0.021910  -0.034618
     27      -0.267037   0.412181  -0.086380   0.443633   0.006931  -0.376206
     28      -0.169538   0.260902   0.135753   0.279785  -0.007907  -0.237960
     29      -0.024755   0.037859   0.048353   0.040514  -0.024996  -0.034401
     30      -0.000421  -0.082666  -0.000044  -0.000146  -0.108637  -0.083091
     31      -0.011705   0.001299  -0.000552   0.005525  -0.066640  -0.063768
     32       0.084807  -0.000213   0.004012  -0.040051  -0.009594  -0.009057
     33      -0.166209   0.239578   0.390980  -0.310603   0.371295   0.233195
     34      -0.294410   0.191021   0.238882  -0.112371   0.243422   0.161288
     35      -0.080911   0.019727   0.028319  -0.005085   0.035330   0.037456
     36       0.000421   0.047177  -0.000193   0.000194   0.032312   0.004838
     37       0.011429  -0.027825  -0.006795   0.002224  -0.031163  -0.036184
     38      -0.083463  -0.003525   0.049213  -0.016169  -0.004150  -0.004954
     39       0.167416   0.238344  -0.390933   0.311303   0.371005   0.232586
     40       0.306002   0.187786  -0.237284   0.110034   0.243299   0.164876
     41       0.002954   0.034323  -0.040059   0.027831   0.034413   0.009090
     42      -0.036218  -0.085687   0.020464  -0.025626  -0.017243   0.043753
     43      -0.239853  -0.009747   0.130097  -0.048809   0.103508   0.168885
     44       0.025595  -0.050522  -0.007534  -0.005212  -0.074441  -0.080473
     45       0.035579  -0.086417  -0.020250   0.024930  -0.018204   0.042534
     46       0.223929  -0.023328  -0.123162   0.048141   0.079655   0.140759
     47       0.089920   0.045026  -0.042534   0.008551   0.099472   0.123569
     48      -0.000744   0.053733   0.000415   0.000157   0.043558   0.017277
     49      -0.020449   0.188217   0.009611   0.001680   0.220369   0.196744
     50       0.150196   0.026118  -0.068189  -0.010733   0.030607   0.027293
                 30         31         32         33         34         35    
      0      -0.102756  -0.105093  -0.004093   0.004782  -0.002460  -0.000362
      1      -0.009169  -0.006844   0.005068  -0.017370   0.027822  -0.004397
      2      -0.001991  -0.001683   0.000698  -0.002258   0.002705   0.037165
      3       0.046287   0.039261   0.015229  -0.032873   0.023143   0.000582
      4       0.024305   0.016233  -0.029500   0.033077  -0.000068  -0.001874
      5       0.003672   0.002471  -0.003963   0.004381  -0.000285   0.013084
      6       0.348541   0.361853   0.036464  -0.076724   0.091995   0.238804
      7       0.095105   0.085302  -0.055781   0.208871  -0.322025   0.267080
      8       0.129254   0.141372   0.041519  -0.125781   0.181496   0.007465
      9       0.326915   0.339700  -0.013506   0.122697  -0.203763  -0.001638
     10      -0.176276  -0.180309   0.005261  -0.056372   0.096520   0.074309
     11      -0.022074  -0.022619   0.000093  -0.008498   0.028016  -0.515560
     12       0.350550   0.363987   0.036560  -0.080308   0.109702  -0.232953
     13       0.126047   0.119834  -0.042958   0.165378  -0.244454  -0.272149
     14      -0.093430  -0.107586  -0.054727   0.176421  -0.256461  -0.083016
     15      -0.096092  -0.081458  -0.129460   0.201958  -0.109434   0.028117
     16      -0.079818  -0.079562   0.175344  -0.224271   0.081696  -0.001664
     17      -0.017719  -0.022337   0.220587  -0.298089   0.118600   0.003697
     18      -0.041445  -0.005006  -0.032457  -0.002018   0.024312   0.000749
     19      -0.026300   0.007866   0.050237  -0.002577  -0.037667  -0.000881
     20      -0.003818   0.001030   0.006893  -0.000359  -0.005096  -0.002197
     21      -0.096021  -0.081547  -0.127183   0.198323  -0.106053  -0.034174
     22      -0.081403  -0.082581   0.228819  -0.297150   0.110828   0.007176
     23      -0.005934  -0.001235  -0.166326   0.228521  -0.093447  -0.001820
     24       0.102712  -0.015857   0.219890  -0.002447  -0.127969  -0.004184
     25       0.064759   0.025859  -0.388679   0.008136   0.227681   0.003805
     26       0.009542  -0.006700   0.284762  -0.005053  -0.174214  -0.001259
     27       0.103455  -0.016274   0.222604  -0.002413  -0.129897  -0.003917
     28       0.065215   0.023000  -0.296633   0.006462   0.171487   0.007593
     29       0.009331   0.013384  -0.378325   0.007095   0.228571   0.012214
     30       0.042182  -0.031313   0.021239   0.015814  -0.009527  -0.000297
     31       0.031751  -0.028391  -0.027746  -0.042511  -0.020798  -0.002092
     32       0.004487  -0.003996  -0.003735  -0.005818  -0.003182   0.011820
     33      -0.116046   0.108678  -0.137946  -0.151369  -0.043255  -0.010571
     34      -0.054009   0.040885   0.182879   0.246820   0.123238  -0.024921
     35      -0.001635  -0.004704   0.231886   0.294828   0.124885  -0.000484
     36      -0.052057   0.049788  -0.003351  -0.013793  -0.024382  -0.000755
     37      -0.089520   0.090476   0.006178   0.011330   0.013869  -0.004490
     38      -0.012606   0.012736   0.000971   0.001516   0.001006   0.034297
     39      -0.115593   0.108206  -0.136263  -0.149404  -0.043064   0.008637
     40      -0.052293   0.037959   0.239011   0.317377   0.151092   0.030909
     41      -0.013814   0.016300  -0.174693  -0.218042  -0.087392   0.002506
     42       0.251447  -0.244160   0.032990   0.136447   0.223639  -0.315756
     43       0.286992  -0.297126  -0.065932  -0.167341  -0.237379  -0.092235
     44      -0.074108   0.083118   0.044948   0.129724   0.193592  -0.043934
     45       0.249791  -0.242342   0.035816   0.138488   0.211384   0.326353
     46       0.255758  -0.263087  -0.050692  -0.126158  -0.180964   0.092506
     47       0.151475  -0.162815  -0.060883  -0.168844  -0.247468  -0.025297
     48      -0.025276   0.023156   0.000938  -0.000569  -0.005381   0.002277
     49       0.371302  -0.375560   0.018875   0.133336   0.222959   0.071221
     50       0.051325  -0.051988   0.000858   0.017952   0.041628  -0.476590
                 36         37         38         39         40         41    
      0      -0.000303   0.000384   0.001485   0.005103   0.000259  -0.002701
      1      -0.004793   0.032415   0.022218  -0.000333   0.004941   0.007462
      2       0.034160   0.004742   0.003131   0.000032   0.000516   0.000714
      3       0.000073  -0.006464  -0.022951   0.005992   0.025779   0.025856
      4      -0.002469   0.043653   0.043656  -0.011414  -0.039985  -0.039775
      5       0.015336   0.006083   0.005885  -0.000814  -0.004531  -0.003871
      6       0.218525   0.100285   0.070959  -0.018861   0.005321   0.018255
      7       0.254866  -0.323594  -0.216315   0.023284  -0.002753  -0.018659
      8       0.002512   0.187681   0.126896   0.054471  -0.011218  -0.049113
      9       0.003915  -0.207594  -0.135288  -0.017772  -0.017773  -0.011310
     10       0.065943   0.108271   0.072770  -0.055079  -0.049959  -0.033628
     11      -0.476360   0.010540   0.008825  -0.007718  -0.007154  -0.004822
     12      -0.218228   0.101035   0.073014  -0.018177   0.006054   0.019140
     13      -0.244739  -0.263566  -0.174071   0.037611  -0.007349  -0.034145
     14      -0.069570  -0.268291  -0.180186  -0.046681   0.012089   0.045814
     15       0.022788   0.073693   0.122518  -0.041747  -0.153202  -0.151520
     16      -0.011531  -0.162268  -0.195443   0.083297   0.294387   0.296741
     17       0.000013  -0.193730  -0.248125  -0.102639  -0.368454  -0.367821
     18       0.000150  -0.014922  -0.021635  -0.035161   0.000580   0.009920
     19       0.000023  -0.009623   0.033387   0.054786   0.001129  -0.015103
     20       0.000080  -0.001391   0.004579   0.004875   0.000557  -0.003552
     21      -0.025000   0.071257   0.119553  -0.039428  -0.154486  -0.149561
     22       0.015393  -0.208784  -0.255817   0.047898   0.178552   0.177020
     23      -0.000284   0.143267   0.187212   0.111264   0.421996   0.413654
     24      -0.036098   0.015840   0.136671   0.204935   0.002290  -0.062521
     25      -0.022543   0.011261  -0.241335  -0.240808  -0.004435   0.073604
     26      -0.003624   0.000845   0.177936  -0.568738  -0.008869   0.172536
     27       0.035646   0.016350   0.138322   0.213456   0.000352  -0.053914
     28       0.022668   0.011332  -0.183997  -0.411242  -0.002843   0.103916
     29       0.003263   0.002421  -0.236089   0.511184   0.002957  -0.130071
     30      -0.000248   0.037305  -0.030191   0.008147  -0.026467   0.024515
     31       0.002367  -0.024219   0.038819  -0.010730   0.041326  -0.038756
     32      -0.016363  -0.003325   0.005286  -0.000520   0.003895  -0.002965
     33      -0.000321  -0.140446   0.156048  -0.046163   0.158775  -0.151756
     34       0.028735   0.120241  -0.172911   0.086417  -0.308190   0.288514
     35       0.003321   0.188105  -0.244211  -0.108106   0.383487  -0.359504
     36      -0.000101   0.030072  -0.020946  -0.001811   0.004687  -0.005451
     37       0.005310  -0.013187   0.007892  -0.004591  -0.002128   0.005418
     38      -0.036890  -0.001960   0.001079  -0.000626  -0.000001   0.000290
     39       0.002258  -0.139170   0.154598  -0.042369   0.153377  -0.143203
     40      -0.030276   0.166281  -0.232303   0.048225  -0.182982   0.167021
     41      -0.002779  -0.149543   0.189373   0.114882  -0.429557   0.393616
     42       0.348821  -0.224130   0.146573  -0.019875  -0.002426   0.014887
     43       0.091557   0.246117  -0.167054   0.021801   0.005858  -0.019189
     44       0.054002  -0.199762   0.133404   0.053056   0.013600  -0.046866
     45      -0.344498  -0.231793   0.149996  -0.019467  -0.003568   0.016429
     46      -0.106612   0.181742  -0.124426   0.035345   0.011874  -0.035214
     47       0.017980   0.257002  -0.172268  -0.045460  -0.014568   0.044851
     48      -0.002696   0.012092  -0.010056   0.056749  -0.052371   0.033810
     49      -0.068684  -0.233048   0.151545  -0.007013   0.004900  -0.003743
     50       0.515343  -0.027969   0.019399  -0.000632   0.000501  -0.000454
                 42         43         44         45         46         47    
      0       0.005436  -0.041759  -0.026438  -0.000348  -0.000369  -0.001227
      1      -0.001207   0.006604   0.003907  -0.002360  -0.003661  -0.015701
      2       0.004020   0.000339   0.000286   0.016688   0.024942   0.066379
      3       0.000953   0.001132  -0.000011   0.000788   0.000617   0.000101
      4       0.003681   0.000409   0.001463   0.008231   0.006372  -0.003088
      5      -0.036506  -0.002686  -0.002256  -0.063312  -0.049118   0.019523
      6      -0.009563   0.168475   0.106783   0.045194   0.064140   0.172965
      7       0.011527  -0.181284  -0.114544  -0.050165  -0.072620  -0.185162
      8       0.028605  -0.438008  -0.276680  -0.113994  -0.164827  -0.422155
      9      -0.021046   0.155795   0.100533   0.001013   0.001370   0.023668
     10      -0.053821   0.396587   0.253800   0.001880   0.002425   0.055262
     11      -0.007715   0.056125   0.035945   0.005280   0.007701   0.021509
     12      -0.033014   0.163599   0.103119  -0.042182  -0.061290  -0.182327
     13       0.057649  -0.296459  -0.186288   0.076806   0.113596   0.317361
     14      -0.072745   0.377128   0.236977  -0.093337  -0.138162  -0.391868
     15       0.087204   0.004449   0.009121   0.152234   0.114382  -0.049031
     16      -0.163263  -0.010947  -0.020398  -0.290175  -0.226824   0.088673
     17       0.190862   0.013311   0.024444   0.341377   0.263621  -0.107086
     18      -0.000620  -0.001074  -0.006030   0.000007   0.000554   0.000034
     19      -0.009946   0.001554   0.008474  -0.000017   0.006668  -0.000184
     20       0.074468   0.006402   0.005990   0.000265  -0.051923   0.001392
     21      -0.099754  -0.009475  -0.003094  -0.161558  -0.121576   0.047937
     22       0.117539   0.009611   0.001764   0.191583   0.150736  -0.053399
     23       0.255268   0.020080   0.003011   0.416938   0.322895  -0.119989
     24       0.190564   0.021925   0.047222   0.003207  -0.129002   0.000223
     25      -0.228578  -0.029329  -0.055321   0.000731   0.154498  -0.006097
     26      -0.494978  -0.062717  -0.126309  -0.001634   0.338124  -0.009099
     27      -0.183213  -0.008746   0.022736  -0.003106   0.122453  -0.000019
     28       0.348627   0.012049  -0.042906  -0.000489  -0.233153   0.008833
     29      -0.406768  -0.014552   0.054431  -0.001515   0.274287  -0.007415
     30       0.001431   0.000168  -0.001189  -0.000932   0.000581  -0.000052
     31       0.003084   0.001390   0.000416  -0.007638   0.006099   0.002298
     32      -0.036732  -0.003181  -0.002171   0.063556  -0.048959  -0.015489
     33       0.083074   0.010179   0.010340  -0.150549   0.120096   0.034623
     34      -0.160421  -0.020494  -0.016549   0.287180  -0.220245  -0.071319
     35       0.185321   0.022903   0.022374  -0.336857   0.261024   0.083059
     36      -0.000407  -0.007178   0.011315   0.000039   0.000053  -0.003904
     37      -0.000912  -0.026490   0.040292   0.001963  -0.003213   0.009187
     38       0.003953  -0.002834   0.005148  -0.016660   0.024573  -0.057460
     39      -0.100069  -0.006412  -0.000493   0.161590  -0.127061  -0.034383
     40       0.122356   0.006990   0.003697  -0.195545   0.147325   0.044865
     41       0.263586   0.016415   0.003072  -0.424343   0.323558   0.096366
     42       0.007762  -0.097115   0.149735  -0.041676   0.059699  -0.130180
     43      -0.011748   0.123508  -0.191530   0.052937  -0.074052   0.172690
     44      -0.023783   0.282993  -0.437166   0.115312  -0.163312   0.367973
     45      -0.010612  -0.098280   0.147704   0.038363  -0.056874   0.133136
     46       0.023833   0.203765  -0.306823  -0.077450   0.113017  -0.282283
     47      -0.027193  -0.249505   0.375407   0.091299  -0.134674   0.329365
     48       0.007729   0.276036  -0.427367   0.002764  -0.003451   0.043543
     49      -0.000555  -0.016997   0.025085   0.000579  -0.000835  -0.000208
     50      -0.000127  -0.000820   0.001112  -0.004917   0.007131  -0.011581
                 48         49         50    
      0      -0.001180   0.006435   0.001143
      1      -0.015259   0.088132   0.015143
      2       0.053045   0.021676   0.004579
      3       0.000174  -0.003685  -0.000943
      4      -0.003503   0.005656   0.001548
      5       0.021341   0.003623   0.001300
      6       0.136543   0.148953   0.028201
      7      -0.145696  -0.138529  -0.026237
      8      -0.331056  -0.369424  -0.069406
      9       0.028429  -0.317930  -0.055479
     10       0.066978  -0.763203  -0.132774
     11       0.020119  -0.106611  -0.018407
     12      -0.151276   0.096041   0.014534
     13       0.261150  -0.150635  -0.022206
     14      -0.323684   0.217187   0.032973
     15      -0.052946   0.014171   0.002858
     16       0.101458  -0.025535  -0.006412
     17      -0.119609   0.031195   0.007409
     18      -0.000059  -0.000613  -0.000297
     19      -0.002140   0.000221   0.000701
     20       0.015398   0.001112   0.001244
     21       0.051001   0.028657   0.008201
     22      -0.060917  -0.032236  -0.010648
     23      -0.132482  -0.072483  -0.022695
     24       0.038704   0.003797   0.008277
     25      -0.045983  -0.007942  -0.007567
     26      -0.099395  -0.015032  -0.018329
     27      -0.038321  -0.001100   0.002327
     28       0.072155  -0.001522  -0.001907
     29      -0.084154   0.000807   0.003347
     30       0.000166   0.000256  -0.004112
     31      -0.003684  -0.000582   0.005628
     32       0.024145   0.000432   0.003220
     33      -0.058921  -0.002050   0.014530
     34       0.112832   0.005342  -0.029104
     35      -0.132861  -0.005844   0.034357
     36       0.006019   0.015228  -0.084970
     37      -0.010926  -0.005685   0.030297
     38       0.064497  -0.000470   0.011561
     39       0.057518   0.000747   0.026272
     40      -0.069742   0.000571  -0.032902
     41      -0.151646   0.000397  -0.071566
     42       0.144142  -0.015638   0.107001
     43      -0.192534   0.022967  -0.156638
     44      -0.408217   0.054000  -0.360770
     45      -0.150827  -0.016123   0.069089
     46       0.322542   0.039094  -0.175285
     47      -0.375642  -0.048558   0.220992
     48      -0.065061  -0.149492   0.836810
     49       0.000909   0.006127  -0.033620
     50       0.012570   0.000114   0.001088
# -----------------------------------------------------------
$ THERMOCHEMISTRY_Energies
   description: The Thermochemistry energies
   geom. index: 5
   prop. index: 1
        Temperature (Kelvin)           :        298.1500000000
        Pressure (atm)                 :          1.0000000000
        Total Mass (AMU)               :         72.1510000000
        Spin Degeneracy                :          1.0000000000
        Electronic Energy (Hartree)    :       -197.6444773182
        Translational Energy (Hartree) :          0.0014162714
        Rotational Energy (Hartree)    :          0.0014162714
        Vibrational Energy (Hartree)   :          0.0040783280
        Number of frequencies          :     51      
        Scaling Factor for frequencies :          1.0000000000
        Vibrational frequencies        :     
                  0    
      0       0.000000
      1       0.000000
      2       0.000000
      3       0.000000
      4       0.000000
      5       0.000000
      6     112.183558
      7     116.440038
      8     184.403022
      9     252.485709
     10     261.039370
     11     410.936891
     12     413.185243
     13     761.102364
     14     797.260182
     15     904.295434
     16     916.007194
     17     972.069386
     18     1037.771890
     19     1091.672594
     20     1097.212897
     21     1128.143699
     22     1221.142155
     23     1270.143973
     24     1330.211625
     25     1357.129584
     26     1389.818623
     27     1396.269943
     28     1443.181545
     29     1490.683825
     30     1495.170907
     31     1499.123677
     32     1569.645599
     33     1570.751502
     34     1579.642750
     35     1581.480739
     36     1582.362219
     37     1589.456633
     38     1596.322095
     39     3111.751016
     40     3121.725455
     41     3129.563000
     42     3135.169926
     43     3135.321280
     44     3136.708406
     45     3152.707618
     46     3169.762885
     47     3202.100547
     48     3204.198521
     49     3207.630923
     50     3208.714650
        Zero Point Energy (Hartree)    :          0.1670673752
        Inner Energy (Hartree)         :       -197.4704990720
        Enthalpy (Hartree)             :       -197.4695548630
        Electronic entropy             :          0.0000000000
        Rotational entropy             :          0.0123745654
        Vibrational entropy            :          0.0070748220
        Translational entropy          :          0.0123745654
        Entropy                        :          0.0378583457
        Gibbs Energy (Hartree)         :       -197.5074132087
        Is Linear                      :                 false
# -------------------------------------------------------------
----------------------- !GEOMETRIES! ------------------------
# -------------------------------------------------------------
------------------------ !GEOMETRY! -------------------------
    Number of atoms:    17 
    Geometry Index:     1 
    Coordinates:
               0 C     -1.333200000000    0.144910000000   -0.035010000000
               1 C      0.186620000000    0.103590000000   -0.032780000000
               2 H     -1.716420000000    0.536170000000    0.912830000000
               3 H     -1.739520000000   -0.861520000000   -0.176140000000
               4 H     -1.707250000000    0.778990000000   -0.845180000000
               5 H      0.526950000000   -0.563560000000    0.767720000000
               6 C      0.784530000000    1.496590000000    0.162720000000
               7 H      0.536070000000   -0.322110000000   -0.980600000000
               8 H      0.428530000000    1.919760000000    1.109990000000
               9 H      0.437700000000    2.161140000000   -0.638050000000
              10 C      2.312290000000    1.450560000000    0.164380000000
              11 H      2.664220000000    0.790800000000    0.965990000000
              12 C      2.911190000000    2.834450000000    0.358570000000
              13 H      2.673390000000    1.032170000000   -0.782340000000
              14 H      2.595150000000    3.268370000000    1.312600000000
              15 H      2.604400000000    3.511060000000   -0.445430000000
              16 H      4.004230000000    2.778110000000    0.356550000000
------------------------ !GEOMETRY! -------------------------
    Number of atoms:    17 
    Geometry Index:     2 
    Coordinates:
               0 C     -1.347918327437    0.134955716970   -0.036755582577
               1 C      0.175924502575    0.102833475137   -0.032349011444
               2 H     -1.732512635874    0.525236841712    0.903023412474
               3 H     -1.759370264619   -0.862353456730   -0.177406858984
               4 H     -1.722172215262    0.766603542519   -0.839605597217
               5 H      0.519712927265   -0.561213434910    0.760063521547
               6 C      0.792151532756    1.484710645423    0.161797344255
               7 H      0.529512226621   -0.321608097768   -0.971350224172
               8 H      0.436657137467    1.908545606689    1.101232601058
               9 H      0.445185403632    2.148209773994   -0.630761811709
              10 C      2.317329722544    1.459853996497    0.165633886085
              11 H      2.665914127825    0.798717538801    0.958449792108
              12 C      2.926671321166    2.843565527315    0.359497782429
              13 H      2.674161401138    1.037742441783   -0.773209510261
              14 H      2.612511573236    3.278539262222    1.305746199164
              15 H      2.621650024888    3.519146168958   -0.436812622897
              16 H      4.013471542077    2.795994451387    0.358626680140
------------------------ !GEOMETRY! -------------------------
    Number of atoms:    17 
    Geometry Index:     3 
    Coordinates:
               0 C     -1.348199811434    0.134610416908   -0.037144787641
               1 C      0.174606294007    0.103037499636   -0.031864732926
               2 H     -1.733627554917    0.526528379588    0.901721221449
               3 H     -1.763689231569   -0.860200185485   -0.178034880345
               4 H     -1.722183516232    0.767993493517   -0.838879190483
               5 H      0.520816478909   -0.561853334336    0.759187793344
               6 C      0.794813152484    1.480516748254    0.161914193691
               7 H      0.531385718732   -0.322364402406   -0.969580469008
               8 H      0.438312396628    1.906312078828    1.100761064079
               9 H      0.446210623848    2.146173271652   -0.628930197073
              10 C      2.317691114260    1.461110719214    0.165785909835
              11 H      2.666232231273    0.797321425832    0.956812148492
              12 C      2.927215879511    2.843653919095    0.359137783411
              13 H      2.673611828231    1.035864586606   -0.772324075101
              14 H      2.611603760313    3.279783582178    1.304495728547
              15 H      2.620594775933    3.519971030209   -0.436072328014
              16 H      4.013485860022    2.801020770708    0.358834817744
------------------------ !GEOMETRY! -------------------------
    Number of atoms:    17 
    Geometry Index:     4 
    Coordinates:
               0 C     -1.346936987295    0.135297923321   -0.037381203157
               1 C      0.174450207078    0.102902780193   -0.031502447692
               2 H     -1.732870895307    0.528686997299    0.901080506438
               3 H     -1.765602216668   -0.858213429812   -0.178535209381
               4 H     -1.720461831143    0.770259302450   -0.838568429700
               5 H      0.522036717835   -0.563055996442    0.758730482735
               6 C      0.795970423026    1.478662056169    0.162309213327
               7 H      0.533342305942   -0.323620380685   -0.968490913081
               8 H      0.438670766146    1.906028866573    1.100832713128
               9 H      0.445918116017    2.146209479143   -0.627130766979
              10 C      2.317899995872    1.461179816255    0.165779580652
              11 H      2.667034261356    0.795529575251    0.955662198295
              12 C      2.926136099099    2.842790256041    0.358678976402
              13 H      2.673565740198    1.033756320721   -0.772016967262
              14 H      2.609118552707    3.279728315535    1.303617681501
              15 H      2.618001248295    3.519581321275   -0.436039200321
              16 H      4.012607496840    2.803756796714    0.358793785096
------------------------ !GEOMETRY! -------------------------
    Number of atoms:    17 
    Geometry Index:     5 
    Coordinates:
               0 C     -1.346409245141    0.135635541238   -0.037488071300
               1 C      0.174625357017    0.102696537024   -0.031396635172
               2 H     -1.732508027925    0.529405983245    0.900834983974
               3 H     -1.765933183430   -0.857589920521   -0.178716940175
               4 H     -1.719737757905    0.770966838142   -0.838577414800
               5 H      0.522372105065   -0.563571749587    0.758609634144
               6 C      0.795999926643    1.478590500770    0.162577726534
               7 H      0.534001569483   -0.324168495890   -0.968132152658
               8 H      0.438590504602    1.906251043916    1.100996344215
               9 H      0.445526796252    2.146641681357   -0.626335420818
              10 C      2.318023908790    1.460932898368    0.165738978763
              11 H      2.667474851908    0.794902440181    0.955262699731
              12 C      2.925629601899    2.842459224522    0.358497896706
              13 H      2.673625393385    1.033040323766   -0.771955994266
              14 H      2.608256417726    3.279615434748    1.303305191181
              15 H      2.617126519418    3.519304615977   -0.436135910395
              16 H      4.012215262212    2.804367102744    0.358735084335
