17
Coordinates from ORCA-job pentane_BHLYP-D3_6-311G_d-p_
  C   -1.34547092763200      0.13595534029880     -0.03713751537632
  C   0.17454104173132      0.10378808806267     -0.03126824727213
  H   -1.73101324055013      0.52818717585498      0.90042574507749
  H   -1.76415342420318     -0.85575668314933     -0.17899607145325
  H   -1.71874777701509      0.77055006586552     -0.83675972894124
  H   0.52171198518620     -0.56101345482747      0.75820055299169
  C   0.79655797396852      1.47768503358526      0.16189783458167
  H   0.53334352810384     -0.32252714583898     -0.96681623123482
  H   0.43949423680224      1.90491086926675      1.09909974756119
  H   0.44683602965047      2.14422232405763     -0.62671646686270
  C   2.31713145401022      1.46156244675719      0.16561750713926
  H   2.66576759181246      0.79658681836422      0.95433081888111
  C   2.92485583612046      2.84175034612611      0.35862909947428
  H   2.67256386922111      1.03455941826362     -0.77088862143399
  H   2.60807235263787      3.27799800493835      1.30236568147967
  H   2.61752477089539      3.51782269276560     -0.43506714361505
  H   4.00986469926030      2.80319865960907      0.35890303900316
