-------------------------------------------------------------
----------------------- !PROPERTIES! ------------------------
-------------------------------------------------------------
# -----------------------------------------------------------
$ SCF_Energy
   description: The SCF energy
   geom. index: 1
   prop. index: 1
        SCF Energy:     -195.3103132357
# -----------------------------------------------------------
$ DFT_Energy
   description: The DFT energy
   geom. index: 1
   prop. index: 1
   Number of Alpha Electrons        21.0000480989 
   Number of Alpha Electrons        21.0000480989 
   Total nuber of  Electrons        42.0000961977 
   Exchange energy                 -15.0906247834 
   Correlation energy               -1.3239683231 
   Correlantion energy NL            0.0000000000 
   Exchange-Correlation energy     -16.4145931066 
   Embedding correction              0.0000000000 
# -----------------------------------------------------------
$ VdW_Correction
   description: The Van der Waals Correction
   geom. index: 1
   prop. index: 1
        Van der Waals Correction:       -0.0145410761
# -----------------------------------------------------------
$ SCF_Energy
   description: The SCF energy
   geom. index: 2
   prop. index: 1
        SCF Energy:     -195.3118523394
# -----------------------------------------------------------
$ DFT_Energy
   description: The DFT energy
   geom. index: 2
   prop. index: 1
   Number of Alpha Electrons        21.0000494813 
   Number of Alpha Electrons        21.0000494813 
   Total nuber of  Electrons        42.0000989627 
   Exchange energy                 -15.0817735444 
   Correlation energy               -1.3218688757 
   Correlantion energy NL            0.0000000000 
   Exchange-Correlation energy     -16.4036424201 
   Embedding correction              0.0000000000 
# -----------------------------------------------------------
$ VdW_Correction
   description: The Van der Waals Correction
   geom. index: 2
   prop. index: 1
        Van der Waals Correction:       -0.0143696767
# -----------------------------------------------------------
$ SCF_Energy
   description: The SCF energy
   geom. index: 3
   prop. index: 1
        SCF Energy:     -195.3118756813
# -----------------------------------------------------------
$ DFT_Energy
   description: The DFT energy
   geom. index: 3
   prop. index: 1
   Number of Alpha Electrons        21.0000488316 
   Number of Alpha Electrons        21.0000488316 
   Total nuber of  Electrons        42.0000976631 
   Exchange energy                 -15.0815865298 
   Correlation energy               -1.3219381816 
   Correlantion energy NL            0.0000000000 
   Exchange-Correlation energy     -16.4035247115 
   Embedding correction              0.0000000000 
# -----------------------------------------------------------
$ VdW_Correction
   description: The Van der Waals Correction
   geom. index: 3
   prop. index: 1
        Van der Waals Correction:       -0.0143905374
# -----------------------------------------------------------
$ SCF_Energy
   description: The SCF energy
   geom. index: 4
   prop. index: 1
        SCF Energy:     -195.3118738483
# -----------------------------------------------------------
$ DFT_Energy
   description: The DFT energy
   geom. index: 4
   prop. index: 1
   Number of Alpha Electrons        21.0000483955 
   Number of Alpha Electrons        21.0000483955 
   Total nuber of  Electrons        42.0000967909 
   Exchange energy                 -15.0818831284 
   Correlation energy               -1.3220052627 
   Correlantion energy NL            0.0000000000 
   Exchange-Correlation energy     -16.4038883911 
   Embedding correction              0.0000000000 
# -----------------------------------------------------------
$ VdW_Correction
   description: The Van der Waals Correction
   geom. index: 4
   prop. index: 1
        Van der Waals Correction:       -0.0143992239
# -----------------------------------------------------------
$ SCF_Energy
   description: The SCF energy
   geom. index: 5
   prop. index: 1
        SCF Energy:     -195.3118745049
# -----------------------------------------------------------
$ DFT_Energy
   description: The DFT energy
   geom. index: 5
   prop. index: 1
   Number of Alpha Electrons        21.0000483063 
   Number of Alpha Electrons        21.0000483063 
   Total nuber of  Electrons        42.0000966126 
   Exchange energy                 -15.0817822582 
   Correlation energy               -1.3219870949 
   Correlantion energy NL            0.0000000000 
   Exchange-Correlation energy     -16.4037693531 
   Embedding correction              0.0000000000 
# -----------------------------------------------------------
$ VdW_Correction
   description: The Van der Waals Correction
   geom. index: 5
   prop. index: 1
        Van der Waals Correction:       -0.0143990247
# -----------------------------------------------------------
$ SCF_Electric_Properties
   description: The SCF Calculated Electric Properties
   geom. index: 5
   prop. index: 1
       Filename                          : pentane_BHLYP-D3_STO-3G.scfp 
       Do Dipole Moment Calculation      : true 
       Do Quadrupole Moment Calculation  : false 
       Do Polarizability Calculation     : false 
** Dipole moment part of electric properties **
        Magnitude of dipole moment (Debye) :        0.0192801320
        Electronic Contribution:
                  0    
      0       0.293413
      1      -0.453965
      2      -0.060356
        Nuclear Contribution:
                  0    
      0      -0.289410
      1       0.447570
      2       0.059573
        Total Dipole moment:
                  0    
      0       0.004003
      1      -0.006395
      2      -0.000783
# -----------------------------------------------------------
$ Hessian
   description: Details about the Hessian
   geom. index: 5
   prop. index: 1
Normal modes:
Number of Rows: 51 Number of Columns: 51
                  0          1          2          3          4          5    
      0       0.000000   0.000000   0.000000   0.000000   0.000000   0.000000
      1       0.000000   0.000000   0.000000   0.000000   0.000000   0.000000
      2       0.000000   0.000000   0.000000   0.000000   0.000000   0.000000
      3       0.000000   0.000000   0.000000   0.000000   0.000000   0.000000
      4       0.000000   0.000000   0.000000   0.000000   0.000000   0.000000
      5       0.000000   0.000000   0.000000   0.000000   0.000000   0.000000
      6       0.000000   0.000000   0.000000   0.000000   0.000000   0.000000
      7       0.000000   0.000000   0.000000   0.000000   0.000000   0.000000
      8       0.000000   0.000000   0.000000   0.000000   0.000000   0.000000
      9       0.000000   0.000000   0.000000   0.000000   0.000000   0.000000
     10       0.000000   0.000000   0.000000   0.000000   0.000000   0.000000
     11       0.000000   0.000000   0.000000   0.000000   0.000000   0.000000
     12       0.000000   0.000000   0.000000   0.000000   0.000000   0.000000
     13       0.000000   0.000000   0.000000   0.000000   0.000000   0.000000
     14       0.000000   0.000000   0.000000   0.000000   0.000000   0.000000
     15       0.000000   0.000000   0.000000   0.000000   0.000000   0.000000
     16       0.000000   0.000000   0.000000   0.000000   0.000000   0.000000
     17       0.000000   0.000000   0.000000   0.000000   0.000000   0.000000
     18       0.000000   0.000000   0.000000   0.000000   0.000000   0.000000
     19       0.000000   0.000000   0.000000   0.000000   0.000000   0.000000
     20       0.000000   0.000000   0.000000   0.000000   0.000000   0.000000
     21       0.000000   0.000000   0.000000   0.000000   0.000000   0.000000
     22       0.000000   0.000000   0.000000   0.000000   0.000000   0.000000
     23       0.000000   0.000000   0.000000   0.000000   0.000000   0.000000
     24       0.000000   0.000000   0.000000   0.000000   0.000000   0.000000
     25       0.000000   0.000000   0.000000   0.000000   0.000000   0.000000
     26       0.000000   0.000000   0.000000   0.000000   0.000000   0.000000
     27       0.000000   0.000000   0.000000   0.000000   0.000000   0.000000
     28       0.000000   0.000000   0.000000   0.000000   0.000000   0.000000
     29       0.000000   0.000000   0.000000   0.000000   0.000000   0.000000
     30       0.000000   0.000000   0.000000   0.000000   0.000000   0.000000
     31       0.000000   0.000000   0.000000   0.000000   0.000000   0.000000
     32       0.000000   0.000000   0.000000   0.000000   0.000000   0.000000
     33       0.000000   0.000000   0.000000   0.000000   0.000000   0.000000
     34       0.000000   0.000000   0.000000   0.000000   0.000000   0.000000
     35       0.000000   0.000000   0.000000   0.000000   0.000000   0.000000
     36       0.000000   0.000000   0.000000   0.000000   0.000000   0.000000
     37       0.000000   0.000000   0.000000   0.000000   0.000000   0.000000
     38       0.000000   0.000000   0.000000   0.000000   0.000000   0.000000
     39       0.000000   0.000000   0.000000   0.000000   0.000000   0.000000
     40       0.000000   0.000000   0.000000   0.000000   0.000000   0.000000
     41       0.000000   0.000000   0.000000   0.000000   0.000000   0.000000
     42       0.000000   0.000000   0.000000   0.000000   0.000000   0.000000
     43       0.000000   0.000000   0.000000   0.000000   0.000000   0.000000
     44       0.000000   0.000000   0.000000   0.000000   0.000000   0.000000
     45       0.000000   0.000000   0.000000   0.000000   0.000000   0.000000
     46       0.000000   0.000000   0.000000   0.000000   0.000000   0.000000
     47       0.000000   0.000000   0.000000   0.000000   0.000000   0.000000
     48       0.000000   0.000000   0.000000   0.000000   0.000000   0.000000
     49       0.000000   0.000000   0.000000   0.000000   0.000000   0.000000
     50       0.000000   0.000000   0.000000   0.000000   0.000000   0.000000
                  6          7          8          9         10         11    
      0      -0.000909   0.000390   0.001775   0.000058  -0.000095  -0.075701
      1      -0.021813   0.008861   0.193404   0.000536  -0.001778  -0.089890
      2       0.156244  -0.066069   0.026668  -0.002458   0.014707  -0.012888
      3       0.000227  -0.000764  -0.002425  -0.000155   0.000425  -0.056580
      4       0.006458  -0.019385  -0.111922  -0.004742   0.010662   0.178630
      5      -0.046135   0.141153  -0.014959   0.033159  -0.078065   0.024427
      6       0.124834  -0.117387   0.120467  -0.031650   0.070300  -0.225370
      7       0.075323   0.242455   0.280559  -0.334045   0.362323  -0.204742
      8       0.165680  -0.210807   0.037511   0.124903  -0.109598  -0.024046
      9      -0.001551  -0.000383  -0.229017   0.001780  -0.002653   0.211357
     10      -0.045240  -0.016766   0.286667   0.051823  -0.059955  -0.207034
     11       0.325327   0.119117   0.038481  -0.373570   0.437451  -0.027792
     12      -0.126932   0.119821   0.121062   0.030237  -0.068385  -0.225043
     13      -0.117937  -0.177241   0.279478   0.288417  -0.318435  -0.202783
     14       0.137635  -0.267331   0.040356   0.211045  -0.204194  -0.034601
     15       0.107930  -0.111910  -0.090263  -0.019271   0.046217  -0.038663
     16       0.098567   0.103983  -0.159994   0.043154  -0.037782   0.172656
     17      -0.016605   0.291308  -0.016818   0.081038  -0.137988   0.012294
     18       0.001228  -0.000117   0.106711   0.000362   0.000127   0.133137
     19       0.035174   0.000721  -0.165043   0.008378  -0.000632   0.086476
     20      -0.253303  -0.003538  -0.022465  -0.061664   0.002930   0.012639
     21      -0.107501   0.109163  -0.089603   0.018343  -0.044993  -0.038733
     22      -0.089957  -0.178956  -0.159919  -0.063942   0.073520   0.169363
     23      -0.043887   0.253430  -0.026352   0.066411  -0.123109   0.034784
     24      -0.102427   0.075576   0.102446  -0.066265  -0.045513   0.259459
     25       0.212565   0.052199  -0.156774   0.119160  -0.036951   0.166223
     26      -0.370936   0.001908  -0.027789  -0.135905   0.001993   0.024425
     27       0.106264  -0.075690   0.101862   0.067767   0.045659   0.259535
     28      -0.103648  -0.050161  -0.159061  -0.078147   0.034489   0.166302
     29      -0.413736  -0.013029  -0.015346  -0.162568   0.012355   0.024191
     30       0.000187   0.000547   0.103656  -0.000151  -0.000232   0.135946
     31       0.005617   0.019715  -0.044661  -0.005599  -0.010336  -0.129037
     32      -0.040442  -0.142219  -0.006234   0.040461   0.074428  -0.017123
     33      -0.134841   0.080690   0.184377  -0.044418  -0.028158   0.134185
     34      -0.048272  -0.122345   0.012806   0.033526   0.043230  -0.112432
     35      -0.026962  -0.294507   0.006494   0.091955   0.130889  -0.003265
     36      -0.000585  -0.000107  -0.178123  -0.000122  -0.000182  -0.119129
     37      -0.021241  -0.009789   0.079375   0.000603   0.002069  -0.035064
     38       0.153523   0.070273   0.010369  -0.003929  -0.014286  -0.005430
     39       0.134879  -0.078544   0.184165   0.043832   0.027462   0.134225
     40       0.053566   0.197687   0.015102  -0.057156  -0.077055  -0.109326
     41      -0.011611  -0.251104  -0.002751   0.079854   0.114541  -0.025995
     42      -0.147731   0.138784  -0.308986   0.326952   0.309427  -0.287397
     43      -0.084291  -0.230231   0.008764  -0.134040  -0.089239  -0.122018
     44       0.132077   0.217169  -0.002089   0.167956   0.132081  -0.023662
     45       0.146875  -0.140382  -0.305952  -0.329296  -0.311785  -0.287793
     46       0.045149   0.163151   0.008483   0.084129   0.050632  -0.123135
     47       0.151507   0.269823   0.000906   0.194425   0.147960  -0.012772
     48      -0.001549   0.000849  -0.167026   0.002082   0.001906  -0.106342
     49      -0.045811   0.014751   0.325938   0.056934   0.055406   0.274488
     50       0.330336  -0.111213   0.046300  -0.411909  -0.398978   0.037070
                 12         13         14         15         16         17    
      0       0.230957   0.000067   0.000097   0.000241  -0.057136   0.123124
      1       0.096737   0.000438   0.002286   0.005806  -0.065190   0.062001
      2       0.014637  -0.003142  -0.016494  -0.041572  -0.009371   0.009278
      3       0.173556   0.000192   0.000362   0.000167   0.024282  -0.079766
      4       0.078552   0.005099   0.009095   0.004012  -0.095927   0.067777
      5       0.011711  -0.036752  -0.065775  -0.028388  -0.013168   0.008944
      6       0.280456   0.120622   0.247094   0.313859   0.163197  -0.037278
      7       0.135873  -0.034223  -0.044940  -0.041160   0.142795  -0.109710
      8       0.016674   0.059729   0.102322   0.103957  -0.006097   0.011373
      9       0.146874  -0.000131  -0.000474  -0.000288  -0.531775   0.530985
     10       0.133340  -0.005931  -0.014875  -0.020543   0.122465  -0.094777
     11       0.019329   0.042898   0.107664   0.148059   0.014221  -0.010281
     12       0.280283  -0.121239  -0.248355  -0.315537   0.161901  -0.036390
     13       0.134746   0.016944   0.015878   0.011659   0.135556  -0.102497
     14       0.023750   0.065421   0.107926   0.107673   0.046576  -0.041207
     15       0.241430  -0.117845  -0.217858  -0.264297   0.155032  -0.184342
     16       0.132957   0.252279   0.239330  -0.050311  -0.012226   0.018616
     17       0.023736   0.219748   0.220415   0.042314   0.005165   0.003263
     18      -0.070433   0.000236  -0.000004  -0.000377  -0.089840  -0.132273
     19       0.103332   0.006766  -0.000018  -0.011782   0.138755  -0.084024
     20       0.013860  -0.048808   0.000038   0.084299   0.018831  -0.012299
     21       0.241330   0.115845   0.215865   0.263630   0.155793  -0.184710
     22       0.134393  -0.302650  -0.290543   0.036604  -0.010386   0.018793
     23       0.015458   0.144316   0.149563   0.057299  -0.006473  -0.000102
     24      -0.063895   0.207330  -0.146237  -0.155541  -0.089499  -0.225115
     25       0.086627  -0.354879  -0.092560   0.259420   0.136645  -0.142879
     26       0.020429   0.190450  -0.013558  -0.094949   0.027933  -0.020894
     27      -0.063687  -0.209580   0.146121   0.156712  -0.089199  -0.224653
     28       0.088852   0.289965   0.092474  -0.224264   0.138965  -0.142547
     29       0.002855   0.277762   0.013508  -0.160425   0.009218  -0.020842
     30      -0.150108   0.000153  -0.000327   0.000098   0.077832   0.028526
     31      -0.118193   0.005108  -0.009087   0.003963  -0.062160  -0.100022
     32      -0.017152  -0.036779   0.065725  -0.028478  -0.008242  -0.013671
     33      -0.228971  -0.206502   0.152994   0.150099  -0.054741  -0.059988
     34      -0.157428   0.196271  -0.280199   0.212677  -0.145275  -0.173182
     35      -0.019260   0.211674  -0.226354   0.081046  -0.014301  -0.025898
     36      -0.180944  -0.000006  -0.000077   0.000149   0.083926   0.108307
     37      -0.165866   0.000391  -0.002251   0.005732   0.024188   0.084714
     38      -0.023776  -0.003139   0.016455  -0.041590   0.003713   0.012200
     39      -0.229060   0.204721  -0.151305  -0.150420  -0.054981  -0.060205
     40      -0.156156  -0.246513   0.331201  -0.226276  -0.144177  -0.173783
     41      -0.026656   0.152564  -0.143450   0.019035  -0.026034  -0.022561
     42      -0.230607  -0.027489   0.076196  -0.107957  -0.195908  -0.112207
     43      -0.190339  -0.128115   0.249613  -0.308781  -0.084852   0.014763
     44      -0.030850   0.045980  -0.072198   0.064872  -0.039440  -0.025197
     45      -0.230421   0.026865  -0.075248   0.107316  -0.195904  -0.112341
     46      -0.191200   0.110798  -0.220695   0.279810  -0.091062   0.008185
     47      -0.024140   0.079165  -0.137771   0.147042   0.013508   0.027383
     48      -0.179808  -0.000258   0.000597  -0.000898   0.110618   0.135270
     49      -0.086875  -0.006066   0.015010  -0.020952   0.530471   0.516220
     50      -0.012752   0.042877  -0.107472   0.148130   0.073860   0.071916
                 18         19         20         21         22         23    
      0       0.000304  -0.103832   0.149749   0.033428   0.024954  -0.000447
      1       0.007021   0.085782  -0.029324   0.029045  -0.097167  -0.011769
      2      -0.050318   0.011325  -0.003247   0.004185  -0.013261   0.085377
      3      -0.000244   0.145228  -0.183459  -0.031764  -0.076120   0.000698
      4      -0.006015  -0.024149  -0.057883  -0.117501   0.138716   0.018158
      5       0.043371  -0.002566  -0.008999  -0.016437   0.018698  -0.132035
      6       0.259673  -0.353893   0.251211  -0.055662   0.270679  -0.292105
      7      -0.036454  -0.119987   0.013012  -0.079630   0.143500   0.061771
      8       0.071994   0.005302   0.009002   0.011193  -0.019197  -0.060596
      9      -0.000216   0.256708   0.110773   0.227979  -0.356629   0.000845
     10      -0.017165  -0.063823  -0.006011  -0.048689   0.057592   0.019998
     11       0.123854  -0.007597  -0.000114  -0.005469   0.005997  -0.145144
     12      -0.260883  -0.352912   0.250981  -0.055405   0.270234   0.292822
     13       0.015753  -0.113552   0.014560  -0.073572   0.132549  -0.043559
     14       0.076223  -0.041587  -0.002369  -0.032958   0.060238  -0.071849
     15      -0.182865   0.077373  -0.339082  -0.272636   0.036371  -0.146958
     16      -0.247602  -0.072608  -0.143616  -0.287629   0.214797   0.232889
     17      -0.076673  -0.005044  -0.018428  -0.043781   0.019228   0.103801
     18      -0.000028  -0.005587  -0.064295   0.150373   0.097010  -0.000640
     19      -0.000023  -0.002850   0.098715   0.095435  -0.150301  -0.017666
     20       0.000000  -0.000407   0.013363   0.013938  -0.020225   0.128609
     21       0.183063   0.077253  -0.339112  -0.272916   0.036302   0.146032
     22       0.258707  -0.071773  -0.142488  -0.288452   0.211568  -0.252936
     23      -0.004607  -0.013967  -0.025025  -0.038977   0.040238   0.038283
     24       0.304486  -0.248196  -0.081565   0.232144   0.098956  -0.152427
     25       0.192973  -0.156323   0.129792   0.147327  -0.151649   0.246902
     26       0.028177  -0.022921   0.006112   0.021494  -0.031724  -0.042731
     27      -0.304398  -0.247992  -0.081288   0.232073   0.098943   0.153122
     28      -0.192910  -0.156248   0.126745   0.147315  -0.155245  -0.225772
     29      -0.028250  -0.022800   0.028517   0.021579  -0.009976  -0.106714
     30       0.000204   0.039999   0.130055  -0.120713  -0.095181   0.000621
     31       0.005992   0.142078   0.138766   0.021222   0.126586   0.018124
     32      -0.043345   0.019786   0.019795   0.002416   0.016934  -0.132045
     33      -0.308985  -0.030893   0.275627  -0.377299  -0.210159  -0.161699
     34      -0.064211   0.102917   0.243760  -0.123907   0.058592   0.223583
     35       0.030959   0.009571   0.038357  -0.016456  -0.003588   0.102503
     36      -0.000192   0.034763  -0.036484   0.040596   0.078600  -0.000438
     37      -0.006955  -0.130759  -0.145337   0.017348  -0.063218  -0.011724
     38       0.050329  -0.017857  -0.020228   0.002549  -0.008258   0.085377
     39       0.308483  -0.031210   0.275248  -0.377919  -0.210394   0.161292
     40       0.052942   0.101558   0.244639  -0.123374   0.055203  -0.243269
     41       0.050097   0.018307   0.031592  -0.021319   0.017368   0.039638
     42       0.085248  -0.256040  -0.114135  -0.094011  -0.239516   0.074523
     43       0.255164  -0.267861  -0.217204  -0.016008  -0.179907   0.294284
     44      -0.039995  -0.062111  -0.024390  -0.025138  -0.066572  -0.026571
     45      -0.084906  -0.256178  -0.114035  -0.094084  -0.239953  -0.073790
     46      -0.234962  -0.274044  -0.215570  -0.021545  -0.190956  -0.275812
     47      -0.108346  -0.015255  -0.036514   0.019116   0.012868  -0.105826
     48       0.000769   0.048458  -0.041782   0.050782   0.096473   0.000807
     49       0.017519   0.256414  -0.106441   0.225410   0.344734   0.020036
     50      -0.123863   0.035600  -0.014887   0.031463   0.047933  -0.145208
                 24         25         26         27         28         29    
      0      -0.000408  -0.002873   0.000235   0.000086  -0.007015  -0.048642
      1      -0.010942   0.049571   0.006560   0.002362   0.040633   0.017555
      2       0.079508   0.006873  -0.046908  -0.017020   0.005535   0.002147
      3       0.000367  -0.034450  -0.000013   0.000221  -0.114983  -0.084879
      4       0.011626  -0.070274   0.000373   0.005480  -0.076860  -0.050021
      5      -0.084553  -0.009835  -0.003537  -0.039577  -0.011243  -0.007371
      6      -0.247043  -0.053100   0.137384   0.051417   0.061816   0.212039
      7       0.055955  -0.060235  -0.026347  -0.002418  -0.053682  -0.009910
      8      -0.044055   0.032525   0.017833   0.002485   0.069979   0.114302
      9       0.000794   0.198703   0.000088   0.000042   0.231479   0.260811
     10       0.016161  -0.029607  -0.006390   0.000296  -0.051860  -0.103599
     11      -0.117423  -0.003024   0.045967  -0.002145  -0.005841  -0.012778
     12       0.247617  -0.052344  -0.137757  -0.051450   0.062526   0.213370
     13      -0.042373  -0.049139   0.020600   0.001750  -0.032794   0.021110
     14      -0.054880  -0.048209   0.022599   0.002472  -0.081166  -0.110381
     15      -0.343195   0.267145   0.380441   0.230886   0.379431   0.228749
     16      -0.021778   0.132570   0.253035   0.233219   0.232534   0.114460
     17       0.030564   0.029958   0.041591   0.043412   0.030903  -0.006757
     18      -0.000093  -0.083684  -0.000596  -0.000096   0.010767   0.127726
     19      -0.000068  -0.052983  -0.012463  -0.000043  -0.016706   0.080915
     20      -0.000022  -0.007953   0.089532   0.000191  -0.002194   0.011804
     21       0.343369   0.268251  -0.379701  -0.230934   0.378851   0.228534
     22       0.012476   0.136379  -0.253952  -0.235865   0.231429   0.108117
     23       0.039140   0.010153  -0.032787  -0.024053   0.037499   0.040092
     24       0.268381   0.421293  -0.092458   0.441367  -0.014097  -0.325739
     25       0.170049   0.266414   0.146586   0.280146   0.026579  -0.206279
     26       0.024837   0.039047  -0.006880   0.040885  -0.029870  -0.030246
     27      -0.267610   0.421633   0.094211  -0.441339  -0.014105  -0.326094
     28      -0.169513   0.267525  -0.138207  -0.280000   0.017390  -0.206377
     29      -0.024782   0.039159  -0.045411  -0.041020   0.035799  -0.030083
     30      -0.000427  -0.078871  -0.000191  -0.000138   0.118656  -0.081379
     31      -0.011623  -0.001532   0.000493  -0.005485   0.071189  -0.055322
     32       0.084564  -0.000640  -0.003686   0.039534   0.010360  -0.008011
     33      -0.159209   0.236690  -0.392504   0.310343  -0.371889   0.197796
     34      -0.296526   0.186527  -0.236198   0.109775  -0.243219   0.155589
     35      -0.077201   0.016707  -0.030037   0.006828  -0.038648   0.046205
     36       0.000423   0.044247   0.000337  -0.000100  -0.034290  -0.004349
     37       0.010925  -0.023370   0.006425  -0.002326   0.023332  -0.051170
     38      -0.079509  -0.002848  -0.047016   0.016854   0.003062  -0.007093
     39       0.159724   0.234486   0.393664  -0.310127  -0.371596   0.197907
     40       0.306406   0.182212   0.235916  -0.107138  -0.244097   0.162037
     41       0.007529   0.036471   0.038936  -0.026098  -0.032127  -0.000495
     42      -0.058749  -0.071857  -0.036431   0.019571   0.013114   0.095160
     43      -0.249895  -0.018558  -0.136612   0.046999  -0.084323   0.204606
     44       0.015677  -0.044133   0.001529   0.004139   0.065411  -0.085803
     45       0.058189  -0.072501   0.035919  -0.019428   0.013943   0.093831
     46       0.236116  -0.030435   0.130938  -0.046295  -0.063679   0.173699
     47       0.083223   0.036475   0.038953  -0.008944  -0.085698   0.138989
     48      -0.000633   0.056050  -0.000138  -0.000021  -0.049363   0.014184
     49      -0.016103   0.191096  -0.005915  -0.000325  -0.229820   0.278162
     50       0.117518   0.026483   0.046106   0.002257  -0.032022   0.038531
                 30         31         32         33         34         35    
      0      -0.105431   0.111880  -0.005993   0.006495   0.000068  -0.000436
      1      -0.004851   0.012583   0.012778  -0.018638   0.005501  -0.005317
      2      -0.001258   0.002362   0.001750  -0.002548  -0.033954   0.045261
      3       0.036612  -0.071460   0.021316  -0.031625   0.000818   0.000757
      4       0.014450  -0.037031  -0.035841   0.038354   0.001024  -0.001615
      5       0.002188  -0.005504  -0.004848   0.005137  -0.008115   0.011734
      6       0.344367  -0.349763   0.051987  -0.069291  -0.175863   0.240247
      7       0.080334  -0.106524  -0.124011   0.200105  -0.239401   0.297132
      8       0.138933  -0.128478   0.079654  -0.121000   0.004321   0.006545
      9       0.326918  -0.313556  -0.048049   0.103871  -0.007552  -0.002495
     10      -0.175178   0.180238   0.026069  -0.052283  -0.056808   0.081881
     11      -0.022178   0.022917   0.003083  -0.006431   0.431599  -0.572537
     12       0.345933  -0.351182   0.052863  -0.070777   0.180455  -0.233812
     13       0.114533  -0.136927  -0.098156   0.160222   0.215295  -0.302835
     14      -0.108219   0.091008  -0.109718   0.169922   0.056785  -0.092684
     15      -0.052971   0.139699  -0.151637   0.192104  -0.014765   0.012757
     16      -0.067886   0.102905   0.201156  -0.229759   0.009979  -0.009403
     17      -0.025621   0.017651   0.257598  -0.304945   0.002857   0.004252
     18      -0.000495   0.067174  -0.027471  -0.007479   0.001126   0.001234
     19       0.007731   0.042134   0.042557  -0.004818  -0.002091  -0.001835
     20       0.001054   0.006157   0.005781  -0.000705   0.002575  -0.000656
     21      -0.053014   0.139616  -0.149121   0.189078   0.008830  -0.018779
     22      -0.072172   0.103633   0.263695  -0.304145  -0.003606   0.014188
     23       0.005641   0.012480  -0.194932   0.233159  -0.005573   0.001019
     24      -0.014831  -0.154743   0.177453   0.008119  -0.011325  -0.021946
     25       0.007304  -0.098836  -0.314213   0.005729   0.014438   0.001866
     26      -0.002253  -0.014328   0.232412   0.000457  -0.010068  -0.010665
     27      -0.014961  -0.154955   0.180120   0.008165  -0.001406   0.007972
     28       0.006428  -0.098878  -0.239448   0.005658   0.005674   0.019641
     29       0.004014  -0.014557  -0.307407   0.001197   0.008932   0.014131
     30      -0.034498  -0.060601   0.023959   0.021845  -0.000324  -0.000341
     31      -0.031319  -0.045673  -0.034335  -0.044443   0.000919   0.000563
     32      -0.004476  -0.006578  -0.004638  -0.006049  -0.011123  -0.009110
     33       0.100635   0.143572  -0.151585  -0.165791  -0.003495  -0.004180
     34       0.028178   0.080036   0.202119   0.245705   0.021414   0.017784
     35      -0.011752   0.010691   0.258511   0.306774   0.003018   0.003522
     36       0.053845   0.053056  -0.009226  -0.014346  -0.000492  -0.000610
     37       0.101207   0.085208   0.010780   0.013633   0.006747   0.005215
     38       0.014246   0.012028   0.001430   0.001763  -0.045128  -0.033782
     39       0.100397   0.143481  -0.149342  -0.163194   0.001875   0.002174
     40       0.023836   0.079794   0.264753   0.319733  -0.014649  -0.010313
     41       0.019874   0.012720  -0.195521  -0.230306  -0.006796  -0.005968
     42      -0.257771  -0.233426   0.079703   0.135214   0.381136   0.288468
     43      -0.311311  -0.248238  -0.106973  -0.158096   0.074152   0.053761
     44       0.091388   0.062713   0.082436   0.126941   0.061698   0.048179
     45      -0.256088  -0.232191   0.080559   0.136103  -0.368757  -0.274954
     46      -0.274548  -0.221596  -0.080888  -0.118310  -0.097862  -0.075429
     47      -0.174921  -0.129987  -0.107440  -0.163505   0.020554   0.012962
     48       0.026786   0.031304  -0.003748  -0.004404  -0.003384  -0.002634
     49      -0.398773  -0.317441   0.054287   0.115043  -0.072814  -0.052670
     50      -0.054962  -0.043681   0.007589   0.016362   0.573550   0.431010
                 36         37         38         39         40         41    
      0       0.004261  -0.000233   0.002403   0.052581   0.004305  -0.000148
      1      -0.025142   0.035405   0.028261  -0.001596  -0.000141  -0.001336
      2      -0.002907   0.004854   0.003885   0.000094   0.000006  -0.000185
      3      -0.022775  -0.006759  -0.021395  -0.003642  -0.000295  -0.016798
      4       0.000465   0.040161   0.039714   0.001738   0.000159   0.028149
      5       0.000107   0.005512   0.005369   0.000215   0.000020   0.003757
      6      -0.075345   0.097650   0.076352  -0.191619  -0.015675   0.003631
      7       0.268071  -0.336640  -0.263833   0.209120   0.017113  -0.003234
      8      -0.154405   0.196616   0.153439   0.500774   0.040973  -0.005490
      9       0.158782  -0.196809  -0.153603  -0.207965  -0.017108   0.006293
     10      -0.080504   0.109296   0.087561  -0.527499  -0.043205   0.020466
     11      -0.017034   0.014283   0.011528  -0.073856  -0.006050   0.002859
     12      -0.083002   0.100570   0.078688  -0.186563  -0.015261   0.003571
     13       0.209529  -0.270739  -0.212286   0.337259   0.027597  -0.004589
     14       0.218361  -0.279185  -0.218151  -0.427840  -0.035005   0.004434
     15       0.084613   0.074526   0.112903   0.003402   0.000236   0.097785
     16      -0.065399  -0.146852  -0.173878  -0.011358  -0.000781  -0.183569
     17      -0.098235  -0.182459  -0.227046   0.014261   0.001022   0.232956
     18      -0.033869  -0.015205  -0.018287  -0.000054   0.000731   0.030759
     19       0.052439  -0.009801   0.028216  -0.000769  -0.000408  -0.047603
     20       0.007189  -0.001431   0.003821  -0.000106  -0.000052  -0.006337
     21       0.083217   0.072785   0.110708   0.003555   0.000246   0.100394
     22      -0.089402  -0.190962  -0.229123  -0.007032  -0.000471  -0.113336
     23       0.077800   0.136521   0.172505  -0.016707  -0.001189  -0.272410
     24       0.191168   0.014641   0.116637  -0.001719  -0.002643  -0.171691
     25      -0.341424   0.010420  -0.206770   0.002571   0.002663   0.201391
     26       0.261149   0.000763   0.155720   0.005517   0.006486   0.476400
     27       0.195574   0.014657   0.118382  -0.001677  -0.002591  -0.167916
     28      -0.257281   0.010214  -0.156839   0.003985   0.004342   0.324550
     29      -0.342385   0.002229  -0.204990  -0.004642  -0.005556  -0.406472
     30       0.009115   0.034081  -0.027246  -0.000012  -0.000065  -0.019123
     31       0.020733  -0.023125   0.035763  -0.000322   0.003996   0.027471
     32       0.002190  -0.003042   0.004814  -0.000044   0.000544   0.003641
     33       0.035843  -0.125445   0.138148  -0.000660   0.006867   0.095483
     34      -0.094400   0.115927  -0.156801   0.000857  -0.009077  -0.190365
     35      -0.102447   0.179028  -0.223675  -0.001337   0.014498   0.237481
     36       0.021267   0.032493  -0.026763   0.001703  -0.020663   0.001317
     37      -0.013960  -0.015048   0.009583   0.003922  -0.047916  -0.000448
     38      -0.004671  -0.002000   0.001230   0.000542  -0.006619  -0.000054
     39       0.035438  -0.123875   0.136204  -0.000670   0.006974   0.097688
     40      -0.120912   0.160181  -0.211660   0.000461  -0.004785  -0.118714
     41       0.072788  -0.142112   0.174133   0.001506  -0.016267  -0.278507
     42      -0.161771  -0.235637   0.183209   0.014220  -0.173478   0.002106
     43       0.202266   0.249998  -0.193805  -0.018040   0.219992  -0.004230
     44      -0.161090  -0.209928   0.162346  -0.041126   0.501541  -0.005615
     45      -0.210391  -0.239768   0.186029   0.013844  -0.168877   0.002048
     46       0.139936   0.183949  -0.142800  -0.028580   0.348514  -0.005589
     47       0.211555   0.267346  -0.206839   0.034947  -0.426191   0.004277
     48       0.008021   0.017915  -0.015914  -0.046796   0.571809  -0.021820
     49      -0.181991  -0.223563   0.173730   0.002842  -0.033918   0.002952
     50       0.011215  -0.029504   0.023211   0.000138  -0.001570   0.000283
                 42         43         44         45         46         47    
      0       0.000352   0.000645  -0.000045  -0.000085  -0.000089  -0.000693
      1      -0.002357  -0.002106  -0.001025  -0.001974  -0.002109  -0.024999
      2      -0.000319  -0.000283   0.007450   0.014288   0.015172   0.003032
      3      -0.027537  -0.022175   0.000281   0.000398   0.000274   0.000387
      4       0.042375   0.032222   0.006479   0.009114   0.006274  -0.000710
      5       0.005643   0.004286  -0.047055  -0.066182  -0.045536   0.001127
      6       0.003547   0.001866   0.016861   0.032394   0.034634  -0.018992
      7      -0.001871   0.000396  -0.020745  -0.039377  -0.041409   0.018447
      8      -0.001574   0.002708  -0.047712  -0.090842  -0.095885   0.049287
      9       0.009876   0.007120  -0.000003   0.000014   0.000051   0.076801
     10       0.028111   0.019507  -0.000190  -0.000315  -0.000202   0.191025
     11       0.003935   0.002735   0.001444   0.002783   0.002653   0.027290
     12       0.003520   0.001878  -0.016357  -0.031455  -0.033679  -0.049824
     13      -0.002199   0.001150   0.032878   0.062519   0.065904   0.086921
     14       0.001008  -0.002526  -0.040468  -0.077136  -0.081547  -0.112511
     15       0.154406   0.120524   0.111046   0.153511   0.103623  -0.005738
     16      -0.295043  -0.235486  -0.206625  -0.293275  -0.206412   0.008803
     17       0.367825   0.289042   0.253494   0.356333   0.246615  -0.010607
     18      -0.001295  -0.023949  -0.000375   0.000000   0.000362   0.000404
     19      -0.001877   0.037035  -0.009320  -0.000066   0.009185   0.000476
     20      -0.000269   0.004935   0.067753   0.000475  -0.066714  -0.000621
     21       0.158559   0.123813  -0.114352  -0.158173  -0.106846   0.000602
     22      -0.183958  -0.148075   0.130453   0.186110   0.132115  -0.000889
     23      -0.431574  -0.340181   0.299452   0.421750   0.292829  -0.002843
     24      -0.006298   0.142684   0.160489   0.006107  -0.160238  -0.001074
     25       0.001124  -0.168626  -0.190226   0.001814   0.190314   0.001674
     26       0.007413  -0.387634  -0.431759  -0.002563   0.428310   0.003460
     27      -0.006231   0.139588  -0.156132  -0.006076   0.155962   0.003012
     28       0.003070  -0.268596   0.299747  -0.001020  -0.298994  -0.003408
     29      -0.006857   0.329386  -0.364114  -0.003036   0.360900   0.004767
     30       0.027521  -0.019598   0.000259  -0.000353   0.000238  -0.001144
     31      -0.042945   0.032443   0.006523  -0.009070   0.006198   0.002488
     32      -0.005710   0.004326  -0.047584   0.066142  -0.045178  -0.003757
     33      -0.153850   0.119633   0.107059  -0.152373   0.108851   0.015498
     34       0.299535  -0.226881  -0.212167   0.293680  -0.200935  -0.034160
     35      -0.371301   0.280638   0.255708  -0.355855   0.245146   0.036487
     36      -0.002035   0.001613  -0.000023   0.000027   0.000002  -0.082747
     37       0.001340  -0.001440  -0.001032   0.001961  -0.002073   0.037709
     38       0.000171  -0.000186   0.007488  -0.014165   0.014871  -0.013623
     39      -0.157316   0.122277  -0.110043   0.156507  -0.111687  -0.002352
     40       0.187491  -0.142220   0.135489  -0.187015   0.127491   0.001364
     41       0.436009  -0.329730   0.303461  -0.421780   0.290089   0.008097
     42      -0.000318  -0.001529   0.017963  -0.033498   0.034617   0.068529
     43       0.003811  -0.001607  -0.020165   0.038058  -0.039997  -0.093512
     44       0.001657   0.002520  -0.047809   0.089800  -0.093696  -0.219876
     45      -0.000287  -0.001520  -0.017489   0.032651  -0.033813   0.145246
     46       0.004090  -0.000827   0.032389  -0.061107   0.064210  -0.314254
     47      -0.000526  -0.002924  -0.040783   0.076669  -0.080132   0.384290
     48       0.030077  -0.020120  -0.000205   0.000537  -0.000841   0.766729
     49      -0.002894   0.001700  -0.000192   0.000354  -0.000314  -0.040317
     50      -0.000241   0.000130   0.001457  -0.002765   0.002595  -0.002908
                 48         49         50    
      0       0.002528  -0.000318  -0.000122
      1       0.091825  -0.005459  -0.002485
      2       0.007572   0.087940   0.028611
      3      -0.001277  -0.000212  -0.000055
      4       0.002035  -0.002520  -0.001009
      5      -0.000947   0.019308   0.007470
      6       0.119924   0.230307   0.074368
      7      -0.121776  -0.248442  -0.080088
      8      -0.308919  -0.585914  -0.188785
      9      -0.290137  -0.020800  -0.004550
     10      -0.721884  -0.052635  -0.011605
     11      -0.101526  -0.000209   0.000669
     12       0.141463  -0.205658  -0.068333
     13      -0.244919   0.365882   0.121239
     14       0.320750  -0.457104  -0.151609
     15       0.012252  -0.048826  -0.018632
     16      -0.019508   0.085029   0.033858
     17       0.021625  -0.104971  -0.041114
     18      -0.000374  -0.000083   0.000012
     19       0.000062  -0.000511  -0.000802
     20      -0.000535   0.003342   0.006283
     21       0.006261   0.051555   0.019402
     22      -0.006110  -0.054805  -0.021833
     23      -0.010388  -0.126370  -0.049181
     24      -0.000919   0.006783   0.017019
     25       0.000492  -0.011263  -0.018722
     26       0.001625  -0.022474  -0.042187
     27       0.001707  -0.006792  -0.016229
     28      -0.004133   0.016912   0.029118
     29       0.004525  -0.018712  -0.035094
     30      -0.000286   0.000165  -0.000314
     31       0.000589   0.000467  -0.002317
     32      -0.000948  -0.005107   0.019474
     33       0.004282   0.009714  -0.042176
     34      -0.008782  -0.021986   0.088210
     35       0.009408   0.025680  -0.103684
     36      -0.022367   0.009914  -0.015795
     37       0.010082  -0.000338  -0.005235
     38      -0.002931  -0.028331   0.086524
     39      -0.000320  -0.011588   0.045876
     40       0.000192   0.016813  -0.060996
     41       0.001791   0.034921  -0.130218
     42       0.020191  -0.075630   0.213498
     43      -0.027452   0.098377  -0.277721
     44      -0.064292   0.219812  -0.617923
     45       0.037579   0.048368  -0.167790
     46      -0.081513  -0.099333   0.348152
     47       0.099767   0.118149  -0.415329
     48       0.207182  -0.090214   0.141461
     49      -0.010906   0.005081  -0.008424
     50      -0.000723  -0.002111   0.006623
# -----------------------------------------------------------
$ THERMOCHEMISTRY_Energies
   description: The Thermochemistry energies
   geom. index: 5
   prop. index: 1
        Temperature (Kelvin)           :        298.1500000000
        Pressure (atm)                 :          1.0000000000
        Total Mass (AMU)               :         72.1510000000
        Spin Degeneracy                :          1.0000000000
        Electronic Energy (Hartree)    :       -195.3262735296
        Translational Energy (Hartree) :          0.0014162714
        Rotational Energy (Hartree)    :          0.0014162714
        Vibrational Energy (Hartree)   :          0.0039436237
        Number of frequencies          :     51      
        Scaling Factor for frequencies :          1.0000000000
        Vibrational frequencies        :     
                  0    
      0       0.000000
      1       0.000000
      2       0.000000
      3       0.000000
      4       0.000000
      5       0.000000
      6     109.178533
      7     112.590432
      8     192.090213
      9     242.738009
     10     245.994970
     11     426.420800
     12     427.116134
     13     808.796424
     14     858.813513
     15     979.403568
     16     997.034348
     17     1054.081317
     18     1125.305326
     19     1187.357264
     20     1189.395543
     21     1215.892342
     22     1308.167638
     23     1372.752057
     24     1434.543867
     25     1462.466605
     26     1485.694271
     27     1492.707248
     28     1567.309760
     29     1629.297462
     30     1647.403898
     31     1647.751509
     32     1731.458848
     33     1736.567021
     34     1750.237385
     35     1750.365766
     36     1750.622184
     37     1760.759512
     38     1764.021674
     39     3435.602088
     40     3435.727790
     41     3462.906676
     42     3468.383894
     43     3472.373261
     44     3567.747379
     45     3576.891306
     46     3587.477898
     47     3612.110432
     48     3612.181231
     49     3612.529003
     50     3612.917898
        Zero Point Energy (Hartree)    :          0.1843520226
        Inner Energy (Hartree)         :       -195.1351453404
        Enthalpy (Hartree)             :       -195.1342011314
        Electronic entropy             :          0.0000000000
        Rotational entropy             :          0.0124028863
        Vibrational entropy            :          0.0069299361
        Translational entropy          :          0.0124028863
        Entropy                        :          0.0377417807
        Gibbs Energy (Hartree)         :       -195.1719429121
        Is Linear                      :                 false
# -------------------------------------------------------------
----------------------- !GEOMETRIES! ------------------------
# -------------------------------------------------------------
------------------------ !GEOMETRY! -------------------------
    Number of atoms:    17 
    Geometry Index:     1 
    Coordinates:
               0 C     -1.333200000000    0.144910000000   -0.035010000000
               1 C      0.186620000000    0.103590000000   -0.032780000000
               2 H     -1.716420000000    0.536170000000    0.912830000000
               3 H     -1.739520000000   -0.861520000000   -0.176140000000
               4 H     -1.707250000000    0.778990000000   -0.845180000000
               5 H      0.526950000000   -0.563560000000    0.767720000000
               6 C      0.784530000000    1.496590000000    0.162720000000
               7 H      0.536070000000   -0.322110000000   -0.980600000000
               8 H      0.428530000000    1.919760000000    1.109990000000
               9 H      0.437700000000    2.161140000000   -0.638050000000
              10 C      2.312290000000    1.450560000000    0.164380000000
              11 H      2.664220000000    0.790800000000    0.965990000000
              12 C      2.911190000000    2.834450000000    0.358570000000
              13 H      2.673390000000    1.032170000000   -0.782340000000
              14 H      2.595150000000    3.268370000000    1.312600000000
              15 H      2.604400000000    3.511060000000   -0.445430000000
              16 H      4.004230000000    2.778110000000    0.356550000000
------------------------ !GEOMETRY! -------------------------
    Number of atoms:    17 
    Geometry Index:     2 
    Coordinates:
               0 C     -1.374961271310    0.122161492076   -0.038467556198
               1 C      0.168186515501    0.088909278863   -0.034862718281
               2 H     -1.757261888142    0.514113897864    0.904877299835
               3 H     -1.783407789929   -0.879938167649   -0.179019698617
               4 H     -1.747918016854    0.755656668961   -0.844240790795
               5 H      0.513419015804   -0.575195861076    0.762604021159
               6 C      0.787051861453    1.492682246273    0.162429639662
               7 H      0.522726629069   -0.334405960299   -0.978888070717
               8 H      0.431638717836    1.915483590746    1.106085535125
               9 H      0.440635131684    2.156152162161   -0.634726464599
              10 C      2.333537582148    1.460914374422    0.165977326683
              11 H      2.680998908632    0.798292129098    0.963726254871
              12 C      2.949570128686    2.862472200600    0.362532070407
              13 H      2.689926277773    1.038631890746   -0.777847883340
              14 H      2.632990254614    3.296081345977    1.311878265259
              15 H      2.642181955902    3.537425079890   -0.437233606885
              16 H      4.039565987134    2.810043631347    0.360996376430
------------------------ !GEOMETRY! -------------------------
    Number of atoms:    17 
    Geometry Index:     3 
    Coordinates:
               0 C     -1.371047463112    0.124971074143   -0.038139267399
               1 C      0.170719665050    0.089403484939   -0.034738260667
               2 H     -1.750470022715    0.519075317103    0.906557909401
               3 H     -1.779886936685   -0.877358592252   -0.178690769825
               4 H     -1.740969876596    0.760801114198   -0.844758050034
               5 H      0.516889604228   -0.573539043667    0.764407087296
               6 C      0.786916516115    1.492895489556    0.162628869842
               7 H      0.526368560052   -0.332239190764   -0.980057511558
               8 H      0.431922500064    1.914849989063    1.108051040205
               9 H      0.440772811587    2.156211722483   -0.636221140880
              10 C      2.332042565545    1.458826841605    0.165685539477
              11 H      2.677831257238    0.795680190560    0.964843060594
              12 C      2.945366942030    2.860132186511    0.362109425113
              13 H      2.686572174287    1.036392764409   -0.779713268836
              14 H      2.625421808432    3.291919806058    1.312275917400
              15 H      2.634701823041    3.533431096280   -0.439070240963
              16 H      4.035728071441    2.808025749775    0.360649660833
------------------------ !GEOMETRY! -------------------------
    Number of atoms:    17 
    Geometry Index:     4 
    Coordinates:
               0 C     -1.370022668866    0.125903329002   -0.038096585500
               1 C      0.171468698580    0.089132638377   -0.034712666966
               2 H     -1.747114212932    0.521394271689    0.906827478539
               3 H     -1.779434291044   -0.876152436487   -0.178547480011
               4 H     -1.737445579799    0.762962652792   -0.844737013781
               5 H      0.518235968177   -0.572611823039    0.764979370308
               6 C      0.786873102713    1.492952185801    0.162814503142
               7 H      0.527890414921   -0.331131205923   -0.980195447114
               8 H      0.432410889533    1.914088836718    1.108610894541
               9 H      0.441053460951    2.155790849818   -0.636349954564
              10 C      2.331989686272    1.458035208113    0.165555729358
              11 H      2.676394240760    0.794749926325    0.965007128905
              12 C      2.944094047917    2.859603692825    0.361958830409
              13 H      2.684907049196    1.035573316205   -0.780274465305
              14 H      2.621870204059    3.289786700287    1.311954259135
              15 H      2.631270844285    3.531229230771   -0.439636427350
              16 H      4.034438145275    2.808172626726    0.360661846254
------------------------ !GEOMETRY! -------------------------
    Number of atoms:    17 
    Geometry Index:     5 
    Coordinates:
               0 C     -1.370261534607    0.125850680640   -0.038158145745
               1 C      0.171410768079    0.088855915099   -0.034709319972
               2 H     -1.746804469886    0.521738047508    0.906804381213
               3 H     -1.780000141753   -0.876031895715   -0.178523096732
               4 H     -1.737036241380    0.763165573840   -0.844875689834
               5 H      0.518376291439   -0.572614627664    0.765105450697
               6 C      0.786893054964    1.492907755397    0.162906972243
               7 H      0.528136303133   -0.331096216260   -0.980202378607
               8 H      0.432569951383    1.913857639648    1.108828557465
               9 H      0.441065071293    2.155722071999   -0.636261657525
              10 C      2.332266409175    1.457977858799    0.165517388585
              11 H      2.676357933689    0.794557943415    0.964974682237
              12 C      2.944248482764    2.859798395447    0.361952393688
              13 H      2.684723344679    1.035447871499   -0.780438573376
              14 H      2.621428922092    3.289597567873    1.311907480900
              15 H      2.630943255222    3.531007579397   -0.439786448892
              16 H      4.034562599712    2.808737839079    0.360778003655
