11
Coordinates from ORCA-job propane_BHLYP-D3_STO-3G E -117.665721026098
  C      -1.152140      0.231070     -0.018920
  C       0.366720      0.193200     -0.017650
  H      -1.535600      0.623920      0.928200
  H      -1.556550     -0.776480     -0.157440
  H      -1.528180      0.862680     -0.830140
  H       0.714460     -0.466870      0.784710
  C       0.962020      1.578010      0.172880
  H       0.721840     -0.229430     -0.964050
  H       0.645370      2.013440      1.126050
  H       0.652810      2.252170     -0.632290
  H       2.055200      1.524570      0.170250
11
Coordinates from ORCA-job propane_BHLYP-D3_STO-3G E -117.666552028925
  C      -1.173653      0.218743     -0.020694
  C       0.369035      0.189640     -0.018168
  H      -1.555893      0.612359      0.921988
  H      -1.579762     -0.784657     -0.158464
  H      -1.548554      0.849627     -0.827627
  H       0.717542     -0.471266      0.780953
  C       0.982296      1.592301      0.174941
  H       0.724894     -0.234603     -0.961673
  H       0.665143      2.027109      1.123575
  H       0.672533      2.264822     -0.625961
  H       2.072369      1.542206      0.172731
11
Coordinates from ORCA-job propane_BHLYP-D3_STO-3G E -117.666573972770
  C      -1.172245      0.219757     -0.020551
  C       0.369650      0.188706     -0.018327
  H      -1.551531      0.615508      0.923545
  H      -1.578671     -0.783960     -0.158242
  H      -1.544235      0.852896     -0.828375
  H       0.717693     -0.471702      0.782125
  C       0.980793      1.591450      0.174835
  H       0.725036     -0.234647     -0.963018
  H       0.660365      2.024330      1.124387
  H       0.667826      2.262398     -0.627455
  H       2.071268      1.541542      0.172676
11
Coordinates from ORCA-job propane_BHLYP-D3_STO-3G E -117.666578207730
  C      -1.171703      0.220321     -0.020473
  C       0.370177      0.187905     -0.018471
  H      -1.548438      0.617466      0.923903
  H      -1.578530     -0.783149     -0.157988
  H      -1.541206      0.854662     -0.828311
  H       0.717786     -0.471935      0.782480
  C       0.980055      1.591194      0.174820
  H       0.725107     -0.234689     -0.963540
  H       0.657359      2.022280      1.124261
  H       0.664890      2.260445     -0.627845
  H       2.070453      1.541778      0.172764
11
Coordinates from ORCA-job propane_BHLYP-D3_STO-3G E -117.666578351130
  C      -1.171799      0.220316     -0.020473
  C       0.370302      0.187714     -0.018514
  H      -1.548199      0.617665      0.923937
  H      -1.578815     -0.783054     -0.157910
  H      -1.540999      0.854766     -0.828349
  H       0.717894     -0.472111      0.782440
  C       0.980098      1.591277      0.174842
  H       0.725198     -0.234820     -0.963607
  H       0.657111      2.022131      1.124279
  H       0.664685      2.260319     -0.627885
  H       2.070473      1.542076      0.172840
