-------------------------------------------------------------
----------------------- !PROPERTIES! ------------------------
-------------------------------------------------------------
# -----------------------------------------------------------
$ SCF_Energy
   description: The SCF energy
   geom. index: 1
   prop. index: 1
        SCF Energy:     -119.0897666986
# -----------------------------------------------------------
$ DFT_Energy
   description: The DFT energy
   geom. index: 1
   prop. index: 1
   Number of Alpha Electrons        13.0000282532 
   Number of Alpha Electrons        13.0000282532 
   Total nuber of  Electrons        26.0000565063 
   Exchange energy                  -9.2026903401 
   Correlation energy               -0.8111730725 
   Correlantion energy NL            0.0000000000 
   Exchange-Correlation energy     -10.0138634126 
   Embedding correction              0.0000000000 
# -----------------------------------------------------------
$ VdW_Correction
   description: The Van der Waals Correction
   geom. index: 1
   prop. index: 1
        Van der Waals Correction:       -0.0073964735
# -----------------------------------------------------------
$ SCF_Energy
   description: The SCF energy
   geom. index: 2
   prop. index: 1
        SCF Energy:     -119.0902875478
# -----------------------------------------------------------
$ DFT_Energy
   description: The DFT energy
   geom. index: 2
   prop. index: 1
   Number of Alpha Electrons        13.0000276109 
   Number of Alpha Electrons        13.0000276109 
   Total nuber of  Electrons        26.0000552219 
   Exchange energy                  -9.2125792110 
   Correlation energy               -0.8119318464 
   Correlantion energy NL            0.0000000000 
   Exchange-Correlation energy     -10.0245110574 
   Embedding correction              0.0000000000 
# -----------------------------------------------------------
$ VdW_Correction
   description: The Van der Waals Correction
   geom. index: 2
   prop. index: 1
        Van der Waals Correction:       -0.0073877307
# -----------------------------------------------------------
$ SCF_Energy
   description: The SCF energy
   geom. index: 3
   prop. index: 1
        SCF Energy:     -119.0903118584
# -----------------------------------------------------------
$ DFT_Energy
   description: The DFT energy
   geom. index: 3
   prop. index: 1
   Number of Alpha Electrons        13.0000272052 
   Number of Alpha Electrons        13.0000272052 
   Total nuber of  Electrons        26.0000544105 
   Exchange energy                  -9.2128454478 
   Correlation energy               -0.8119468251 
   Correlantion energy NL            0.0000000000 
   Exchange-Correlation energy     -10.0247922729 
   Embedding correction              0.0000000000 
# -----------------------------------------------------------
$ VdW_Correction
   description: The Van der Waals Correction
   geom. index: 3
   prop. index: 1
        Van der Waals Correction:       -0.0073849678
# -----------------------------------------------------------
$ SCF_Energy
   description: The SCF energy
   geom. index: 4
   prop. index: 1
        SCF Energy:     -119.0903182598
# -----------------------------------------------------------
$ DFT_Energy
   description: The DFT energy
   geom. index: 4
   prop. index: 1
   Number of Alpha Electrons        13.0000268482 
   Number of Alpha Electrons        13.0000268482 
   Total nuber of  Electrons        26.0000536963 
   Exchange energy                  -9.2127343535 
   Correlation energy               -0.8119520053 
   Correlantion energy NL            0.0000000000 
   Exchange-Correlation energy     -10.0246863589 
   Embedding correction              0.0000000000 
# -----------------------------------------------------------
$ VdW_Correction
   description: The Van der Waals Correction
   geom. index: 4
   prop. index: 1
        Van der Waals Correction:       -0.0073850048
# -----------------------------------------------------------
$ SCF_Energy
   description: The SCF energy
   geom. index: 5
   prop. index: 1
        SCF Energy:     -119.0903178349
# -----------------------------------------------------------
$ DFT_Energy
   description: The DFT energy
   geom. index: 5
   prop. index: 1
   Number of Alpha Electrons        13.0000267623 
   Number of Alpha Electrons        13.0000267623 
   Total nuber of  Electrons        26.0000535247 
   Exchange energy                  -9.2127080995 
   Correlation energy               -0.8119579352 
   Correlantion energy NL            0.0000000000 
   Exchange-Correlation energy     -10.0246660347 
   Embedding correction              0.0000000000 
# -----------------------------------------------------------
$ VdW_Correction
   description: The Van der Waals Correction
   geom. index: 5
   prop. index: 1
        Van der Waals Correction:       -0.0073858020
# -----------------------------------------------------------
$ SCF_Electric_Properties
   description: The SCF Calculated Electric Properties
   geom. index: 5
   prop. index: 1
       Filename                          : propane_BHLYP-D3_6-311G_d-p_.scfp 
       Do Dipole Moment Calculation      : true 
       Do Quadrupole Moment Calculation  : false 
       Do Polarizability Calculation     : false 
** Dipole moment part of electric properties **
        Magnitude of dipole moment (Debye) :        0.0761122789
        Electronic Contribution:
                  0    
      0       0.258848
      1      -0.397749
      2      -0.052309
        Nuclear Contribution:
                  0    
      0      -0.242553
      1       0.372869
      2       0.048825
        Total Dipole moment:
                  0    
      0       0.016295
      1      -0.024880
      2      -0.003484
# -----------------------------------------------------------
$ Hessian
   description: Details about the Hessian
   geom. index: 5
   prop. index: 1
Normal modes:
Number of Rows: 33 Number of Columns: 33
                  0          1          2          3          4          5    
      0       0.000000   0.000000   0.000000   0.000000   0.000000   0.000000
      1       0.000000   0.000000   0.000000   0.000000   0.000000   0.000000
      2       0.000000   0.000000   0.000000   0.000000   0.000000   0.000000
      3       0.000000   0.000000   0.000000   0.000000   0.000000   0.000000
      4       0.000000   0.000000   0.000000   0.000000   0.000000   0.000000
      5       0.000000   0.000000   0.000000   0.000000   0.000000   0.000000
      6       0.000000   0.000000   0.000000   0.000000   0.000000   0.000000
      7       0.000000   0.000000   0.000000   0.000000   0.000000   0.000000
      8       0.000000   0.000000   0.000000   0.000000   0.000000   0.000000
      9       0.000000   0.000000   0.000000   0.000000   0.000000   0.000000
     10       0.000000   0.000000   0.000000   0.000000   0.000000   0.000000
     11       0.000000   0.000000   0.000000   0.000000   0.000000   0.000000
     12       0.000000   0.000000   0.000000   0.000000   0.000000   0.000000
     13       0.000000   0.000000   0.000000   0.000000   0.000000   0.000000
     14       0.000000   0.000000   0.000000   0.000000   0.000000   0.000000
     15       0.000000   0.000000   0.000000   0.000000   0.000000   0.000000
     16       0.000000   0.000000   0.000000   0.000000   0.000000   0.000000
     17       0.000000   0.000000   0.000000   0.000000   0.000000   0.000000
     18       0.000000   0.000000   0.000000   0.000000   0.000000   0.000000
     19       0.000000   0.000000   0.000000   0.000000   0.000000   0.000000
     20       0.000000   0.000000   0.000000   0.000000   0.000000   0.000000
     21       0.000000   0.000000   0.000000   0.000000   0.000000   0.000000
     22       0.000000   0.000000   0.000000   0.000000   0.000000   0.000000
     23       0.000000   0.000000   0.000000   0.000000   0.000000   0.000000
     24       0.000000   0.000000   0.000000   0.000000   0.000000   0.000000
     25       0.000000   0.000000   0.000000   0.000000   0.000000   0.000000
     26       0.000000   0.000000   0.000000   0.000000   0.000000   0.000000
     27       0.000000   0.000000   0.000000   0.000000   0.000000   0.000000
     28       0.000000   0.000000   0.000000   0.000000   0.000000   0.000000
     29       0.000000   0.000000   0.000000   0.000000   0.000000   0.000000
     30       0.000000   0.000000   0.000000   0.000000   0.000000   0.000000
     31       0.000000   0.000000   0.000000   0.000000   0.000000   0.000000
     32       0.000000   0.000000   0.000000   0.000000   0.000000   0.000000
                  6          7          8          9         10         11    
      0      -0.000105   0.000062   0.114800  -0.000052  -0.213705  -0.000067
      1      -0.004029   0.005092   0.139206  -0.002333  -0.062153   0.009041
      2       0.030223  -0.038436   0.019259   0.016840  -0.009198  -0.064118
      3       0.000086  -0.000444   0.092540  -0.000377   0.107084   0.000291
      4       0.000031  -0.012323  -0.142570  -0.010270  -0.164411  -0.000073
      5      -0.000801   0.091592  -0.018774   0.076097  -0.021779  -0.000033
      6       0.015751  -0.104618   0.281665  -0.276832  -0.062586   0.381846
      7      -0.377918  -0.335841   0.273546   0.063502   0.096320  -0.050785
      8       0.193416   0.061431   0.031789  -0.126975  -0.011097   0.122901
      9       0.001395   0.002202  -0.205966   0.000839  -0.596796   0.000236
     10       0.049179   0.062330   0.273636   0.015838   0.092929  -0.027029
     11      -0.357198  -0.456783   0.035989  -0.116562   0.009698   0.194324
     12      -0.017598   0.103177   0.282666   0.277863  -0.060192  -0.385282
     13       0.312585   0.306401   0.271744  -0.027664   0.089457   0.015400
     14       0.287674   0.150157   0.044163  -0.136993   0.034939   0.128316
     15       0.006262  -0.051785   0.081160   0.250848   0.105336  -0.302535
     16       0.003058   0.056974  -0.127044  -0.347801  -0.162029  -0.192875
     17      -0.001005   0.172334  -0.003085  -0.324616  -0.019947  -0.027375
     18       0.000043   0.000292  -0.175437  -0.000058   0.146167   0.000180
     19       0.003969   0.005320  -0.045741  -0.002289   0.166247  -0.008792
     20      -0.029540  -0.038987  -0.006966   0.016864   0.022992   0.064165
     21      -0.006029   0.050393   0.081377  -0.248585   0.103855   0.301142
     22      -0.002787  -0.100670  -0.123574   0.421934  -0.162362   0.191472
     23      -0.001847   0.151466  -0.029758  -0.222489  -0.023161   0.027227
     24      -0.315400   0.331882  -0.366739   0.073815  -0.061973   0.127829
     25       0.191732  -0.050027  -0.140687   0.287006   0.094491   0.375732
     26      -0.222224   0.097660  -0.026635  -0.095177  -0.010940  -0.076602
     27       0.316852  -0.332086  -0.368362  -0.072604  -0.061579  -0.129336
     28      -0.126201   0.022835  -0.142154  -0.251091   0.089810  -0.343093
     29      -0.262697   0.104773  -0.014145  -0.168764   0.035926  -0.174814
     30      -0.001508   0.001908  -0.165942   0.000464   0.162719   0.001275
     31      -0.049303   0.060763   0.299642   0.015718   0.580099   0.029074
     32       0.365283  -0.449868   0.038907  -0.116783   0.079743  -0.194134
                 12         13         14         15         16         17    
      0      -0.023815  -0.167930  -0.037294  -0.000543  -0.000349   0.025259
      1       0.082699   0.012848   0.127844  -0.015457  -0.009860  -0.049685
      2       0.011456   0.001007   0.016947   0.115685   0.072277  -0.006686
      3       0.033356   0.214483   0.100058   0.000929   0.000126   0.138976
      4       0.021734   0.136519  -0.154502   0.023743   0.000114   0.088547
      5       0.003089   0.019381  -0.020109  -0.177685   0.000030   0.012605
      6      -0.281153  -0.200457  -0.306243  -0.348989  -0.182143  -0.125709
      7      -0.170466   0.032295  -0.195878   0.096584   0.056397   0.080153
      8       0.010044  -0.014838   0.037592  -0.085022  -0.030671  -0.110447
      9       0.468386  -0.220296   0.403629   0.002178   0.000506  -0.283586
     10      -0.124464   0.034256  -0.065778   0.030891   0.014275   0.072571
     11      -0.015767   0.003762  -0.006466  -0.226254  -0.104045   0.008484
     12      -0.277649  -0.200384  -0.307555   0.348180   0.182303  -0.127012
     13      -0.161228   0.027169  -0.177701  -0.071677  -0.046203   0.047569
     14      -0.058885   0.020914  -0.090792  -0.105274  -0.042994   0.126769
     15      -0.172860   0.465772   0.092704  -0.197607  -0.538156  -0.481239
     16      -0.109677   0.296675  -0.146011   0.290405  -0.342765  -0.306488
     17      -0.015643   0.042199  -0.005895   0.137091  -0.048718  -0.043524
     18       0.065639  -0.058212  -0.101790  -0.000675   0.000276  -0.035032
     19      -0.056389  -0.156665   0.086967  -0.015459   0.009776   0.043558
     20      -0.007690  -0.021397   0.011077   0.115683  -0.072316   0.005796
     21      -0.175926   0.465287   0.092068   0.196941   0.537657  -0.482161
     22      -0.111488   0.296359  -0.140770  -0.317306   0.342526  -0.306960
     23      -0.015880   0.041991  -0.032722   0.056414   0.048625  -0.043651
     24      -0.268290  -0.055297   0.298151   0.068107  -0.028530   0.005102
     25      -0.180542  -0.195004   0.189805   0.362355  -0.190688  -0.157156
     26      -0.060003  -0.008235   0.092614  -0.047209   0.011593   0.099793
     27      -0.267480  -0.055354   0.299116  -0.066024   0.028163   0.005927
     28      -0.186405  -0.190417   0.208851  -0.335656   0.180405  -0.125144
     29       0.009305  -0.044375  -0.035726  -0.142751   0.062057  -0.138025
     30       0.079155  -0.060337  -0.106854   0.000658  -0.000436  -0.050856
     31       0.471793  -0.214383  -0.391138   0.029881  -0.014302  -0.286637
     32       0.065140  -0.029391  -0.052919  -0.226665   0.104249  -0.038988
                 18         19         20         21         22         23    
      0      -0.104240   0.102984  -0.000071  -0.001515  -0.009175  -0.000215
      1      -0.021909  -0.005792  -0.005548  -0.018693   0.034850  -0.004663
      2      -0.003421  -0.000328   0.036572  -0.002730   0.005163   0.032662
      3       0.070976  -0.005216  -0.000684  -0.026832   0.033068   0.000403
      4       0.045234   0.007782   0.000055   0.041482   0.020856  -0.004574
      5       0.006410   0.001038   0.000008   0.005621   0.002974   0.027851
      6       0.352584  -0.366705   0.223284  -0.082256   0.138859   0.234794
      7       0.130401  -0.043102   0.272836   0.240309  -0.371611   0.264728
      8       0.108747  -0.165522  -0.005103  -0.138535   0.227280   0.003623
      9       0.304936  -0.365489   0.006386   0.158613  -0.233545   0.003441
     10      -0.176754   0.175947   0.066294  -0.072219   0.112833   0.066662
     11      -0.023047   0.022371  -0.498517  -0.007150   0.008440  -0.492067
     12       0.353261  -0.368131  -0.227619  -0.082112   0.136018  -0.235486
     13       0.154194  -0.085623  -0.251037   0.196406  -0.303167  -0.252951
     14      -0.066728   0.144611  -0.069468   0.197855  -0.319249  -0.066881
     15      -0.188330  -0.016402   0.046529   0.233410  -0.081132   0.020495
     16      -0.119692   0.024484   0.025533  -0.313313  -0.050403  -0.032355
     17      -0.016925   0.012899   0.000658  -0.382275  -0.006183  -0.000034
     18      -0.063728  -0.036973  -0.000004   0.017923   0.028309   0.000065
     19      -0.085707  -0.094472   0.005239  -0.006557  -0.022664  -0.004494
     20      -0.011897  -0.012997  -0.036519  -0.000338  -0.003417   0.032718
     21      -0.188552  -0.016249  -0.040119   0.231110  -0.082185  -0.026030
     22      -0.119929   0.027118  -0.030470  -0.403182  -0.050837   0.040950
     23      -0.017108  -0.006040  -0.001274   0.287225  -0.008195   0.000935
     24       0.279571   0.210092   0.334270  -0.171216  -0.247883  -0.336933
     25       0.274051   0.323163   0.087501   0.187310   0.301779  -0.099238
     26      -0.052314  -0.112249   0.053817  -0.147983  -0.237442  -0.048639
     27       0.278460   0.208496  -0.331643  -0.163730  -0.258281   0.334611
     28       0.249697   0.281259  -0.101616   0.144077   0.225478   0.110405
     29       0.125698   0.195984   0.021615   0.190605   0.307840  -0.014808
     30      -0.036206  -0.010029  -0.002033   0.000395   0.006113   0.002088
     31       0.351352   0.398740  -0.066023  -0.172796  -0.257799   0.065416
     32       0.047810   0.054353   0.497543  -0.030155  -0.028735  -0.493041
                 24         25         26         27         28         29    
      0       0.007307  -0.036808   0.000055  -0.033262  -0.000028  -0.000305
      1       0.029511   0.007318  -0.010632   0.005383  -0.004088  -0.010060
      2       0.004392   0.000965  -0.001426   0.000735   0.029077   0.065795
      3      -0.038761   0.001581  -0.036733  -0.000042   0.000312  -0.000030
      4       0.059871   0.000958   0.056584  -0.000132   0.011198  -0.000109
      5       0.008246  -0.000038   0.007662  -0.000027  -0.082271   0.000966
      6       0.090228   0.151549  -0.015692   0.135526   0.077424   0.173629
      7      -0.300436  -0.165658   0.012386  -0.145937  -0.084921  -0.188510
      8       0.169231  -0.400096   0.038000  -0.352531  -0.192897  -0.429153
      9      -0.210040   0.130463   0.032039   0.123409  -0.000108   0.003413
     10       0.109669   0.342395   0.090347   0.314136  -0.001332   0.006243
     11       0.009166   0.047505   0.012529   0.043624   0.007756   0.016934
     12       0.087453   0.147493  -0.015552   0.131803  -0.076993  -0.173298
     13      -0.249096  -0.265949   0.022418  -0.233997   0.135668   0.302124
     14      -0.244225   0.340752  -0.033745   0.299902  -0.166338  -0.371479
     15       0.176079  -0.001858   0.214940   0.000795   0.203937  -0.005463
     16      -0.231821  -0.001944  -0.411018  -0.001688  -0.384673   0.002147
     17      -0.316933   0.000610   0.517577   0.004859   0.453686  -0.005281
     18      -0.030139  -0.007385   0.009630   0.009628   0.000076  -0.001189
     19       0.005540  -0.032380  -0.004467   0.036229  -0.003840   0.009041
     20       0.000974  -0.004115  -0.000546   0.004664   0.028734  -0.064081
     21       0.173277  -0.002725   0.220472   0.000807  -0.207672   0.005665
     22      -0.307174  -0.000667  -0.259746  -0.000255   0.249870  -0.000958
     23       0.245415   0.001107  -0.608419  -0.004995   0.536677  -0.006159
     24       0.210642  -0.122620  -0.009663   0.134981   0.069320  -0.149669
     25      -0.222305   0.154415   0.016422  -0.173206  -0.090066   0.196476
     26       0.179851   0.355717   0.038762  -0.394642  -0.193402   0.419819
     27       0.219358  -0.121311  -0.009448   0.133283  -0.067259   0.147972
     28      -0.164321   0.246595   0.026370  -0.274899   0.137381  -0.305534
     29      -0.231217  -0.306041  -0.033284   0.338446  -0.161731   0.358823
     30      -0.013068   0.326758  -0.094798  -0.378483  -0.002947   0.015910
     31       0.234429  -0.021977   0.008516   0.021585  -0.000894   0.001445
     32       0.026528  -0.001571   0.000780   0.001331   0.007713  -0.015431
                 30         31         32    
      0      -0.005585  -0.000862  -0.004407
      1      -0.070800  -0.016018  -0.054701
      2      -0.011938   0.055136  -0.014529
      3       0.000524   0.000757   0.006942
      4      -0.001273  -0.007192  -0.009905
      5      -0.000947   0.042200  -0.006665
      6      -0.099969   0.142047  -0.096981
      7       0.091218  -0.151095   0.088229
      8       0.251422  -0.341354   0.237574
      9       0.255090   0.029472   0.198435
     10       0.618655   0.069878   0.480120
     11       0.085421   0.020597   0.065341
     12      -0.086450  -0.162353  -0.058090
     13       0.135639   0.273063   0.086332
     14      -0.194267  -0.340230  -0.128930
     15      -0.003594  -0.106363  -0.024002
     16       0.003715   0.201090   0.045984
     17      -0.005703  -0.239170  -0.056523
     18      -0.054648   0.007369   0.066385
     19       0.019647  -0.010540  -0.022778
     20       0.002705   0.058132  -0.010868
     21      -0.007505   0.098317  -0.050126
     22       0.006492  -0.118149   0.060137
     23       0.016192  -0.255766   0.133318
     24       0.055329   0.127491  -0.085677
     25      -0.081616  -0.172512   0.128500
     26      -0.192889  -0.360425   0.293312
     27       0.052598  -0.138923  -0.047764
     28      -0.127843   0.298452   0.126382
     29       0.161799  -0.347435  -0.161374
     30       0.545973  -0.076248  -0.657023
     31      -0.021571   0.001423   0.025553
     32      -0.000666   0.011286  -0.000684
# -----------------------------------------------------------
$ THERMOCHEMISTRY_Energies
   description: The Thermochemistry energies
   geom. index: 5
   prop. index: 1
        Temperature (Kelvin)           :        298.1500000000
        Pressure (atm)                 :          1.0000000000
        Total Mass (AMU)               :         44.0970000000
        Spin Degeneracy                :          1.0000000000
        Electronic Energy (Hartree)    :       -119.0977036368
        Translational Energy (Hartree) :          0.0014162714
        Rotational Energy (Hartree)    :          0.0014162714
        Vibrational Energy (Hartree)   :          0.0016186126
        Number of frequencies          :     33      
        Scaling Factor for frequencies :          1.0000000000
        Vibrational frequencies        :     
                  0    
      0       0.000000
      1       0.000000
      2       0.000000
      3       0.000000
      4       0.000000
      5       0.000000
      6     227.672470
      7     280.962878
      8     379.846517
      9     777.173852
     10     906.872791
     11     942.095628
     12     965.694674
     13     1099.198061
     14     1221.696036
     15     1259.220956
     16     1364.515801
     17     1419.636391
     18     1462.795412
     19     1475.028711
     20     1542.398269
     21     1544.754426
     22     1550.048445
     23     1560.243739
     24     1566.256974
     25     3101.789737
     26     3104.768841
     27     3105.696530
     28     3126.710763
     29     3161.229521
     30     3172.438099
     31     3174.171387
     32     3175.634398
        Zero Point Energy (Hartree)    :          0.1063187829
        Inner Energy (Hartree)         :       -118.9869336984
        Enthalpy (Hartree)             :       -118.9859894894
        Electronic entropy             :          0.0000000000
        Rotational entropy             :          0.0107595550
        Vibrational entropy            :          0.0025227812
        Translational entropy          :          0.0107595550
        Entropy                        :          0.0309939658
        Gibbs Energy (Hartree)         :       -119.0169834552
        Is Linear                      :                 false
# -------------------------------------------------------------
----------------------- !GEOMETRIES! ------------------------
# -------------------------------------------------------------
------------------------ !GEOMETRY! -------------------------
    Number of atoms:    11 
    Geometry Index:     1 
    Coordinates:
               0 C     -1.152140000000    0.231070000000   -0.018920000000
               1 C      0.366720000000    0.193200000000   -0.017650000000
               2 H     -1.535600000000    0.623920000000    0.928200000000
               3 H     -1.556550000000   -0.776480000000   -0.157440000000
               4 H     -1.528180000000    0.862680000000   -0.830140000000
               5 H      0.714460000000   -0.466870000000    0.784710000000
               6 C      0.962020000000    1.578010000000    0.172880000000
               7 H      0.721840000000   -0.229430000000   -0.964050000000
               8 H      0.645370000000    2.013440000000    1.126050000000
               9 H      0.652810000000    2.252170000000   -0.632290000000
              10 H      2.055200000000    1.524570000000    0.170250000000
------------------------ !GEOMETRY! -------------------------
    Number of atoms:    11 
    Geometry Index:     2 
    Coordinates:
               0 C     -1.157331145514    0.223995194830   -0.019855030335
               1 C      0.364427193364    0.196776648358   -0.017009326241
               2 H     -1.541150776766    0.615184395328    0.918547193378
               3 H     -1.565045374990   -0.773621245526   -0.157569223396
               4 H     -1.533630398659    0.852101751489   -0.822820111613
               5 H      0.712012399706   -0.461682808690    0.775906636743
               6 C      0.970752932959    1.579708203305    0.173082462894
               7 H      0.719311090566   -0.226973837238   -0.953821981970
               8 H      0.656555439223    2.015384735251    1.117626385451
               9 H      0.663868892677    2.251855669682   -0.623740441361
              10 H      2.056179747434    1.533551293210    0.171253436451
------------------------ !GEOMETRY! -------------------------
    Number of atoms:    11 
    Geometry Index:     3 
    Coordinates:
               0 C     -1.157497910661    0.222295963767   -0.020051682139
               1 C      0.364182688631    0.197172809359   -0.016878806956
               2 H     -1.541904687229    0.614748885680    0.917553808308
               3 H     -1.568782494073   -0.773098328415   -0.157828069905
               4 H     -1.534317152368    0.851730378218   -0.821711337002
               5 H      0.712751041824   -0.462571945225    0.774296128925
               6 C      0.972432363121    1.579133102927    0.172962827310
               7 H      0.720044083384   -0.228454687058   -0.952272473362
               8 H      0.657191711474    2.015957251613    1.116615725971
               9 H      0.664507355310    2.252134368939   -0.622710654805
              10 H      2.057343000587    1.537232200196    0.171624533655
------------------------ !GEOMETRY! -------------------------
    Number of atoms:    11 
    Geometry Index:     4 
    Coordinates:
               0 C     -1.156588101725    0.221743926861   -0.020090894339
               1 C      0.364338081623    0.196942914722   -0.016835374714
               2 H     -1.541356853695    0.615567256630    0.917190542296
               3 H     -1.571367992698   -0.772126063583   -0.158060178031
               4 H     -1.533688333076    0.852819325979   -0.820806257377
               5 H      0.713841834151   -0.464114052188    0.773286606392
               6 C      0.972604250396    1.578076377139    0.172767556224
               7 H      0.721151169471   -0.230451306850   -0.951448704516
               8 H      0.656048911301    2.015898757781    1.115924712639
               9 H      0.663352234631    2.251863810173   -0.622205966790
              10 H      2.057614799622    1.540059053337    0.171877958218
------------------------ !GEOMETRY! -------------------------
    Number of atoms:    11 
    Geometry Index:     5 
    Coordinates:
               0 C     -1.156107872215    0.221956388128   -0.020053140840
               1 C      0.364531875774    0.196641778550   -0.016852166190
               2 H     -1.540891402173    0.616022169377    0.917213429635
               3 H     -1.571671524639   -0.771671197939   -0.158140531378
               4 H     -1.533187564034    0.853457951870   -0.820553159445
               5 H      0.714200403946   -0.464651296215    0.773145168906
               6 C      0.972215839747    1.577736593557    0.172699193644
               7 H      0.721530673238   -0.231111875592   -0.951352277618
               8 H      0.655348806820    2.015732487015    1.115763616121
               9 H      0.662633079682    2.251626001375   -0.622171400894
              10 H      2.057347683853    1.540540999874    0.171901268059
