8
Coordinates from ORCA-job ethane_RI-B2PLYP_STO-3G
  C   -1.08884738099634      0.34275513563102     -0.00001307718868
  C   0.46136737611444      0.34276486855831      0.00001307143374
  H   -1.47875954569184      0.72947252542180      0.95340735088937
  H   -1.47876918721325     -0.67627537138944     -0.14179880655237
  H   -1.47878440088707      0.97509126495588     -0.81161852878606
  H   0.85130439606853     -0.28957126293515      0.81161852534363
  H   0.85128917971514      1.36179537273572      0.14179880960195
  H   0.85127956289039     -0.04395253297815     -0.95340734474158
