17
Coordinates from ORCA-job pentane_RI-B2PLYP_cc-pVDZ
  C   -1.36107002503177      0.12631677292132     -0.03803719269347
  C   0.16795237198581      0.09794410219615     -0.03336556753426
  H   -1.75331740400855      0.52426534569840      0.91213082601141
  H   -1.78437673846540     -0.88006905834325     -0.17992166981617
  H   -1.74352733977586      0.76817696825502     -0.84842049544083
  H   0.52269878316151     -0.57661788785970      0.76632315981108
  C   0.79488862874283      1.48041925015448      0.16112650399743
  H   0.53291681057569     -0.33525414877304     -0.98183490153566
  H   0.43127681606566      1.91508506355624      1.11095026876143
  H   0.44011877651517      2.15733436036133     -0.63836574993944
  C   2.32526343053621      1.46501778145327      0.16644327379595
  H   2.67821588847040      0.78873468551867      0.96548039399886
  C   2.93995885179790      2.85168965931090      0.36079468977393
  H   2.68664965040047      1.03014696085958     -0.78261802747795
  H   2.62073324741454      3.29654041370282      1.31750295610204
  H   2.63040267501710      3.53912512409553     -0.44332376937264
  H   4.04009557659826      2.81062460689228      0.36095530155829
