17
Coordinates from ORCA-job pentane_RI-B2PLYP_aug-cc-pVTZ
  C   -1.35382302988253      0.13107214877090     -0.03548472612730
  C   0.17162889642668      0.10030565555999     -0.03458089488760
  H   -1.73689699648917      0.52721326632254      0.90573670186033
  H   -1.77416316424106     -0.86477881660962     -0.17264241703605
  H   -1.73159321794911      0.76550618579759     -0.83814982049518
  H   0.52337573563532     -0.56591867297144      0.75728495209190
  C   0.79569477738349      1.47969341079774      0.15775286753684
  H   0.52963692806136     -0.32754021549581     -0.97450229843647
  H   0.43552112156306      1.91005171479792      1.09733316640083
  H   0.44639840910693      2.14739236305845     -0.63593709725405
  C   2.32170196433884      1.46275621028905      0.16538046015404
  H   2.66878040375491      0.79411911891464      0.95726899637640
  C   2.93236714328634      2.84706392311725      0.36188680895514
  H   2.68043680093482      1.03482909868681     -0.77422627439193
  H   2.61276611432335      3.28407911868336      1.30868043497361
  H   2.62582496735328      3.52610809665394     -0.43459798477454
  H   4.02122314639349      2.80752739362669      0.36461712505403
