17
Coordinates from ORCA-job pentane_RI-B2PLYP_STO-3G
  C   -1.39166810203289      0.11405036000395     -0.03974107787801
  C   0.16268085798199      0.08037234519471     -0.03631708476966
  H   -1.77395268496721      0.51045178544803      0.91301254097428
  H   -1.80154249054082     -0.89732178720126     -0.18189207427616
  H   -1.76491347401306      0.75500786105919     -0.85268713349946
  H   0.51249168852625     -0.58759282751682      0.76976295495861
  C   0.78495240893025      1.49585233406981      0.16306428737382
  H   0.52166705622369     -0.34386847529856     -0.98997882837732
  H   0.42699709577003      1.92076847150071      1.11690423665720
  H   0.43620872962073      2.16450990347315     -0.64301690467352
  C   2.34364085062703      1.46229439053294      0.16659997264341
  H   2.69134634648762      0.79361770284416      0.97302657830130
  C   2.96402072814945      2.87411140378463      0.36404110975401
  H   2.70039961801013      1.03592935616858     -0.78695734543021
  H   2.64201171166735      3.30995186422035      1.32181189216423
  H   2.65139202043401      3.55244584287743     -0.44410611674575
  H   4.06314763912545      2.81889946883901      0.36229299282323
