-------------------------------------------------------------
----------------------- !PROPERTIES! ------------------------
-------------------------------------------------------------
# -----------------------------------------------------------
$ SCF_Energy
   description: The SCF energy
   geom. index: 1
   prop. index: 1
        SCF Energy:     -158.3739443765
# -----------------------------------------------------------
$ DFT_Energy
   description: The DFT energy
   geom. index: 1
   prop. index: 1
   Number of Alpha Electrons        17.0000641280 
   Number of Alpha Electrons        17.0000641280 
   Total nuber of  Electrons        34.0001282559 
   Exchange energy                   0.0000000000 
   Correlation energy                0.0000000000 
   Correlantion energy NL            0.0000000000 
   Exchange-Correlation energy     -18.7883532592 
   Embedding correction              0.0000000000 
# -----------------------------------------------------------
$ VdW_Correction
   description: The Van der Waals Correction
   geom. index: 1
   prop. index: 1
        Van der Waals Correction:       -0.0007298048
# -----------------------------------------------------------
$ SCF_Energy
   description: The SCF energy
   geom. index: 2
   prop. index: 1
        SCF Energy:     -158.3744510533
# -----------------------------------------------------------
$ DFT_Energy
   description: The DFT energy
   geom. index: 2
   prop. index: 1
   Number of Alpha Electrons        17.0000620555 
   Number of Alpha Electrons        17.0000620555 
   Total nuber of  Electrons        34.0001241109 
   Exchange energy                   0.0000000000 
   Correlation energy                0.0000000000 
   Correlantion energy NL            0.0000000000 
   Exchange-Correlation energy     -18.7955101757 
   Embedding correction              0.0000000000 
# -----------------------------------------------------------
$ VdW_Correction
   description: The Van der Waals Correction
   geom. index: 2
   prop. index: 1
        Van der Waals Correction:       -0.0007272988
# -----------------------------------------------------------
$ SCF_Energy
   description: The SCF energy
   geom. index: 3
   prop. index: 1
        SCF Energy:     -158.3746017897
# -----------------------------------------------------------
$ DFT_Energy
   description: The DFT energy
   geom. index: 3
   prop. index: 1
   Number of Alpha Electrons        17.0000584124 
   Number of Alpha Electrons        17.0000584124 
   Total nuber of  Electrons        34.0001168249 
   Exchange energy                   0.0000000000 
   Correlation energy                0.0000000000 
   Correlantion energy NL            0.0000000000 
   Exchange-Correlation energy     -18.7983774141 
   Embedding correction              0.0000000000 
# -----------------------------------------------------------
$ VdW_Correction
   description: The Van der Waals Correction
   geom. index: 3
   prop. index: 1
        Van der Waals Correction:       -0.0007262137
# -----------------------------------------------------------
$ SCF_Energy
   description: The SCF energy
   geom. index: 4
   prop. index: 1
        SCF Energy:     -158.3746164675
# -----------------------------------------------------------
$ DFT_Energy
   description: The DFT energy
   geom. index: 4
   prop. index: 1
   Number of Alpha Electrons        17.0000567329 
   Number of Alpha Electrons        17.0000567329 
   Total nuber of  Electrons        34.0001134657 
   Exchange energy                   0.0000000000 
   Correlation energy                0.0000000000 
   Correlantion energy NL            0.0000000000 
   Exchange-Correlation energy     -18.7981394697 
   Embedding correction              0.0000000000 
# -----------------------------------------------------------
$ VdW_Correction
   description: The Van der Waals Correction
   geom. index: 4
   prop. index: 1
        Van der Waals Correction:       -0.0007264569
# -----------------------------------------------------------
$ SCF_Energy
   description: The SCF energy
   geom. index: 5
   prop. index: 1
        SCF Energy:     -158.3746194825
# -----------------------------------------------------------
$ DFT_Energy
   description: The DFT energy
   geom. index: 5
   prop. index: 1
   Number of Alpha Electrons        17.0000556789 
   Number of Alpha Electrons        17.0000556789 
   Total nuber of  Electrons        34.0001113578 
   Exchange energy                   0.0000000000 
   Correlation energy                0.0000000000 
   Correlantion energy NL            0.0000000000 
   Exchange-Correlation energy     -18.7978221246 
   Embedding correction              0.0000000000 
# -----------------------------------------------------------
$ VdW_Correction
   description: The Van der Waals Correction
   geom. index: 5
   prop. index: 1
        Van der Waals Correction:       -0.0007267155
# -----------------------------------------------------------
$ SCF_Energy
   description: The SCF energy
   geom. index: 6
   prop. index: 1
        SCF Energy:     -158.3746195438
# -----------------------------------------------------------
$ DFT_Energy
   description: The DFT energy
   geom. index: 6
   prop. index: 1
   Number of Alpha Electrons        17.0000555966 
   Number of Alpha Electrons        17.0000555966 
   Total nuber of  Electrons        34.0001111932 
   Exchange energy                   0.0000000000 
   Correlation energy                0.0000000000 
   Correlantion energy NL            0.0000000000 
   Exchange-Correlation energy     -18.7978007998 
   Embedding correction              0.0000000000 
# -----------------------------------------------------------
$ VdW_Correction
   description: The Van der Waals Correction
   geom. index: 6
   prop. index: 1
        Van der Waals Correction:       -0.0007267417
# -----------------------------------------------------------
$ SCF_Electric_Properties
   description: The SCF Calculated Electric Properties
   geom. index: 6
   prop. index: 1
       Filename                          : butane_M06-D3ZERO_def2-TZVP.scfp 
       Do Dipole Moment Calculation      : true 
       Do Quadrupole Moment Calculation  : false 
       Do Polarizability Calculation     : false 
** Dipole moment part of electric properties **
        Magnitude of dipole moment (Debye) :        0.0000030629
        Electronic Contribution:
                  0    
      0      -0.000001
      1       0.000000
      2       0.000004
        Nuclear Contribution:
                  0    
      0       0.000001
      1      -0.000001
      2      -0.000003
        Total Dipole moment:
                  0    
      0      -0.000000
      1      -0.000001
      2       0.000001
# -----------------------------------------------------------
$ Hessian
   description: Details about the Hessian
   geom. index: 6
   prop. index: 1
Normal modes:
Number of Rows: 42 Number of Columns: 42
                  0          1          2          3          4          5    
      0       0.000000   0.000000   0.000000   0.000000   0.000000   0.000000
      1       0.000000   0.000000   0.000000   0.000000   0.000000   0.000000
      2       0.000000   0.000000   0.000000   0.000000   0.000000   0.000000
      3       0.000000   0.000000   0.000000   0.000000   0.000000   0.000000
      4       0.000000   0.000000   0.000000   0.000000   0.000000   0.000000
      5       0.000000   0.000000   0.000000   0.000000   0.000000   0.000000
      6       0.000000   0.000000   0.000000   0.000000   0.000000   0.000000
      7       0.000000   0.000000   0.000000   0.000000   0.000000   0.000000
      8       0.000000   0.000000   0.000000   0.000000   0.000000   0.000000
      9       0.000000   0.000000   0.000000   0.000000   0.000000   0.000000
     10       0.000000   0.000000   0.000000   0.000000   0.000000   0.000000
     11       0.000000   0.000000   0.000000   0.000000   0.000000   0.000000
     12       0.000000   0.000000   0.000000   0.000000   0.000000   0.000000
     13       0.000000   0.000000   0.000000   0.000000   0.000000   0.000000
     14       0.000000   0.000000   0.000000   0.000000   0.000000   0.000000
     15       0.000000   0.000000   0.000000   0.000000   0.000000   0.000000
     16       0.000000   0.000000   0.000000   0.000000   0.000000   0.000000
     17       0.000000   0.000000   0.000000   0.000000   0.000000   0.000000
     18       0.000000   0.000000   0.000000   0.000000   0.000000   0.000000
     19       0.000000   0.000000   0.000000   0.000000   0.000000   0.000000
     20       0.000000   0.000000   0.000000   0.000000   0.000000   0.000000
     21       0.000000   0.000000   0.000000   0.000000   0.000000   0.000000
     22       0.000000   0.000000   0.000000   0.000000   0.000000   0.000000
     23       0.000000   0.000000   0.000000   0.000000   0.000000   0.000000
     24       0.000000   0.000000   0.000000   0.000000   0.000000   0.000000
     25       0.000000   0.000000   0.000000   0.000000   0.000000   0.000000
     26       0.000000   0.000000   0.000000   0.000000   0.000000   0.000000
     27       0.000000   0.000000   0.000000   0.000000   0.000000   0.000000
     28       0.000000   0.000000   0.000000   0.000000   0.000000   0.000000
     29       0.000000   0.000000   0.000000   0.000000   0.000000   0.000000
     30       0.000000   0.000000   0.000000   0.000000   0.000000   0.000000
     31       0.000000   0.000000   0.000000   0.000000   0.000000   0.000000
     32       0.000000   0.000000   0.000000   0.000000   0.000000   0.000000
     33       0.000000   0.000000   0.000000   0.000000   0.000000   0.000000
     34       0.000000   0.000000   0.000000   0.000000   0.000000   0.000000
     35       0.000000   0.000000   0.000000   0.000000   0.000000   0.000000
     36       0.000000   0.000000   0.000000   0.000000   0.000000   0.000000
     37       0.000000   0.000000   0.000000   0.000000   0.000000   0.000000
     38       0.000000   0.000000   0.000000   0.000000   0.000000   0.000000
     39       0.000000   0.000000   0.000000   0.000000   0.000000   0.000000
     40       0.000000   0.000000   0.000000   0.000000   0.000000   0.000000
     41       0.000000   0.000000   0.000000   0.000000   0.000000   0.000000
                  6          7          8          9         10         11    
      0       0.000108  -0.000821  -0.001378  -0.001337  -0.207598   0.000644
      1       0.013322  -0.048901  -0.124973   0.000020  -0.106094   0.001176
      2      -0.127301   0.035267  -0.035405  -0.001387  -0.015715  -0.006536
      3      -0.000751  -0.002674  -0.007471  -0.001056  -0.147649   0.000069
      4      -0.013988   0.058957   0.149844   0.010685   0.032082   0.006722
      5       0.138657  -0.040571   0.041585  -0.069205   0.004836  -0.054445
      6      -0.164431   0.020071  -0.150921   0.041021  -0.325122   0.171291
      7       0.208948   0.261822  -0.419055   0.342000  -0.212532  -0.044782
      8      -0.277984  -0.084580   0.023181  -0.125274  -0.021364   0.086051
      9       0.009444   0.084580   0.235415   0.003889   0.019103   0.000817
     10      -0.008344  -0.138862  -0.191647  -0.055411  -0.200464  -0.009217
     11      -0.001439   0.424244  -0.267021   0.380122  -0.033276   0.067156
     12       0.160281  -0.102233  -0.098416  -0.041782  -0.325102  -0.171384
     13      -0.144794  -0.383782  -0.049980  -0.299348  -0.200025   0.022848
     14      -0.329829  -0.178779   0.071114  -0.217397  -0.032443   0.096220
     15      -0.139915   0.059651   0.040668   0.046456  -0.202632  -0.176200
     16       0.035917   0.082668   0.175094  -0.082613  -0.019799   0.310817
     17       0.246321  -0.049749   0.041394  -0.169875  -0.011156   0.290289
     18      -0.000750  -0.002674  -0.007471   0.001055   0.147649   0.000069
     19      -0.013988   0.058957   0.149847  -0.010650  -0.032083   0.006722
     20       0.138656  -0.040575   0.041561   0.069213  -0.004836  -0.054444
     21       0.142289  -0.020427   0.078690  -0.047512  -0.200806   0.166986
     22      -0.083787   0.058326   0.189213   0.123626  -0.028658  -0.373778
     23       0.227620  -0.047904   0.057879  -0.138369   0.009113   0.186909
     24       0.142288  -0.020429   0.078674   0.047530   0.200807   0.166985
     25      -0.083784   0.058332   0.189257  -0.123584   0.028655  -0.373777
     26       0.227616  -0.047911   0.057830   0.138381  -0.009112   0.186906
     27      -0.139912   0.059653   0.040686  -0.046446   0.202631  -0.176195
     28       0.035915   0.082664   0.175065   0.082654   0.019799   0.310816
     29       0.246318  -0.049757   0.041334   0.169885   0.011158   0.290289
     30       0.000107  -0.000820  -0.001378   0.001336   0.207598   0.000643
     31       0.013321  -0.048901  -0.124973  -0.000049   0.106095   0.001177
     32      -0.127301   0.035267  -0.035405   0.001379   0.015715  -0.006536
     33       0.160278  -0.102236  -0.098431   0.041759   0.325104  -0.171381
     34      -0.144800  -0.383797  -0.050092   0.299315   0.200026   0.022848
     35      -0.329835  -0.178793   0.071034   0.217401   0.032442   0.096220
     36       0.009444   0.084582   0.235415  -0.003836  -0.019105   0.000816
     37      -0.008347  -0.138867  -0.191666   0.055364   0.200465  -0.009217
     38      -0.001432   0.424264  -0.266880  -0.380158   0.033278   0.067155
     39      -0.164434   0.020074  -0.150904  -0.041054   0.325121   0.171287
     40       0.208956   0.261842  -0.418927  -0.342074   0.212534  -0.044783
     41      -0.277985  -0.084585   0.023134   0.125269   0.021362   0.086049
                 12         13         14         15         16         17    
      0      -0.002450   0.096495   0.005221   0.043663  -0.197773   0.119415
      1      -0.006576   0.072726  -0.001776   0.081889   0.055731  -0.036724
      2       0.035293   0.011932   0.062592   0.004026   0.008234  -0.006120
      3       0.000040  -0.034218  -0.002573  -0.020854   0.229576  -0.156707
      4      -0.013525   0.151565   0.004090  -0.023033  -0.023335  -0.093507
      5       0.065437   0.024322  -0.036240   0.001498  -0.003668  -0.014524
      6      -0.321060  -0.134930  -0.325357  -0.131008  -0.389211   0.217325
      7       0.039260  -0.150390   0.023141  -0.162825  -0.105314   0.019361
      8      -0.121173   0.004701  -0.092656   0.029108  -0.004665   0.008107
      9      -0.014916   0.576188   0.042551   0.485054   0.001242   0.048954
     10       0.027558  -0.120261   0.015396  -0.103992  -0.033451  -0.007291
     11      -0.172313  -0.023778  -0.172565   0.005168  -0.005667   0.000583
     12       0.329618  -0.102570   0.302329  -0.194230  -0.378621   0.205587
     13      -0.002595  -0.136531  -0.027384  -0.138591  -0.102090   0.021355
     14      -0.127014  -0.053286  -0.108016  -0.048870  -0.029582   0.002290
     15       0.279101  -0.096683   0.200131  -0.235035   0.196182  -0.343605
     16      -0.109626   0.088971   0.240864  -0.175105  -0.064263  -0.228726
     17      -0.152621   0.003333   0.068338  -0.024725  -0.015157  -0.038738
     18      -0.000040   0.034218  -0.002573  -0.020854   0.229577   0.156707
     19       0.013525  -0.151565   0.004089  -0.023033  -0.023335   0.093507
     20      -0.065437  -0.024323  -0.036240   0.001497  -0.003669   0.014523
     21      -0.274866  -0.119922  -0.251206  -0.196556   0.191453  -0.354076
     22       0.132502   0.093924  -0.279580  -0.120795  -0.080904  -0.244915
     23      -0.114698   0.013378  -0.009102  -0.026494   0.000658  -0.027596
     24       0.274870   0.119922  -0.251208  -0.196555   0.191454   0.354073
     25      -0.132506  -0.093925  -0.279583  -0.120796  -0.080902   0.244916
     26       0.114698  -0.013378  -0.009102  -0.026492   0.000657   0.027593
     27      -0.279101   0.096684   0.200131  -0.235036   0.196181   0.343606
     28       0.109629  -0.088970   0.240863  -0.175105  -0.064264   0.228725
     29       0.152626  -0.003333   0.068337  -0.024723  -0.015159   0.038735
     30       0.002450  -0.096495   0.005221   0.043663  -0.197774  -0.119415
     31       0.006576  -0.072726  -0.001776   0.081889   0.055731   0.036724
     32      -0.035293  -0.011932   0.062592   0.004026   0.008235   0.006121
     33      -0.329617   0.102572   0.302326  -0.194233  -0.378622  -0.205585
     34       0.002596   0.136531  -0.027384  -0.138590  -0.102090  -0.021356
     35       0.127017   0.053285  -0.108018  -0.048868  -0.029581  -0.002290
     36       0.014914  -0.576188   0.042552   0.485054   0.001242  -0.048954
     37      -0.027558   0.120261   0.015397  -0.103992  -0.033451   0.007291
     38       0.172314   0.023782  -0.172566   0.005166  -0.005666  -0.000583
     39       0.321063   0.134928  -0.325359  -0.131005  -0.389210  -0.217326
     40      -0.039259   0.150391   0.023140  -0.162825  -0.105314  -0.019361
     41       0.121171  -0.004702  -0.092654   0.029109  -0.004663  -0.008107
                 18         19         20         21         22         23    
      0      -0.024239   0.000513  -0.000553  -0.006892   0.001884   0.025875
      1       0.109855   0.010461   0.003899   0.058289  -0.002868  -0.034902
      2       0.010277  -0.103591  -0.081387  -0.000673   0.034428  -0.001895
      3       0.079709  -0.003015   0.007936  -0.075590  -0.009179   0.122283
      4      -0.174570  -0.014297   0.000564  -0.082292  -0.011497   0.076427
      5      -0.018811   0.152012   0.064155  -0.005373   0.038829   0.013673
      6      -0.248687   0.317734   0.201863   0.019712  -0.094719  -0.166950
      7      -0.198125  -0.071338  -0.057223  -0.098876   0.004579   0.087982
      8       0.039561   0.072833   0.035743   0.067150  -0.006293  -0.124926
      9       0.340147  -0.006925  -0.022800   0.225502   0.007129  -0.215105
     10      -0.051895  -0.028876  -0.019871  -0.039453   0.002130   0.061030
     11       0.005575   0.202681   0.154641   0.015360  -0.017218   0.003253
     12      -0.276068  -0.302559  -0.194966  -0.015495   0.097843  -0.158380
     13      -0.170560   0.068597   0.068872  -0.057566  -0.013558   0.043062
     14      -0.082446   0.099540   0.069862  -0.075990  -0.016474   0.138931
     15      -0.021575   0.185528   0.370078   0.425094  -0.343907  -0.356508
     16      -0.243837  -0.230386   0.111424   0.258009  -0.315291  -0.253463
     17      -0.030009  -0.127003  -0.010448   0.043849  -0.058352  -0.041633
     18      -0.079709   0.003015   0.007936  -0.075591   0.009180  -0.122284
     19       0.174570   0.014297   0.000564  -0.082293   0.011498  -0.076428
     20       0.018811  -0.152012   0.064154  -0.005374  -0.038830  -0.013673
     21      -0.038792  -0.176603  -0.442148   0.328017   0.375678  -0.304094
     22      -0.229704   0.263084  -0.156387   0.223898   0.337627  -0.208172
     23      -0.042145  -0.048385  -0.044463   0.021676   0.038229  -0.028027
     24       0.038792   0.176606  -0.442154   0.328013  -0.375676   0.304095
     25       0.229703  -0.263084  -0.156392   0.223895  -0.337627   0.208172
     26       0.042146   0.048384  -0.044462   0.021674  -0.038228   0.028026
     27       0.021575  -0.185530   0.370081   0.425100   0.343897   0.356510
     28       0.243838   0.230385   0.111430   0.258015   0.315286   0.253464
     29       0.030009   0.127005  -0.010448   0.043848   0.058351   0.041631
     30       0.024239  -0.000512  -0.000553  -0.006892  -0.001884  -0.025871
     31      -0.109855  -0.010461   0.003899   0.058290   0.002867   0.034902
     32      -0.010277   0.103592  -0.081387  -0.000673  -0.034427   0.001895
     33       0.276072   0.302557  -0.194964  -0.015497  -0.097840   0.158366
     34       0.170558  -0.068598   0.068872  -0.057565   0.013559  -0.043064
     35       0.082445  -0.099542   0.069863  -0.075990   0.016475  -0.138927
     36      -0.340147   0.006925  -0.022801   0.225502  -0.007130   0.215093
     37       0.051895   0.028878  -0.019871  -0.039453  -0.002130  -0.061024
     38      -0.005575  -0.202683   0.154642   0.015360   0.017217  -0.003254
     39       0.248682  -0.317735   0.201864   0.019713   0.094717   0.166937
     40       0.198126   0.071339  -0.057223  -0.098877  -0.004578  -0.087985
     41      -0.039562  -0.072831   0.035742   0.067149   0.006291   0.124919
                 24         25         26         27         28         29    
      0       0.108327  -0.106970   0.003977  -0.004398  -0.001378  -0.000921
      1       0.008310  -0.009576  -0.007221   0.025775   0.003984  -0.003521
      2       0.000718  -0.001241  -0.000863   0.004757   0.034857   0.031193
      3      -0.062441   0.024207  -0.036954   0.029579   0.001212  -0.004047
      4      -0.026048   0.012974   0.035776  -0.015957   0.010133   0.002009
      5      -0.004323   0.001059   0.002762  -0.000855   0.018795   0.015026
      6      -0.335013   0.362487  -0.055938   0.125618   0.255980   0.236985
      7      -0.095706   0.086546   0.109991  -0.289840   0.160975   0.261334
      8      -0.131790   0.145596  -0.071946   0.182437   0.063235   0.008741
      9      -0.336579   0.343186   0.071477  -0.198704  -0.060040   0.009605
     10       0.177976  -0.179934  -0.028480   0.095807   0.096374   0.065600
     11       0.019331  -0.021640   0.002689  -0.014134  -0.472834  -0.489091
     12      -0.349699   0.373571  -0.046594   0.092060  -0.184201  -0.230898
     13      -0.137572   0.132088   0.095913  -0.256620  -0.324004  -0.252847
     14       0.095419  -0.110680   0.102048  -0.256794  -0.146123  -0.067698
     15       0.116913  -0.051531   0.232623  -0.154056   0.018317   0.069561
     16       0.118685  -0.040793  -0.234413   0.138888  -0.053187  -0.017836
     17       0.027133  -0.007935  -0.331838   0.203874  -0.040995  -0.029515
     18       0.062433   0.024222   0.036953   0.029579  -0.001210  -0.004047
     19       0.026044   0.012979  -0.035776  -0.015957  -0.010134   0.002012
     20       0.004322   0.001060  -0.002762  -0.000854  -0.018798   0.015023
     21       0.094902  -0.041564   0.235387  -0.164962  -0.003977  -0.026055
     22       0.108777  -0.038397  -0.328965   0.194772  -0.019442  -0.038247
     23       0.003726  -0.003183   0.257626  -0.161881   0.028862   0.026843
     24      -0.094888  -0.041584  -0.235383  -0.164967   0.003973  -0.026049
     25      -0.108763  -0.038423   0.328958   0.194777   0.019457  -0.038260
     26      -0.003724  -0.003184  -0.257618  -0.161882  -0.028874   0.026849
     27      -0.116895  -0.051558  -0.232616  -0.154058  -0.018337   0.069563
     28      -0.118670  -0.040823   0.234406   0.138889   0.053195  -0.017838
     29      -0.027129  -0.007942   0.331833   0.203879   0.041010  -0.029523
     30      -0.108292  -0.107004  -0.003977  -0.004398   0.001378  -0.000921
     31      -0.008307  -0.009577   0.007220   0.025776  -0.003982  -0.003519
     32      -0.000717  -0.001240   0.000864   0.004759  -0.034862   0.031186
     33       0.349576   0.373682   0.046587   0.092051   0.184248  -0.230855
     34       0.137529   0.132129  -0.095913  -0.256641   0.324030  -0.252806
     35      -0.095383  -0.110715  -0.102046  -0.256810   0.146118  -0.067691
     36       0.336467   0.343295  -0.071474  -0.198711   0.060029   0.009593
     37      -0.177917  -0.179990   0.028480   0.095814  -0.096382   0.065594
     38      -0.019327  -0.021650  -0.002697  -0.014158   0.472916  -0.488998
     39       0.334895   0.362597   0.055940   0.125636  -0.256013   0.236946
     40       0.095678   0.086573  -0.109983  -0.289838  -0.161037   0.261276
     41       0.131740   0.145638   0.071942   0.182443  -0.063224   0.008746
                 30         31         32         33         34         35    
      0       0.000223   0.001511  -0.000243   0.006639  -0.034997  -0.035631
      1       0.030230   0.024280   0.003976  -0.006120   0.006624   0.008642
      2      -0.006483   0.000543   0.000649  -0.000754   0.000601   0.001334
      3       0.006257  -0.028798   0.027147  -0.027960  -0.004067   0.000570
      4       0.043457   0.047554  -0.039781   0.039010   0.007570   0.000592
      5       0.001363   0.005162  -0.005613   0.005434   0.001085  -0.002933
      6       0.055339   0.069387   0.007261  -0.031722   0.146540   0.151407
      7      -0.417413  -0.250435  -0.003645   0.033006  -0.151209  -0.157290
      8       0.198009   0.138496  -0.013670   0.083703  -0.371026  -0.385642
      9      -0.250125  -0.144808  -0.009531  -0.006206   0.119798   0.117209
     10       0.098731   0.071105  -0.036270  -0.015254   0.316062   0.306622
     11       0.155410   0.048689  -0.004963  -0.002153   0.044379   0.043205
     12       0.177275   0.102146   0.006682  -0.031802   0.145197   0.147434
     13      -0.201889  -0.162715  -0.006428   0.055484  -0.247999  -0.253521
     14      -0.261838  -0.188217   0.010895  -0.073051   0.318780   0.325845
     15       0.003853   0.143178  -0.162468   0.160889   0.026718   0.007992
     16      -0.091317  -0.218636   0.294011  -0.288693  -0.053088  -0.014216
     17      -0.107562  -0.285492  -0.367271   0.361445   0.065202   0.018423
     18      -0.006256  -0.028798  -0.027146  -0.027960  -0.004066  -0.000575
     19      -0.043458   0.047554   0.039780   0.039011   0.007571  -0.000583
     20      -0.001362   0.005163   0.005612   0.005434   0.001083   0.002934
     21       0.014011   0.155234  -0.165010   0.162895   0.027220  -0.008184
     22      -0.130556  -0.295265   0.180392  -0.176447  -0.032903   0.009377
     23       0.078916   0.218542   0.433891  -0.425708  -0.077429   0.018131
     24      -0.014017   0.155236   0.165002   0.162897   0.027215   0.008217
     25       0.130558  -0.295267  -0.180385  -0.176450  -0.032898  -0.009417
     26      -0.078918   0.218542  -0.433878  -0.425720  -0.077421  -0.018225
     27      -0.003849   0.143180   0.162468   0.160895   0.026723  -0.007959
     28       0.091320  -0.218637  -0.294007  -0.288702  -0.053097   0.014150
     29       0.107565  -0.285495   0.367262   0.361453   0.065215  -0.018342
     30      -0.000223   0.001511   0.000243   0.006639  -0.035043   0.035585
     31      -0.030230   0.024279  -0.003975  -0.006120   0.006635  -0.008633
     32       0.006486   0.000543  -0.000649  -0.000754   0.000603  -0.001334
     33      -0.177294   0.102141  -0.006681  -0.031804   0.145390  -0.147249
     34       0.201866  -0.162713   0.006427   0.055487  -0.248329   0.253204
     35       0.261835  -0.188216  -0.010894  -0.073054   0.319200  -0.325432
     36       0.250124  -0.144805   0.009531  -0.006207   0.119950  -0.117055
     37      -0.098724   0.071104   0.036269  -0.015257   0.316458  -0.306215
     38      -0.155452   0.048684   0.004963  -0.002154   0.044436  -0.043149
     39      -0.055320   0.069390  -0.007261  -0.031723   0.146731  -0.151215
     40       0.417435  -0.250428   0.003644   0.033007  -0.151407   0.157092
     41      -0.198005   0.138492   0.013669   0.083708  -0.371519   0.385162
                 36         37         38         39         40         41    
      0       0.001719   0.000139   0.000497   0.000459   0.006089   0.005486
      1      -0.002074   0.003054   0.011038   0.010677   0.063865   0.063866
      2       0.010411  -0.019179  -0.063619  -0.061450   0.011168   0.011137
      3       0.000182  -0.000228   0.000017  -0.000033  -0.001975  -0.002471
      4       0.008957  -0.008832   0.001704   0.002957   0.003543   0.003297
      5      -0.063083   0.062732  -0.011619  -0.019721   0.000702   0.000685
      6       0.022293  -0.049835  -0.173898  -0.170111   0.089297   0.091727
      7      -0.023403   0.055446   0.179065   0.173045  -0.077318  -0.078754
      8      -0.052760   0.126185   0.414524   0.401107  -0.216459  -0.220628
      9      -0.005091  -0.001702  -0.008424  -0.007980  -0.232811  -0.230666
     10      -0.013864  -0.003215  -0.019128  -0.018165  -0.572491  -0.567647
     11       0.000706  -0.007181  -0.015724  -0.014654  -0.079765  -0.079047
     12      -0.037221   0.049771   0.175999   0.172519   0.075714   0.078262
     13       0.062918  -0.088681  -0.291974  -0.282731  -0.113409  -0.116377
     14      -0.078156   0.108268   0.361172   0.350097   0.162735   0.166946
     15       0.169038  -0.160533   0.031336   0.050518   0.011581   0.011672
     16      -0.298881   0.290593  -0.048702  -0.090878  -0.017082  -0.022129
     17       0.349909  -0.339059   0.060903   0.106332   0.021464   0.025672
     18      -0.000181  -0.000228  -0.000017  -0.000033   0.001973  -0.002472
     19      -0.008957  -0.008832  -0.001705   0.002956  -0.003540   0.003300
     20       0.063081   0.062733   0.011627  -0.019717  -0.000701   0.000685
     21      -0.171312   0.163366  -0.031326  -0.050029   0.012893   0.013069
     22       0.189312  -0.185300   0.029633   0.056279  -0.011352  -0.015387
     23       0.418107  -0.407167   0.071452   0.124326  -0.027761  -0.033809
     24       0.171304   0.163369   0.031344  -0.050018  -0.012883   0.013080
     25      -0.189304  -0.185306  -0.029654   0.056269   0.011340  -0.015396
     26      -0.418094  -0.407183  -0.071500   0.124303   0.027736  -0.033832
     27      -0.169036  -0.160539  -0.031356   0.050508  -0.011571   0.011681
     28       0.298875   0.290601   0.048737  -0.090862   0.017062  -0.022143
     29      -0.349899  -0.339065  -0.060943   0.106311  -0.021442   0.025690
     30      -0.001717   0.000139  -0.000496   0.000459  -0.006085   0.005491
     31       0.002074   0.003054  -0.011042   0.010674  -0.063814   0.063917
     32      -0.010411  -0.019180   0.063641  -0.061427  -0.011160   0.011147
     33       0.037216   0.049773  -0.176062   0.172458  -0.075650   0.078322
     34      -0.062909  -0.088684   0.292076  -0.282628   0.113314  -0.116468
     35       0.078143   0.108271  -0.361294   0.349965  -0.162596   0.167074
     36       0.005086  -0.001702   0.008429  -0.007981   0.232625  -0.230854
     37       0.013852  -0.003215   0.019140  -0.018166   0.572032  -0.568107
     38      -0.000707  -0.007181   0.015730  -0.014649   0.079703  -0.079113
     39      -0.022298  -0.049837   0.173956  -0.170046  -0.089224   0.091800
     40       0.023408   0.055447  -0.179124   0.172978   0.077256  -0.078817
     41       0.052772   0.126192  -0.414668   0.400959   0.216288  -0.220808
# -----------------------------------------------------------
$ THERMOCHEMISTRY_Energies
   description: The Thermochemistry energies
   geom. index: 6
   prop. index: 1
        Temperature (Kelvin)           :        298.1500000000
        Pressure (atm)                 :          1.0000000000
        Total Mass (AMU)               :         58.1240000000
        Spin Degeneracy                :          1.0000000000
        Electronic Energy (Hartree)    :       -158.3753462856
        Translational Energy (Hartree) :          0.0014162714
        Rotational Energy (Hartree)    :          0.0014162714
        Vibrational Energy (Hartree)   :          0.0028737219
        Number of frequencies          :     42      
        Scaling Factor for frequencies :          1.0000000000
        Vibrational frequencies        :     
                  0    
      0       0.000000
      1       0.000000
      2       0.000000
      3       0.000000
      4       0.000000
      5       0.000000
      6     114.281855
      7     253.341797
      8     277.201822
      9     277.627804
     10     437.480168
     11     713.637680
     12     803.921552
     13     856.816797
     14     957.428255
     15     978.309871
     16     1044.419589
     17     1088.986018
     18     1172.025943
     19     1200.352047
     20     1280.688686
     21     1314.859338
     22     1322.457753
     23     1392.969822
     24     1405.221360
     25     1406.237482
     26     1464.655912
     27     1470.590360
     28     1482.602397
     29     1484.098837
     30     1486.647876
     31     1493.637065
     32     3000.782215
     33     3010.626302
     34     3025.277612
     35     3025.831747
     36     3029.092921
     37     3052.151863
     38     3095.718205
     39     3097.537957
     40     3110.938108
     41     3111.451022
        Zero Point Energy (Hartree)    :          0.1315411849
        Inner Energy (Hartree)         :       -158.2380988359
        Enthalpy (Hartree)             :       -158.2371546269
        Electronic entropy             :          0.0000000000
        Rotational entropy             :          0.0116295233
        Vibrational entropy            :          0.0047483398
        Translational entropy          :          0.0116295233
        Entropy                        :          0.0344806483
        Gibbs Energy (Hartree)         :       -158.2716352752
        Is Linear                      :                 false
# -------------------------------------------------------------
----------------------- !GEOMETRIES! ------------------------
# -------------------------------------------------------------
------------------------ !GEOMETRY! -------------------------
    Number of atoms:    14 
    Geometry Index:     1 
    Coordinates:
               0 C     -1.265080000000    0.193850000000   -0.025430000000
               1 C      0.255200000000    0.179570000000   -0.022990000000
               2 H     -1.655350000000    0.575980000000    0.923260000000
               3 H     -1.653420000000   -0.819310000000   -0.169030000000
               4 H     -1.650210000000    0.823100000000   -0.834170000000
               5 H      0.607390000000   -0.483440000000    0.775850000000
               6 C      0.827700000000    1.581540000000    0.175840000000
               7 H      0.612500000000   -0.237690000000   -0.971680000000
               8 H      0.470410000000    1.998790000000    1.124540000000
               9 H      0.475480000000    2.244560000000   -0.622990000000
              10 C      2.347970000000    1.567260000000    0.178250000000
              11 H      2.733130000000    0.937990000000    0.986960000000
              12 H      2.736320000000    2.580420000000    0.321870000000
              13 H      2.738230000000    1.185160000000   -0.770460000000
------------------------ !GEOMETRY! -------------------------
    Number of atoms:    14 
    Geometry Index:     2 
    Coordinates:
               0 C     -1.268333080989    0.189911019062   -0.025931690655
               1 C      0.250694571690    0.185862563727   -0.022125011074
               2 H     -1.660388000089    0.574018486968    0.918785091441
               3 H     -1.664273795738   -0.817608573751   -0.168500083310
               4 H     -1.655060429672    0.819543136319   -0.830725456027
               5 H      0.611724283949   -0.475551554817    0.772957221069
               6 C      0.832202856590    1.575246807648    0.174972208036
               7 H      0.616973359228   -0.230220619767   -0.966928759179
               8 H      0.465934133043    1.991321135392    1.119784024394
               9 H      0.471150692981    2.236665777796   -0.620096794808
              10 C      2.351225853002    1.571201673015    0.178752119704
              11 H      2.737977703091    0.941552419184    0.983521065079
              12 H      2.747171879220    2.578717845045    0.321336263939
              13 H      2.743269973693    1.187119884180   -0.765980198608
------------------------ !GEOMETRY! -------------------------
    Number of atoms:    14 
    Geometry Index:     3 
    Coordinates:
               0 C     -1.267135920870    0.187091341641   -0.026314519851
               1 C      0.248126347348    0.189489736941   -0.021724030993
               2 H     -1.660894334586    0.575112439519    0.916292246228
               3 H     -1.672352100750   -0.815706920138   -0.167671547899
               4 H     -1.655468816179    0.819062416983   -0.828754280691
               5 H      0.618248587685   -0.472431522226    0.769928540800
               6 C      0.834769151486    1.571620004512    0.174566369420
               7 H      0.623332504328   -0.227177271331   -0.963786501669
               8 H      0.459572232256    1.988280919639    1.116635031347
               9 H      0.464633915341    2.233544143843   -0.617076314462
              10 C      2.350031033017    1.574021973889    0.179137836537
              11 H      2.738378030659    0.942038298456    0.981561260135
              12 H      2.755249542744    2.576817151409    0.320505309495
              13 H      2.743779827520    1.186017286863   -0.763479398398
------------------------ !GEOMETRY! -------------------------
    Number of atoms:    14 
    Geometry Index:     4 
    Coordinates:
               0 C     -1.265500626593    0.186668021694   -0.026400935687
               1 C      0.248248767354    0.189029545777   -0.021868544497
               2 H     -1.659698958009    0.576354137786    0.915795461318
               3 H     -1.674005067149   -0.815042861452   -0.167259332116
               4 H     -1.654268158107    0.819603372921   -0.828408405113
               5 H      0.620753986939   -0.473691707122    0.768511279512
               6 C      0.834646654776    1.572080983660    0.174708131083
               7 H      0.625544660333   -0.228380933796   -0.963208256160
               8 H      0.457358739067    1.989486975293    1.116052869528
               9 H      0.462132599594    2.234804858121   -0.615664765062
              10 C      2.348396109627    1.574444662054    0.179226286556
              11 H      2.737172690345    0.941499365573    0.981221777202
              12 H      2.756902270013    2.576153450244    0.320092622504
              13 H      2.742586331810    1.184770129247   -0.762978189070
------------------------ !GEOMETRY! -------------------------
    Number of atoms:    14 
    Geometry Index:     5 
    Coordinates:
               0 C     -1.264353972671    0.186704089505   -0.026426072517
               1 C      0.248771182262    0.188280722156   -0.022042153452
               2 H     -1.658836098674    0.577336118561    0.915498725832
               3 H     -1.674657348832   -0.814529881610   -0.166910588816
               4 H     -1.653396494121    0.820004108406   -0.828287760727
               5 H      0.622460226241   -0.474857500464    0.767546722920
               6 C      0.834124366131    1.572830534703    0.174879164308
               7 H      0.626926409480   -0.229437054759   -0.963002985522
               8 H      0.455975253947    1.990545288441    1.115843704824
               9 H      0.460429771813    2.235970916659   -0.614705269602
              10 C      2.347249567861    1.574407909639    0.179253337328
              11 H      2.736297372056    0.941101047629    0.981107200578
              12 H      2.757554190984    2.575640636159    0.319742997950
              13 H      2.741725573522    1.183783064974   -0.762677023104
------------------------ !GEOMETRY! -------------------------
    Number of atoms:    14 
    Geometry Index:     6 
    Coordinates:
               0 C     -1.264267594397    0.186779559142   -0.026423570471
               1 C      0.248925334108    0.188143682274   -0.022083145137
               2 H     -1.658808543187    0.577493912622    0.915428168566
               3 H     -1.674718721963   -0.814435274669   -0.166804471451
               4 H     -1.653354823701    0.819977439551   -0.828325208836
               5 H      0.622727449704   -0.474953706451    0.767423337897
               6 C      0.833970252376    1.572967784227    0.174919039103
               7 H      0.627078396639   -0.229449032260   -0.963050051975
               8 H      0.455822113525    1.990558076055    1.115888916766
               9 H      0.460163738903    2.236066936801   -0.614583882233
              10 C      2.347163195796    1.574332210002    0.179251688551
              11 H      2.736254615008    0.941129177003    0.981147361945
              12 H      2.757615442557    2.575546088671    0.319636184826
              13 H      2.741699144632    1.183623147031   -0.762604367550
