14
Coordinates from ORCA-job butane_M06-D3ZERO_aug-cc-pVTZ
  C   -1.26334732026541      0.18696642639551     -0.02691071414725
  C   0.24995397341055      0.18803510975962     -0.02276705612972
  H   -1.65580342025232      0.57934144467178      0.91414370559603
  H   -1.67440143446426     -0.81324427847642     -0.16470187679065
  H   -1.65156475828320      0.81915434379695     -0.82862139405848
  H   0.62330108915796     -0.47429637977609      0.76603164568848
  C   0.83294224784274      1.57307470587292      0.17559613306138
  H   0.62821757372722     -0.22713229137729     -0.96349444971126
  H   0.45467626887279      1.98824013257886      1.11632353435110
  H   0.45959431070673      2.23540651071756     -0.61320186383495
  C   2.34624330738593      1.57414617692874      0.17974324041608
  H   2.73446028371835      0.94194532027899      0.98144395854012
  H   2.75729513438655      2.57435562743669      0.31755154691412
  H   2.73870274405637      1.18178715119218     -0.76131640989500
