-------------------------------------------------------------
----------------------- !PROPERTIES! ------------------------
-------------------------------------------------------------
# -----------------------------------------------------------
$ SCF_Energy
   description: The SCF energy
   geom. index: 1
   prop. index: 1
        SCF Energy:     -158.3731927505
# -----------------------------------------------------------
$ DFT_Energy
   description: The DFT energy
   geom. index: 1
   prop. index: 1
   Number of Alpha Electrons        17.0000399048 
   Number of Alpha Electrons        17.0000399048 
   Total nuber of  Electrons        34.0000798096 
   Exchange energy                   0.0000000000 
   Correlation energy                0.0000000000 
   Correlantion energy NL            0.0000000000 
   Exchange-Correlation energy     -18.7765146991 
   Embedding correction              0.0000000000 
# -----------------------------------------------------------
$ VdW_Correction
   description: The Van der Waals Correction
   geom. index: 1
   prop. index: 1
        Van der Waals Correction:       -0.0007298048
# -----------------------------------------------------------
$ SCF_Energy
   description: The SCF energy
   geom. index: 2
   prop. index: 1
        SCF Energy:     -158.3737157575
# -----------------------------------------------------------
$ DFT_Energy
   description: The DFT energy
   geom. index: 2
   prop. index: 1
   Number of Alpha Electrons        17.0000366281 
   Number of Alpha Electrons        17.0000366281 
   Total nuber of  Electrons        34.0000732561 
   Exchange energy                   0.0000000000 
   Correlation energy                0.0000000000 
   Correlantion energy NL            0.0000000000 
   Exchange-Correlation energy     -18.7865469972 
   Embedding correction              0.0000000000 
# -----------------------------------------------------------
$ VdW_Correction
   description: The Van der Waals Correction
   geom. index: 2
   prop. index: 1
        Van der Waals Correction:       -0.0007264750
# -----------------------------------------------------------
$ SCF_Energy
   description: The SCF energy
   geom. index: 3
   prop. index: 1
        SCF Energy:     -158.3738577685
# -----------------------------------------------------------
$ DFT_Energy
   description: The DFT energy
   geom. index: 3
   prop. index: 1
   Number of Alpha Electrons        17.0000323687 
   Number of Alpha Electrons        17.0000323687 
   Total nuber of  Electrons        34.0000647374 
   Exchange energy                   0.0000000000 
   Correlation energy                0.0000000000 
   Correlantion energy NL            0.0000000000 
   Exchange-Correlation energy     -18.7898994811 
   Embedding correction              0.0000000000 
# -----------------------------------------------------------
$ VdW_Correction
   description: The Van der Waals Correction
   geom. index: 3
   prop. index: 1
        Van der Waals Correction:       -0.0007251613
# -----------------------------------------------------------
$ SCF_Energy
   description: The SCF energy
   geom. index: 4
   prop. index: 1
        SCF Energy:     -158.3738746072
# -----------------------------------------------------------
$ DFT_Energy
   description: The DFT energy
   geom. index: 4
   prop. index: 1
   Number of Alpha Electrons        17.0000304636 
   Number of Alpha Electrons        17.0000304636 
   Total nuber of  Electrons        34.0000609272 
   Exchange energy                   0.0000000000 
   Correlation energy                0.0000000000 
   Correlantion energy NL            0.0000000000 
   Exchange-Correlation energy     -18.7894607855 
   Embedding correction              0.0000000000 
# -----------------------------------------------------------
$ VdW_Correction
   description: The Van der Waals Correction
   geom. index: 4
   prop. index: 1
        Van der Waals Correction:       -0.0007253979
# -----------------------------------------------------------
$ SCF_Energy
   description: The SCF energy
   geom. index: 5
   prop. index: 1
        SCF Energy:     -158.3738779364
# -----------------------------------------------------------
$ DFT_Energy
   description: The DFT energy
   geom. index: 5
   prop. index: 1
   Number of Alpha Electrons        17.0000293947 
   Number of Alpha Electrons        17.0000293947 
   Total nuber of  Electrons        34.0000587894 
   Exchange energy                   0.0000000000 
   Correlation energy                0.0000000000 
   Correlantion energy NL            0.0000000000 
   Exchange-Correlation energy     -18.7889716257 
   Embedding correction              0.0000000000 
# -----------------------------------------------------------
$ VdW_Correction
   description: The Van der Waals Correction
   geom. index: 5
   prop. index: 1
        Van der Waals Correction:       -0.0007256833
# -----------------------------------------------------------
$ SCF_Energy
   description: The SCF energy
   geom. index: 6
   prop. index: 1
        SCF Energy:     -158.3738780233
# -----------------------------------------------------------
$ DFT_Energy
   description: The DFT energy
   geom. index: 6
   prop. index: 1
   Number of Alpha Electrons        17.0000292896 
   Number of Alpha Electrons        17.0000292896 
   Total nuber of  Electrons        34.0000585792 
   Exchange energy                   0.0000000000 
   Correlation energy                0.0000000000 
   Correlantion energy NL            0.0000000000 
   Exchange-Correlation energy     -18.7889259404 
   Embedding correction              0.0000000000 
# -----------------------------------------------------------
$ VdW_Correction
   description: The Van der Waals Correction
   geom. index: 6
   prop. index: 1
        Van der Waals Correction:       -0.0007257232
# -----------------------------------------------------------
$ SCF_Electric_Properties
   description: The SCF Calculated Electric Properties
   geom. index: 6
   prop. index: 1
       Filename                          : butane_M06-D3ZERO_aug-cc-pVTZ.scfp 
       Do Dipole Moment Calculation      : true 
       Do Quadrupole Moment Calculation  : false 
       Do Polarizability Calculation     : false 
** Dipole moment part of electric properties **
        Magnitude of dipole moment (Debye) :        0.0000040054
        Electronic Contribution:
                  0    
      0       0.000003
      1      -0.000003
      2      -0.000003
        Nuclear Contribution:
                  0    
      0      -0.000002
      1       0.000001
      2       0.000003
        Total Dipole moment:
                  0    
      0       0.000001
      1      -0.000001
      2       0.000000
# -----------------------------------------------------------
$ Hessian
   description: Details about the Hessian
   geom. index: 6
   prop. index: 1
Normal modes:
Number of Rows: 42 Number of Columns: 42
                  0          1          2          3          4          5    
      0       0.000000   0.000000   0.000000   0.000000   0.000000   0.000000
      1       0.000000   0.000000   0.000000   0.000000   0.000000   0.000000
      2       0.000000   0.000000   0.000000   0.000000   0.000000   0.000000
      3       0.000000   0.000000   0.000000   0.000000   0.000000   0.000000
      4       0.000000   0.000000   0.000000   0.000000   0.000000   0.000000
      5       0.000000   0.000000   0.000000   0.000000   0.000000   0.000000
      6       0.000000   0.000000   0.000000   0.000000   0.000000   0.000000
      7       0.000000   0.000000   0.000000   0.000000   0.000000   0.000000
      8       0.000000   0.000000   0.000000   0.000000   0.000000   0.000000
      9       0.000000   0.000000   0.000000   0.000000   0.000000   0.000000
     10       0.000000   0.000000   0.000000   0.000000   0.000000   0.000000
     11       0.000000   0.000000   0.000000   0.000000   0.000000   0.000000
     12       0.000000   0.000000   0.000000   0.000000   0.000000   0.000000
     13       0.000000   0.000000   0.000000   0.000000   0.000000   0.000000
     14       0.000000   0.000000   0.000000   0.000000   0.000000   0.000000
     15       0.000000   0.000000   0.000000   0.000000   0.000000   0.000000
     16       0.000000   0.000000   0.000000   0.000000   0.000000   0.000000
     17       0.000000   0.000000   0.000000   0.000000   0.000000   0.000000
     18       0.000000   0.000000   0.000000   0.000000   0.000000   0.000000
     19       0.000000   0.000000   0.000000   0.000000   0.000000   0.000000
     20       0.000000   0.000000   0.000000   0.000000   0.000000   0.000000
     21       0.000000   0.000000   0.000000   0.000000   0.000000   0.000000
     22       0.000000   0.000000   0.000000   0.000000   0.000000   0.000000
     23       0.000000   0.000000   0.000000   0.000000   0.000000   0.000000
     24       0.000000   0.000000   0.000000   0.000000   0.000000   0.000000
     25       0.000000   0.000000   0.000000   0.000000   0.000000   0.000000
     26       0.000000   0.000000   0.000000   0.000000   0.000000   0.000000
     27       0.000000   0.000000   0.000000   0.000000   0.000000   0.000000
     28       0.000000   0.000000   0.000000   0.000000   0.000000   0.000000
     29       0.000000   0.000000   0.000000   0.000000   0.000000   0.000000
     30       0.000000   0.000000   0.000000   0.000000   0.000000   0.000000
     31       0.000000   0.000000   0.000000   0.000000   0.000000   0.000000
     32       0.000000   0.000000   0.000000   0.000000   0.000000   0.000000
     33       0.000000   0.000000   0.000000   0.000000   0.000000   0.000000
     34       0.000000   0.000000   0.000000   0.000000   0.000000   0.000000
     35       0.000000   0.000000   0.000000   0.000000   0.000000   0.000000
     36       0.000000   0.000000   0.000000   0.000000   0.000000   0.000000
     37       0.000000   0.000000   0.000000   0.000000   0.000000   0.000000
     38       0.000000   0.000000   0.000000   0.000000   0.000000   0.000000
     39       0.000000   0.000000   0.000000   0.000000   0.000000   0.000000
     40       0.000000   0.000000   0.000000   0.000000   0.000000   0.000000
     41       0.000000   0.000000   0.000000   0.000000   0.000000   0.000000
                  6          7          8          9         10         11    
      0      -0.000393  -0.000582   0.004414  -0.001579   0.209053  -0.000762
      1       0.009792  -0.047296   0.000701  -0.132255   0.108142  -0.000652
      2      -0.108128   0.055246  -0.000212  -0.041986   0.016369   0.001604
      3      -0.000819  -0.002877   0.004754  -0.007750   0.148313  -0.000713
      4      -0.009385   0.057186  -0.012501   0.157031  -0.030503  -0.005553
      5       0.117107  -0.059502   0.067125   0.047151  -0.008468   0.059862
      6      -0.141996   0.034369  -0.023551  -0.152182   0.324669  -0.161214
      7       0.253721   0.245855  -0.332239  -0.402861   0.227350   0.036847
      8      -0.271469  -0.054093   0.129249   0.008871   0.015543  -0.084532
      9       0.015583   0.080731  -0.010963   0.236300  -0.008631  -0.001247
     10      -0.024094  -0.133271   0.058614  -0.202233   0.195689   0.010726
     11       0.083472   0.432277  -0.372349  -0.249746   0.051507  -0.077407
     12       0.138376  -0.115217   0.040202  -0.102389   0.324440   0.168321
     13      -0.203359  -0.374060   0.307715  -0.071945   0.184360  -0.015025
     14      -0.343912  -0.147448   0.225398   0.054943   0.020114  -0.093860
     15      -0.121139   0.089058  -0.048466   0.038761   0.205618   0.170394
     16       0.049863   0.067886   0.086891   0.190051   0.018700  -0.327773
     17       0.223754  -0.092976   0.174911   0.054477   0.003740  -0.297033
     18      -0.000820  -0.002884  -0.004750  -0.007759  -0.148313  -0.000715
     19      -0.009383   0.057203   0.012407   0.157037   0.030493  -0.005552
     20       0.117096  -0.059596  -0.067073   0.047133   0.008465   0.059865
     21       0.123620  -0.047645   0.055981   0.090818   0.197762  -0.158682
     22      -0.080999   0.075642  -0.125821   0.191777   0.036238   0.369156
     23       0.201260  -0.086273   0.139401   0.070064  -0.016388  -0.179591
     24       0.123608  -0.047725  -0.055953   0.090789  -0.197767  -0.158687
     25      -0.080976   0.075823   0.125717   0.191815  -0.036249   0.369156
     26       0.201235  -0.086471  -0.139332   0.070024   0.016383  -0.179588
     27      -0.121128   0.089135   0.048373   0.038766  -0.205622   0.170401
     28       0.049848   0.067765  -0.087012   0.190024  -0.018715  -0.327774
     29       0.223724  -0.093225  -0.174837   0.054424  -0.003744  -0.297036
     30      -0.000393  -0.000588  -0.004414  -0.001589  -0.209053  -0.000761
     31       0.009794  -0.047297  -0.000624  -0.132260  -0.108133  -0.000652
     32      -0.108127   0.055247   0.000164  -0.041986  -0.016367   0.001604
     33       0.138372  -0.115265  -0.040053  -0.102419  -0.324437   0.168333
     34      -0.203413  -0.374489  -0.307216  -0.072043  -0.184359  -0.015018
     35      -0.343960  -0.147778  -0.225196   0.054881  -0.020120  -0.093860
     36       0.015591   0.080743   0.010821   0.236316   0.008620  -0.001244
     37      -0.024108  -0.133357  -0.058421  -0.202257  -0.195677   0.010727
     38       0.083533   0.432796   0.371839  -0.249643  -0.051486  -0.077418
     39      -0.141993   0.034406   0.023553  -0.152197  -0.324658  -0.161216
     40       0.253778   0.246327   0.331972  -0.402782  -0.227319   0.036842
     41      -0.271486  -0.054269  -0.129144   0.008829  -0.015547  -0.084530
                 12         13         14         15         16         17    
      0      -0.006626  -0.097227  -0.007151   0.060942  -0.175873   0.118844
      1      -0.009785  -0.069134  -0.024582   0.071899   0.067045  -0.035527
      2       0.033793  -0.012840   0.060315   0.024723   0.015876  -0.006411
      3      -0.002032   0.039269  -0.002174  -0.041389   0.209684  -0.155443
      4      -0.017944  -0.156942   0.007631  -0.017127  -0.025657  -0.096056
      5       0.070581  -0.033260  -0.034799  -0.009922  -0.006579  -0.013538
      6      -0.301545   0.146136  -0.263094  -0.198597  -0.425279   0.219243
      7       0.035930   0.152168   0.063327  -0.144801  -0.128920   0.016429
      8      -0.115556  -0.000934  -0.091985   0.001031  -0.009223   0.010844
      9      -0.034472  -0.571036  -0.092447   0.480595   0.096835   0.049681
     10       0.031226   0.118429   0.043697  -0.092519  -0.047851  -0.007491
     11      -0.182407   0.046147  -0.178499  -0.066902  -0.034358   0.003839
     12       0.339939   0.084469   0.363657  -0.055433  -0.360261   0.201000
     13       0.012240   0.130437   0.018487  -0.135443  -0.127191   0.020268
     14      -0.122263   0.054225  -0.093879  -0.079842  -0.047551   0.001788
     15       0.289441   0.083328   0.273247  -0.180777   0.161731  -0.350233
     16      -0.120480  -0.083704   0.281081  -0.086073  -0.068679  -0.239860
     17      -0.159223   0.004229   0.066967  -0.002156  -0.013813  -0.042014
     18       0.002036  -0.039267  -0.002178  -0.041390   0.209680   0.155445
     19       0.017945   0.156939   0.007626  -0.017122  -0.025659   0.096056
     20      -0.070580   0.033257  -0.034798  -0.009920  -0.006573   0.013537
     21      -0.263120   0.137011  -0.170235  -0.278777   0.124108  -0.343605
     22       0.130224  -0.107847  -0.204567  -0.193840  -0.120506  -0.241834
     23      -0.109187  -0.011060  -0.006638  -0.028506  -0.005840  -0.026009
     24       0.263113  -0.137009  -0.170242  -0.278785   0.124089   0.343595
     25      -0.130218   0.107839  -0.204571  -0.193836  -0.120496   0.241824
     26       0.109182   0.011059  -0.006640  -0.028508  -0.005847   0.026008
     27      -0.289439  -0.083320   0.273236  -0.180766   0.161754   0.350254
     28       0.120474   0.083709   0.281071  -0.086068  -0.068686   0.239872
     29       0.159217  -0.004228   0.066967  -0.002159  -0.013824   0.042015
     30       0.006624   0.097225  -0.007150   0.060942  -0.175873  -0.118847
     31       0.009785   0.069135  -0.024584   0.071898   0.067042   0.035526
     32      -0.033792   0.012844   0.060314   0.024723   0.015874   0.006414
     33      -0.339941  -0.084470   0.363668  -0.055435  -0.360254  -0.200984
     34      -0.012249  -0.130433   0.018493  -0.135443  -0.127186  -0.020265
     35       0.122258  -0.054226  -0.093881  -0.079844  -0.047554  -0.001793
     36       0.034472   0.571031  -0.092447   0.480596   0.096828  -0.049686
     37      -0.031231  -0.118425   0.043699  -0.092520  -0.047851   0.007493
     38       0.182408  -0.046149  -0.178499  -0.066908  -0.034360  -0.003848
     39       0.301528  -0.146135  -0.263083  -0.198578  -0.425264  -0.219259
     40      -0.035928  -0.152159   0.063324  -0.144789  -0.128906  -0.016424
     41       0.115549   0.000932  -0.091981   0.001028  -0.009229  -0.010851
                 18         19         20         21         22         23    
      0       0.021753   0.002480  -0.001774   0.005634  -0.002127  -0.034286
      1      -0.109814   0.005667  -0.019067  -0.055955  -0.008014   0.034183
      2      -0.008882  -0.104474   0.078537  -0.017405   0.035141   0.003262
      3      -0.078175  -0.002482   0.011572   0.075914   0.011950  -0.112976
      4       0.165780  -0.007494   0.020002   0.080296   0.003021  -0.074795
      5       0.009477   0.150384  -0.060269   0.019370   0.038397  -0.004285
      6       0.247450   0.317449  -0.178189   0.017639  -0.093095   0.179142
      7       0.198892  -0.056881   0.075954   0.086005   0.018289  -0.100278
      8      -0.038535   0.067512  -0.042599  -0.061918  -0.010625   0.143324
      9      -0.343391  -0.031189  -0.030210  -0.225863  -0.011782   0.232567
     10       0.051734  -0.022290   0.024744   0.033970   0.004777  -0.075253
     11       0.006038   0.213263  -0.154621   0.024905  -0.024853   0.017981
     12       0.287247  -0.311548   0.206357  -0.020026   0.097977   0.195992
     13       0.175014   0.077180  -0.050498   0.071700  -0.006629  -0.028915
     14       0.079990   0.116198  -0.057070   0.084703  -0.008413  -0.145790
     15       0.013758   0.172913  -0.462383  -0.303460  -0.393039   0.265184
     16       0.250527  -0.236553  -0.169083  -0.204678  -0.343993   0.183909
     17       0.040723  -0.135422   0.001235  -0.039919  -0.063066   0.039372
     18       0.078176   0.002484   0.011569   0.075902  -0.012010   0.112987
     19      -0.165781   0.007492   0.020006   0.080293  -0.003083   0.074803
     20      -0.009481  -0.150382  -0.060272   0.019332  -0.038413   0.004285
     21       0.042687  -0.153469   0.347691  -0.439968   0.334388   0.346005
     22       0.207794   0.254929   0.107713  -0.277080   0.295698   0.264310
     23       0.040430  -0.039947   0.035390  -0.030791   0.038102   0.028707
     24      -0.042679   0.153457   0.347700  -0.440295  -0.334042  -0.346016
     25      -0.207790  -0.254935   0.107725  -0.277371  -0.295483  -0.264337
     26      -0.040435   0.039943   0.035390  -0.030830  -0.038077  -0.028701
     27      -0.013779  -0.172894  -0.462386  -0.303072   0.393274  -0.265202
     28      -0.250541   0.236559  -0.169067  -0.204343   0.344153  -0.183937
     29      -0.040729   0.135424   0.001242  -0.039860   0.063097  -0.039388
     30      -0.021754  -0.002485  -0.001775   0.005636   0.002126   0.034235
     31       0.109815  -0.005663  -0.019069  -0.055947   0.008056  -0.034188
     32       0.008889   0.104473   0.078539  -0.017438  -0.035127  -0.003262
     33      -0.287247   0.311543   0.206379  -0.020118  -0.097966  -0.195819
     34      -0.175025  -0.077187  -0.050502   0.071700   0.006570   0.028969
     35      -0.080001  -0.116210  -0.057082   0.084710   0.008351   0.145735
     36       0.343413   0.031206  -0.030221  -0.225844   0.011936  -0.232408
     37      -0.051739   0.022289   0.024750   0.033962  -0.004795   0.075169
     38      -0.006055  -0.213269  -0.154627   0.024922   0.024830  -0.017987
     39      -0.247458  -0.317448  -0.178184   0.017725   0.093072  -0.178979
     40      -0.198882   0.056870   0.075953   0.085997  -0.018358   0.100323
     41       0.038531  -0.067502  -0.042593  -0.061912   0.010669  -0.143258
                 24         25         26         27         28         29    
      0      -0.107373  -0.107388  -0.000818   0.001378  -0.002590  -0.005801
      1      -0.008320  -0.006901   0.005665  -0.024458   0.016274  -0.025783
      2      -0.006872  -0.006268  -0.000229  -0.002816   0.026898   0.022431
      3       0.073704   0.025097   0.037722  -0.030944   0.003211  -0.007788
      4       0.032166   0.012825  -0.037426   0.019591   0.027748  -0.032992
      5       0.002402   0.002065   0.001551  -0.000061   0.017049   0.007860
      6       0.333349   0.366026   0.042829  -0.108779   0.270733   0.089536
      7       0.076066   0.051238  -0.090200   0.283262  -0.038870   0.459665
      8       0.134703   0.160843   0.056308  -0.171792   0.150113  -0.144709
      9       0.316853   0.336578  -0.070572   0.198974  -0.165729   0.214031
     10      -0.174912  -0.181424   0.028473  -0.094258   0.127503  -0.054136
     11       0.008628   0.017287  -0.009674   0.007263  -0.357499  -0.362382
     12       0.335753   0.376005   0.023998  -0.074195  -0.086342  -0.227294
     13       0.140529   0.133987  -0.090423   0.240903  -0.376249   0.036706
     14      -0.091473  -0.115982  -0.085704   0.235339  -0.245385   0.162590
     15      -0.121244  -0.045916  -0.230164   0.155771   0.023184   0.017541
     16      -0.107615  -0.036067   0.228196  -0.151627  -0.072291   0.044900
     17      -0.019396  -0.005669   0.329828  -0.218331  -0.074289   0.060577
     18      -0.073810   0.024770  -0.037733  -0.030930  -0.003183   0.007499
     19      -0.032220   0.012671   0.037433   0.019558  -0.027779   0.033387
     20      -0.002411   0.002054  -0.001553  -0.000070  -0.017053  -0.006850
     21      -0.155331  -0.051438  -0.250146   0.180555  -0.001370   0.001866
     22      -0.147915  -0.038157   0.337814  -0.220267  -0.071864   0.096744
     23      -0.015213  -0.006471  -0.267059   0.181814   0.057576  -0.045805
     24       0.155547  -0.050731   0.250226   0.180448   0.001220  -0.003130
     25       0.148063  -0.037472  -0.337898  -0.220077   0.072101  -0.100467
     26       0.015244  -0.006418   0.267128   0.181663  -0.057762   0.048458
     27       0.121444  -0.045344   0.230216   0.155660  -0.023330  -0.012759
     28       0.107762  -0.035552  -0.228252  -0.151485   0.072452  -0.046866
     29       0.019412  -0.005557  -0.329907  -0.218143   0.074515  -0.063398
     30       0.107827  -0.106987   0.000812   0.001373   0.002588   0.005444
     31       0.008348  -0.006854  -0.005678  -0.024465  -0.016274   0.025626
     32       0.006901  -0.006244   0.000227  -0.002826  -0.026898  -0.020448
     33      -0.337349   0.374796  -0.024003  -0.074143   0.086347   0.213801
     34      -0.141092   0.133432   0.090560   0.241032   0.376243  -0.053791
     35       0.091971  -0.115698   0.085820   0.235417   0.245385  -0.168379
     36      -0.318258   0.335430   0.070692   0.199050   0.165725  -0.213880
     37       0.175671  -0.180773  -0.028533  -0.094312  -0.127512   0.058319
     38      -0.008716   0.017281   0.009691   0.007387   0.357514   0.330716
     39      -0.334901   0.364823  -0.042875  -0.108855  -0.270748  -0.072009
     40      -0.076252   0.050867   0.090344   0.283283   0.038861  -0.443906
     41      -0.135397   0.160399  -0.056387  -0.171833  -0.150115   0.146675
                 30         31         32         33         34         35    
      0       0.005364  -0.003762  -0.000214  -0.000935  -0.004956   0.035473
      1       0.001664  -0.026294  -0.004858  -0.004541   0.000163  -0.008679
      2      -0.029546   0.001661  -0.000060   0.001373   0.011994  -0.000843
      3       0.004017   0.026938  -0.026599  -0.028147   0.005258  -0.001539
      4      -0.006885  -0.045538   0.040335   0.040531   0.001775   0.000720
      5      -0.015132  -0.002909  -0.005437  -0.001356  -0.061121  -0.001952
      6      -0.264812  -0.054634  -0.004967   0.006357   0.056699  -0.152058
      7      -0.226575   0.290870   0.000770  -0.005846  -0.057856   0.156893
      8      -0.034529  -0.149225   0.009097  -0.010444  -0.136399   0.381443
      9       0.004026   0.166754   0.013495   0.018078   0.015215  -0.116104
     10      -0.065418  -0.077412   0.047252   0.049728   0.035543  -0.304651
     11       0.471898  -0.082130   0.006425   0.007673   0.007828  -0.041823
     12       0.198528  -0.112214  -0.008585  -0.005222  -0.013306  -0.149740
     13       0.261536   0.162366   0.009623   0.010397   0.021706   0.255757
     14       0.093230   0.194455  -0.014570  -0.014652  -0.024575  -0.328752
     15      -0.071692  -0.126260   0.188024   0.178735   0.135895   0.012066
     16       0.030474   0.198469  -0.340402  -0.323217  -0.241295  -0.015990
     17       0.043719   0.261560   0.420869   0.402336   0.277090   0.020054
     18       0.004510   0.026945   0.026605  -0.028141  -0.005260  -0.001539
     19      -0.004757  -0.045517  -0.040344   0.040523  -0.001774   0.000719
     20      -0.015602  -0.002904   0.005438  -0.001358   0.061126  -0.001959
     21       0.020040  -0.149820   0.134865   0.148585  -0.197438   0.001500
     22       0.058459   0.281591  -0.146507  -0.159918   0.216552   0.002836
     23      -0.040956  -0.209784  -0.355742  -0.385115   0.478232   0.002377
     24       0.019864  -0.149845  -0.134895   0.148546   0.197461   0.001472
     25       0.052142   0.281546   0.146539  -0.159874  -0.216576   0.002867
     26      -0.037942  -0.209763   0.355821  -0.385014  -0.478289   0.002448
     27      -0.072672  -0.126267  -0.188063   0.178701  -0.135895   0.012081
     28       0.027532   0.198436   0.340473  -0.323159   0.241296  -0.016018
     29       0.039750   0.261527  -0.420958   0.402263  -0.277090   0.020082
     30       0.005727  -0.003763   0.000213  -0.000936   0.004956   0.035518
     31       0.003314  -0.026280   0.004858  -0.004539  -0.000164  -0.008695
     32      -0.030915   0.001668   0.000061   0.001373  -0.011995  -0.000839
     33       0.212638  -0.112192   0.008585  -0.005215   0.013311  -0.149955
     34       0.258581   0.162163  -0.009625   0.010386  -0.021716   0.256131
     35       0.082599   0.194287   0.014572  -0.014636   0.024586  -0.329218
     36      -0.009711   0.166616  -0.013495   0.018075  -0.015209  -0.116245
     37      -0.061802  -0.077331  -0.047254   0.049721  -0.035527  -0.305018
     38       0.494060  -0.082221  -0.006426   0.007673  -0.007827  -0.041880
     39      -0.269970  -0.054515   0.004972   0.006364  -0.056700  -0.152241
     40      -0.255530   0.290738  -0.000774  -0.005851   0.057855   0.157077
     41      -0.025186  -0.149107  -0.009111  -0.010459   0.136402   0.381911
                 36         37         38         39         40         41    
      0       0.035248   0.001336  -0.001278  -0.000696  -0.006408  -0.005791
      1      -0.009684   0.003347  -0.017468  -0.014848  -0.063148  -0.061773
      2       0.000582  -0.016903   0.061158   0.060962  -0.017638  -0.014951
      3       0.000118  -0.003745  -0.000441   0.000145   0.002648   0.002245
      4       0.000340  -0.004144  -0.001528  -0.003035  -0.004238  -0.003175
      5      -0.007979   0.063180   0.013411   0.018151  -0.002212  -0.000289
      6      -0.146419  -0.047049   0.163704   0.166779  -0.107483  -0.100737
      7       0.152333   0.054830  -0.170490  -0.170800   0.096909   0.089273
      8       0.370155   0.120372  -0.383668  -0.386291   0.257215   0.239108
      9      -0.114610  -0.009442   0.033529   0.022724   0.235485   0.227629
     10      -0.298585  -0.020435   0.080093   0.053374   0.579123   0.560830
     11      -0.040718  -0.009236   0.023836   0.019341   0.076759   0.074851
     12      -0.153216   0.042173  -0.182032  -0.181204  -0.056030  -0.062772
     13       0.262676  -0.075068   0.299735   0.295671   0.079478   0.089737
     14      -0.336695   0.090149  -0.372245  -0.366581  -0.122504  -0.135275
     15       0.018684  -0.141998  -0.033795  -0.046630  -0.010809  -0.010900
     16      -0.033968   0.257956   0.051971   0.085221   0.017346   0.021692
     17       0.036686  -0.297332  -0.063439  -0.099060  -0.021765  -0.024396
     18      -0.000120  -0.003745   0.000440   0.000149  -0.002574   0.002329
     19      -0.000340  -0.004144   0.001557  -0.003020   0.004132  -0.003310
     20       0.007986   0.063173  -0.013585   0.018022   0.002202  -0.000362
     21      -0.024735   0.185019   0.039018   0.044900  -0.020322  -0.010903
     22       0.026335  -0.207788  -0.036770  -0.050385   0.018030   0.012561
     23       0.060386  -0.455373  -0.086752  -0.110073   0.043321   0.027366
     24       0.024764   0.185000  -0.039450   0.044527   0.019959  -0.011560
     25      -0.026361  -0.207765   0.037255  -0.050034  -0.017612   0.013142
     26      -0.060447  -0.455327   0.087810  -0.109241  -0.042411   0.028764
     27      -0.018693  -0.141983   0.034242  -0.046301   0.010448  -0.011240
     28       0.033993   0.257930  -0.052786   0.084715  -0.016627   0.022235
     29      -0.036713  -0.297301   0.064387  -0.098441   0.020956  -0.025080
     30      -0.035201   0.001342   0.001288  -0.000688   0.006218  -0.005996
     31       0.009677   0.003347   0.017615  -0.014686   0.061112  -0.063783
     32      -0.000590  -0.016902  -0.061739   0.060370   0.017152  -0.015520
     33       0.153043   0.042146   0.183758  -0.179443   0.053942  -0.064531
     34      -0.262385  -0.075022  -0.302553   0.292774  -0.076488   0.092228
     35       0.336307   0.090088   0.375729  -0.362975   0.118006  -0.139125
     36       0.114444  -0.009467  -0.033773   0.022436  -0.227989   0.235134
     37       0.298152  -0.020500  -0.080673   0.052691  -0.560663   0.579295
     38       0.040663  -0.009245  -0.024029   0.019122  -0.074304   0.077306
     39       0.146204  -0.047071  -0.165304   0.165201   0.104180  -0.104171
     40      -0.152103   0.054852   0.172123  -0.169152  -0.093977   0.092364
     41      -0.369619   0.120428   0.387374  -0.382591  -0.249372   0.247324
# -----------------------------------------------------------
$ THERMOCHEMISTRY_Energies
   description: The Thermochemistry energies
   geom. index: 6
   prop. index: 1
        Temperature (Kelvin)           :        298.1500000000
        Pressure (atm)                 :          1.0000000000
        Total Mass (AMU)               :         58.1240000000
        Spin Degeneracy                :          1.0000000000
        Electronic Energy (Hartree)    :       -158.3746037465
        Translational Energy (Hartree) :          0.0014162714
        Rotational Energy (Hartree)    :          0.0014162714
        Vibrational Energy (Hartree)   :          0.0030584954
        Number of frequencies          :     42      
        Scaling Factor for frequencies :          1.0000000000
        Vibrational frequencies        :     
                  0    
      0       0.000000
      1       0.000000
      2       0.000000
      3       0.000000
      4       0.000000
      5       0.000000
      6      68.659738
      7     218.321088
      8     247.508354
      9     282.942821
     10     438.362934
     11     680.847505
     12     797.405459
     13     866.636949
     14     957.505950
     15     995.200580
     16     1044.852322
     17     1086.287792
     18     1177.232278
     19     1186.194782
     20     1276.396799
     21     1317.069061
     22     1320.633764
     23     1393.916751
     24     1401.223179
     25     1402.243077
     26     1454.198604
     27     1462.855199
     28     1478.914333
     29     1481.120719
     30     1481.204321
     31     1485.748659
     32     2975.119609
     33     2983.901280
     34     2991.451338
     35     3004.151054
     36     3005.597953
     37     3018.356659
     38     3066.117537
     39     3066.557080
     40     3082.607442
     41     3082.773438
        Zero Point Energy (Hartree)    :          0.1304937070
        Inner Energy (Hartree)         :       -158.2382190013
        Enthalpy (Hartree)             :       -158.2372747922
        Electronic entropy             :          0.0000000000
        Rotational entropy             :          0.0116282351
        Vibrational entropy            :          0.0051511242
        Translational entropy          :          0.0116282351
        Entropy                        :          0.0348821445
        Gibbs Energy (Hartree)         :       -158.2721569367
        Is Linear                      :                 false
# -------------------------------------------------------------
----------------------- !GEOMETRIES! ------------------------
# -------------------------------------------------------------
------------------------ !GEOMETRY! -------------------------
    Number of atoms:    14 
    Geometry Index:     1 
    Coordinates:
               0 C     -1.265080000000    0.193850000000   -0.025430000000
               1 C      0.255200000000    0.179570000000   -0.022990000000
               2 H     -1.655350000000    0.575980000000    0.923260000000
               3 H     -1.653420000000   -0.819310000000   -0.169030000000
               4 H     -1.650210000000    0.823100000000   -0.834170000000
               5 H      0.607390000000   -0.483440000000    0.775850000000
               6 C      0.827700000000    1.581540000000    0.175840000000
               7 H      0.612500000000   -0.237690000000   -0.971680000000
               8 H      0.470410000000    1.998790000000    1.124540000000
               9 H      0.475480000000    2.244560000000   -0.622990000000
              10 C      2.347970000000    1.567260000000    0.178250000000
              11 H      2.733130000000    0.937990000000    0.986960000000
              12 H      2.736320000000    2.580420000000    0.321870000000
              13 H      2.738230000000    1.185160000000   -0.770460000000
------------------------ !GEOMETRY! -------------------------
    Number of atoms:    14 
    Geometry Index:     2 
    Coordinates:
               0 C     -1.267622626954    0.190197008191   -0.026070087050
               1 C      0.251283264062    0.185925001003   -0.022351143452
               2 H     -1.658730265833    0.574661136746    0.917951248180
               3 H     -1.663564537191   -0.816479696196   -0.167710957354
               4 H     -1.653788855121    0.819194215650   -0.830353588865
               5 H      0.611928484185   -0.474741276317    0.772117791890
               6 C      0.831614396970    1.575183688974    0.175199676233
               7 H      0.617468321928   -0.229007221294   -0.966525212890
               8 H      0.465439734212    1.990106695323    1.119382331782
               9 H      0.470945394334    2.235854789773   -0.619255413681
              10 C      2.350515461798    1.570916037391    0.178889795875
              11 H      2.736708331489    0.941899594375    0.983145647613
              12 H      2.746462118344    2.577589421761    0.320548810560
              13 H      2.741610777777    1.186480604620   -0.765148898840
------------------------ !GEOMETRY! -------------------------
    Number of atoms:    14 
    Geometry Index:     3 
    Coordinates:
               0 C     -1.266295611963    0.187485560261   -0.026636853884
               1 C      0.249190798198    0.189323015461   -0.022224369882
               2 H     -1.658242027660    0.576367887886    0.915180396079
               3 H     -1.671445541824   -0.814396584837   -0.166156124674
               4 H     -1.653683582062    0.818461383754   -0.828675154718
               5 H      0.618408017820   -0.471592911886    0.768857699456
               6 C      0.833705197209    1.571784512568    0.175069155893
               7 H      0.624035548453   -0.225279647945   -0.963832881006
               8 H      0.458869794696    1.986378833908    1.116684918318
               9 H      0.464471699380    2.232704104920   -0.616000883002
              10 C      2.349191105145    1.573628871572    0.179458758445
              11 H      2.736598847934    0.942632460066    0.981472005474
              12 H      2.754340901963    2.575507641321    0.318998272996
              13 H      2.741124852710    1.184774872953   -0.762374939495
------------------------ !GEOMETRY! -------------------------
    Number of atoms:    14 
    Geometry Index:     4 
    Coordinates:
               0 C     -1.264603097036    0.186904341899   -0.026827134271
               1 C      0.249289686153    0.188937998998   -0.022463397545
               2 H     -1.656808096646    0.577951549837    0.914576423715
               3 H     -1.673552386790   -0.813771498142   -0.165412901730
               4 H     -1.652445087942    0.818908476880   -0.828518196231
               5 H      0.621234355419   -0.472871581069    0.767277104579
               6 C      0.833606261050    1.572169551308    0.175305760137
               7 H      0.626616933769   -0.226174210809   -0.963447682077
               8 H      0.456286968603    1.987274949276    1.116296352747
               9 H      0.461649250326    2.233982168315   -0.614425785113
              10 C      2.347499107912    1.574209792969    0.179650904726
              11 H      2.735356130719    0.942186968505    0.981320019531
              12 H      2.756446694842    2.574883486304    0.318255981552
              13 H      2.739693279620    1.183188005727   -0.761767450022
------------------------ !GEOMETRY! -------------------------
    Number of atoms:    14 
    Geometry Index:     5 
    Coordinates:
               0 C     -1.263461831017    0.186880970035   -0.026905965064
               1 C      0.249785555077    0.188201676397   -0.022701478215
               2 H     -1.655855703529    0.579110302929    0.914244486609
               3 H     -1.674342091068   -0.813340313270   -0.164870868906
               4 H     -1.651606822479    0.819214703669   -0.828552306715
               5 H      0.622993928298   -0.474127363543    0.766229332024
               6 C      0.833110732320    1.572907830861    0.175535416892
               7 H      0.628053213795   -0.227106675869   -0.963415583128
               8 H      0.454845063264    1.988212789792    1.116252204603
               9 H      0.459897665589    2.235238281239   -0.613391935205
              10 C      2.346357656073    1.574231815144    0.179735233439
              11 H      2.734507012242    0.941883268055    0.981367478412
              12 H      2.757235912680    2.574451639684    0.317717706443
              13 H      2.738749708754    1.182021074878   -0.761423721190
------------------------ !GEOMETRY! -------------------------
    Number of atoms:    14 
    Geometry Index:     6 
    Coordinates:
               0 C     -1.263347320265    0.186966426396   -0.026910714147
               1 C      0.249953973411    0.188035109760   -0.022767056130
               2 H     -1.655803420252    0.579341444672    0.914143705596
               3 H     -1.674401434464   -0.813244278476   -0.164701876791
               4 H     -1.651564758283    0.819154343797   -0.828621394058
               5 H      0.623301089158   -0.474296379776    0.766031645688
               6 C      0.832942247843    1.573074705873    0.175596133061
               7 H      0.628217573727   -0.227132291377   -0.963494449711
               8 H      0.454676268873    1.988240132579    1.116323534351
               9 H      0.459594310707    2.235406510718   -0.613201863835
              10 C      2.346243307386    1.574146176929    0.179743240416
              11 H      2.734460283718    0.941945320279    0.981443958540
              12 H      2.757295134387    2.574355627437    0.317551546914
              13 H      2.738702744056    1.181787151192   -0.761316409895
