-------------------------------------------------------------
----------------------- !PROPERTIES! ------------------------
-------------------------------------------------------------
# -----------------------------------------------------------
$ SCF_Energy
   description: The SCF energy
   geom. index: 1
   prop. index: 1
        SCF Energy:     -158.3090573669
# -----------------------------------------------------------
$ DFT_Energy
   description: The DFT energy
   geom. index: 1
   prop. index: 1
   Number of Alpha Electrons        17.0000600920 
   Number of Alpha Electrons        17.0000600920 
   Total nuber of  Electrons        34.0001201841 
   Exchange energy                   0.0000000000 
   Correlation energy                0.0000000000 
   Correlantion energy NL            0.0000000000 
   Exchange-Correlation energy     -18.7666553343 
   Embedding correction              0.0000000000 
# -----------------------------------------------------------
$ VdW_Correction
   description: The Van der Waals Correction
   geom. index: 1
   prop. index: 1
        Van der Waals Correction:       -0.0007298048
# -----------------------------------------------------------
$ SCF_Energy
   description: The SCF energy
   geom. index: 2
   prop. index: 1
        SCF Energy:     -158.3099904718
# -----------------------------------------------------------
$ DFT_Energy
   description: The DFT energy
   geom. index: 2
   prop. index: 1
   Number of Alpha Electrons        17.0000602957 
   Number of Alpha Electrons        17.0000602957 
   Total nuber of  Electrons        34.0001205915 
   Exchange energy                   0.0000000000 
   Correlation energy                0.0000000000 
   Correlantion energy NL            0.0000000000 
   Exchange-Correlation energy     -18.7447038443 
   Embedding correction              0.0000000000 
# -----------------------------------------------------------
$ VdW_Correction
   description: The Van der Waals Correction
   geom. index: 2
   prop. index: 1
        Van der Waals Correction:       -0.0007344578
# -----------------------------------------------------------
$ SCF_Energy
   description: The SCF energy
   geom. index: 3
   prop. index: 1
        SCF Energy:     -158.3101557970
# -----------------------------------------------------------
$ DFT_Energy
   description: The DFT energy
   geom. index: 3
   prop. index: 1
   Number of Alpha Electrons        17.0000585405 
   Number of Alpha Electrons        17.0000585405 
   Total nuber of  Electrons        34.0001170810 
   Exchange energy                   0.0000000000 
   Correlation energy                0.0000000000 
   Correlantion energy NL            0.0000000000 
   Exchange-Correlation energy     -18.7430615950 
   Embedding correction              0.0000000000 
# -----------------------------------------------------------
$ VdW_Correction
   description: The Van der Waals Correction
   geom. index: 3
   prop. index: 1
        Van der Waals Correction:       -0.0007348469
# -----------------------------------------------------------
$ SCF_Energy
   description: The SCF energy
   geom. index: 4
   prop. index: 1
        SCF Energy:     -158.3101942040
# -----------------------------------------------------------
$ DFT_Energy
   description: The DFT energy
   geom. index: 4
   prop. index: 1
   Number of Alpha Electrons        17.0000568654 
   Number of Alpha Electrons        17.0000568654 
   Total nuber of  Electrons        34.0001137309 
   Exchange energy                   0.0000000000 
   Correlation energy                0.0000000000 
   Correlantion energy NL            0.0000000000 
   Exchange-Correlation energy     -18.7451162679 
   Embedding correction              0.0000000000 
# -----------------------------------------------------------
$ VdW_Correction
   description: The Van der Waals Correction
   geom. index: 4
   prop. index: 1
        Van der Waals Correction:       -0.0007346154
# -----------------------------------------------------------
$ SCF_Energy
   description: The SCF energy
   geom. index: 5
   prop. index: 1
        SCF Energy:     -158.3101991640
# -----------------------------------------------------------
$ DFT_Energy
   description: The DFT energy
   geom. index: 5
   prop. index: 1
   Number of Alpha Electrons        17.0000562330 
   Number of Alpha Electrons        17.0000562330 
   Total nuber of  Electrons        34.0001124661 
   Exchange energy                   0.0000000000 
   Correlation energy                0.0000000000 
   Correlantion energy NL            0.0000000000 
   Exchange-Correlation energy     -18.7461669886 
   Embedding correction              0.0000000000 
# -----------------------------------------------------------
$ VdW_Correction
   description: The Van der Waals Correction
   geom. index: 5
   prop. index: 1
        Van der Waals Correction:       -0.0007345496
# -----------------------------------------------------------
$ SCF_Energy
   description: The SCF energy
   geom. index: 6
   prop. index: 1
        SCF Energy:     -158.3101996089
# -----------------------------------------------------------
$ DFT_Energy
   description: The DFT energy
   geom. index: 6
   prop. index: 1
   Number of Alpha Electrons        17.0000561262 
   Number of Alpha Electrons        17.0000561262 
   Total nuber of  Electrons        34.0001122525 
   Exchange energy                   0.0000000000 
   Correlation energy                0.0000000000 
   Correlantion energy NL            0.0000000000 
   Exchange-Correlation energy     -18.7462841377 
   Embedding correction              0.0000000000 
# -----------------------------------------------------------
$ VdW_Correction
   description: The Van der Waals Correction
   geom. index: 6
   prop. index: 1
        Van der Waals Correction:       -0.0007345853
# -----------------------------------------------------------
$ SCF_Electric_Properties
   description: The SCF Calculated Electric Properties
   geom. index: 6
   prop. index: 1
       Filename                          : butane_M06-D3ZERO_cc-pVDZ.scfp 
       Do Dipole Moment Calculation      : true 
       Do Quadrupole Moment Calculation  : false 
       Do Polarizability Calculation     : false 
** Dipole moment part of electric properties **
        Magnitude of dipole moment (Debye) :        0.0000010474
        Electronic Contribution:
                  0    
      0       0.000000
      1      -0.000001
      2       0.000003
        Nuclear Contribution:
                  0    
      0      -0.000000
      1       0.000001
      2      -0.000003
        Total Dipole moment:
                  0    
      0       0.000000
      1      -0.000000
      2       0.000000
# -----------------------------------------------------------
$ Hessian
   description: Details about the Hessian
   geom. index: 6
   prop. index: 1
Normal modes:
Number of Rows: 42 Number of Columns: 42
                  0          1          2          3          4          5    
      0       0.000000   0.000000   0.000000   0.000000   0.000000   0.000000
      1       0.000000   0.000000   0.000000   0.000000   0.000000   0.000000
      2       0.000000   0.000000   0.000000   0.000000   0.000000   0.000000
      3       0.000000   0.000000   0.000000   0.000000   0.000000   0.000000
      4       0.000000   0.000000   0.000000   0.000000   0.000000   0.000000
      5       0.000000   0.000000   0.000000   0.000000   0.000000   0.000000
      6       0.000000   0.000000   0.000000   0.000000   0.000000   0.000000
      7       0.000000   0.000000   0.000000   0.000000   0.000000   0.000000
      8       0.000000   0.000000   0.000000   0.000000   0.000000   0.000000
      9       0.000000   0.000000   0.000000   0.000000   0.000000   0.000000
     10       0.000000   0.000000   0.000000   0.000000   0.000000   0.000000
     11       0.000000   0.000000   0.000000   0.000000   0.000000   0.000000
     12       0.000000   0.000000   0.000000   0.000000   0.000000   0.000000
     13       0.000000   0.000000   0.000000   0.000000   0.000000   0.000000
     14       0.000000   0.000000   0.000000   0.000000   0.000000   0.000000
     15       0.000000   0.000000   0.000000   0.000000   0.000000   0.000000
     16       0.000000   0.000000   0.000000   0.000000   0.000000   0.000000
     17       0.000000   0.000000   0.000000   0.000000   0.000000   0.000000
     18       0.000000   0.000000   0.000000   0.000000   0.000000   0.000000
     19       0.000000   0.000000   0.000000   0.000000   0.000000   0.000000
     20       0.000000   0.000000   0.000000   0.000000   0.000000   0.000000
     21       0.000000   0.000000   0.000000   0.000000   0.000000   0.000000
     22       0.000000   0.000000   0.000000   0.000000   0.000000   0.000000
     23       0.000000   0.000000   0.000000   0.000000   0.000000   0.000000
     24       0.000000   0.000000   0.000000   0.000000   0.000000   0.000000
     25       0.000000   0.000000   0.000000   0.000000   0.000000   0.000000
     26       0.000000   0.000000   0.000000   0.000000   0.000000   0.000000
     27       0.000000   0.000000   0.000000   0.000000   0.000000   0.000000
     28       0.000000   0.000000   0.000000   0.000000   0.000000   0.000000
     29       0.000000   0.000000   0.000000   0.000000   0.000000   0.000000
     30       0.000000   0.000000   0.000000   0.000000   0.000000   0.000000
     31       0.000000   0.000000   0.000000   0.000000   0.000000   0.000000
     32       0.000000   0.000000   0.000000   0.000000   0.000000   0.000000
     33       0.000000   0.000000   0.000000   0.000000   0.000000   0.000000
     34       0.000000   0.000000   0.000000   0.000000   0.000000   0.000000
     35       0.000000   0.000000   0.000000   0.000000   0.000000   0.000000
     36       0.000000   0.000000   0.000000   0.000000   0.000000   0.000000
     37       0.000000   0.000000   0.000000   0.000000   0.000000   0.000000
     38       0.000000   0.000000   0.000000   0.000000   0.000000   0.000000
     39       0.000000   0.000000   0.000000   0.000000   0.000000   0.000000
     40       0.000000   0.000000   0.000000   0.000000   0.000000   0.000000
     41       0.000000   0.000000   0.000000   0.000000   0.000000   0.000000
                  6          7          8          9         10         11    
      0       0.000094  -0.001780  -0.000705  -0.007297  -0.204684  -0.000817
      1      -0.018339  -0.106070  -0.064851  -0.002208  -0.104727  -0.001611
      2       0.131947   0.012075  -0.041513  -0.001845  -0.015952   0.007435
      3       0.000198  -0.005697  -0.004155  -0.005535  -0.147546  -0.000620
      4       0.019548   0.128163   0.076668   0.012336   0.031722  -0.006338
      5      -0.144131  -0.013941   0.048722  -0.069383   0.009664   0.053747
      6       0.166847  -0.059802  -0.111010   0.029176  -0.320969  -0.168682
      7      -0.191749   0.074469  -0.438953   0.330435  -0.237809   0.047757
      8       0.275275  -0.087682   0.067079  -0.124784  -0.009311  -0.085439
      9      -0.003249   0.193372   0.120779   0.006552   0.020513  -0.002446
     10      -0.003185  -0.227619  -0.064664  -0.060288  -0.195928   0.009286
     11       0.032608   0.299047  -0.417600   0.379761  -0.061541  -0.066581
     12      -0.171753  -0.142860  -0.018091  -0.054755  -0.326071   0.175691
     13       0.119000  -0.418143   0.173919  -0.308758  -0.178775  -0.024160
     14       0.325087  -0.164504   0.155442  -0.220514  -0.015268  -0.098421
     15       0.148059   0.073526   0.002313   0.040832  -0.209788   0.179960
     16      -0.027251   0.167840   0.078815  -0.082129  -0.013680  -0.308708
     17      -0.254306  -0.017045   0.048210  -0.171275   0.003340  -0.293198
     18       0.000198  -0.005697  -0.004156   0.005535   0.147546  -0.000620
     19       0.019548   0.128163   0.076670  -0.012326  -0.031722  -0.006337
     20      -0.144132  -0.013938   0.048711   0.069389  -0.009663   0.053744
     21      -0.143398   0.024851   0.063938  -0.053072  -0.192487  -0.167410
     22       0.088777   0.140193   0.110071   0.122025  -0.039062   0.370530
     23      -0.233477  -0.007603   0.061062  -0.137700   0.021341  -0.185365
     24      -0.143400   0.024852   0.063928   0.053081   0.192490  -0.167401
     25       0.088778   0.140190   0.110092  -0.122009   0.039059   0.370524
     26      -0.233479  -0.007599   0.061039   0.137706  -0.021337  -0.185359
     27       0.148059   0.073525   0.002320  -0.040830   0.209786   0.179948
     28      -0.027252   0.167842   0.078802   0.082136   0.013684  -0.308703
     29      -0.254310  -0.017040   0.048182   0.171280  -0.003335  -0.293195
     30       0.000096  -0.001779  -0.000707   0.007297   0.204684  -0.000816
     31      -0.018339  -0.106069  -0.064852   0.002200   0.104727  -0.001610
     32       0.131948   0.012075  -0.041513   0.001840   0.015950   0.007433
     33      -0.171748  -0.142859  -0.018100   0.054754   0.326071   0.175679
     34       0.118995  -0.418138   0.173863   0.308788   0.178777  -0.024159
     35       0.325086  -0.164503   0.155405   0.220543   0.015268  -0.098418
     36      -0.003250   0.193373   0.120778  -0.006539  -0.020511  -0.002444
     37      -0.003184  -0.227620  -0.064673   0.060284   0.195927   0.009285
     38       0.032612   0.299040  -0.417535  -0.379826   0.061539  -0.066573
     39       0.166850  -0.059802  -0.111006  -0.029190   0.320967  -0.168670
     40      -0.191744   0.074465  -0.438897  -0.330502   0.237806   0.047757
     41       0.275271  -0.087678   0.067055   0.124795   0.009310  -0.085433
                 12         13         14         15         16         17    
      0      -0.005734   0.094753  -0.001476  -0.034380  -0.192322   0.110790
      1      -0.008414   0.075312  -0.015342  -0.081732   0.047159  -0.038560
      2       0.035579   0.013268   0.061917  -0.016714   0.007643  -0.004629
      3      -0.001250  -0.031686  -0.001800   0.009387   0.221830  -0.142106
      4      -0.013973   0.145082   0.007368   0.021836  -0.022355  -0.079898
      5       0.065310   0.025707  -0.036799   0.005312  -0.003110  -0.013709
      6      -0.316221  -0.141136  -0.291393   0.204121  -0.379306   0.216809
      7       0.042585  -0.155192   0.051511   0.165762  -0.092672   0.029443
      8      -0.119791   0.006393  -0.093431  -0.015272  -0.008946   0.006930
      9      -0.021120   0.575684  -0.033323  -0.475131  -0.070802   0.050264
     10       0.026850  -0.117348   0.031125   0.097567  -0.011547  -0.010807
     11      -0.175025  -0.034219  -0.177933   0.036310  -0.013158   0.000377
     12       0.333024  -0.098985   0.336283   0.151154  -0.363371   0.219480
     13      -0.003369  -0.139863  -0.005010   0.150726  -0.090541   0.028994
     14      -0.129717  -0.058345  -0.101343   0.072490  -0.022214   0.001078
     15       0.281553  -0.088225   0.234189   0.189659   0.238783  -0.353797
     16      -0.109137   0.087276   0.271048   0.132622  -0.039263  -0.229605
     17      -0.154603   0.002830   0.075657   0.012851  -0.016315  -0.038723
     18       0.001249   0.031687  -0.001800   0.009387   0.221828   0.142108
     19       0.013974  -0.145082   0.007366   0.021836  -0.022355   0.079898
     20      -0.065313  -0.025707  -0.036797   0.005313  -0.003110   0.013708
     21      -0.270048  -0.119845  -0.206706   0.228013   0.223099  -0.350715
     22       0.133023   0.096849  -0.253641   0.167022  -0.061524  -0.238125
     23      -0.112903   0.012226  -0.002252   0.029484   0.006618  -0.027887
     24       0.270054   0.119845  -0.206710   0.228011   0.223097   0.350715
     25      -0.133040  -0.096848  -0.253640   0.167024  -0.061522   0.238127
     26       0.112909  -0.012227  -0.002254   0.029482   0.006616   0.027884
     27      -0.281555   0.088222   0.234193   0.189661   0.238776   0.353797
     28       0.109153  -0.087279   0.271044   0.132621  -0.039269   0.229603
     29       0.154617  -0.002831   0.075654   0.012850  -0.016318   0.038720
     30       0.005733  -0.094753  -0.001477  -0.034381  -0.192321  -0.110791
     31       0.008413  -0.075311  -0.015343  -0.081732   0.047158   0.038561
     32      -0.035579  -0.013269   0.061917  -0.016714   0.007644   0.004630
     33      -0.333024   0.098982   0.336283   0.151157  -0.363371  -0.219481
     34       0.003370   0.139862  -0.005009   0.150726  -0.090542  -0.028996
     35       0.129723   0.058346  -0.101346   0.072490  -0.022213  -0.001078
     36       0.021117  -0.575681  -0.033326  -0.475135  -0.070800  -0.050264
     37      -0.026850   0.117346   0.031127   0.097568  -0.011548   0.010807
     38       0.175025   0.034224  -0.177934   0.036312  -0.013156  -0.000377
     39       0.316227   0.141135  -0.291397   0.204117  -0.379300  -0.216813
     40      -0.042587   0.155191   0.051512   0.165763  -0.092673  -0.029444
     41       0.119792  -0.006393  -0.093431  -0.015274  -0.008943  -0.006929
                 18         19         20         21         22         23    
      0      -0.021464   0.003300   0.001605   0.012124  -0.000784  -0.077300
      1       0.108952   0.010854   0.010123  -0.058133  -0.004239   0.024664
      2       0.011985  -0.105521  -0.081255  -0.006696   0.033806   0.000144
      3       0.077422  -0.004309  -0.000641   0.075544  -0.000894  -0.061324
      4      -0.180285  -0.015959  -0.007457   0.081425  -0.006693  -0.042534
      5      -0.019093   0.151607   0.062042   0.010969   0.040527  -0.006770
      6      -0.248777   0.304430   0.178950  -0.040340  -0.088358   0.310451
      7      -0.207042  -0.078071  -0.075042   0.098763   0.009548  -0.043929
      8       0.044603   0.067606   0.035215  -0.083637  -0.006045   0.181226
      9       0.310960  -0.007277  -0.000371  -0.245228   0.002865   0.327312
     10      -0.038910  -0.028831  -0.023705   0.045639   0.001042  -0.137383
     11      -0.006853   0.220335   0.173721   0.004664  -0.016545   0.003001
     12      -0.270979  -0.301175  -0.190168  -0.030432   0.096627   0.313670
     13      -0.183947   0.076433   0.073232   0.066981  -0.010583   0.030107
     14      -0.092945   0.105758   0.069768   0.099771  -0.015230  -0.172564
     15      -0.029141   0.188053   0.408235  -0.368146  -0.358584   0.207525
     16      -0.254686  -0.230967   0.135386  -0.242953  -0.325615   0.097580
     17      -0.031368  -0.131449  -0.009014  -0.050371  -0.060002  -0.006944
     18      -0.077422   0.004309  -0.000640   0.075543   0.000894   0.061326
     19       0.180285   0.015959  -0.007457   0.081425   0.006692   0.042536
     20       0.019094  -0.151606   0.062044   0.010969  -0.040525   0.006769
     21      -0.045235  -0.182003  -0.408136  -0.360468   0.360753   0.202584
     22      -0.238910   0.252292  -0.141641  -0.245971   0.331044   0.080316
     23      -0.043964  -0.046959  -0.040773  -0.021348   0.036096   0.038005
     24       0.045235   0.182001  -0.408131  -0.360463  -0.360762  -0.202584
     25       0.238909  -0.252297  -0.141631  -0.245971  -0.331047  -0.080321
     26       0.043964   0.046959  -0.040772  -0.021345  -0.036096  -0.038002
     27       0.029143  -0.188044   0.408224  -0.368145   0.358591  -0.207532
     28       0.254687   0.230970   0.135377  -0.242953   0.325618  -0.097588
     29       0.031368   0.131451  -0.009017  -0.050371   0.060002   0.006941
     30       0.021464  -0.003300   0.001605   0.012124   0.000785   0.077296
     31      -0.108952  -0.010854   0.010123  -0.058133   0.004239  -0.024665
     32      -0.011985   0.105520  -0.081255  -0.006696  -0.033808  -0.000144
     33       0.270983   0.301172  -0.190169  -0.030429  -0.096634  -0.313653
     34       0.183946  -0.076433   0.073232   0.066979   0.010585  -0.030105
     35       0.092944  -0.105761   0.069772   0.099770   0.015234   0.172560
     36      -0.310961   0.007276  -0.000372  -0.245228  -0.002868  -0.327301
     37       0.038911   0.028833  -0.023706   0.045638  -0.001042   0.137376
     38       0.006854  -0.220335   0.173722   0.004666   0.016549  -0.003000
     39       0.248772  -0.304432   0.178949  -0.040341   0.088358  -0.310438
     40       0.207044   0.078070  -0.075041   0.098763  -0.009550   0.043932
     41      -0.044604  -0.067604   0.035212  -0.083636   0.006044  -0.181217
                 24         25         26         27         28         29    
      0      -0.110762   0.089534  -0.012387   0.012388  -0.006829   0.003591
      1      -0.013092   0.029079   0.005664  -0.021874   0.000543   0.003972
      2      -0.004983   0.006793   0.000024  -0.005102   0.031870  -0.027131
      3       0.031031  -0.131879   0.041494  -0.033735   0.008920   0.007854
      4       0.020401  -0.066454  -0.034002   0.010686   0.015598  -0.007516
      5       0.001845  -0.008238  -0.001280  -0.001834   0.022021  -0.017704
      6       0.341304  -0.160720   0.082482  -0.173795   0.280274  -0.255219
      7       0.094652  -0.185946  -0.094744   0.264843   0.180933  -0.264668
      8       0.134494  -0.009387   0.079326  -0.195646   0.065210  -0.013667
      9       0.342725  -0.237504  -0.049670   0.191262  -0.048883  -0.018994
     10      -0.193141   0.160111   0.015980  -0.092424   0.084828  -0.056337
     11       0.012286  -0.016712  -0.008492   0.048176  -0.470286   0.473288
     12       0.366304  -0.195122   0.063665  -0.097801  -0.177547   0.222137
     13       0.165917  -0.218356  -0.083945   0.258915  -0.303942   0.236278
     14      -0.087393  -0.051433  -0.105595   0.265033  -0.135829   0.061797
     15      -0.054198   0.256318  -0.231264   0.151936   0.007396  -0.099688
     16      -0.073993   0.225937   0.228093  -0.123031  -0.069162   0.044445
     17      -0.034327   0.052054   0.333213  -0.193827  -0.047779   0.069022
     18       0.031026   0.131879  -0.041482  -0.033747  -0.008921   0.007854
     19       0.020397   0.066455   0.033996   0.010698  -0.015596  -0.007517
     20       0.001844   0.008237   0.001281  -0.001834  -0.022020  -0.017705
     21      -0.046068   0.251780  -0.244222   0.182754  -0.021735   0.015395
     22      -0.080517   0.234285   0.324440  -0.174987  -0.031934   0.082512
     23       0.012338   0.015905  -0.261725   0.158921   0.029871  -0.056200
     24      -0.046058  -0.251779   0.244165   0.182827   0.021736   0.015391
     25      -0.080511  -0.234288  -0.324376  -0.175085   0.031925   0.082522
     26       0.012338  -0.015903   0.261667   0.158997  -0.029865  -0.056208
     27      -0.054183  -0.256322   0.231213   0.152001  -0.007390  -0.099694
     28      -0.073981  -0.225942  -0.228046  -0.123098   0.069156   0.044453
     29      -0.034324  -0.052055  -0.333146  -0.193927   0.047771   0.069033
     30      -0.110764  -0.089536   0.012382   0.012392   0.006829   0.003591
     31      -0.013091  -0.029080  -0.005658  -0.021875  -0.000542   0.003972
     32      -0.004983  -0.006793  -0.000024  -0.005104  -0.031869  -0.027133
     33       0.366313   0.195129  -0.063635  -0.097812   0.177541   0.222145
     34       0.165920   0.218362   0.083877   0.258936   0.303919   0.236291
     35      -0.087399   0.051434   0.105524   0.265061   0.135816   0.061804
     36       0.342736   0.237511   0.049619   0.191267   0.048876  -0.018989
     37      -0.193145  -0.160114  -0.015956  -0.092426  -0.084824  -0.056344
     38       0.012285   0.016711   0.008485   0.048192   0.470265   0.473307
     39       0.341313   0.160724  -0.082436  -0.173827  -0.280260  -0.255232
     40       0.094649   0.185950   0.094669   0.264855  -0.180935  -0.264676
     41       0.134498   0.009388  -0.079271  -0.195662  -0.065202  -0.013671
                 30         31         32         33         34         35    
      0      -0.003319  -0.005793   0.001560   0.005447   0.036282   0.036732
      1       0.024764  -0.023790   0.002809  -0.004790  -0.006229  -0.007995
      2      -0.006785   0.001770   0.000191  -0.000095   0.000390   0.000245
      3       0.023207   0.030589   0.027169  -0.028897   0.002096  -0.002858
      4       0.056261  -0.046943  -0.041067   0.039852  -0.005690   0.002399
      5       0.003092  -0.003258  -0.002723   0.003481  -0.000732   0.000112
      6       0.061042  -0.039931  -0.003796  -0.021853  -0.145268  -0.147064
      7      -0.403771   0.271305   0.007891   0.022631   0.149150   0.151775
      8       0.195707  -0.132853   0.014913   0.057548   0.363999   0.370072
      9      -0.262124   0.153865  -0.015241  -0.003541  -0.124849  -0.122429
     10       0.100553  -0.072135  -0.050352  -0.007693  -0.324322  -0.314114
     11       0.149557  -0.088753  -0.006884  -0.000893  -0.043960  -0.042574
     12       0.180223  -0.113325  -0.002216  -0.024859  -0.150166  -0.152451
     13      -0.189360   0.138728   0.009583   0.042727   0.253916   0.258986
     14      -0.254956   0.175705  -0.009591  -0.055982  -0.324218  -0.330597
     15      -0.035950  -0.134328  -0.171316   0.169437  -0.018342   0.011417
     16      -0.111027   0.213295   0.310855  -0.302956   0.039274  -0.019499
     17      -0.108874   0.283621  -0.381759   0.373697  -0.046789   0.022462
     18      -0.023213   0.030587  -0.027168  -0.028897   0.002097   0.002858
     19      -0.056253  -0.046955   0.041066   0.039853  -0.005690  -0.002398
     20      -0.003091  -0.003260   0.002722   0.003481  -0.000733  -0.000111
     21      -0.025984  -0.161723  -0.156560   0.160232  -0.018674   0.009996
     22      -0.155548   0.291665   0.171516  -0.172503   0.024009  -0.010630
     23       0.075821  -0.219992   0.410623  -0.414708   0.055041  -0.023339
     24       0.026019  -0.161728   0.156555   0.160233  -0.018678  -0.009991
     25       0.155490   0.291705  -0.171511  -0.172505   0.024013   0.010624
     26      -0.075776  -0.220013  -0.410617  -0.414716   0.055050   0.023326
     27       0.035979  -0.134332   0.171317   0.169440  -0.018342  -0.011415
     28       0.110984   0.213323  -0.310854  -0.302959   0.039275   0.019493
     29       0.108817   0.283655   0.381756   0.373698  -0.046789  -0.022454
     30       0.003321  -0.005792  -0.001560   0.005447   0.036274  -0.036740
     31      -0.024760  -0.023795  -0.002808  -0.004790  -0.006228   0.007996
     32       0.006785   0.001771  -0.000191  -0.000096   0.000390  -0.000245
     33      -0.180210  -0.113350   0.002217  -0.024859  -0.150137   0.152487
     34       0.189338   0.138767  -0.009585   0.042726   0.253866  -0.259045
     35       0.254936   0.175754   0.009593  -0.055980  -0.324148   0.330666
     36       0.262100   0.153908   0.015241  -0.003541  -0.124823   0.122455
     37      -0.100540  -0.072154   0.050351  -0.007692  -0.324254   0.314181
     38      -0.149545  -0.088765   0.006884  -0.000893  -0.043952   0.042585
     39      -0.061043  -0.039953   0.003797  -0.021853  -0.145234   0.147092
     40       0.403734   0.271368  -0.007891   0.022630   0.149113  -0.151803
     41      -0.195687  -0.132887  -0.014915   0.057548   0.363919  -0.370149
                 36         37         38         39         40         41    
      0      -0.000301  -0.000482   0.001518   0.001397   0.005513   0.004957
      1      -0.001459  -0.002736   0.015049   0.014709   0.063444   0.063538
      2       0.008708   0.015543  -0.063094  -0.061727   0.015200   0.015054
      3       0.001770   0.001283  -0.000087  -0.000135  -0.001709  -0.002137
      4       0.006921   0.007677   0.001660   0.002521   0.003063   0.002627
      5      -0.063462  -0.063860  -0.009986  -0.016057   0.000903   0.001105
      6       0.026091   0.040949  -0.171444  -0.169386   0.104026   0.105930
      7      -0.026877  -0.046160   0.176595   0.172661  -0.093817  -0.094555
      8      -0.061988  -0.104100   0.407203   0.398427  -0.250393  -0.253160
      9       0.001782   0.003592  -0.025672  -0.024729  -0.231225  -0.229674
     10       0.003587   0.007881  -0.060772  -0.058604  -0.563108  -0.559615
     11       0.002993   0.007015  -0.020215  -0.019285  -0.075967  -0.075422
     12      -0.025236  -0.039998   0.179983   0.178397   0.067721   0.070337
     13       0.041874   0.071231  -0.295654  -0.289999  -0.100818  -0.103957
     14      -0.051282  -0.086314   0.366805   0.360031   0.144748   0.149026
     15       0.161534   0.158210   0.027007   0.040962   0.008878   0.008008
     16      -0.285786  -0.285682  -0.041855  -0.074602  -0.013092  -0.015894
     17       0.330984   0.331030   0.052325   0.086925   0.015515   0.017418
     18      -0.001770   0.001283   0.000087  -0.000135   0.001709  -0.002137
     19      -0.006922   0.007677  -0.001660   0.002520  -0.003063   0.002627
     20       0.063466  -0.063856   0.009990  -0.016054  -0.000903   0.001105
     21      -0.181135  -0.172294  -0.026108  -0.040277   0.011676   0.011796
     22       0.199582   0.193854   0.024465   0.045236  -0.010238  -0.014381
     23       0.442222   0.428090   0.059668   0.100746  -0.024615  -0.030410
     24       0.181143  -0.172282   0.026118  -0.040270  -0.011676   0.011795
     25      -0.199592   0.193842  -0.024476   0.045229   0.010237  -0.014379
     26      -0.442248   0.428067  -0.059692   0.100731   0.024613  -0.030408
     27      -0.161548   0.158201  -0.027016   0.040954  -0.008879   0.008009
     28       0.285808  -0.285662   0.041871  -0.074589   0.013094  -0.015895
     29      -0.331007   0.331005  -0.052344   0.086909  -0.015517   0.017418
     30       0.000302  -0.000483  -0.001518   0.001396  -0.005513   0.004957
     31       0.001459  -0.002736  -0.015052   0.014704  -0.063446   0.063536
     32      -0.008709   0.015542   0.063110  -0.061712  -0.015199   0.015052
     33       0.025236  -0.039995  -0.180027   0.178352  -0.067729   0.070340
     34      -0.041875   0.071225   0.295724  -0.289925   0.100829  -0.103962
     35       0.051282  -0.086305  -0.366885   0.359932  -0.144760   0.149030
     36      -0.001784   0.003592   0.025674  -0.024717   0.231231  -0.229668
     37      -0.003591   0.007882   0.060775  -0.058576   0.563125  -0.559601
     38      -0.002994   0.007015   0.020219  -0.019279   0.075973  -0.075423
     39      -0.026094   0.040948   0.171487  -0.169346  -0.104023   0.105922
     40       0.026881  -0.046158  -0.176638   0.172618   0.093812  -0.094545
     41       0.061997  -0.104098  -0.407313   0.398338   0.250390  -0.253143
# -----------------------------------------------------------
$ THERMOCHEMISTRY_Energies
   description: The Thermochemistry energies
   geom. index: 6
   prop. index: 1
        Temperature (Kelvin)           :        298.1500000000
        Pressure (atm)                 :          1.0000000000
        Total Mass (AMU)               :         58.1240000000
        Spin Degeneracy                :          1.0000000000
        Electronic Energy (Hartree)    :       -158.3109341942
        Translational Energy (Hartree) :          0.0014162714
        Rotational Energy (Hartree)    :          0.0014162714
        Vibrational Energy (Hartree)   :          0.0028015915
        Number of frequencies          :     42      
        Scaling Factor for frequencies :          1.0000000000
        Vibrational frequencies        :     
                  0    
      0       0.000000
      1       0.000000
      2       0.000000
      3       0.000000
      4       0.000000
      5       0.000000
      6     129.832856
      7     260.408009
      8     292.975258
      9     300.838643
     10     433.116421
     11     717.356899
     12     797.547738
     13     860.916903
     14     946.424670
     15     968.607002
     16     1051.146114
     17     1094.623536
     18     1164.050465
     19     1182.226150
     20     1264.551411
     21     1294.313228
     22     1309.384585
     23     1371.430629
     24     1384.221900
     25     1396.183057
     26     1429.591780
     27     1433.374748
     28     1443.902137
     29     1446.179904
     30     1452.950498
     31     1456.850093
     32     2994.935769
     33     3003.529899
     34     3014.956132
     35     3016.125412
     36     3034.848445
     37     3055.586945
     38     3103.461605
     39     3104.883272
     40     3118.895449
     41     3119.406608
        Zero Point Energy (Hartree)    :          0.1308798969
        Inner Energy (Hartree)         :       -158.1744201629
        Enthalpy (Hartree)             :       -158.1734759539
        Electronic entropy             :          0.0000000000
        Rotational entropy             :          0.0116415284
        Vibrational entropy            :          0.0045593482
        Translational entropy          :          0.0116415284
        Entropy                        :          0.0343036619
        Gibbs Energy (Hartree)         :       -158.2077796158
        Is Linear                      :                 false
# -------------------------------------------------------------
----------------------- !GEOMETRIES! ------------------------
# -------------------------------------------------------------
------------------------ !GEOMETRY! -------------------------
    Number of atoms:    14 
    Geometry Index:     1 
    Coordinates:
               0 C     -1.265080000000    0.193850000000   -0.025430000000
               1 C      0.255200000000    0.179570000000   -0.022990000000
               2 H     -1.655350000000    0.575980000000    0.923260000000
               3 H     -1.653420000000   -0.819310000000   -0.169030000000
               4 H     -1.650210000000    0.823100000000   -0.834170000000
               5 H      0.607390000000   -0.483440000000    0.775850000000
               6 C      0.827700000000    1.581540000000    0.175840000000
               7 H      0.612500000000   -0.237690000000   -0.971680000000
               8 H      0.470410000000    1.998790000000    1.124540000000
               9 H      0.475480000000    2.244560000000   -0.622990000000
              10 C      2.347970000000    1.567260000000    0.178250000000
              11 H      2.733130000000    0.937990000000    0.986960000000
              12 H      2.736320000000    2.580420000000    0.321870000000
              13 H      2.738230000000    1.185160000000   -0.770460000000
------------------------ !GEOMETRY! -------------------------
    Number of atoms:    14 
    Geometry Index:     2 
    Coordinates:
               0 C     -1.272906384946    0.187893459342   -0.026310082362
               1 C      0.249752727115    0.184225770046   -0.022469218812
               2 H     -1.669282655894    0.575524204356    0.926667662479
               3 H     -1.673162073210   -0.828192496096   -0.169635652175
               4 H     -1.663913579818    0.822920650009   -0.838069019449
               5 H      0.614043484210   -0.483484969898    0.779485359303
               6 C      0.833144445491    1.576883132884    0.175317329158
               7 H      0.619872517557   -0.235715745607   -0.975717219126
               8 H      0.463035232173    1.996815735891    1.128573711047
               9 H      0.468830284980    2.244598941155   -0.626623218598
              10 C      2.355799309703    1.573219419453    0.179129962372
              11 H      2.746832704919    0.938175360734    0.990863378643
              12 H      2.756059975394    2.589302077670    0.322470574440
              13 H      2.752164012326    1.185614460062   -0.773863566919
------------------------ !GEOMETRY! -------------------------
    Number of atoms:    14 
    Geometry Index:     3 
    Coordinates:
               0 C     -1.272760172477    0.185034276044   -0.026816898173
               1 C      0.247245636918    0.186956443314   -0.022318574530
               2 H     -1.671763280270    0.576572064500    0.925127370912
               3 H     -1.681831255074   -0.828163405921   -0.168582299625
               4 H     -1.666489662424    0.822311833204   -0.837427804923
               5 H      0.619535464515   -0.482657545487    0.777233578837
               6 C      0.835650190602    1.574152177014    0.175163338825
               7 H      0.625547338083   -0.234105040800   -0.974296237067
               8 H      0.457358358143    1.995206610212    1.127148079264
               9 H      0.463343762788    2.243769930046   -0.624377056271
              10 C      2.355654995400    1.576079381786    0.179638815361
              11 H      2.749403388490    0.938788186520    0.990230076754
              12 H      2.764728083139    2.589274315320    0.321415415437
              13 H      2.754647152166    1.184560774250   -0.772317804800
------------------------ !GEOMETRY! -------------------------
    Number of atoms:    14 
    Geometry Index:     4 
    Coordinates:
               0 C     -1.270464008673    0.184054114640   -0.027076896921
               1 C      0.246799456993    0.187435444722   -0.022475287638
               2 H     -1.670573499897    0.578263774253    0.923195686315
               3 H     -1.685062438704   -0.826439833530   -0.167387227834
               4 H     -1.665447285467    0.822155818627   -0.836311203296
               5 H      0.623507432247   -0.483318903660    0.774112716959
               6 C      0.836096076871    1.573673682124    0.175316112752
               7 H      0.629200068463   -0.234382014185   -0.972526293093
               8 H      0.453703536276    1.995486191388    1.125372573128
               9 H      0.459377604221    2.244431131614   -0.621263851816
              10 C      2.353359661735    1.577059213295    0.179901540572
              11 H      2.748354726445    0.938947305074    0.989122221517
              12 H      2.767958332149    2.587551632809    0.320219909105
              13 H      2.753460337340    1.182862442831   -0.770379999751
------------------------ !GEOMETRY! -------------------------
    Number of atoms:    14 
    Geometry Index:     5 
    Coordinates:
               0 C     -1.269243636416    0.184113917022   -0.027132310687
               1 C      0.247232213471    0.186988037355   -0.022645101632
               2 H     -1.669631457755    0.579243992408    0.922368815594
               3 H     -1.685458404159   -0.825536190825   -0.166807617367
               4 H     -1.664556197368    0.822170118836   -0.835919086920
               5 H      0.625101041584   -0.484122358181    0.772620182739
               6 C      0.835663452337    1.574121780623    0.175483203441
               7 H      0.630392232766   -0.235007072579   -0.971906363308
               8 H      0.452509625468    1.996113318631    1.124748610339
               9 H      0.457787377757    2.245234734802   -0.619776499124
              10 C      2.352139378297    1.576998787684    0.179958892287
              11 H      2.747459848625    0.938934712665    0.988735704873
              12 H      2.768353917287    2.586648033930    0.319640523375
              13 H      2.752520608106    1.181878187629   -0.769548953610
------------------------ !GEOMETRY! -------------------------
    Number of atoms:    14 
    Geometry Index:     6 
    Coordinates:
               0 C     -1.268950548108    0.184255696470   -0.027135122593
               1 C      0.247524079854    0.186717632698   -0.022731409445
               2 H     -1.669427901212    0.579642825520    0.922149366887
               3 H     -1.685440660719   -0.825313335520   -0.166568878725
               4 H     -1.664344091476    0.822124064890   -0.835941353309
               5 H      0.625620591592   -0.484475760520    0.772183603111
               6 C      0.835371665921    1.574392628196    0.175567548566
               7 H      0.630646658077   -0.235206986359   -0.971896957234
               8 H      0.452253576577    1.996314639690    1.124736137618
               9 H      0.457269862508    2.245587934906   -0.619343456273
              10 C      2.351846278464    1.576856604320    0.179963096716
              11 H      2.747245461057    0.938982319327    0.988761989400
              12 H      2.768336028881    2.586425086643    0.319401784546
              13 H      2.752318998583    1.181476649739   -0.769326349263
