-------------------------------------------------------------
----------------------- !PROPERTIES! ------------------------
-------------------------------------------------------------
# -----------------------------------------------------------
$ SCF_Energy
   description: The SCF energy
   geom. index: 1
   prop. index: 1
        SCF Energy:      -79.7846588847
# -----------------------------------------------------------
$ DFT_Energy
   description: The DFT energy
   geom. index: 1
   prop. index: 1
   Number of Alpha Electrons         8.9999968066 
   Number of Alpha Electrons         8.9999968066 
   Total nuber of  Electrons        17.9999936132 
   Exchange energy                   0.0000000000 
   Correlation energy                0.0000000000 
   Correlantion energy NL            0.0000000000 
   Exchange-Correlation energy      -9.6596420244 
   Embedding correction              0.0000000000 
# -----------------------------------------------------------
$ VdW_Correction
   description: The Van der Waals Correction
   geom. index: 1
   prop. index: 1
        Van der Waals Correction:       -0.0001105107
# -----------------------------------------------------------
$ SCF_Energy
   description: The SCF energy
   geom. index: 2
   prop. index: 1
        SCF Energy:      -79.7848728815
# -----------------------------------------------------------
$ DFT_Energy
   description: The DFT energy
   geom. index: 2
   prop. index: 1
   Number of Alpha Electrons         8.9999964129 
   Number of Alpha Electrons         8.9999964129 
   Total nuber of  Electrons        17.9999928258 
   Exchange energy                   0.0000000000 
   Correlation energy                0.0000000000 
   Correlantion energy NL            0.0000000000 
   Exchange-Correlation energy      -9.6619190543 
   Embedding correction              0.0000000000 
# -----------------------------------------------------------
$ VdW_Correction
   description: The Van der Waals Correction
   geom. index: 2
   prop. index: 1
        Van der Waals Correction:       -0.0001128519
# -----------------------------------------------------------
$ SCF_Energy
   description: The SCF energy
   geom. index: 3
   prop. index: 1
        SCF Energy:      -79.7849289530
# -----------------------------------------------------------
$ DFT_Energy
   description: The DFT energy
   geom. index: 3
   prop. index: 1
   Number of Alpha Electrons         8.9999960508 
   Number of Alpha Electrons         8.9999960508 
   Total nuber of  Electrons        17.9999921016 
   Exchange energy                   0.0000000000 
   Correlation energy                0.0000000000 
   Correlantion energy NL            0.0000000000 
   Exchange-Correlation energy      -9.6622533473 
   Embedding correction              0.0000000000 
# -----------------------------------------------------------
$ VdW_Correction
   description: The Van der Waals Correction
   geom. index: 3
   prop. index: 1
        Van der Waals Correction:       -0.0001146063
# -----------------------------------------------------------
$ SCF_Energy
   description: The SCF energy
   geom. index: 4
   prop. index: 1
        SCF Energy:      -79.7849387149
# -----------------------------------------------------------
$ DFT_Energy
   description: The DFT energy
   geom. index: 4
   prop. index: 1
   Number of Alpha Electrons         8.9999958927 
   Number of Alpha Electrons         8.9999958927 
   Total nuber of  Electrons        17.9999917854 
   Exchange energy                   0.0000000000 
   Correlation energy                0.0000000000 
   Correlantion energy NL            0.0000000000 
   Exchange-Correlation energy      -9.6622684343 
   Embedding correction              0.0000000000 
# -----------------------------------------------------------
$ VdW_Correction
   description: The Van der Waals Correction
   geom. index: 4
   prop. index: 1
        Van der Waals Correction:       -0.0001150184
# -----------------------------------------------------------
$ SCF_Energy
   description: The SCF energy
   geom. index: 5
   prop. index: 1
        SCF Energy:      -79.7849401085
# -----------------------------------------------------------
$ DFT_Energy
   description: The DFT energy
   geom. index: 5
   prop. index: 1
   Number of Alpha Electrons         8.9999958468 
   Number of Alpha Electrons         8.9999958468 
   Total nuber of  Electrons        17.9999916936 
   Exchange energy                   0.0000000000 
   Correlation energy                0.0000000000 
   Correlantion energy NL            0.0000000000 
   Exchange-Correlation energy      -9.6623102179 
   Embedding correction              0.0000000000 
# -----------------------------------------------------------
$ VdW_Correction
   description: The Van der Waals Correction
   geom. index: 5
   prop. index: 1
        Van der Waals Correction:       -0.0001149758
# -----------------------------------------------------------
$ SCF_Energy
   description: The SCF energy
   geom. index: 6
   prop. index: 1
        SCF Energy:      -79.7849401766
# -----------------------------------------------------------
$ DFT_Energy
   description: The DFT energy
   geom. index: 6
   prop. index: 1
   Number of Alpha Electrons         8.9999958476 
   Number of Alpha Electrons         8.9999958476 
   Total nuber of  Electrons        17.9999916952 
   Exchange energy                   0.0000000000 
   Correlation energy                0.0000000000 
   Correlantion energy NL            0.0000000000 
   Exchange-Correlation energy      -9.6623181786 
   Embedding correction              0.0000000000 
# -----------------------------------------------------------
$ VdW_Correction
   description: The Van der Waals Correction
   geom. index: 6
   prop. index: 1
        Van der Waals Correction:       -0.0001149337
# -----------------------------------------------------------
$ SCF_Electric_Properties
   description: The SCF Calculated Electric Properties
   geom. index: 6
   prop. index: 1
       Filename                          : ethane_M06-D3ZERO_def2-TZVP.scfp 
       Do Dipole Moment Calculation      : true 
       Do Quadrupole Moment Calculation  : false 
       Do Polarizability Calculation     : false 
** Dipole moment part of electric properties **
        Magnitude of dipole moment (Debye) :        0.0000008667
        Electronic Contribution:
                  0    
      0      -0.000000
      1      -0.000000
      2       0.000000
        Nuclear Contribution:
                  0    
      0       0.000000
      1       0.000000
      2      -0.000000
        Total Dipole moment:
                  0    
      0      -0.000000
      1       0.000000
      2       0.000000
# -----------------------------------------------------------
$ Hessian
   description: Details about the Hessian
   geom. index: 6
   prop. index: 1
Normal modes:
Number of Rows: 24 Number of Columns: 24
                  0          1          2          3          4          5    
      0       0.000000   0.000000   0.000000   0.000000   0.000000   0.000000
      1       0.000000   0.000000   0.000000   0.000000   0.000000   0.000000
      2       0.000000   0.000000   0.000000   0.000000   0.000000   0.000000
      3       0.000000   0.000000   0.000000   0.000000   0.000000   0.000000
      4       0.000000   0.000000   0.000000   0.000000   0.000000   0.000000
      5       0.000000   0.000000   0.000000   0.000000   0.000000   0.000000
      6       0.000000   0.000000   0.000000   0.000000   0.000000   0.000000
      7       0.000000   0.000000   0.000000   0.000000   0.000000   0.000000
      8       0.000000   0.000000   0.000000   0.000000   0.000000   0.000000
      9       0.000000   0.000000   0.000000   0.000000   0.000000   0.000000
     10       0.000000   0.000000   0.000000   0.000000   0.000000   0.000000
     11       0.000000   0.000000   0.000000   0.000000   0.000000   0.000000
     12       0.000000   0.000000   0.000000   0.000000   0.000000   0.000000
     13       0.000000   0.000000   0.000000   0.000000   0.000000   0.000000
     14       0.000000   0.000000   0.000000   0.000000   0.000000   0.000000
     15       0.000000   0.000000   0.000000   0.000000   0.000000   0.000000
     16       0.000000   0.000000   0.000000   0.000000   0.000000   0.000000
     17       0.000000   0.000000   0.000000   0.000000   0.000000   0.000000
     18       0.000000   0.000000   0.000000   0.000000   0.000000   0.000000
     19       0.000000   0.000000   0.000000   0.000000   0.000000   0.000000
     20       0.000000   0.000000   0.000000   0.000000   0.000000   0.000000
     21       0.000000   0.000000   0.000000   0.000000   0.000000   0.000000
     22       0.000000   0.000000   0.000000   0.000000   0.000000   0.000000
     23       0.000000   0.000000   0.000000   0.000000   0.000000   0.000000
                  6          7          8          9         10         11    
      0       0.000406   0.000276  -0.000050   0.300465  -0.000497  -0.000075
      1      -0.000629   0.034083  -0.034338   0.000132  -0.138254   0.047773
      2      -0.001144  -0.034124  -0.034253   0.000458   0.047596   0.138179
      3       0.000406   0.000276  -0.000050  -0.300465   0.000497   0.000075
      4      -0.000629   0.034083  -0.034338  -0.000132   0.138254  -0.047773
      5      -0.001144  -0.034124  -0.034253  -0.000458  -0.047596  -0.138180
      6       0.006789   0.193327   0.466346   0.366721   0.029076  -0.494011
      7      -0.377016  -0.167578   0.146040   0.007248   0.250334  -0.014122
      8       0.154966   0.132954   0.097444   0.019708  -0.097360  -0.056343
      9      -0.007913   0.306347  -0.400794   0.369023  -0.439539   0.217238
     10       0.057711  -0.119960   0.103722  -0.021096   0.067465   0.009432
     11      -0.397471   0.167027   0.160654  -0.002640  -0.115047  -0.238704
     12      -0.003718  -0.502962  -0.064957   0.371085   0.413702   0.270700
     13       0.326800  -0.118584   0.159395   0.012880   0.144478  -0.161679
     14       0.256140   0.106628   0.150052  -0.017179   0.051218  -0.165903
     15      -0.003718  -0.502962  -0.064956  -0.371084  -0.413702  -0.270699
     16       0.326800  -0.118584   0.159396  -0.012879  -0.144477   0.161679
     17       0.256140   0.106628   0.150052   0.017179  -0.051218   0.165903
     18      -0.007913   0.306346  -0.400795  -0.369023   0.439539  -0.217237
     19       0.057711  -0.119960   0.103721   0.021096  -0.067465  -0.009433
     20      -0.397471   0.167027   0.160654   0.002640   0.115048   0.238705
     21       0.006789   0.193327   0.466346  -0.366722  -0.029076   0.494011
     22      -0.377017  -0.167578   0.146039  -0.007248  -0.250335   0.014122
     23       0.154966   0.132954   0.097444  -0.019708   0.097360   0.056343
                 12         13         14         15         16         17    
      0       0.092618  -0.114767   0.000503   0.002050  -0.000373   0.001728
      1      -0.000374   0.000712  -0.017346   0.008741   0.044726   0.019554
      2       0.001105  -0.000159  -0.008162  -0.018224   0.019275  -0.044861
      3       0.092617   0.114768  -0.000503  -0.002050  -0.000373   0.001728
      4      -0.000374  -0.000712   0.017344  -0.008742   0.044727   0.019554
      5       0.001105   0.000159   0.008162   0.018225   0.019276  -0.044860
      6      -0.364375   0.353167  -0.231298  -0.193797   0.167876  -0.164366
      7      -0.054277   0.058165   0.251448  -0.371911  -0.299642  -0.372830
      8      -0.157350   0.166042  -0.202702   0.064657   0.220563   0.053997
      9      -0.368531   0.361700   0.275964  -0.111165  -0.218240  -0.069832
     10       0.168687  -0.178575  -0.133698  -0.017750   0.138795  -0.031288
     11       0.013877  -0.012663   0.146466   0.455069  -0.121937   0.497625
     12      -0.370701   0.367884  -0.049508   0.282041   0.054803   0.213603
     13      -0.109951   0.114312   0.360145   0.136816  -0.372091   0.171122
     14       0.130302  -0.140931   0.306913  -0.038585  -0.328297  -0.017070
     15      -0.370698  -0.367886   0.049501  -0.282050   0.054800   0.213597
     16      -0.109951  -0.114312  -0.360137  -0.136815  -0.372106   0.171107
     17       0.130300   0.140932  -0.306902   0.038592  -0.328307  -0.017079
     18      -0.368530  -0.361704  -0.275954   0.111170  -0.218247  -0.069834
     19       0.168686   0.178577   0.133694   0.017749   0.138800  -0.031284
     20       0.013878   0.012665  -0.146475  -0.455083  -0.121950   0.497604
     21      -0.364371  -0.353171   0.231298   0.193799   0.167887  -0.164351
     22      -0.054279  -0.058168  -0.251427   0.371928  -0.299645  -0.372824
     23      -0.157347  -0.166043   0.202694  -0.064662   0.220569   0.054001
                 18         19         20         21         22         23    
      0      -0.037142   0.035280   0.000203   0.000235  -0.000367  -0.000109
      1       0.000510  -0.000574   0.048170   0.043989  -0.056507  -0.033550
      2      -0.000082   0.000224  -0.043971   0.048238   0.033529  -0.056532
      3       0.037148   0.035275  -0.000203  -0.000234  -0.000367  -0.000109
      4      -0.000509  -0.000574  -0.048169  -0.043988  -0.056508  -0.033551
      5       0.000082   0.000224   0.043971  -0.048238   0.033528  -0.056532
      6       0.142525  -0.140062  -0.072818   0.193911   0.032893  -0.208262
      7      -0.144061   0.144129   0.083815  -0.183775  -0.043016   0.197067
      8      -0.355268   0.355113   0.168927  -0.465968  -0.072590   0.489740
      9       0.140760  -0.138714  -0.133875  -0.160632   0.166485   0.132092
     10       0.374384  -0.374833  -0.340014  -0.411264   0.416339   0.332183
     11       0.052345  -0.052180  -0.058893  -0.047537   0.065620   0.036452
     12       0.143120  -0.141611   0.203633  -0.035768  -0.195002   0.077472
     13      -0.236261   0.237549  -0.320987   0.068265   0.299991  -0.129477
     14       0.303711  -0.305597   0.416397  -0.064057  -0.392547   0.147423
     15      -0.143141  -0.141589  -0.203633   0.035770  -0.195004   0.077470
     16       0.236297   0.237512   0.320987  -0.068268   0.299994  -0.129472
     17      -0.303757  -0.305549  -0.416396   0.064062  -0.392550   0.147417
     18      -0.140783  -0.138694   0.133872   0.160627   0.166488   0.132095
     19      -0.374445  -0.374777   0.340005   0.411252   0.416348   0.332190
     20      -0.052353  -0.052172   0.058892   0.047536   0.065621   0.036454
     21      -0.142547  -0.140039   0.072820  -0.193910   0.032889  -0.208263
     22       0.144083   0.144106  -0.083816   0.183774  -0.043013   0.197067
     23       0.355323   0.355056  -0.168932   0.465967  -0.072582   0.489743
# -----------------------------------------------------------
$ THERMOCHEMISTRY_Energies
   description: The Thermochemistry energies
   geom. index: 6
   prop. index: 1
        Temperature (Kelvin)           :        298.1500000000
        Pressure (atm)                 :          1.0000000000
        Total Mass (AMU)               :         30.0700000000
        Spin Degeneracy                :          1.0000000000
        Electronic Energy (Hartree)    :        -79.7850551103
        Translational Energy (Hartree) :          0.0014162714
        Rotational Energy (Hartree)    :          0.0014162714
        Vibrational Energy (Hartree)   :          0.0006478495
        Number of frequencies          :     24      
        Scaling Factor for frequencies :          1.0000000000
        Vibrational frequencies        :     
                  0    
      0       0.000000
      1       0.000000
      2       0.000000
      3       0.000000
      4       0.000000
      5       0.000000
      6     316.138622
      7     814.818069
      8     821.090728
      9     1026.328886
     10     1209.700446
     11     1210.776248
     12     1398.218043
     13     1416.123756
     14     1482.212992
     15     1486.139613
     16     1487.386820
     17     1491.546260
     18     3034.571604
     19     3036.526151
     20     3095.172532
     21     3097.174017
     22     3119.077456
     23     3120.466404
        Zero Point Energy (Hartree)    :          0.0744128569
        Inner Energy (Hartree)         :        -79.7071618610
        Enthalpy (Hartree)             :        -79.7062176519
        Electronic entropy             :          0.0000000000
        Rotational entropy             :          0.0094122636
        Vibrational entropy            :          0.0009354108
        Translational entropy          :          0.0094122636
        Entropy                        :          0.0275170650
        Gibbs Energy (Hartree)         :        -79.7337347170
        Is Linear                      :                 false
# -------------------------------------------------------------
----------------------- !GEOMETRIES! ------------------------
# -------------------------------------------------------------
------------------------ !GEOMETRY! -------------------------
    Number of atoms:    8 
    Geometry Index:     1 
    Coordinates:
               0 C     -1.069770000000    0.342760000000    0.000000000000
               1 C      0.442290000000    0.342760000000   -0.000000000000
               2 H     -1.454140000000    0.727780000000    0.949230000000
               3 H     -1.454140000000   -0.671810000000   -0.141180000000
               4 H     -1.454140000000    0.972310000000   -0.808050000000
               5 H      0.826660000000   -0.286790000000    0.808050000000
               6 H      0.826660000000    1.357330000000    0.141180000000
               7 H      0.826660000000   -0.042260000000   -0.949230000000
------------------------ !GEOMETRY! -------------------------
    Number of atoms:    8 
    Geometry Index:     2 
    Coordinates:
               0 C     -1.072253183486    0.342720491296    0.000014320734
               1 C      0.444773176456    0.342799456944   -0.000014278381
               2 H     -1.463617004367    0.725676750964    0.944135813144
               3 H     -1.463670297971   -0.666347808476   -0.140406325992
               4 H     -1.463507873583    0.968869707896   -0.803668380818
               5 H      0.836028116113   -0.283349780831    0.803668284493
               6 H      0.836190167140    1.351867817591    0.140406421803
               7 H      0.836136899698   -0.040156635385   -0.944135854984
------------------------ !GEOMETRY! -------------------------
    Number of atoms:    8 
    Geometry Index:     3 
    Coordinates:
               0 C     -1.072155576610    0.342673694115   -0.000000002725
               1 C      0.444675569322    0.342846248208    0.000000119002
               2 H     -1.469919431692    0.724566115677    0.941460651283
               3 H     -1.470125571394   -0.663507220801   -0.140027808308
               4 H     -1.469856826750    0.967061107343   -0.801413099034
               5 H      0.842377269969   -0.281541349124    0.801412855505
               6 H      0.842645429473    1.349027151589    0.140028101063
               7 H      0.842439137681   -0.039045747007   -0.941460816787
------------------------ !GEOMETRY! -------------------------
    Number of atoms:    8 
    Geometry Index:     4 
    Coordinates:
               0 C     -1.071047381579    0.342651949159   -0.000023832587
               1 C      0.443567371718    0.342867987385    0.000023974501
               2 H     -1.471358766254    0.724332600267    0.940878468433
               3 H     -1.471668043297   -0.662900741618   -0.139973501504
               4 H     -1.471384442891    0.966660052797   -0.800943282216
               5 H      0.843904924499   -0.281140422184    0.800942908155
               6 H      0.844187932805    1.348420674002    0.139973975312
               7 H      0.843878404998   -0.038812099808   -0.940878710094
------------------------ !GEOMETRY! -------------------------
    Number of atoms:    8 
    Geometry Index:     5 
    Coordinates:
               0 C     -1.070368613898    0.342646713457   -0.000039615671
               1 C      0.442888608419    0.342873235911    0.000039713570
               2 H     -1.471224692896    0.724353155033    0.940901112678
               3 H     -1.471575646356   -0.662932829760   -0.139999874266
               4 H     -1.471310239043    0.966671131031   -0.800975584057
               5 H      0.843830601192   -0.281151482136    0.800975243485
               6 H      0.844095568288    1.348452771946    0.140000329028
               7 H      0.843744414294   -0.038832695481   -0.940901324766
------------------------ !GEOMETRY! -------------------------
    Number of atoms:    8 
    Geometry Index:     6 
    Coordinates:
               0 C     -1.070294459088    0.342647306629   -0.000043095050
               1 C      0.442814454171    0.342872652617    0.000043189462
               2 H     -1.471078944988    0.724378339736    0.940949044964
               3 H     -1.471433609891   -0.662985880910   -0.140013458551
               4 H     -1.471179128477    0.966703315284   -0.801018203847
               5 H      0.843699473738   -0.281183664034    0.801017875993
               6 H      0.843953533028    1.348505821587    0.140013900468
               7 H      0.843598681507   -0.038857890908   -0.940949253439
