8
Coordinates from ORCA-job ethane_M06-D3ZERO_aug-cc-pVTZ E -79.784554644126
  C      -1.069770      0.342760      0.000000
  C       0.442290      0.342760     -0.000000
  H      -1.454140      0.727780      0.949230
  H      -1.454140     -0.671810     -0.141180
  H      -1.454140      0.972310     -0.808050
  H       0.826660     -0.286790      0.808050
  H       0.826660      1.357330      0.141180
  H       0.826660     -0.042260     -0.949230
8
Coordinates from ORCA-job ethane_M06-D3ZERO_aug-cc-pVTZ E -79.784795966870
  C      -1.072337      0.342699      0.000004
  C       0.444857      0.342821     -0.000004
  H      -1.463315      0.725250      0.943257
  H      -1.463337     -0.665407     -0.140176
  H      -1.463074      0.968325     -0.802916
  H       0.835594     -0.282805      0.802916
  H       0.835857      1.350927      0.140176
  H       0.835835     -0.039729     -0.943257
8
Coordinates from ORCA-job ethane_M06-D3ZERO_aug-cc-pVTZ E -79.784848736495
  C      -1.072358      0.342640     -0.000025
  C       0.444878      0.342880      0.000025
  H      -1.469118      0.724108      0.940631
  H      -1.469276     -0.662633     -0.139728
  H      -1.468833      0.966588     -0.800703
  H       0.841353     -0.281069      0.800702
  H       0.841796      1.348153      0.139729
  H       0.841638     -0.038588     -0.940632
8
Coordinates from ORCA-job ethane_M06-D3ZERO_aug-cc-pVTZ E -79.784860139262
  C      -1.071319      0.342610     -0.000061
  C       0.443839      0.342910      0.000062
  H      -1.470933      0.723815      0.939959
  H      -1.471203     -0.661944     -0.139629
  H      -1.470709      0.966146     -0.800161
  H       0.843229     -0.280626      0.800161
  H       0.843723      1.347464      0.139630
  H       0.843453     -0.038295     -0.939960
8
Coordinates from ORCA-job ethane_M06-D3ZERO_aug-cc-pVTZ E -79.784861702009
  C      -1.070624      0.342605     -0.000084
  C       0.443144      0.342915      0.000084
  H      -1.470931      0.723831      0.939975
  H      -1.471249     -0.661973     -0.139653
  H      -1.470773      0.966157     -0.800191
  H       0.843294     -0.280637      0.800191
  H       0.843769      1.347493      0.139653
  H       0.843451     -0.038311     -0.939975
8
Coordinates from ORCA-job ethane_M06-D3ZERO_aug-cc-pVTZ E -79.784861758531
  C      -1.070529      0.342607     -0.000088
  C       0.443049      0.342913      0.000089
  H      -1.470769      0.723864      0.940033
  H      -1.471091     -0.662036     -0.139672
  H      -1.470634      0.966194     -0.800242
  H       0.843154     -0.280674      0.800242
  H       0.843611      1.347556      0.139672
  H       0.843288     -0.038344     -0.940033
