20
Coordinates from ORCA-job hexane_M06-D3ZERO_6-311G_d-p_
  C   -5.60796269923426     -0.89101263497176     -0.00757433782689
  C   -4.35635874737207     -0.03390623127588     -0.03076429871916
  H   -6.52021616213842     -0.28813026010962     -0.03156404913017
  H   -5.64165105703138     -1.50978246456969      0.89642642590825
  H   -5.63423991574206     -1.56915857736069     -0.86814409230313
  C   -3.08142539036477     -0.85801067309907      0.01232810245696
  H   -4.36298515251429      0.66264493742944      0.81958269594398
  H   -4.34878495427408      0.59451018461987     -0.93274318428972
  C   -1.81871156300283     -0.01687245106436     -0.00850295456382
  H   -3.07013993422299     -1.55638106968635     -0.83898612337171
  H   -3.08586021062088     -1.48889070466388      0.91492351383545
  C   -0.54377787633063     -0.84097606452830      0.03459314947458
  H   -1.82999844474182      0.68149968227254      0.84280991278764
  H   -1.81427557043780      0.61400605984903     -0.91109941982277
  C   0.70782541484648      0.01613129730246      0.01140106608607
  H   -0.53715041048285     -1.53753054926407     -0.81575111205489
  H   -0.55135194243792     -1.46938901105846      0.93657446599934
  H   0.74151321466509      0.63489898922739     -0.89260117844397
  H   1.62007947318297     -0.58675003897632      0.03539242412889
  H   0.73410192825455      0.69427957992772      0.87196899390509
