5
Coordinates from ORCA-job methane_M06-D3ZERO_def2-TZVP
  C   -0.85701522073515      0.34273736374641      0.00011915227622
  H   0.23115136744990      0.34284053350107     -0.00017694709610
  H   -1.21992409205477      0.72834225201545      0.95076600354241
  H   -1.21987284254543     -0.67334475868758     -0.14139645873220
  H   -1.21966921211454      0.97322460942465     -0.80930174999033
