11
Coordinates from ORCA-job propane_M06-D3ZERO_cc-pVDZ
  C   -1.14975316586916      0.22274987361849     -0.01834023094975
  C   0.36780620311923      0.19175869907622     -0.01843858164869
  H   -1.53820254649611      0.62416450391039      0.93366417823049
  H   -1.58927400171257     -0.77707448721927     -0.15971193784478
  H   -1.53377961125579      0.87257196662786     -0.82344731677473
  H   0.72719311186250     -0.48495982202577      0.77803965796226
  C   0.96875556256157      1.57291865358066      0.17123642304400
  H   0.73337370731485     -0.24453666772504     -0.96592220653920
  H   0.63318477079191      2.02277666792784      1.12138697587660
  H   0.65708661511503      2.25428561205914     -0.63900458890094
  H   2.06955935456854      1.55162500016948      0.18213762754474
