11
Coordinates from ORCA-job propane_M06-D3ZERO_STO-3G
  C   -1.17250489899742      0.22034743043989     -0.02065795038268
  C   0.37477543245941      0.18094925886925     -0.01933443694102
  H   -1.54884759955148      0.62802463252293      0.93358421148205
  H   -1.59338910285852     -0.79043448918602     -0.15820450175478
  H   -1.54130102973729      0.86480306154076     -0.83759434864658
  H   0.72638549610332     -0.48648866835901      0.79055669879015
  C   0.98030365576580      1.59195293620834      0.17513407579240
  H   0.73355709808065     -0.24678013442430     -0.97496458269382
  H   0.64932976179709      2.02458001395307      1.13526903325422
  H   0.65447080638113      2.26700033778650     -0.63528525049100
  H   2.08317038055731      1.55232562064859      0.17309705159104
