-------------------------------------------------------------
----------------------- !PROPERTIES! ------------------------
-------------------------------------------------------------
# -----------------------------------------------------------
$ SCF_Energy
   description: The SCF energy
   geom. index: 1
   prop. index: 1
        SCF Energy:     -119.0794198118
# -----------------------------------------------------------
$ DFT_Energy
   description: The DFT energy
   geom. index: 1
   prop. index: 1
   Number of Alpha Electrons        13.0000309458 
   Number of Alpha Electrons        13.0000309458 
   Total nuber of  Electrons        26.0000618916 
   Exchange energy                   0.0000000000 
   Correlation energy                0.0000000000 
   Correlantion energy NL            0.0000000000 
   Exchange-Correlation energy     -14.2237577614 
   Embedding correction              0.0000000000 
# -----------------------------------------------------------
$ VdW_Correction
   description: The Van der Waals Correction
   geom. index: 1
   prop. index: 1
        Van der Waals Correction:       -0.0003874677
# -----------------------------------------------------------
$ SCF_Energy
   description: The SCF energy
   geom. index: 2
   prop. index: 1
        SCF Energy:     -119.0796336951
# -----------------------------------------------------------
$ DFT_Energy
   description: The DFT energy
   geom. index: 2
   prop. index: 1
   Number of Alpha Electrons        13.0000299132 
   Number of Alpha Electrons        13.0000299132 
   Total nuber of  Electrons        26.0000598265 
   Exchange energy                   0.0000000000 
   Correlation energy                0.0000000000 
   Correlantion energy NL            0.0000000000 
   Exchange-Correlation energy     -14.2285946979 
   Embedding correction              0.0000000000 
# -----------------------------------------------------------
$ VdW_Correction
   description: The Van der Waals Correction
   geom. index: 2
   prop. index: 1
        Van der Waals Correction:       -0.0003872183
# -----------------------------------------------------------
$ SCF_Energy
   description: The SCF energy
   geom. index: 3
   prop. index: 1
        SCF Energy:     -119.0797163479
# -----------------------------------------------------------
$ DFT_Energy
   description: The DFT energy
   geom. index: 3
   prop. index: 1
   Number of Alpha Electrons        13.0000284157 
   Number of Alpha Electrons        13.0000284157 
   Total nuber of  Electrons        26.0000568313 
   Exchange energy                   0.0000000000 
   Correlation energy                0.0000000000 
   Correlantion energy NL            0.0000000000 
   Exchange-Correlation energy     -14.2302822940 
   Embedding correction              0.0000000000 
# -----------------------------------------------------------
$ VdW_Correction
   description: The Van der Waals Correction
   geom. index: 3
   prop. index: 1
        Van der Waals Correction:       -0.0003870456
# -----------------------------------------------------------
$ SCF_Energy
   description: The SCF energy
   geom. index: 4
   prop. index: 1
        SCF Energy:     -119.0797217645
# -----------------------------------------------------------
$ DFT_Energy
   description: The DFT energy
   geom. index: 4
   prop. index: 1
   Number of Alpha Electrons        13.0000279132 
   Number of Alpha Electrons        13.0000279132 
   Total nuber of  Electrons        26.0000558263 
   Exchange energy                   0.0000000000 
   Correlation energy                0.0000000000 
   Correlantion energy NL            0.0000000000 
   Exchange-Correlation energy     -14.2298362681 
   Embedding correction              0.0000000000 
# -----------------------------------------------------------
$ VdW_Correction
   description: The Van der Waals Correction
   geom. index: 4
   prop. index: 1
        Van der Waals Correction:       -0.0003869679
# -----------------------------------------------------------
$ SCF_Energy
   description: The SCF energy
   geom. index: 5
   prop. index: 1
        SCF Energy:     -119.0797224339
# -----------------------------------------------------------
$ DFT_Energy
   description: The DFT energy
   geom. index: 5
   prop. index: 1
   Number of Alpha Electrons        13.0000276958 
   Number of Alpha Electrons        13.0000276958 
   Total nuber of  Electrons        26.0000553916 
   Exchange energy                   0.0000000000 
   Correlation energy                0.0000000000 
   Correlantion energy NL            0.0000000000 
   Exchange-Correlation energy     -14.2295943845 
   Embedding correction              0.0000000000 
# -----------------------------------------------------------
$ VdW_Correction
   description: The Van der Waals Correction
   geom. index: 5
   prop. index: 1
        Van der Waals Correction:       -0.0003869359
# -----------------------------------------------------------
$ SCF_Energy
   description: The SCF energy
   geom. index: 6
   prop. index: 1
        SCF Energy:     -119.0797224360
# -----------------------------------------------------------
$ DFT_Energy
   description: The DFT energy
   geom. index: 6
   prop. index: 1
   Number of Alpha Electrons        13.0000276699 
   Number of Alpha Electrons        13.0000276699 
   Total nuber of  Electrons        26.0000553398 
   Exchange energy                   0.0000000000 
   Correlation energy                0.0000000000 
   Correlantion energy NL            0.0000000000 
   Exchange-Correlation energy     -14.2295902686 
   Embedding correction              0.0000000000 
# -----------------------------------------------------------
$ VdW_Correction
   description: The Van der Waals Correction
   geom. index: 6
   prop. index: 1
        Van der Waals Correction:       -0.0003869412
# -----------------------------------------------------------
$ SCF_Electric_Properties
   description: The SCF Calculated Electric Properties
   geom. index: 6
   prop. index: 1
       Filename                          : propane_M06-D3ZERO_def2-TZVP.scfp 
       Do Dipole Moment Calculation      : true 
       Do Quadrupole Moment Calculation  : false 
       Do Polarizability Calculation     : false 
** Dipole moment part of electric properties **
        Magnitude of dipole moment (Debye) :        0.0946635554
        Electronic Contribution:
                  0    
      0       0.277992
      1      -0.426494
      2      -0.056427
        Nuclear Contribution:
                  0    
      0      -0.257976
      1       0.395337
      2       0.052471
        Total Dipole moment:
                  0    
      0       0.020016
      1      -0.031156
      2      -0.003957
# -----------------------------------------------------------
$ Hessian
   description: Details about the Hessian
   geom. index: 6
   prop. index: 1
Normal modes:
Number of Rows: 33 Number of Columns: 33
                  0          1          2          3          4          5    
      0       0.000000   0.000000   0.000000   0.000000   0.000000   0.000000
      1       0.000000   0.000000   0.000000   0.000000   0.000000   0.000000
      2       0.000000   0.000000   0.000000   0.000000   0.000000   0.000000
      3       0.000000   0.000000   0.000000   0.000000   0.000000   0.000000
      4       0.000000   0.000000   0.000000   0.000000   0.000000   0.000000
      5       0.000000   0.000000   0.000000   0.000000   0.000000   0.000000
      6       0.000000   0.000000   0.000000   0.000000   0.000000   0.000000
      7       0.000000   0.000000   0.000000   0.000000   0.000000   0.000000
      8       0.000000   0.000000   0.000000   0.000000   0.000000   0.000000
      9       0.000000   0.000000   0.000000   0.000000   0.000000   0.000000
     10       0.000000   0.000000   0.000000   0.000000   0.000000   0.000000
     11       0.000000   0.000000   0.000000   0.000000   0.000000   0.000000
     12       0.000000   0.000000   0.000000   0.000000   0.000000   0.000000
     13       0.000000   0.000000   0.000000   0.000000   0.000000   0.000000
     14       0.000000   0.000000   0.000000   0.000000   0.000000   0.000000
     15       0.000000   0.000000   0.000000   0.000000   0.000000   0.000000
     16       0.000000   0.000000   0.000000   0.000000   0.000000   0.000000
     17       0.000000   0.000000   0.000000   0.000000   0.000000   0.000000
     18       0.000000   0.000000   0.000000   0.000000   0.000000   0.000000
     19       0.000000   0.000000   0.000000   0.000000   0.000000   0.000000
     20       0.000000   0.000000   0.000000   0.000000   0.000000   0.000000
     21       0.000000   0.000000   0.000000   0.000000   0.000000   0.000000
     22       0.000000   0.000000   0.000000   0.000000   0.000000   0.000000
     23       0.000000   0.000000   0.000000   0.000000   0.000000   0.000000
     24       0.000000   0.000000   0.000000   0.000000   0.000000   0.000000
     25       0.000000   0.000000   0.000000   0.000000   0.000000   0.000000
     26       0.000000   0.000000   0.000000   0.000000   0.000000   0.000000
     27       0.000000   0.000000   0.000000   0.000000   0.000000   0.000000
     28       0.000000   0.000000   0.000000   0.000000   0.000000   0.000000
     29       0.000000   0.000000   0.000000   0.000000   0.000000   0.000000
     30       0.000000   0.000000   0.000000   0.000000   0.000000   0.000000
     31       0.000000   0.000000   0.000000   0.000000   0.000000   0.000000
     32       0.000000   0.000000   0.000000   0.000000   0.000000   0.000000
                  6          7          8          9         10         11    
      0      -0.001671  -0.000133   0.113404  -0.000220  -0.188057   0.040555
      1       0.003270   0.002811   0.138976  -0.001916  -0.048547   0.013413
      2      -0.038800  -0.029741   0.018066   0.014555   0.017808   0.066385
      3      -0.001972  -0.000152   0.092233  -0.000037   0.092289  -0.018924
      4      -0.001326  -0.011719  -0.141955  -0.012096  -0.133970   0.033670
      5       0.023994   0.084938  -0.017309   0.078846  -0.016207   0.008505
      6      -0.044370  -0.092053   0.277279  -0.262446  -0.241466  -0.397071
      7       0.274874  -0.431984   0.276350   0.056645   0.077552   0.002344
      8      -0.172326   0.118371   0.026874  -0.120221  -0.057920  -0.113790
      9       0.004856  -0.004592  -0.198627  -0.008170  -0.450759   0.174922
     10      -0.035314   0.073076   0.276304   0.020838   0.075568  -0.007615
     11       0.220584  -0.527869   0.037765  -0.125417  -0.071719  -0.210358
     12       0.042057   0.084063   0.280635   0.271226   0.048485   0.358333
     13      -0.228793   0.383229   0.263093  -0.021018   0.041004  -0.055911
     14      -0.244146   0.233685   0.037649  -0.131484  -0.027195  -0.143362
     15      -0.020580  -0.054741   0.078558   0.249588   0.167489   0.249780
     16       0.015738   0.062920  -0.123957  -0.354620  -0.094568   0.188577
     17       0.046904   0.172715   0.001595  -0.330399  -0.017472   0.019171
     18       0.002436   0.000737  -0.172777  -0.002069   0.146914  -0.019438
     19      -0.002263   0.006759  -0.045923  -0.000946   0.135527  -0.027706
     20       0.018472  -0.045140  -0.007584   0.017946  -0.006935  -0.069222
     21       0.016838   0.053788   0.077483  -0.232911  -0.070324  -0.350582
     22      -0.023357  -0.102824  -0.128339   0.420873  -0.233225  -0.161165
     23       0.041442   0.148215  -0.027257  -0.217187  -0.032965  -0.030412
     24       0.395083   0.230565  -0.358334   0.084672  -0.157333  -0.136475
     25      -0.192030   0.007571  -0.157425   0.296859  -0.096106  -0.393458
     26       0.243140   0.033905  -0.018977  -0.093773   0.000671   0.065548
     27      -0.385020  -0.225037  -0.379735  -0.073219  -0.062870   0.098009
     28       0.135342  -0.009282  -0.133807  -0.255655   0.173106   0.289637
     29       0.286679   0.029753  -0.001576  -0.173249   0.105991   0.159985
     30       0.005523   0.002630  -0.168802  -0.001028   0.157336  -0.023040
     31       0.057342   0.042905   0.310471   0.014313   0.616582  -0.093300
     32      -0.465955  -0.328606   0.025280  -0.135043   0.164170   0.185681
                 12         13         14         15         16         17    
      0      -0.002752   0.164384  -0.042325  -0.000256   0.003079   0.016253
      1       0.086016  -0.020732   0.129205   0.016776  -0.003855  -0.052689
      2      -0.000204  -0.004995   0.018833  -0.116313   0.074308   0.001014
      3       0.017071  -0.204708   0.104535  -0.001205  -0.017205   0.144844
      4       0.029886  -0.128864  -0.159670  -0.025987  -0.012093   0.092437
      5       0.006086  -0.018716  -0.025421   0.177532  -0.003353   0.013863
      6      -0.206179   0.235048  -0.326566   0.342101  -0.181080  -0.126875
      7      -0.188388  -0.021898  -0.204887  -0.098098   0.040433   0.106616
      8       0.032473   0.019379   0.039672   0.083504  -0.021505  -0.113763
      9       0.501462   0.184766   0.380459   0.011539   0.021981  -0.264959
     10      -0.142570  -0.029646  -0.066198  -0.036987   0.012783   0.068535
     11       0.017818   0.000855  -0.004312   0.236475  -0.107644  -0.007831
     12      -0.322048   0.211697  -0.312073  -0.349344   0.183703  -0.099991
     13      -0.158662  -0.011410  -0.181568   0.077996  -0.060020   0.051279
     14      -0.040942  -0.013504  -0.095240   0.109482  -0.055230   0.124359
     15      -0.237827  -0.457794   0.096472   0.193266  -0.498591  -0.538286
     16      -0.139240  -0.290104  -0.146994  -0.297929  -0.311132  -0.349616
     17      -0.023126  -0.042162  -0.007204  -0.143968  -0.040892  -0.053945
     18       0.057746   0.047879  -0.098941  -0.000279   0.006408  -0.038008
     19      -0.063812   0.154239   0.091515   0.018019   0.010932   0.041823
     20       0.002874   0.024236   0.013253  -0.117152  -0.071398  -0.002588
     21      -0.151999  -0.472651   0.096141  -0.178051   0.578773  -0.413364
     22      -0.070600  -0.302384  -0.169188   0.312621   0.368296  -0.268665
     23      -0.013042  -0.042254  -0.027846  -0.050813   0.052181  -0.036138
     24      -0.231961   0.083875   0.302394  -0.053873  -0.033135   0.011212
     25      -0.113151   0.226462   0.198841  -0.354540  -0.174684  -0.184635
     26      -0.073572   0.008140   0.096899   0.048826   0.002669   0.108236
     27      -0.273128   0.075710   0.297612   0.058182   0.014788   0.013480
     28      -0.241466   0.193452   0.207048   0.340149   0.181100  -0.112150
     29      -0.021528   0.040589  -0.037643   0.145727   0.069147  -0.138740
     30       0.062962   0.049327  -0.096759  -0.003077   0.005529  -0.047905
     31       0.433388   0.180197  -0.364507  -0.048162   0.002988  -0.283335
     32       0.017575   0.022702  -0.043738   0.237259   0.106555  -0.028609
                 18         19         20         21         22         23    
      0      -0.080913   0.125840  -0.007582  -0.002546  -0.008716   0.000357
      1      -0.020780  -0.005355  -0.012126  -0.000720   0.033727  -0.003091
      2      -0.000075  -0.000215  -0.004015   0.029085   0.003178   0.037627
      3       0.067452  -0.020067  -0.020759  -0.002369   0.042494  -0.005358
      4       0.048379   0.003949   0.042210   0.007968   0.011878   0.000685
      5       0.006231   0.000156   0.004184  -0.005025   0.004187   0.029561
      6       0.252969  -0.433994  -0.068750   0.189158   0.140333   0.282644
      7       0.116021  -0.041128   0.158162   0.187520  -0.389295   0.288370
      8       0.069741  -0.199966  -0.096165   0.014318   0.236007   0.014686
      9       0.217965  -0.414236   0.139430   0.002377  -0.251776   0.000715
     10      -0.137822   0.216367  -0.072658   0.055070   0.122826   0.081178
     11      -0.026143   0.024838   0.039325  -0.390705   0.020081  -0.574123
     12       0.264589  -0.448353  -0.017259  -0.168864   0.132209  -0.279009
     13       0.128319  -0.105388   0.178348  -0.209984  -0.307753  -0.303384
     14      -0.034628   0.173860   0.149197  -0.073051  -0.324178  -0.085140
     15      -0.177503   0.027098   0.205522   0.064144  -0.134874   0.052094
     16      -0.113409   0.030695  -0.309335  -0.008194   0.005149  -0.052933
     17      -0.021925  -0.003215  -0.371579  -0.046181   0.073585  -0.035669
     18      -0.070631  -0.021495   0.023236   0.007421   0.024973  -0.005346
     19      -0.110818  -0.074476  -0.006322   0.006794  -0.022271  -0.003731
     20      -0.020551  -0.011374   0.005777  -0.039452   0.001754   0.022999
     21      -0.142303   0.017183   0.224140  -0.005907  -0.131977  -0.008515
     22      -0.094897   0.026373  -0.396961  -0.089871   0.037156   0.001599
     23      -0.008527   0.008356   0.281754   0.035139  -0.070758   0.030617
     24       0.334092   0.141565  -0.264831   0.332720  -0.273809  -0.226663
     25       0.348602   0.268643   0.203094   0.143397   0.266979  -0.110874
     26      -0.079869  -0.105749  -0.187439   0.026774  -0.230502  -0.012308
     27       0.300378   0.116489  -0.164774  -0.442889  -0.190853   0.302353
     28       0.313716   0.222771   0.175460  -0.111518   0.219496   0.079084
     29       0.178354   0.176872   0.222912   0.055486   0.279882  -0.036156
     30      -0.048166  -0.009992   0.007344  -0.000611   0.010689  -0.000322
     31       0.431064   0.285838  -0.219246  -0.133731  -0.232604   0.090085
     32       0.094523   0.061233  -0.108854   0.561621  -0.092782  -0.376537
                 24         25         26         27         28         29    
      0       0.009864   0.014102  -0.036207  -0.031712  -0.000048  -0.000614
      1       0.030420  -0.009645   0.010554   0.003545  -0.003953  -0.011148
      2      -0.001010  -0.001185   0.001021   0.000245   0.025932   0.067369
      3      -0.038349  -0.030215   0.007623  -0.020438   0.000633  -0.000068
      4       0.063188   0.046809  -0.008585   0.031597   0.011212  -0.000244
      5       0.005591   0.006119  -0.001203   0.003887  -0.083925   0.002231
      6       0.064075  -0.066823   0.149971   0.124244   0.068636   0.177840
      7      -0.361030   0.069460  -0.165881  -0.137255  -0.076773  -0.195680
      8       0.182268   0.171473  -0.396524  -0.324519  -0.172195  -0.439830
      9      -0.233662  -0.031381   0.123990   0.126695   0.001184   0.008057
     10       0.115490  -0.067998   0.306511   0.311926   0.001565   0.016878
     11       0.084849  -0.009456   0.042257   0.043046   0.007201   0.016845
     12       0.122559  -0.065879   0.148529   0.122322  -0.069215  -0.178341
     13      -0.229068   0.113404  -0.268255  -0.219854   0.123181   0.311897
     14      -0.249820  -0.147532   0.341734   0.277912  -0.150124  -0.380935
     15       0.161772   0.177638  -0.037800   0.121247   0.209282  -0.008317
     16      -0.222765  -0.339687   0.067486  -0.232228  -0.394394   0.007846
     17      -0.313306   0.420334  -0.085271   0.289914   0.459343  -0.011733
     18      -0.027135   0.000046  -0.007873   0.009739   0.000334  -0.002156
     19       0.002142  -0.028047  -0.032523   0.025773  -0.003544   0.008957
     20      -0.001360  -0.003450  -0.003925   0.003251   0.025481  -0.061966
     21       0.175236   0.181192  -0.039151   0.122426  -0.216444   0.008648
     22      -0.308962  -0.212995   0.042545  -0.143354   0.258551  -0.004823
     23       0.247934  -0.492333   0.101110  -0.335705   0.552345  -0.014312
     24       0.207335  -0.100876  -0.124223   0.098447   0.062902  -0.147657
     25      -0.198481   0.128884   0.153009  -0.123422  -0.079259   0.189434
     26       0.167426   0.293662   0.349924  -0.277896  -0.170019   0.402613
     27       0.181923  -0.098198  -0.121472   0.095578  -0.060888   0.144445
     28      -0.152108   0.206074   0.245753  -0.195698   0.123601  -0.297642
     29      -0.206196  -0.254358  -0.304409   0.239512  -0.146032   0.349809
     30      -0.016491   0.195785   0.334572  -0.305602  -0.006409   0.029146
     31       0.215999  -0.005781  -0.017103   0.014042  -0.000748   0.001109
     32       0.048463   0.000527   0.000112  -0.000231   0.006886  -0.013423
                 30         31         32    
      0      -0.000530  -0.007541  -0.006815
      1      -0.009619  -0.069619  -0.057187
      2       0.055648  -0.011619  -0.009830
      3      -0.000008   0.000388   0.005241
      4      -0.005538  -0.001087  -0.007954
      5       0.038154  -0.000041  -0.001994
      6       0.150504  -0.094090  -0.081017
      7      -0.160699   0.087487   0.072456
      8      -0.362732   0.236283   0.197944
      9       0.008059   0.266699   0.219658
     10       0.017399   0.615706   0.506217
     11       0.012092   0.084453   0.069440
     12      -0.152221  -0.081567  -0.068776
     13       0.258604   0.129103   0.104996
     14      -0.317062  -0.182034  -0.149548
     15      -0.092798  -0.004376  -0.024414
     16       0.175499   0.005659   0.046431
     17      -0.205707  -0.007607  -0.055054
     18       0.002732  -0.056028   0.067104
     19      -0.009248   0.018728  -0.021605
     20       0.062164   0.004815  -0.005955
     21       0.093032  -0.004273  -0.029331
     22      -0.111336   0.002706   0.035092
     23      -0.239692   0.007637   0.076588
     24       0.145167   0.064348  -0.075934
     25      -0.192617  -0.090332   0.111263
     26      -0.402629  -0.208945   0.253418
     27      -0.143433   0.048950  -0.056373
     28       0.304644  -0.117790   0.142032
     29      -0.353588   0.149231  -0.177780
     30      -0.034458   0.557158  -0.664636
     31      -0.000690  -0.013180   0.015151
     32       0.010878   0.002531  -0.003157
# -----------------------------------------------------------
$ THERMOCHEMISTRY_Energies
   description: The Thermochemistry energies
   geom. index: 6
   prop. index: 1
        Temperature (Kelvin)           :        298.1500000000
        Pressure (atm)                 :          1.0000000000
        Total Mass (AMU)               :         44.0970000000
        Spin Degeneracy                :          1.0000000000
        Electronic Energy (Hartree)    :       -119.0801093772
        Translational Energy (Hartree) :          0.0014162714
        Rotational Energy (Hartree)    :          0.0014162714
        Vibrational Energy (Hartree)   :          0.0016928038
        Number of frequencies          :     33      
        Scaling Factor for frequencies :          1.0000000000
        Vibrational frequencies        :     
                  0    
      0       0.000000
      1       0.000000
      2       0.000000
      3       0.000000
      4       0.000000
      5       0.000000
      6     204.867847
      7     294.342116
      8     379.724843
      9     729.568170
     10     893.798645
     11     900.229373
     12     926.872231
     13     1078.570157
     14     1175.159128
     15     1202.804253
     16     1305.490030
     17     1359.471820
     18     1397.151978
     19     1410.634861
     20     1467.673310
     21     1471.509252
     22     1475.760112
     23     1489.818444
     24     1493.911520
     25     3020.891411
     26     3022.662816
     27     3026.374903
     28     3053.136130
     29     3092.521939
     30     3100.685287
     31     3109.710262
     32     3111.305371
        Zero Point Energy (Hartree)    :          0.1029609800
        Inner Energy (Hartree)         :       -118.9726230506
        Enthalpy (Hartree)             :       -118.9716788415
        Electronic entropy             :          0.0000000000
        Rotational entropy             :          0.0107546032
        Vibrational entropy            :          0.0026473253
        Translational entropy          :          0.0107546032
        Entropy                        :          0.0311135581
        Gibbs Energy (Hartree)         :       -119.0027923996
        Is Linear                      :                 false
# -------------------------------------------------------------
----------------------- !GEOMETRIES! ------------------------
# -------------------------------------------------------------
------------------------ !GEOMETRY! -------------------------
    Number of atoms:    11 
    Geometry Index:     1 
    Coordinates:
               0 C     -1.152140000000    0.231070000000   -0.018920000000
               1 C      0.366720000000    0.193200000000   -0.017650000000
               2 H     -1.535600000000    0.623920000000    0.928200000000
               3 H     -1.556550000000   -0.776480000000   -0.157440000000
               4 H     -1.528180000000    0.862680000000   -0.830140000000
               5 H      0.714460000000   -0.466870000000    0.784710000000
               6 C      0.962020000000    1.578010000000    0.172880000000
               7 H      0.721840000000   -0.229430000000   -0.964050000000
               8 H      0.645370000000    2.013440000000    1.126050000000
               9 H      0.652810000000    2.252170000000   -0.632290000000
              10 H      2.055200000000    1.524570000000    0.170250000000
------------------------ !GEOMETRY! -------------------------
    Number of atoms:    11 
    Geometry Index:     2 
    Coordinates:
               0 C     -1.151659881908    0.226986282445   -0.019291788475
               1 C      0.365858021887    0.194708597370   -0.017539453149
               2 H     -1.534778593986    0.623025133851    0.924353963419
               3 H     -1.566768713943   -0.773514953047   -0.156878903044
               4 H     -1.527693430748    0.860837653755   -0.826097436871
               5 H      0.715618111516   -0.467988225157    0.779786435592
               6 C      0.965639092150    1.575915892721    0.172525396184
               7 H      0.723189793549   -0.231108447836   -0.959963161651
               8 H      0.645470813497    2.012556271205    1.121589054426
               9 H      0.654335242545    2.250224750657   -0.629070861138
              10 H      2.056739545440    1.534637044036    0.172186754708
------------------------ !GEOMETRY! -------------------------
    Number of atoms:    11 
    Geometry Index:     3 
    Coordinates:
               0 C     -1.148857732112    0.224134451112   -0.019438341900
               1 C      0.366148953355    0.194354884102   -0.017718466732
               2 H     -1.531679114278    0.625341613103    0.922266622066
               3 H     -1.578060577405   -0.769298101179   -0.156130916930
               4 H     -1.525146008765    0.862706814573   -0.822573171658
               5 H      0.718977817512   -0.472648887683    0.774931017569
               6 C      0.967159395907    1.572349337969    0.171960408130
               7 H      0.726573857347   -0.235967119983   -0.957121065009
               8 H      0.641141772240    2.011301799768    1.118059715648
               9 H      0.652116013867    2.247850798598   -0.627320541662
              10 H      2.057575622330    1.546154409620    0.174684740478
------------------------ !GEOMETRY! -------------------------
    Number of atoms:    11 
    Geometry Index:     4 
    Coordinates:
               0 C     -1.147462234368    0.224419760678   -0.019320648133
               1 C      0.366820080377    0.193295341048   -0.017900677896
               2 H     -1.530205282459    0.626950996230    0.922385030449
               3 H     -1.580130176933   -0.767844657352   -0.155943105474
               4 H     -1.523889810468    0.864500271477   -0.821816089832
               5 H      0.720508545724   -0.474893669274    0.773900567716
               6 C      0.966333390738    1.571275210671    0.171789012897
               7 H      0.727936099664   -0.238139480208   -0.956979038789
               8 H      0.638566839161    2.011019247025    1.117450016626
               9 H      0.650358565485    2.247142920781   -0.627421510324
              10 H      2.057113983079    1.548554058923    0.175456442759
------------------------ !GEOMETRY! -------------------------
    Number of atoms:    11 
    Geometry Index:     5 
    Coordinates:
               0 C     -1.146847470329    0.224842785141   -0.019204426990
               1 C      0.367260036025    0.192597882885   -0.018016732886
               2 H     -1.529560580483    0.627641667037    0.922593012629
               3 H     -1.580558269538   -0.767165455418   -0.155913613973
               4 H     -1.523382733408    0.865472236400   -0.821434136354
               5 H      0.721268619586   -0.475965037735    0.773492120632
               6 C      0.965698104579    1.570922317475    0.171715978999
               7 H      0.728509408334   -0.239138186451   -0.957050088140
               8 H      0.637242895839    2.011044801116    1.117153861580
               9 H      0.649634657237    2.246828111721   -0.627643442162
              10 H      2.056685332159    1.549198877828    0.175907466665
------------------------ !GEOMETRY! -------------------------
    Number of atoms:    11 
    Geometry Index:     6 
    Coordinates:
               0 C     -1.146807072223    0.224934124083   -0.019155014134
               1 C      0.367334747528    0.192481228458   -0.018044656163
               2 H     -1.529511990316    0.627604404607    0.922685081446
               3 H     -1.580530213035   -0.767076599857   -0.155953964800
               4 H     -1.523394511032    0.865627711735   -0.821288658272
               5 H      0.721394240212   -0.476098803297    0.773400110088
               6 C      0.965598834915    1.570926364773    0.171696574772
               7 H      0.728535053534   -0.239229984377   -0.957087941196
               8 H      0.637002229106    2.011156552143    1.117018975948
               9 H      0.649726001872    2.246758630717   -0.627780202971
              10 H      2.056602679441    1.549196371015    0.176109695282
