# avogadro generated ORCA input file 
# Basic Mode
# MQT Intensive - H2 Scan
! UKS BPW91 def2-QZVPP Opt
%scf BrokenSym 1,1
end
%geom Scan
   B 0 1 = 0.1, 10.0, 100
end
end

* xyz 0 1
   H       -1.22864        0.39238        0.00205
   H       -1.73225        0.50263       -0.96966
*