2
Coordinates from ORCA-job .\H2_DFT E   2.471482081672
  H      -1.457554      0.442494     -0.439636
  H      -1.503336      0.452516     -0.527974
2
Coordinates from ORCA-job .\H2_DFT E   2.471482081573
  H      -1.457554      0.442494     -0.439636
  H      -1.503336      0.452516     -0.527974
2
Coordinates from ORCA-job .\H2_DFT E   0.001048325607
  H      -1.434662      0.437482     -0.395468
  H      -1.526228      0.457528     -0.572142
2
Coordinates from ORCA-job .\H2_DFT E   0.001048325553
  H      -1.434662      0.437482     -0.395468
  H      -1.526228      0.457528     -0.572142
2
Coordinates from ORCA-job .\H2_DFT E  -0.703167111504
  H      -1.411771      0.432471     -0.351299
  H      -1.549119      0.462539     -0.616311
2
Coordinates from ORCA-job .\H2_DFT E  -0.703167111543
  H      -1.411771      0.432471     -0.351299
  H      -1.549119      0.462539     -0.616311
2
Coordinates from ORCA-job .\H2_DFT E  -0.982790953994
  H      -1.388879      0.427460     -0.307130
  H      -1.572011      0.467550     -0.660480
2
Coordinates from ORCA-job .\H2_DFT E  -0.982790955150
  H      -1.388879      0.427460     -0.307130
  H      -1.572011      0.467550     -0.660480
2
Coordinates from ORCA-job .\H2_DFT E  -1.105350946326
  H      -1.365988      0.422448     -0.262962
  H      -1.594902      0.472562     -0.704648
2
Coordinates from ORCA-job .\H2_DFT E  -1.105350950919
  H      -1.365988      0.422448     -0.262962
  H      -1.594902      0.472562     -0.704648
2
Coordinates from ORCA-job .\H2_DFT E  -1.157785930603
  H      -1.343097      0.417437     -0.218793
  H      -1.617793      0.477573     -0.748817
2
Coordinates from ORCA-job .\H2_DFT E  -1.157785933236
  H      -1.343097      0.417437     -0.218793
  H      -1.617793      0.477573     -0.748817
2
Coordinates from ORCA-job .\H2_DFT E  -1.175642177300
  H      -1.320205      0.412425     -0.174624
  H      -1.640685      0.482585     -0.792986
2
Coordinates from ORCA-job .\H2_DFT E  -1.175642258518
  H      -1.320205      0.412425     -0.174624
  H      -1.640685      0.482585     -0.792986
2
Coordinates from ORCA-job .\H2_DFT E  -1.175564241933
  H      -1.297314      0.407414     -0.130456
  H      -1.663576      0.487596     -0.837154
2
Coordinates from ORCA-job .\H2_DFT E  -1.175564320296
  H      -1.297314      0.407414     -0.130456
  H      -1.663576      0.487596     -0.837154
2
Coordinates from ORCA-job .\H2_DFT E  -1.166053714600
  H      -1.274423      0.402403     -0.086287
  H      -1.686467      0.492607     -0.881323
2
Coordinates from ORCA-job .\H2_DFT E  -1.166053722243
  H      -1.274423      0.402403     -0.086287
  H      -1.686467      0.492607     -0.881323
2
Coordinates from ORCA-job .\H2_DFT E  -1.151721161307
  H      -1.251531      0.397391     -0.042118
  H      -1.709359      0.497619     -0.925492
2
Coordinates from ORCA-job .\H2_DFT E  -1.151721256120
  H      -1.251531      0.397391     -0.042118
  H      -1.709359      0.497619     -0.925492
2
Coordinates from ORCA-job .\H2_DFT E  -1.135168346488
  H      -1.228640      0.392380      0.002050
  H      -1.732250      0.502630     -0.969660
2
Coordinates from ORCA-job .\H2_DFT E  -1.135168686384
  H      -1.228640      0.392380      0.002050
  H      -1.732250      0.502630     -0.969660
2
Coordinates from ORCA-job .\H2_DFT E  -1.117898256554
  H      -1.205748      0.387369      0.046219
  H      -1.755142      0.507641     -1.013829
2
Coordinates from ORCA-job .\H2_DFT E  -1.117898693992
  H      -1.205748      0.387369      0.046219
  H      -1.755142      0.507641     -1.013829
2
Coordinates from ORCA-job .\H2_DFT E  -1.100785791113
  H      -1.182857      0.382357      0.090388
  H      -1.778033      0.512653     -1.057998
2
Coordinates from ORCA-job .\H2_DFT E  -1.100786073445
  H      -1.182857      0.382357      0.090388
  H      -1.778033      0.512653     -1.057998
2
Coordinates from ORCA-job .\H2_DFT E  -1.084334197145
  H      -1.159966      0.377346      0.134556
  H      -1.800924      0.517664     -1.102166
2
Coordinates from ORCA-job .\H2_DFT E  -1.084334197177
  H      -1.159966      0.377346      0.134556
  H      -1.800924      0.517664     -1.102166
2
Coordinates from ORCA-job .\H2_DFT E  -1.068810819327
  H      -1.137074      0.372334      0.178725
  H      -1.823816      0.522676     -1.146335
2
Coordinates from ORCA-job .\H2_DFT E  -1.068815586923
  H      -1.137074      0.372334      0.178725
  H      -1.823816      0.522676     -1.146335
2
Coordinates from ORCA-job .\H2_DFT E  -1.054382440179
  H      -1.114183      0.367323      0.222894
  H      -1.846707      0.527687     -1.190504
2
Coordinates from ORCA-job .\H2_DFT E  -1.054382440133
  H      -1.114183      0.367323      0.222894
  H      -1.846707      0.527687     -1.190504
2
Coordinates from ORCA-job .\H2_DFT E  -1.042032313240
  H      -1.091292      0.362312      0.267062
  H      -1.869598      0.532698     -1.234672
2
Coordinates from ORCA-job .\H2_DFT E  -1.042032313363
  H      -1.091292      0.362312      0.267062
  H      -1.869598      0.532698     -1.234672
2
Coordinates from ORCA-job .\H2_DFT E  -1.032921831521
  H      -1.068400      0.357300      0.311231
  H      -1.892490      0.537710     -1.278841
2
Coordinates from ORCA-job .\H2_DFT E  -1.032921831320
  H      -1.068400      0.357300      0.311231
  H      -1.892490      0.537710     -1.278841
2
Coordinates from ORCA-job .\H2_DFT E  -1.026195243883
  H      -1.045509      0.352289      0.355400
  H      -1.915381      0.542721     -1.323010
2
Coordinates from ORCA-job .\H2_DFT E  -1.026195243891
  H      -1.045509      0.352289      0.355400
  H      -1.915381      0.542721     -1.323010
2
Coordinates from ORCA-job .\H2_DFT E  -1.021256808041
  H      -1.022617      0.347278      0.399568
  H      -1.938273      0.547732     -1.367178
2
Coordinates from ORCA-job .\H2_DFT E  -1.021256808257
  H      -1.022617      0.347278      0.399568
  H      -1.938273      0.547732     -1.367178
2
Coordinates from ORCA-job .\H2_DFT E  -1.017656466966
  H      -0.999726      0.342266      0.443737
  H      -1.961164      0.552744     -1.411347
2
Coordinates from ORCA-job .\H2_DFT E  -1.017656466928
  H      -0.999726      0.342266      0.443737
  H      -1.961164      0.552744     -1.411347
2
Coordinates from ORCA-job .\H2_DFT E  -1.015048033133
  H      -0.976835      0.337255      0.487906
  H      -1.984055      0.557755     -1.455516
2
Coordinates from ORCA-job .\H2_DFT E  -1.015048033070
  H      -0.976835      0.337255      0.487906
  H      -1.984055      0.557755     -1.455516
2
Coordinates from ORCA-job .\H2_DFT E  -1.013164861111
  H      -0.953943      0.332244      0.532074
  H      -2.006947      0.562766     -1.499684
2
Coordinates from ORCA-job .\H2_DFT E  -1.013164861068
  H      -0.953943      0.332244      0.532074
  H      -2.006947      0.562766     -1.499684
2
Coordinates from ORCA-job .\H2_DFT E  -1.011809114618
  H      -0.931052      0.327232      0.576243
  H      -2.029838      0.567778     -1.543853
2
Coordinates from ORCA-job .\H2_DFT E  -1.011809114514
  H      -0.931052      0.327232      0.576243
  H      -2.029838      0.567778     -1.543853
2
Coordinates from ORCA-job .\H2_DFT E  -1.010838282337
  H      -0.908161      0.322221      0.620412
  H      -2.052729      0.572789     -1.588022
2
Coordinates from ORCA-job .\H2_DFT E  -1.010838282390
  H      -0.908161      0.322221      0.620412
  H      -2.052729      0.572789     -1.588022
2
Coordinates from ORCA-job .\H2_DFT E  -1.010143914857
  H      -0.885269      0.317209      0.664580
  H      -2.075621      0.577801     -1.632190
2
Coordinates from ORCA-job .\H2_DFT E  -1.010143914879
  H      -0.885269      0.317209      0.664580
  H      -2.075621      0.577801     -1.632190
2
Coordinates from ORCA-job .\H2_DFT E  -1.009644345755
  H      -0.862378      0.312198      0.708749
  H      -2.098512      0.582812     -1.676359
2
Coordinates from ORCA-job .\H2_DFT E  -1.009644346511
  H      -0.862378      0.312198      0.708749
  H      -2.098512      0.582812     -1.676359
2
Coordinates from ORCA-job .\H2_DFT E  -1.009285529426
  H      -0.839486      0.307187      0.752918
  H      -2.121404      0.587823     -1.720528
2
Coordinates from ORCA-job .\H2_DFT E  -1.009285529879
  H      -0.839486      0.307187      0.752918
  H      -2.121404      0.587823     -1.720528
2
Coordinates from ORCA-job .\H2_DFT E  -1.009030789455
  H      -0.816595      0.302175      0.797086
  H      -2.144295      0.592835     -1.764696
2
Coordinates from ORCA-job .\H2_DFT E  -1.009030789621
  H      -0.816595      0.302175      0.797086
  H      -2.144295      0.592835     -1.764696
2
Coordinates from ORCA-job .\H2_DFT E  -1.008849467241
  H      -0.793704      0.297164      0.841255
  H      -2.167186      0.597846     -1.808865
2
Coordinates from ORCA-job .\H2_DFT E  -1.008849467869
  H      -0.793704      0.297164      0.841255
  H      -2.167186      0.597846     -1.808865
2
Coordinates from ORCA-job .\H2_DFT E  -1.008718194437
  H      -0.770812      0.292153      0.885424
  H      -2.190078      0.602857     -1.853034
2
Coordinates from ORCA-job .\H2_DFT E  -1.008718194887
  H      -0.770812      0.292153      0.885424
  H      -2.190078      0.602857     -1.853034
2
Coordinates from ORCA-job .\H2_DFT E  -1.008623714682
  H      -0.747921      0.287141      0.929592
  H      -2.212969      0.607869     -1.897202
2
Coordinates from ORCA-job .\H2_DFT E  -1.008623714664
  H      -0.747921      0.287141      0.929592
  H      -2.212969      0.607869     -1.897202
2
Coordinates from ORCA-job .\H2_DFT E  -1.008556799368
  H      -0.725030      0.282130      0.973761
  H      -2.235860      0.612880     -1.941371
2
Coordinates from ORCA-job .\H2_DFT E  -1.008556799434
  H      -0.725030      0.282130      0.973761
  H      -2.235860      0.612880     -1.941371
2
Coordinates from ORCA-job .\H2_DFT E  -1.008507787929
  H      -0.702138      0.277119      1.017930
  H      -2.258752      0.617891     -1.985540
2
Coordinates from ORCA-job .\H2_DFT E  -1.008507788024
  H      -0.702138      0.277119      1.017930
  H      -2.258752      0.617891     -1.985540
2
Coordinates from ORCA-job .\H2_DFT E  -1.008470113008
  H      -0.679247      0.272107      1.062098
  H      -2.281643      0.622903     -2.029708
2
Coordinates from ORCA-job .\H2_DFT E  -1.008470113189
  H      -0.679247      0.272107      1.062098
  H      -2.281643      0.622903     -2.029708
2
Coordinates from ORCA-job .\H2_DFT E  -1.008443005074
  H      -0.656355      0.267096      1.106267
  H      -2.304535      0.627914     -2.073877
2
Coordinates from ORCA-job .\H2_DFT E  -1.008443005434
  H      -0.656355      0.267096      1.106267
  H      -2.304535      0.627914     -2.073877
2
Coordinates from ORCA-job .\H2_DFT E  -1.008428748323
  H      -0.633464      0.262084      1.150436
  H      -2.327426      0.632926     -2.118046
2
Coordinates from ORCA-job .\H2_DFT E  -1.008428748448
  H      -0.633464      0.262084      1.150436
  H      -2.327426      0.632926     -2.118046
2
Coordinates from ORCA-job .\H2_DFT E  -1.008425875578
  H      -0.610573      0.257073      1.194604
  H      -2.350317      0.637937     -2.162214
2
Coordinates from ORCA-job .\H2_DFT E  -1.008425875760
  H      -0.610573      0.257073      1.194604
  H      -2.350317      0.637937     -2.162214
2
Coordinates from ORCA-job .\H2_DFT E  -1.008426822041
  H      -0.587681      0.252062      1.238773
  H      -2.373209      0.642948     -2.206383
2
Coordinates from ORCA-job .\H2_DFT E  -1.008426822349
  H      -0.587681      0.252062      1.238773
  H      -2.373209      0.642948     -2.206383
2
Coordinates from ORCA-job .\H2_DFT E  -1.008424189198
  H      -0.564790      0.247050      1.282942
  H      -2.396100      0.647960     -2.250552
2
Coordinates from ORCA-job .\H2_DFT E  -1.008424189399
  H      -0.564790      0.247050      1.282942
  H      -2.396100      0.647960     -2.250552
2
Coordinates from ORCA-job .\H2_DFT E  -1.008414466184
  H      -0.541898      0.242039      1.327110
  H      -2.418992      0.652971     -2.294720
2
Coordinates from ORCA-job .\H2_DFT E  -1.008414466333
  H      -0.541898      0.242039      1.327110
  H      -2.418992      0.652971     -2.294720
2
Coordinates from ORCA-job .\H2_DFT E  -1.008397396073
  H      -0.519007      0.237028      1.371279
  H      -2.441883      0.657982     -2.338889
2
Coordinates from ORCA-job .\H2_DFT E  -1.008397396279
  H      -0.519007      0.237028      1.371279
  H      -2.441883      0.657982     -2.338889
2
Coordinates from ORCA-job .\H2_DFT E  -1.008377950696
  H      -0.496116      0.232016      1.415448
  H      -2.464774      0.662994     -2.383058
2
Coordinates from ORCA-job .\H2_DFT E  -1.008377951024
  H      -0.496116      0.232016      1.415448
  H      -2.464774      0.662994     -2.383058
2
Coordinates from ORCA-job .\H2_DFT E  -1.008363889515
  H      -0.473224      0.227005      1.459616
  H      -2.487666      0.668005     -2.427226
2
Coordinates from ORCA-job .\H2_DFT E  -1.008363889931
  H      -0.473224      0.227005      1.459616
  H      -2.487666      0.668005     -2.427226
2
Coordinates from ORCA-job .\H2_DFT E  -1.008358651511
  H      -0.450333      0.221993      1.503785
  H      -2.510557      0.673017     -2.471395
2
Coordinates from ORCA-job .\H2_DFT E  -1.008358651712
  H      -0.450333      0.221993      1.503785
  H      -2.510557      0.673017     -2.471395
2
Coordinates from ORCA-job .\H2_DFT E  -1.008363604637
  H      -0.427442      0.216982      1.547954
  H      -2.533448      0.678028     -2.515564
2
Coordinates from ORCA-job .\H2_DFT E  -1.008363605069
  H      -0.427442      0.216982      1.547954
  H      -2.533448      0.678028     -2.515564
2
Coordinates from ORCA-job .\H2_DFT E  -1.008378274229
  H      -0.404550      0.211971      1.592122
  H      -2.556340      0.683039     -2.559732
2
Coordinates from ORCA-job .\H2_DFT E  -1.008378274682
  H      -0.404550      0.211971      1.592122
  H      -2.556340      0.683039     -2.559732
2
Coordinates from ORCA-job .\H2_DFT E  -1.008399644247
  H      -0.381659      0.206959      1.636291
  H      -2.579231      0.688051     -2.603901
2
Coordinates from ORCA-job .\H2_DFT E  -1.008399645072
  H      -0.381659      0.206959      1.636291
  H      -2.579231      0.688051     -2.603901
2
Coordinates from ORCA-job .\H2_DFT E  -1.008423403466
  H      -0.358767      0.201948      1.680460
  H      -2.602123      0.693062     -2.648070
2
Coordinates from ORCA-job .\H2_DFT E  -1.008423403945
  H      -0.358767      0.201948      1.680460
  H      -2.602123      0.693062     -2.648070
2
Coordinates from ORCA-job .\H2_DFT E  -1.008444975550
  H      -0.335876      0.196937      1.724628
  H      -2.625014      0.698073     -2.692238
2
Coordinates from ORCA-job .\H2_DFT E  -1.008444975868
  H      -0.335876      0.196937      1.724628
  H      -2.625014      0.698073     -2.692238
2
Coordinates from ORCA-job .\H2_DFT E  -1.008458852289
  H      -0.312985      0.191925      1.768797
  H      -2.647905      0.703085     -2.736407
2
Coordinates from ORCA-job .\H2_DFT E  -1.008458852561
  H      -0.312985      0.191925      1.768797
  H      -2.647905      0.703085     -2.736407
2
Coordinates from ORCA-job .\H2_DFT E  -1.008465228942
  H      -0.290093      0.186914      1.812966
  H      -2.670797      0.708096     -2.780576
2
Coordinates from ORCA-job .\H2_DFT E  -1.008465229080
  H      -0.290093      0.186914      1.812966
  H      -2.670797      0.708096     -2.780576
2
Coordinates from ORCA-job .\H2_DFT E  -1.008463951821
  H      -0.267202      0.181903      1.857134
  H      -2.693688      0.713107     -2.824744
2
Coordinates from ORCA-job .\H2_DFT E  -1.008463952129
  H      -0.267202      0.181903      1.857134
  H      -2.693688      0.713107     -2.824744
2
Coordinates from ORCA-job .\H2_DFT E  -1.008455828080
  H      -0.244311      0.176891      1.901303
  H      -2.716579      0.718119     -2.868913
2
Coordinates from ORCA-job .\H2_DFT E  -1.008455828368
  H      -0.244311      0.176891      1.901303
  H      -2.716579      0.718119     -2.868913
2
Coordinates from ORCA-job .\H2_DFT E  -1.008442616531
  H      -0.221419      0.171880      1.945472
  H      -2.739471      0.723130     -2.913082
2
Coordinates from ORCA-job .\H2_DFT E  -1.008442616674
  H      -0.221419      0.171880      1.945472
  H      -2.739471      0.723130     -2.913082
2
Coordinates from ORCA-job .\H2_DFT E  -1.008426248644
  H      -0.198528      0.166868      1.989640
  H      -2.762362      0.728142     -2.957250
2
Coordinates from ORCA-job .\H2_DFT E  -1.008426248742
  H      -0.198528      0.166868      1.989640
  H      -2.762362      0.728142     -2.957250
2
Coordinates from ORCA-job .\H2_DFT E  -1.008408502965
  H      -0.175636      0.161857      2.033809
  H      -2.785254      0.733153     -3.001419
2
Coordinates from ORCA-job .\H2_DFT E  -1.008408503008
  H      -0.175636      0.161857      2.033809
  H      -2.785254      0.733153     -3.001419
2
Coordinates from ORCA-job .\H2_DFT E  -1.008390864498
  H      -0.152745      0.156846      2.077978
  H      -2.808145      0.738164     -3.045588
2
Coordinates from ORCA-job .\H2_DFT E  -1.008390864467
  H      -0.152745      0.156846      2.077978
  H      -2.808145      0.738164     -3.045588
2
Coordinates from ORCA-job .\H2_DFT E  -1.008374468093
  H      -0.129854      0.151834      2.122146
  H      -2.831036      0.743176     -3.089756
2
Coordinates from ORCA-job .\H2_DFT E  -1.008374468400
  H      -0.129854      0.151834      2.122146
  H      -2.831036      0.743176     -3.089756
2
Coordinates from ORCA-job .\H2_DFT E  -1.008360095430
  H      -0.106962      0.146823      2.166315
  H      -2.853928      0.748187     -3.133925
2
Coordinates from ORCA-job .\H2_DFT E  -1.008360095659
  H      -0.106962      0.146823      2.166315
  H      -2.853928      0.748187     -3.133925
2
Coordinates from ORCA-job .\H2_DFT E  -1.008348213865
  H      -0.084071      0.141812      2.210484
  H      -2.876819      0.753198     -3.178094
2
Coordinates from ORCA-job .\H2_DFT E  -1.008348214017
  H      -0.084071      0.141812      2.210484
  H      -2.876819      0.753198     -3.178094
2
Coordinates from ORCA-job .\H2_DFT E  -1.008338991290
  H      -0.061180      0.136800      2.254652
  H      -2.899710      0.758210     -3.222262
2
Coordinates from ORCA-job .\H2_DFT E  -1.008338991474
  H      -0.061180      0.136800      2.254652
  H      -2.899710      0.758210     -3.222262
2
Coordinates from ORCA-job .\H2_DFT E  -1.008332148201
  H      -0.038288      0.131789      2.298821
  H      -2.922602      0.763221     -3.266431
2
Coordinates from ORCA-job .\H2_DFT E  -1.008332148361
  H      -0.038288      0.131789      2.298821
  H      -2.922602      0.763221     -3.266431
2
Coordinates from ORCA-job .\H2_DFT E  -1.008327689246
  H      -0.015397      0.126778      2.342990
  H      -2.945493      0.768232     -3.310600
2
Coordinates from ORCA-job .\H2_DFT E  -1.008327689312
  H      -0.015397      0.126778      2.342990
  H      -2.945493      0.768232     -3.310600
2
Coordinates from ORCA-job .\H2_DFT E  -1.008325213886
  H       0.007495      0.121766      2.387158
  H      -2.968385      0.773244     -3.354768
2
Coordinates from ORCA-job .\H2_DFT E  -1.008325213917
  H       0.007495      0.121766      2.387158
  H      -2.968385      0.773244     -3.354768
2
Coordinates from ORCA-job .\H2_DFT E  -1.008324365792
  H       0.030386      0.116755      2.431327
  H      -2.991276      0.778255     -3.398937
2
Coordinates from ORCA-job .\H2_DFT E  -1.008324365645
  H       0.030386      0.116755      2.431327
  H      -2.991276      0.778255     -3.398937
2
Coordinates from ORCA-job .\H2_DFT E  -1.008324804271
  H       0.053277      0.111743      2.475496
  H      -3.014167      0.783267     -3.443106
2
Coordinates from ORCA-job .\H2_DFT E  -1.008324804038
  H       0.053277      0.111743      2.475496
  H      -3.014167      0.783267     -3.443106
2
Coordinates from ORCA-job .\H2_DFT E  -1.008326221200
  H       0.076169      0.106732      2.519664
  H      -3.037059      0.788278     -3.487274
2
Coordinates from ORCA-job .\H2_DFT E  -1.008326221011
  H       0.076169      0.106732      2.519664
  H      -3.037059      0.788278     -3.487274
2
Coordinates from ORCA-job .\H2_DFT E  -1.008328353334
  H       0.099060      0.101721      2.563833
  H      -3.059950      0.793289     -3.531443
2
Coordinates from ORCA-job .\H2_DFT E  -1.008328353001
  H       0.099060      0.101721      2.563833
  H      -3.059950      0.793289     -3.531443
2
Coordinates from ORCA-job .\H2_DFT E  -1.008330981877
  H       0.121952      0.096709      2.608002
  H      -3.082842      0.798301     -3.575612
2
Coordinates from ORCA-job .\H2_DFT E  -1.008330981314
  H       0.121952      0.096709      2.608002
  H      -3.082842      0.798301     -3.575612
2
Coordinates from ORCA-job .\H2_DFT E  -1.008333930406
  H       0.144843      0.091698      2.652170
  H      -3.105733      0.803312     -3.619780
2
Coordinates from ORCA-job .\H2_DFT E  -1.008333929883
  H       0.144843      0.091698      2.652170
  H      -3.105733      0.803312     -3.619780
2
Coordinates from ORCA-job .\H2_DFT E  -1.008337060521
  H       0.167734      0.086687      2.696339
  H      -3.128624      0.808323     -3.663949
2
Coordinates from ORCA-job .\H2_DFT E  -1.008337060175
  H       0.167734      0.086687      2.696339
  H      -3.128624      0.808323     -3.663949
2
Coordinates from ORCA-job .\H2_DFT E  -1.008340265367
  H       0.190626      0.081675      2.740508
  H      -3.151516      0.813335     -3.708118
2
Coordinates from ORCA-job .\H2_DFT E  -1.008340265222
  H       0.190626      0.081675      2.740508
  H      -3.151516      0.813335     -3.708118
2
Coordinates from ORCA-job .\H2_DFT E  -1.008343464282
  H       0.213517      0.076664      2.784676
  H      -3.174407      0.818346     -3.752286
2
Coordinates from ORCA-job .\H2_DFT E  -1.008343464186
  H       0.213517      0.076664      2.784676
  H      -3.174407      0.818346     -3.752286
2
Coordinates from ORCA-job .\H2_DFT E  -1.008346565710
  H       0.236408      0.071652      2.828845
  H      -3.197298      0.823358     -3.796455
2
Coordinates from ORCA-job .\H2_DFT E  -1.008346597323
  H       0.236408      0.071652      2.828845
  H      -3.197298      0.823358     -3.796455
2
Coordinates from ORCA-job .\H2_DFT E  -1.008349591164
  H       0.259300      0.066641      2.873014
  H      -3.220190      0.828369     -3.840624
2
Coordinates from ORCA-job .\H2_DFT E  -1.008349622588
  H       0.259300      0.066641      2.873014
  H      -3.220190      0.828369     -3.840624
2
Coordinates from ORCA-job .\H2_DFT E  -1.008352487241
  H       0.282191      0.061630      2.917182
  H      -3.243081      0.833380     -3.884792
2
Coordinates from ORCA-job .\H2_DFT E  -1.008352511700
  H       0.282191      0.061630      2.917182
  H      -3.243081      0.833380     -3.884792
2
Coordinates from ORCA-job .\H2_DFT E  -1.008355227332
  H       0.305083      0.056618      2.961351
  H      -3.265973      0.838392     -3.928961
2
Coordinates from ORCA-job .\H2_DFT E  -1.008355246368
  H       0.305083      0.056618      2.961351
  H      -3.265973      0.838392     -3.928961
2
Coordinates from ORCA-job .\H2_DFT E  -1.008357802452
  H       0.327974      0.051607      3.005520
  H      -3.288864      0.843403     -3.973130
2
Coordinates from ORCA-job .\H2_DFT E  -1.008357817165
  H       0.327974      0.051607      3.005520
  H      -3.288864      0.843403     -3.973130
2
Coordinates from ORCA-job .\H2_DFT E  -1.008360209668
  H       0.350865      0.046596      3.049688
  H      -3.311755      0.848414     -4.017298
2
Coordinates from ORCA-job .\H2_DFT E  -1.008360220951
  H       0.350865      0.046596      3.049688
  H      -3.311755      0.848414     -4.017298
2
Coordinates from ORCA-job .\H2_DFT E  -1.008362450620
  H       0.373757      0.041584      3.093857
  H      -3.334647      0.853426     -4.061467
2
Coordinates from ORCA-job .\H2_DFT E  -1.008362459234
  H       0.373757      0.041584      3.093857
  H      -3.334647      0.853426     -4.061467
2
Coordinates from ORCA-job .\H2_DFT E  -1.008364530331
  H       0.396648      0.036573      3.138026
  H      -3.357538      0.858437     -4.105636
2
Coordinates from ORCA-job .\H2_DFT E  -1.008364536942
  H       0.396648      0.036573      3.138026
  H      -3.357538      0.858437     -4.105636
2
Coordinates from ORCA-job .\H2_DFT E  -1.008366456043
  H       0.419539      0.031562      3.182194
  H      -3.380429      0.863448     -4.149804
2
Coordinates from ORCA-job .\H2_DFT E  -1.008366461069
  H       0.419539      0.031562      3.182194
  H      -3.380429      0.863448     -4.149804
2
Coordinates from ORCA-job .\H2_DFT E  -1.008368236244
  H       0.442431      0.026550      3.226363
  H      -3.403321      0.868460     -4.193973
2
Coordinates from ORCA-job .\H2_DFT E  -1.008368240059
  H       0.442431      0.026550      3.226363
  H      -3.403321      0.868460     -4.193973
2
Coordinates from ORCA-job .\H2_DFT E  -1.008369880168
  H       0.465322      0.021539      3.270532
  H      -3.426212      0.873471     -4.238142
2
Coordinates from ORCA-job .\H2_DFT E  -1.008369883052
  H       0.465322      0.021539      3.270532
  H      -3.426212      0.873471     -4.238142
2
Coordinates from ORCA-job .\H2_DFT E  -1.008371397263
  H       0.488214      0.016527      3.314700
  H      -3.449104      0.878483     -4.282310
2
Coordinates from ORCA-job .\H2_DFT E  -1.008371399435
  H       0.488214      0.016527      3.314700
  H      -3.449104      0.878483     -4.282310
2
Coordinates from ORCA-job .\H2_DFT E  -1.008372796887
  H       0.511105      0.011516      3.358869
  H      -3.471995      0.883494     -4.326479
2
Coordinates from ORCA-job .\H2_DFT E  -1.008372798517
  H       0.511105      0.011516      3.358869
  H      -3.471995      0.883494     -4.326479
2
Coordinates from ORCA-job .\H2_DFT E  -1.008374088034
  H       0.533996      0.006505      3.403038
  H      -3.494886      0.888505     -4.370648
2
Coordinates from ORCA-job .\H2_DFT E  -1.008374089251
  H       0.533996      0.006505      3.403038
  H      -3.494886      0.888505     -4.370648
2
Coordinates from ORCA-job .\H2_DFT E  -1.008375279309
  H       0.556888      0.001493      3.447206
  H      -3.517778      0.893517     -4.414816
2
Coordinates from ORCA-job .\H2_DFT E  -1.008375280215
  H       0.556888      0.001493      3.447206
  H      -3.517778      0.893517     -4.414816
2
Coordinates from ORCA-job .\H2_DFT E  -1.008376378739
  H       0.579779     -0.003518      3.491375
  H      -3.540669      0.898528     -4.458985
2
Coordinates from ORCA-job .\H2_DFT E  -1.008376379352
  H       0.579779     -0.003518      3.491375
  H      -3.540669      0.898528     -4.458985
2
Coordinates from ORCA-job .\H2_DFT E  -1.008377393794
  H       0.602670     -0.008529      3.535544
  H      -3.563560      0.903539     -4.503154
2
Coordinates from ORCA-job .\H2_DFT E  -1.008377394274
  H       0.602670     -0.008529      3.535544
  H      -3.563560      0.903539     -4.503154
2
Coordinates from ORCA-job .\H2_DFT E  -1.008378331375
  H       0.625562     -0.013541      3.579712
  H      -3.586452      0.908551     -4.547322
2
Coordinates from ORCA-job .\H2_DFT E  -1.008378331723
  H       0.625562     -0.013541      3.579712
  H      -3.586452      0.908551     -4.547322
2
Coordinates from ORCA-job .\H2_DFT E  -1.008379197825
  H       0.648453     -0.018552      3.623881
  H      -3.609343      0.913562     -4.591491
2
Coordinates from ORCA-job .\H2_DFT E  -1.008379198070
  H       0.648453     -0.018552      3.623881
  H      -3.609343      0.913562     -4.591491
2
Coordinates from ORCA-job .\H2_DFT E  -1.008379998976
  H       0.671345     -0.023563      3.668050
  H      -3.632235      0.918573     -4.635660
2
Coordinates from ORCA-job .\H2_DFT E  -1.008379999147
  H       0.671345     -0.023563      3.668050
  H      -3.632235      0.918573     -4.635660
2
Coordinates from ORCA-job .\H2_DFT E  -1.008380740145
  H       0.694236     -0.028575      3.712218
  H      -3.655126      0.923585     -4.679828
2
Coordinates from ORCA-job .\H2_DFT E  -1.008380740261
  H       0.694236     -0.028575      3.712218
  H      -3.655126      0.923585     -4.679828
2
Coordinates from ORCA-job .\H2_DFT E  -1.008381426213
  H       0.717127     -0.033586      3.756387
  H      -3.678017      0.928596     -4.723997
2
Coordinates from ORCA-job .\H2_DFT E  -1.008381426289
  H       0.717127     -0.033586      3.756387
  H      -3.678017      0.928596     -4.723997
2
Coordinates from ORCA-job .\H2_DFT E  -1.008382061637
  H       0.740019     -0.038598      3.800556
  H      -3.700909      0.933608     -4.768166
2
Coordinates from ORCA-job .\H2_DFT E  -1.008382061684
  H       0.740019     -0.038598      3.800556
  H      -3.700909      0.933608     -4.768166
2
Coordinates from ORCA-job .\H2_DFT E  -1.008382650482
  H       0.762910     -0.043609      3.844724
  H      -3.723800      0.938619     -4.812334
2
Coordinates from ORCA-job .\H2_DFT E  -1.008382650508
  H       0.762910     -0.043609      3.844724
  H      -3.723800      0.938619     -4.812334
2
Coordinates from ORCA-job .\H2_DFT E  -1.008383196477
  H       0.785801     -0.048620      3.888893
  H      -3.746691      0.943630     -4.856503
2
Coordinates from ORCA-job .\H2_DFT E  -1.008383196490
  H       0.785801     -0.048620      3.888893
  H      -3.746691      0.943630     -4.856503
2
Coordinates from ORCA-job .\H2_DFT E  -1.008383703011
  H       0.808693     -0.053632      3.933062
  H      -3.769583      0.948642     -4.900672
2
Coordinates from ORCA-job .\H2_DFT E  -1.008383703017
  H       0.808693     -0.053632      3.933062
  H      -3.769583      0.948642     -4.900672
