# First stage: optimization
# Second stage: SPE + Stability Check
! UKS wB97X-D3 def2-TZVPP xyzfile Opt
%base "o2ukssopt"
* gzmt 0 1
   O
   O     1        1.21000
*
$new_job
! UKS wB97X-D3 def2-TZVPP
%base "o2uksssa"
%scf
	Stabperform true
   STABRestartUHFifUnstable true
end

* xyzfile 0 1

