3
Coordinates from ORCA-job o3ukstopt
  O   -0.03563643039371     -0.07119628116466      0.00000000000000
  O   1.22799353123110      0.07144475812853      0.00000000000000
  O   1.92515913091957      1.13512068410723      0.00000000000000
