3
Coordinates from ORCA-job o3uksssa
  O   0.02582156083731      0.00414420877656      0.00000000000000
  O   1.26151682837164      0.01702924839168      0.00000000000000
  O   1.83017784254801      1.11419570390286      0.00000000000000
