-------------------------------------------------------------
----------------------- !PROPERTIES! ------------------------
-------------------------------------------------------------
# -----------------------------------------------------------
$ SCF_Energy
   description: The SCF energy
   geom. index: 1
   prop. index: 1
        SCF Energy:     -158.3970244875
# -----------------------------------------------------------
$ DFT_Energy
   description: The DFT energy
   geom. index: 1
   prop. index: 1
   Number of Alpha Electrons        17.0000521870 
   Number of Alpha Electrons        17.0000521870 
   Total nuber of  Electrons        34.0001043740 
   Exchange energy                 -19.2449011715 
   Correlation energy               -1.2639635206 
   Correlantion energy NL            0.0000000000 
   Exchange-Correlation energy     -20.5088646921 
   Embedding correction              0.0000000000 
# -----------------------------------------------------------
$ VdW_Correction
   description: The Van der Waals Correction
   geom. index: 1
   prop. index: 1
        Van der Waals Correction:       -0.0146918088
# -----------------------------------------------------------
$ SCF_Energy
   description: The SCF energy
   geom. index: 2
   prop. index: 1
        SCF Energy:     -158.3977156821
# -----------------------------------------------------------
$ DFT_Energy
   description: The DFT energy
   geom. index: 2
   prop. index: 1
   Number of Alpha Electrons        17.0000518606 
   Number of Alpha Electrons        17.0000518606 
   Total nuber of  Electrons        34.0001037213 
   Exchange energy                 -19.2458208147 
   Correlation energy               -1.2637033373 
   Correlantion energy NL            0.0000000000 
   Exchange-Correlation energy     -20.5095241521 
   Embedding correction              0.0000000000 
# -----------------------------------------------------------
$ VdW_Correction
   description: The Van der Waals Correction
   geom. index: 2
   prop. index: 1
        Van der Waals Correction:       -0.0146122998
# -----------------------------------------------------------
$ SCF_Energy
   description: The SCF energy
   geom. index: 3
   prop. index: 1
        SCF Energy:     -158.3977728113
# -----------------------------------------------------------
$ DFT_Energy
   description: The DFT energy
   geom. index: 3
   prop. index: 1
   Number of Alpha Electrons        17.0000509166 
   Number of Alpha Electrons        17.0000509166 
   Total nuber of  Electrons        34.0001018331 
   Exchange energy                 -19.2460164406 
   Correlation energy               -1.2636947501 
   Correlantion energy NL            0.0000000000 
   Exchange-Correlation energy     -20.5097111907 
   Embedding correction              0.0000000000 
# -----------------------------------------------------------
$ VdW_Correction
   description: The Van der Waals Correction
   geom. index: 3
   prop. index: 1
        Van der Waals Correction:       -0.0146009189
# -----------------------------------------------------------
$ SCF_Energy
   description: The SCF energy
   geom. index: 4
   prop. index: 1
        SCF Energy:     -158.3977805153
# -----------------------------------------------------------
$ DFT_Energy
   description: The DFT energy
   geom. index: 4
   prop. index: 1
   Number of Alpha Electrons        17.0000501785 
   Number of Alpha Electrons        17.0000501785 
   Total nuber of  Electrons        34.0001003570 
   Exchange energy                 -19.2462165419 
   Correlation energy               -1.2637310735 
   Correlantion energy NL            0.0000000000 
   Exchange-Correlation energy     -20.5099476155 
   Embedding correction              0.0000000000 
# -----------------------------------------------------------
$ VdW_Correction
   description: The Van der Waals Correction
   geom. index: 4
   prop. index: 1
        Van der Waals Correction:       -0.0146027365
# -----------------------------------------------------------
$ SCF_Energy
   description: The SCF energy
   geom. index: 5
   prop. index: 1
        SCF Energy:     -158.3977790199
# -----------------------------------------------------------
$ DFT_Energy
   description: The DFT energy
   geom. index: 5
   prop. index: 1
   Number of Alpha Electrons        17.0000497599 
   Number of Alpha Electrons        17.0000497599 
   Total nuber of  Electrons        34.0000995199 
   Exchange energy                 -19.2463671921 
   Correlation energy               -1.2637597274 
   Correlantion energy NL            0.0000000000 
   Exchange-Correlation energy     -20.5101269195 
   Embedding correction              0.0000000000 
# -----------------------------------------------------------
$ VdW_Correction
   description: The Van der Waals Correction
   geom. index: 5
   prop. index: 1
        Van der Waals Correction:       -0.0146061301
# -----------------------------------------------------------
$ SCF_Energy
   description: The SCF energy
   geom. index: 6
   prop. index: 1
        SCF Energy:     -158.3977782538
# -----------------------------------------------------------
$ DFT_Energy
   description: The DFT energy
   geom. index: 6
   prop. index: 1
   Number of Alpha Electrons        17.0000496789 
   Number of Alpha Electrons        17.0000496789 
   Total nuber of  Electrons        34.0000993579 
   Exchange energy                 -19.2463926745 
   Correlation energy               -1.2637642257 
   Correlantion energy NL            0.0000000000 
   Exchange-Correlation energy     -20.5101569002 
   Embedding correction              0.0000000000 
# -----------------------------------------------------------
$ VdW_Correction
   description: The Van der Waals Correction
   geom. index: 6
   prop. index: 1
        Van der Waals Correction:       -0.0146070079
# -----------------------------------------------------------
$ SCF_Electric_Properties
   description: The SCF Calculated Electric Properties
   geom. index: 6
   prop. index: 1
       Filename                          : butane_B3LYP-D3_aug-cc-pVTZ.scfp 
       Do Dipole Moment Calculation      : true 
       Do Quadrupole Moment Calculation  : false 
       Do Polarizability Calculation     : false 
** Dipole moment part of electric properties **
        Magnitude of dipole moment (Debye) :        0.0000016611
        Electronic Contribution:
                  0    
      0       0.000001
      1      -0.000001
      2       0.000003
        Nuclear Contribution:
                  0    
      0      -0.000001
      1       0.000001
      2      -0.000002
        Total Dipole moment:
                  0    
      0       0.000000
      1      -0.000000
      2       0.000000
# -----------------------------------------------------------
$ Hessian
   description: Details about the Hessian
   geom. index: 6
   prop. index: 1
Normal modes:
Number of Rows: 42 Number of Columns: 42
                  0          1          2          3          4          5    
      0       0.000000   0.000000   0.000000   0.000000   0.000000   0.000000
      1       0.000000   0.000000   0.000000   0.000000   0.000000   0.000000
      2       0.000000   0.000000   0.000000   0.000000   0.000000   0.000000
      3       0.000000   0.000000   0.000000   0.000000   0.000000   0.000000
      4       0.000000   0.000000   0.000000   0.000000   0.000000   0.000000
      5       0.000000   0.000000   0.000000   0.000000   0.000000   0.000000
      6       0.000000   0.000000   0.000000   0.000000   0.000000   0.000000
      7       0.000000   0.000000   0.000000   0.000000   0.000000   0.000000
      8       0.000000   0.000000   0.000000   0.000000   0.000000   0.000000
      9       0.000000   0.000000   0.000000   0.000000   0.000000   0.000000
     10       0.000000   0.000000   0.000000   0.000000   0.000000   0.000000
     11       0.000000   0.000000   0.000000   0.000000   0.000000   0.000000
     12       0.000000   0.000000   0.000000   0.000000   0.000000   0.000000
     13       0.000000   0.000000   0.000000   0.000000   0.000000   0.000000
     14       0.000000   0.000000   0.000000   0.000000   0.000000   0.000000
     15       0.000000   0.000000   0.000000   0.000000   0.000000   0.000000
     16       0.000000   0.000000   0.000000   0.000000   0.000000   0.000000
     17       0.000000   0.000000   0.000000   0.000000   0.000000   0.000000
     18       0.000000   0.000000   0.000000   0.000000   0.000000   0.000000
     19       0.000000   0.000000   0.000000   0.000000   0.000000   0.000000
     20       0.000000   0.000000   0.000000   0.000000   0.000000   0.000000
     21       0.000000   0.000000   0.000000   0.000000   0.000000   0.000000
     22       0.000000   0.000000   0.000000   0.000000   0.000000   0.000000
     23       0.000000   0.000000   0.000000   0.000000   0.000000   0.000000
     24       0.000000   0.000000   0.000000   0.000000   0.000000   0.000000
     25       0.000000   0.000000   0.000000   0.000000   0.000000   0.000000
     26       0.000000   0.000000   0.000000   0.000000   0.000000   0.000000
     27       0.000000   0.000000   0.000000   0.000000   0.000000   0.000000
     28       0.000000   0.000000   0.000000   0.000000   0.000000   0.000000
     29       0.000000   0.000000   0.000000   0.000000   0.000000   0.000000
     30       0.000000   0.000000   0.000000   0.000000   0.000000   0.000000
     31       0.000000   0.000000   0.000000   0.000000   0.000000   0.000000
     32       0.000000   0.000000   0.000000   0.000000   0.000000   0.000000
     33       0.000000   0.000000   0.000000   0.000000   0.000000   0.000000
     34       0.000000   0.000000   0.000000   0.000000   0.000000   0.000000
     35       0.000000   0.000000   0.000000   0.000000   0.000000   0.000000
     36       0.000000   0.000000   0.000000   0.000000   0.000000   0.000000
     37       0.000000   0.000000   0.000000   0.000000   0.000000   0.000000
     38       0.000000   0.000000   0.000000   0.000000   0.000000   0.000000
     39       0.000000   0.000000   0.000000   0.000000   0.000000   0.000000
     40       0.000000   0.000000   0.000000   0.000000   0.000000   0.000000
     41       0.000000   0.000000   0.000000   0.000000   0.000000   0.000000
                  6          7          8          9         10         11    
      0      -0.000414   0.000037  -0.000180  -0.001974  -0.210668   0.000048
      1      -0.019247   0.003692  -0.000348  -0.150532  -0.106739   0.001095
      2       0.135700  -0.030841   0.002067  -0.021051  -0.015594  -0.007737
      3       0.000453  -0.000135  -0.000302  -0.009058  -0.146275   0.000166
      4       0.021027  -0.004489  -0.009927   0.180412   0.030996   0.007486
      5      -0.148100   0.037652   0.071050   0.025186   0.003790  -0.052810
      6       0.174339  -0.051455  -0.047132  -0.145862  -0.325663   0.174482
      7      -0.183229  -0.363538  -0.343201  -0.262113  -0.206407  -0.047671
      8       0.275776   0.096509   0.121433  -0.036235  -0.023974   0.087038
      9       0.000145   0.003140   0.001619   0.281541   0.016560   0.000051
     10      -0.007402   0.062025   0.054622  -0.262698  -0.197579  -0.009243
     11       0.050904  -0.449323  -0.389213  -0.031795  -0.027038   0.064877
     12      -0.176550   0.049021   0.045444  -0.146434  -0.325716  -0.175177
     13       0.099548   0.320285   0.295932  -0.268406  -0.205889   0.021765
     14       0.314516   0.193038   0.211696  -0.042988  -0.036624   0.095672
     15       0.150771  -0.029464  -0.041191   0.071257  -0.201365  -0.174283
     16      -0.023685  -0.021730   0.080544   0.219852  -0.021467   0.307838
     17      -0.254554   0.036747   0.165466   0.022609  -0.013180   0.284352
     18       0.000453  -0.000133   0.000300  -0.009059   0.146275   0.000166
     19       0.021027  -0.004489   0.009958   0.180408  -0.030996   0.007485
     20      -0.148098   0.037650  -0.071049   0.025211  -0.003791  -0.052809
     21      -0.149171   0.029908   0.040006   0.070971  -0.201861   0.172388
     22       0.093560   0.012445  -0.123208   0.217356  -0.023667  -0.374927
     23      -0.238906   0.041891   0.137127   0.038936   0.004988   0.189515
     24      -0.149172   0.029909  -0.039999   0.070984   0.201861   0.172386
     25       0.093558   0.012450   0.123245   0.217312   0.023662  -0.374926
     26      -0.238902   0.041887  -0.137125   0.038983  -0.004988   0.189512
     27       0.150770  -0.029461   0.041206   0.071243   0.201362  -0.174277
     28      -0.023682  -0.021732  -0.080507   0.219880   0.021468   0.307836
     29      -0.254552   0.036742  -0.165468   0.022667   0.013182   0.284352
     30      -0.000414   0.000038   0.000180  -0.001975   0.210669   0.000047
     31      -0.019247   0.003693   0.000323  -0.150533   0.106739   0.001095
     32       0.135700  -0.030842  -0.002067  -0.021050   0.015594  -0.007737
     33      -0.176545   0.049022  -0.045471  -0.146421   0.325713  -0.175173
     34       0.099554   0.320274  -0.295985  -0.268308   0.205881   0.021764
     35       0.314523   0.193034  -0.211710  -0.042918   0.036620   0.095671
     36       0.000142   0.003138  -0.001569   0.281539  -0.016554   0.000047
     37      -0.007398   0.062029  -0.054673  -0.262680   0.197576  -0.009243
     38       0.050895  -0.449308   0.389224  -0.031926   0.027048   0.064876
     39       0.174340  -0.051448   0.047111  -0.145875   0.325657   0.174478
     40      -0.183238  -0.363526   0.343170  -0.262225   0.206411  -0.047671
     41       0.275777   0.096502  -0.121436  -0.036195   0.023972   0.087035
                 12         13         14         15         16         17    
      0      -0.000086   0.099432  -0.000385   0.079412  -0.167741  -0.135504
      1       0.004805   0.068358   0.007693   0.074773   0.077611   0.036714
      2      -0.035397   0.009826  -0.061129   0.009998   0.010252   0.004747
      3       0.000227  -0.038244   0.000237  -0.061793   0.203737   0.185604
      4       0.008653   0.166153  -0.004947  -0.020785  -0.027201   0.108615
      5      -0.063420   0.022905   0.036687  -0.002620  -0.003116   0.015875
      6       0.326454  -0.115556   0.315021  -0.106023  -0.383584  -0.208143
      7      -0.043602  -0.146613  -0.037733  -0.143722  -0.144763  -0.012753
      8       0.125076   0.005191   0.095791   0.017258   0.007628  -0.003297
      9      -0.001865   0.572080  -0.006347   0.500537   0.197447  -0.047605
     10      -0.022339  -0.116791  -0.021889  -0.093272  -0.072414   0.002620
     11       0.160233  -0.014207   0.163556  -0.009430  -0.008814   0.000286
     12      -0.326743  -0.117793  -0.312421  -0.114004  -0.385543  -0.208412
     13       0.008232  -0.139762   0.013311  -0.133571  -0.137292  -0.013108
     14       0.130482  -0.045561   0.102052  -0.054702  -0.049375  -0.001563
     15      -0.277074  -0.110580  -0.224648  -0.248179   0.070461   0.344575
     16       0.104241   0.100775  -0.258420  -0.140782  -0.123992   0.227202
     17       0.149897   0.006244  -0.072904  -0.016679  -0.018670   0.039798
     18      -0.000227   0.038243   0.000236  -0.061796   0.203731  -0.185609
     19      -0.008653  -0.166154  -0.004943  -0.020782  -0.027202  -0.108614
     20       0.063422  -0.022904   0.036685  -0.002618  -0.003116  -0.015875
     21       0.276596  -0.108867   0.230152  -0.242261   0.072320   0.344972
     22      -0.142185   0.097601   0.271992  -0.131972  -0.122184   0.229694
     23       0.116847   0.021801   0.002751  -0.024371  -0.015810   0.026235
     24      -0.276594   0.108865   0.230159  -0.242266   0.072312  -0.344964
     25       0.142198  -0.097594   0.271992  -0.131970  -0.122184  -0.229691
     26      -0.116849  -0.021804   0.002755  -0.024371  -0.015811  -0.026231
     27       0.277070   0.110573  -0.224654  -0.248179   0.070455  -0.344577
     28      -0.104250  -0.100785  -0.258413  -0.140783  -0.123999  -0.227197
     29      -0.149903  -0.006247  -0.072900  -0.016680  -0.018674  -0.039795
     30       0.000086  -0.099431  -0.000384   0.079412  -0.167738   0.135507
     31      -0.004806  -0.068356   0.007693   0.074773   0.077608  -0.036716
     32       0.035396  -0.009827  -0.061129   0.009998   0.010253  -0.004747
     33       0.326737   0.117791  -0.312424  -0.114004  -0.385536   0.208421
     34      -0.008229   0.139760   0.013310  -0.133570  -0.137289   0.013113
     35      -0.130482   0.045561   0.102056  -0.054703  -0.049373   0.001564
     36       0.001863  -0.572075  -0.006346   0.500540   0.197442   0.047597
     37       0.022340   0.116790  -0.021891  -0.093273  -0.072412  -0.002618
     38      -0.160232   0.014211   0.163562  -0.009435  -0.008814  -0.000285
     39      -0.326447   0.115558   0.315032  -0.106018  -0.383578   0.208151
     40       0.043603   0.146615  -0.037734  -0.143725  -0.144760   0.012758
     41      -0.125073  -0.005190   0.095792   0.017257   0.007625   0.003296
                 18         19         20         21         22         23    
      0      -0.021023  -0.000414   0.000312   0.008842  -0.000026   0.027036
      1       0.111518  -0.014708   0.011300  -0.057240   0.004639   0.033824
      2       0.015971   0.101859  -0.081132  -0.007803  -0.034242   0.004658
      3       0.074667   0.000409   0.000049   0.072143   0.000809  -0.133009
      4      -0.167556   0.021842  -0.008676   0.081345   0.006035  -0.071001
      5      -0.023948  -0.151262   0.063514   0.011466  -0.039658  -0.010809
      6      -0.257933  -0.309765   0.202430   0.012503   0.097288  -0.057789
      7      -0.191114   0.079363  -0.071924   0.086744  -0.010532  -0.104270
      8       0.034112  -0.076126   0.044439  -0.055821   0.009677   0.024759
      9       0.380999  -0.000372  -0.001293  -0.213435  -0.000535   0.019524
     10      -0.057426   0.027507  -0.021000   0.030450  -0.002780   0.032528
     11      -0.007515  -0.194392   0.150175   0.003394   0.019472   0.004899
     12      -0.256081   0.312511  -0.203160   0.013741  -0.096983  -0.058219
     13      -0.174827  -0.054076   0.056875   0.068043   0.008420  -0.092920
     14      -0.087864  -0.092816   0.061578   0.077414   0.012230  -0.052758
     15      -0.031251  -0.182129   0.407570  -0.390241   0.360106   0.384989
     16      -0.215339   0.238334   0.132485  -0.236169   0.321553   0.274869
     17      -0.017115   0.123457  -0.003827  -0.040460   0.058541   0.040566
     18      -0.074669  -0.000408   0.000048   0.072142  -0.000812   0.133010
     19       0.167556  -0.021842  -0.008676   0.081345  -0.006038   0.071001
     20       0.023947   0.151261   0.063517   0.011467   0.039657   0.010809
     21      -0.029942   0.181551  -0.409846  -0.387559  -0.363362   0.380249
     22      -0.213734  -0.262910  -0.127699  -0.236294  -0.328357   0.269588
     23      -0.042670   0.054427  -0.042450  -0.028186  -0.034005   0.038399
     24       0.029947  -0.181542  -0.409843  -0.387542   0.363381  -0.380252
     25       0.213733   0.262914  -0.127687  -0.236279   0.328367  -0.269590
     26       0.042671  -0.054424  -0.042449  -0.028184   0.034006  -0.038398
     27       0.031252   0.182123   0.407564  -0.390255  -0.360100  -0.384989
     28       0.215345  -0.238335   0.132479  -0.236181  -0.321548  -0.274872
     29       0.017119  -0.123459  -0.003830  -0.040461  -0.058539  -0.040566
     30       0.021024   0.000414   0.000314   0.008842   0.000026  -0.027036
     31      -0.111520   0.014709   0.011300  -0.057240  -0.004638  -0.033825
     32      -0.015970  -0.101857  -0.081133  -0.007802   0.034244  -0.004658
     33       0.256096  -0.312506  -0.203162   0.013746   0.096988   0.058216
     34       0.174828   0.054074   0.056875   0.068040  -0.008422   0.092918
     35       0.087862   0.092818   0.061583   0.077413  -0.012234   0.052759
     36      -0.381006   0.000366  -0.001302  -0.213433   0.000543  -0.019526
     37       0.057428  -0.027507  -0.021000   0.030449   0.002779  -0.032526
     38       0.007509   0.194393   0.150180   0.003395  -0.019472  -0.004901
     39       0.257928   0.309761   0.202432   0.012501  -0.097290   0.057790
     40       0.191123  -0.079362  -0.071925   0.086745   0.010529   0.104271
     41      -0.034115   0.076122   0.044437  -0.055819  -0.009674  -0.024758
                 24         25         26         27         28         29    
      0       0.097168   0.100270   0.000783  -0.001353  -0.000127   0.000138
      1      -0.006410   0.009614  -0.006913   0.027567   0.006328  -0.004124
      2      -0.000621   0.001620  -0.000824   0.003080  -0.036132   0.032402
      3       0.007765  -0.017172  -0.031439   0.027182   0.000094   0.000846
      4       0.011452  -0.009665   0.037593  -0.017198   0.003813  -0.002791
      5       0.001538  -0.001495   0.005339  -0.002705  -0.016284   0.013946
      6      -0.361070  -0.372444  -0.044599   0.097667  -0.218448   0.231754
      7      -0.049338  -0.088900   0.106762  -0.314393  -0.282862   0.260812
      8      -0.160053  -0.143314  -0.063425   0.175922   0.005338   0.006290
      9      -0.376353  -0.347955   0.065270  -0.202623  -0.009436  -0.003459
     10       0.165074   0.168885  -0.024455   0.089054  -0.066291   0.071250
     11       0.023300   0.023991  -0.005048   0.024072   0.496386  -0.489524
     12      -0.360156  -0.371281  -0.046692   0.110554   0.228418  -0.229802
     13      -0.089746  -0.122941   0.083127  -0.240842   0.250112  -0.261678
     14       0.138299   0.111290   0.089561  -0.251701   0.062973  -0.075830
     15      -0.053480   0.050463   0.223819  -0.158460  -0.012016   0.042687
     16      -0.014744   0.022916  -0.257626   0.145756   0.016629   0.010813
     17       0.002331  -0.004342  -0.335915   0.204583   0.000460   0.010864
     18      -0.007783  -0.017164   0.031439   0.027181  -0.000093   0.000844
     19      -0.011464  -0.009651  -0.037594  -0.017198  -0.003812  -0.002797
     20      -0.001539  -0.001493  -0.005339  -0.002706   0.016275   0.013957
     21      -0.052917   0.051030   0.222696  -0.154907   0.014463  -0.052899
     22      -0.013610   0.020617  -0.339330   0.196872  -0.027036   0.001214
     23      -0.006481   0.010881   0.253114  -0.157346   0.003054  -0.004087
     24       0.052968   0.050972  -0.222701  -0.154905  -0.014438  -0.052898
     25       0.013635   0.020604   0.339334   0.196871   0.027048   0.001231
     26       0.006490   0.010873  -0.253115  -0.157345  -0.003061  -0.004084
     27       0.053543   0.050402  -0.223819  -0.158458   0.011978   0.042702
     28       0.014774   0.022900   0.257627   0.145756  -0.016626   0.010799
     29      -0.002332  -0.004339   0.335920   0.204584  -0.000454   0.010860
     30      -0.097058   0.100379  -0.000784  -0.001352   0.000126   0.000140
     31       0.006420   0.009606   0.006913   0.027566  -0.006324  -0.004132
     32       0.000623   0.001619   0.000826   0.003078   0.036110   0.032425
     33       0.359738  -0.371683   0.046683   0.110564  -0.228258  -0.229975
     34       0.089610  -0.123046  -0.083140  -0.240813  -0.249950  -0.261810
     35      -0.138176   0.111444  -0.089569  -0.251691  -0.062938  -0.075836
     36       0.375967  -0.348380  -0.065271  -0.202616   0.009424  -0.003428
     37      -0.164886   0.169070   0.024459   0.089046   0.066254   0.071287
     38      -0.023282   0.024018   0.005026   0.024105  -0.496055  -0.489851
     39       0.360662  -0.372852   0.044611   0.097650   0.218301   0.231879
     40       0.049244  -0.088955  -0.106753  -0.314401   0.282669   0.261041
     41       0.159892  -0.143493   0.063426   0.175912  -0.005329   0.006262
                 30         31         32         33         34         35    
      0       0.000090  -0.002057   0.002762   0.008367   0.000253  -0.033725
      1       0.032875   0.024319   0.004680  -0.008593   0.001645   0.003219
      2       0.005995   0.003732   0.000719  -0.001208  -0.011737   0.000277
      3       0.003043  -0.026792   0.026082  -0.026394  -0.000004  -0.005987
      4       0.037252   0.048167  -0.038863   0.037997  -0.009091   0.009945
      5       0.005918   0.006815  -0.005797   0.005377   0.062999   0.001479
      6       0.130459   0.092877  -0.002568  -0.045038  -0.034850   0.139730
      7      -0.353715  -0.225156   0.006955   0.045498   0.035762  -0.144135
      8       0.207863   0.138862   0.011503   0.118329   0.083332  -0.358324
      9      -0.254633  -0.137369  -0.022379  -0.006025  -0.000783   0.122459
     10       0.119452   0.069495  -0.072646  -0.018393  -0.001861   0.340017
     11      -0.002579   0.004898  -0.010318  -0.002596  -0.003493   0.048299
     12       0.115749   0.089849  -0.002758  -0.044205   0.032689   0.138008
     13      -0.301685  -0.182771   0.010314   0.076251  -0.054437  -0.238207
     14      -0.302047  -0.196380  -0.009701  -0.101175   0.066670   0.306165
     15       0.013494   0.150131  -0.156631   0.153700  -0.166545   0.035991
     16      -0.090991  -0.227477   0.289257  -0.281050   0.299713  -0.070496
     17      -0.102256  -0.287798  -0.366603   0.356678  -0.352611   0.088391
     18      -0.003046  -0.026792  -0.026085  -0.026391   0.000003  -0.005992
     19      -0.037247   0.048170   0.038868   0.037992   0.009092   0.009950
     20      -0.005919   0.006816   0.005797   0.005378  -0.063000   0.001482
     21       0.012281   0.148265  -0.160940   0.156374   0.166634   0.037010
     22      -0.113699  -0.297808   0.179607  -0.172674  -0.188967  -0.044034
     23       0.073350   0.214742   0.436635  -0.420912  -0.415331  -0.105444
     24      -0.012258   0.148267   0.160955   0.156356  -0.166627   0.037042
     25       0.113667  -0.297818  -0.179623  -0.172656   0.188959  -0.044070
     26      -0.073325   0.214747  -0.436681  -0.420871   0.415317  -0.105525
     27      -0.013480   0.150133   0.156652   0.153679   0.166554   0.036008
     28       0.090964  -0.227483  -0.289293  -0.281009  -0.299727  -0.070527
     29       0.102223  -0.287808   0.366645   0.356624   0.352625   0.088427
     30      -0.000089  -0.002058  -0.002761   0.008364  -0.000254  -0.033656
     31      -0.032873   0.024322  -0.004681  -0.008591  -0.001646   0.003203
     32      -0.005999   0.003733  -0.000719  -0.001209   0.011737   0.000275
     33      -0.115721   0.089863   0.002753  -0.044190  -0.032682   0.137715
     34       0.301701  -0.182796  -0.010305   0.076223   0.054426  -0.237701
     35       0.302050  -0.196412   0.009689  -0.101137  -0.066654   0.305505
     36       0.254627  -0.137391   0.022379  -0.006020   0.000790   0.122231
     37      -0.119455   0.069505   0.072646  -0.018379   0.001881   0.339392
     38       0.002629   0.004897   0.010319  -0.002594   0.003496   0.048213
     39      -0.130480   0.092894   0.002563  -0.045026   0.034855   0.139430
     40       0.353678  -0.225189  -0.006950   0.045485  -0.035767  -0.143825
     41      -0.207852   0.138880  -0.011490   0.118301  -0.083348  -0.357560
                 36         37         38         39         40         41    
      0      -0.034490  -0.000136   0.000272   0.000251   0.004390   0.003481
      1       0.007317  -0.003743   0.009584   0.009202   0.063961   0.063691
      2       0.000810   0.026043  -0.063503  -0.058816   0.009685   0.009871
      3       0.002249   0.000107  -0.000005   0.000015  -0.002509  -0.003494
      4      -0.002944   0.008522   0.001888   0.003880   0.004403   0.005195
      5      -0.000076  -0.060070  -0.012980  -0.027009   0.000743   0.001048
      6       0.147358   0.069949  -0.174576  -0.164017   0.088141   0.092597
      7      -0.152102  -0.075327   0.178390   0.165023  -0.073082  -0.076537
      8      -0.379730  -0.174113   0.417894   0.387465  -0.215883  -0.224766
      9       0.115044   0.000412  -0.002247  -0.003097  -0.221714  -0.217439
     10       0.316514  -0.000138  -0.003645  -0.006123  -0.567814  -0.557743
     11       0.044961   0.009415  -0.016477  -0.014679  -0.080654  -0.079197
     12       0.145758  -0.068750   0.173615   0.164166   0.083445   0.086556
     13      -0.252172   0.120172  -0.289179  -0.269272  -0.124227  -0.127921
     14       0.325097  -0.146558   0.356627   0.332940   0.180757   0.185827
     15      -0.013180   0.151423   0.034154   0.067056   0.014897   0.018294
     16       0.024056  -0.278715  -0.054999  -0.123165  -0.023590  -0.034850
     17      -0.028669   0.327593   0.068867   0.145351   0.030048   0.042131
     18      -0.002240   0.000107   0.000005   0.000015   0.002504  -0.003497
     19       0.002927   0.008522  -0.001887   0.003880  -0.004396   0.005201
     20       0.000072  -0.060070   0.012974  -0.027011  -0.000742   0.001049
     21      -0.011594  -0.152698  -0.034081  -0.067280   0.015743   0.020144
     22       0.013265   0.177061   0.033436   0.077651  -0.015080  -0.023783
     23       0.029769   0.389122   0.080004   0.171594  -0.036840  -0.054099
     24       0.011532  -0.152697   0.034069  -0.067286  -0.015715   0.020162
     25      -0.013191   0.177060  -0.033423   0.077656   0.015049  -0.023800
     26      -0.029591   0.389126  -0.079976   0.171610   0.036768  -0.054142
     27       0.013124   0.151423  -0.034140   0.067061  -0.014875   0.018314
     28      -0.023944  -0.278712   0.054971  -0.123172   0.023548  -0.034880
     29       0.028528   0.327587  -0.068834   0.145358  -0.029997   0.042170
     30       0.034558  -0.000136  -0.000271   0.000250  -0.004385   0.003486
     31      -0.007324  -0.003742  -0.009582   0.009202  -0.063885   0.063768
     32      -0.000811   0.026042   0.063493  -0.058828  -0.009671   0.009882
     33      -0.146039  -0.068748  -0.173590   0.164197  -0.083352   0.086661
     34       0.252657   0.120168   0.289138  -0.269324   0.124091  -0.128080
     35      -0.325712  -0.146549  -0.356568   0.332995  -0.180551   0.186052
     36      -0.115292   0.000411   0.002241  -0.003088   0.221449  -0.217705
     37      -0.317203  -0.000140   0.003631  -0.006099   0.567134  -0.558423
     38      -0.045062   0.009415   0.016472  -0.014679   0.080564  -0.079300
     39      -0.147641   0.069949   0.174545  -0.164048  -0.088025   0.092702
     40       0.152390  -0.075325  -0.178355   0.165051   0.072984  -0.076622
     41       0.380460  -0.174115  -0.417827   0.387546   0.215605  -0.225026
# -----------------------------------------------------------
$ THERMOCHEMISTRY_Energies
   description: The Thermochemistry energies
   geom. index: 6
   prop. index: 1
        Temperature (Kelvin)           :        298.1500000000
        Pressure (atm)                 :          1.0000000000
        Total Mass (AMU)               :         58.1240000000
        Spin Degeneracy                :          1.0000000000
        Electronic Energy (Hartree)    :       -158.4123852618
        Translational Energy (Hartree) :          0.0014162714
        Rotational Energy (Hartree)    :          0.0014162714
        Vibrational Energy (Hartree)   :          0.0029771592
        Number of frequencies          :     42      
        Scaling Factor for frequencies :          1.0000000000
        Vibrational frequencies        :     
                  0    
      0       0.000000
      1       0.000000
      2       0.000000
      3       0.000000
      4       0.000000
      5       0.000000
      6     118.239789
      7     216.681384
      8     253.976843
      9     260.223267
     10     426.325916
     11     735.326404
     12     813.460078
     13     841.346736
     14     964.425433
     15     981.272450
     16     1016.996696
     17     1064.019122
     18     1170.606860
     19     1211.406341
     20     1291.397647
     21     1327.890966
     22     1333.813397
     23     1394.087763
     24     1411.815708
     25     1413.547308
     26     1486.558029
     27     1490.911659
     28     1498.075241
     29     1499.716571
     30     1504.172527
     31     1512.439869
     32     2997.705633
     33     3006.004590
     34     3013.255507
     35     3017.458032
     36     3017.978772
     37     3036.391695
     38     3072.318658
     39     3076.452174
     40     3079.922867
     41     3080.801964
        Zero Point Energy (Hartree)    :          0.1313068021
        Inner Energy (Hartree)         :       -158.2752687577
        Enthalpy (Hartree)             :       -158.2743245486
        Electronic entropy             :          0.0000000000
        Rotational entropy             :          0.0116476776
        Vibrational entropy            :          0.0049946332
        Translational entropy          :          0.0116476776
        Entropy                        :          0.0347450960
        Gibbs Energy (Hartree)         :       -158.3090696446
        Is Linear                      :                 false
# -------------------------------------------------------------
----------------------- !GEOMETRIES! ------------------------
# -------------------------------------------------------------
------------------------ !GEOMETRY! -------------------------
    Number of atoms:    14 
    Geometry Index:     1 
    Coordinates:
               0 C     -1.265080000000    0.193850000000   -0.025430000000
               1 C      0.255200000000    0.179570000000   -0.022990000000
               2 H     -1.655350000000    0.575980000000    0.923260000000
               3 H     -1.653420000000   -0.819310000000   -0.169030000000
               4 H     -1.650210000000    0.823100000000   -0.834170000000
               5 H      0.607390000000   -0.483440000000    0.775850000000
               6 C      0.827700000000    1.581540000000    0.175840000000
               7 H      0.612500000000   -0.237690000000   -0.971680000000
               8 H      0.470410000000    1.998790000000    1.124540000000
               9 H      0.475480000000    2.244560000000   -0.622990000000
              10 C      2.347970000000    1.567260000000    0.178250000000
              11 H      2.733130000000    0.937990000000    0.986960000000
              12 H      2.736320000000    2.580420000000    0.321870000000
              13 H      2.738230000000    1.185160000000   -0.770460000000
------------------------ !GEOMETRY! -------------------------
    Number of atoms:    14 
    Geometry Index:     2 
    Coordinates:
               0 C     -1.283662843588    0.184195428801   -0.026787606017
               1 C      0.244939254110    0.183021798514   -0.022464155249
               2 H     -1.677743624071    0.565586086608    0.917195596966
               3 H     -1.676049866527   -0.824556985290   -0.169941781738
               4 H     -1.672406322055    0.811645406653   -0.831179023402
               5 H      0.603421050533   -0.478489186067    0.771315124382
               6 C      0.837958440963    1.578087714406    0.175310817069
               7 H      0.608430223826   -0.234261003593   -0.965832174509
               8 H      0.474476783226    1.995362114271    1.118686620361
               9 H      0.479455012965    2.239603240099   -0.618456024201
              10 C      2.366555514287    1.576917046149    0.179608414840
              11 H      2.755322415515    0.949449381638    0.983974872174
              12 H      2.758948045395    2.585666012939    0.322779802738
              13 H      2.760625915422    1.195552944873   -0.764390483415
------------------------ !GEOMETRY! -------------------------
    Number of atoms:    14 
    Geometry Index:     3 
    Coordinates:
               0 C     -1.286107262048    0.182021059004   -0.027073643657
               1 C      0.242610568072    0.184493358798   -0.022236755356
               2 H     -1.681615668671    0.564435617106    0.915880325713
               3 H     -1.681145779463   -0.824717055541   -0.170017854642
               4 H     -1.676164495230    0.810255961418   -0.830204345841
               5 H      0.605009919289   -0.477068972890    0.769967664890
               6 C      0.840285892370    1.576615054184    0.175079466359
               7 H      0.609923923272   -0.233321798322   -0.964112505227
               8 H      0.472980467469    1.994423457650    1.116961428556
               9 H      0.477871076960    2.238180216571   -0.617115257557
              10 C      2.369001724779    1.579092481262    0.179896784598
              11 H      2.759075633816    0.950842854652    0.983008122889
              12 H      2.764042043678    2.585827861025    0.322856205437
              13 H      2.764501955708    1.196699905082   -0.763069636160
------------------------ !GEOMETRY! -------------------------
    Number of atoms:    14 
    Geometry Index:     4 
    Coordinates:
               0 C     -1.285309336313    0.181580089566   -0.027116119618
               1 C      0.242189613116    0.184895279053   -0.022161551330
               2 H     -1.681420408144    0.564997844153    0.915438376254
               3 H     -1.682334277920   -0.824243762044   -0.169988407755
               4 H     -1.675888098162    0.810729413187   -0.829585205345
               5 H      0.606813241834   -0.477031312787    0.769170391133
               6 C      0.840706286798    1.576213517677    0.175000968229
               7 H      0.611644502145   -0.233548106414   -0.963306180920
               8 H      0.471258000026    1.994652277727    1.116150280878
               9 H      0.476072505893    2.238141916342   -0.616324523454
              10 C      2.368204764144    1.579533275783    0.179941609767
              11 H      2.758793994881    0.950373104073    0.982397296278
              12 H      2.765229915566    2.585355461450    0.322825008575
              13 H      2.764309296135    1.196131002233   -0.762621942691
------------------------ !GEOMETRY! -------------------------
    Number of atoms:    14 
    Geometry Index:     5 
    Coordinates:
               0 C     -1.284223625198    0.181682608450   -0.027088075372
               1 C      0.242393749535    0.184785437896   -0.022161740602
               2 H     -1.680553651243    0.565623580212    0.915314190509
               3 H     -1.682338095845   -0.823805440741   -0.169955131910
               4 H     -1.674975068200    0.811336854723   -0.829256197070
               5 H      0.607927585359   -0.477371179469    0.768755754816
               6 C      0.840502145012    1.576324459089    0.174998452922
               7 H      0.612707660432   -0.234022438363   -0.962973569406
               8 H      0.470193202569    1.995129172692    1.115813810679
               9 H      0.474962253146    2.238482391687   -0.615915076172
              10 C      2.367119327281    1.579430033909    0.179915503285
              11 H      2.757876797669    0.949766514940    0.982073385405
              12 H      2.765233538859    2.584916890959    0.322792463356
              13 H      2.763444180627    1.195501114015   -0.762493770441
------------------------ !GEOMETRY! -------------------------
    Number of atoms:    14 
    Geometry Index:     6 
    Coordinates:
               0 C     -1.283934961884    0.181775829336   -0.027069978651
               1 C      0.242547797413    0.184650490150   -0.022172735102
               2 H     -1.680304734364    0.565760448236    0.915311065291
               3 H     -1.682274151228   -0.823674750934   -0.169954495921
               4 H     -1.674712281023    0.811492308870   -0.829192100513
               5 H      0.608166556185   -0.477508707609    0.768693943275
               6 C      0.840348134629    1.576459685713    0.175008218489
               7 H      0.612934245327   -0.234191921178   -0.962932962124
               8 H      0.469965579172    1.995299194630    1.115771257445
               9 H      0.474724479118    2.238620026212   -0.615855216153
              10 C      2.366830792768    1.579336614983    0.179898268322
              11 H      2.757612830407    0.949611553929    0.982011333338
              12 H      2.765169348920    2.584786166526    0.322792354476
              13 H      2.763196364560    1.195363061137   -0.762488952170
