8
Coordinates from ORCA-job ethane_B3LYP-D3_cc-pVDZ E -79.768879585011
  C      -1.069770      0.342760      0.000000
  C       0.442290      0.342760     -0.000000
  H      -1.454140      0.727780      0.949230
  H      -1.454140     -0.671810     -0.141180
  H      -1.454140      0.972310     -0.808050
  H       0.826660     -0.286790      0.808050
  H       0.826660      1.357330      0.141180
  H       0.826660     -0.042260     -0.949230
8
Coordinates from ORCA-job ethane_B3LYP-D3_cc-pVDZ E -79.769590538567
  C      -1.078760      0.342779      0.000022
  C       0.451280      0.342741     -0.000022
  H      -1.474686      0.729660      0.953726
  H      -1.474635     -0.676616     -0.141896
  H      -1.474701      0.975277     -0.811850
  H       0.847221     -0.289757      0.811850
  H       0.847155      1.362136      0.141896
  H       0.847206     -0.044140     -0.953726
8
Coordinates from ORCA-job ethane_B3LYP-D3_cc-pVDZ E -79.769623027837
  C      -1.079665      0.342787      0.000036
  C       0.452185      0.342733     -0.000036
  H      -1.479541      0.729253      0.952654
  H      -1.479467     -0.675468     -0.141762
  H      -1.479575      0.974562     -0.810930
  H       0.852095     -0.289042      0.810930
  H       0.851986      1.360988      0.141762
  H       0.852061     -0.043733     -0.952654
8
Coordinates from ORCA-job ethane_B3LYP-D3_cc-pVDZ E -79.769632705368
  C      -1.079157      0.342792      0.000046
  C       0.451677      0.342728     -0.000047
  H      -1.481803      0.728870      0.951655
  H      -1.481715     -0.674399     -0.141635
  H      -1.481851      0.973893     -0.810074
  H       0.854371     -0.288373      0.810074
  H       0.854235      1.359919      0.141635
  H       0.854323     -0.043350     -0.951655
8
Coordinates from ORCA-job ethane_B3LYP-D3_cc-pVDZ E -79.769634324864
  C      -1.078507      0.342791      0.000050
  C       0.451027      0.342729     -0.000050
  H      -1.482008      0.728744      0.951333
  H      -1.481921     -0.674053     -0.141594
  H      -1.482061      0.973675     -0.809798
  H       0.854581     -0.288155      0.809798
  H       0.854441      1.359573      0.141594
  H       0.854528     -0.043224     -0.951333
8
Coordinates from ORCA-job ethane_B3LYP-D3_cc-pVDZ E -79.769634447519
  C      -1.078296      0.342790      0.000049
  C       0.450816      0.342730     -0.000049
  H      -1.481824      0.728740      0.951328
  H      -1.481741     -0.674047     -0.141593
  H      -1.481877      0.973670     -0.809794
  H       0.854397     -0.288150      0.809794
  H       0.854261      1.359567      0.141593
  H       0.854345     -0.043220     -0.951328
