8
Coordinates from ORCA-job ethane_B3LYP-D3_STO-3G
  C   -1.08940638949254      0.34275025637512      0.00000368258333
  C   0.46192638899853      0.34276974087316     -0.00000368242151
  H   -1.47872013561762      0.72980945000127      0.95418477397409
  H   -1.47870219050480     -0.67712245808567     -0.14192040101588
  H   -1.47871993554186      0.97561522519556     -0.81226449599360
  H   0.85123994004497     -0.29009522408623      0.81226449676982
  H   0.85122218507768      1.36264245751833      0.14192040105789
  H   0.85124013703565     -0.04428944779153     -0.95418477495414
