5
Coordinates from ORCA-job methane_B3LYP-D3_cc-pVDZ E -40.482216971791
  C      -0.857070      0.342760      0.000000
  H       0.235130      0.342760     -0.000000
  H      -1.221130      0.729800      0.954230
  H      -1.221130     -0.677150     -0.141920
  H      -1.221130      0.975630     -0.812300
5
Coordinates from ORCA-job methane_B3LYP-D3_cc-pVDZ E -40.482380895699
  C      -0.857075      0.342769      0.000019
  H       0.243163      0.342767     -0.000012
  H      -1.223809      0.732641      0.961257
  H      -1.223813     -0.684651     -0.142970
  H      -1.223796      0.980275     -0.818285
5
Coordinates from ORCA-job methane_B3LYP-D3_cc-pVDZ E -40.482380895747
  C      -0.857077      0.342773      0.000030
  H       0.243172      0.342769     -0.000022
  H      -1.223816      0.732643      0.961277
  H      -1.223818     -0.684657     -0.142975
  H      -1.223791      0.980273     -0.818300
