-------------------------------------------------------------
----------------------- !PROPERTIES! ------------------------
-------------------------------------------------------------
# -----------------------------------------------------------
$ SCF_Energy
   description: The SCF energy
   geom. index: 1
   prop. index: 1
        SCF Energy:     -197.6189626970
# -----------------------------------------------------------
$ DFT_Energy
   description: The DFT energy
   geom. index: 1
   prop. index: 1
   Number of Alpha Electrons        21.0000747042 
   Number of Alpha Electrons        21.0000747042 
   Total nuber of  Electrons        42.0001494083 
   Exchange energy                 -23.9084816027 
   Correlation energy               -1.5664815453 
   Correlantion energy NL            0.0000000000 
   Exchange-Correlation energy     -25.4749631480 
   Embedding correction              0.0000000000 
# -----------------------------------------------------------
$ VdW_Correction
   description: The Van der Waals Correction
   geom. index: 1
   prop. index: 1
        Van der Waals Correction:       -0.0194655082
# -----------------------------------------------------------
$ SCF_Energy
   description: The SCF energy
   geom. index: 2
   prop. index: 1
        SCF Energy:     -197.6206528655
# -----------------------------------------------------------
$ DFT_Energy
   description: The DFT energy
   geom. index: 2
   prop. index: 1
   Number of Alpha Electrons        21.0000774086 
   Number of Alpha Electrons        21.0000774086 
   Total nuber of  Electrons        42.0001548171 
   Exchange energy                 -23.8697942761 
   Correlation energy               -1.5636127704 
   Correlantion energy NL            0.0000000000 
   Exchange-Correlation energy     -25.4334070466 
   Embedding correction              0.0000000000 
# -----------------------------------------------------------
$ VdW_Correction
   description: The Van der Waals Correction
   geom. index: 2
   prop. index: 1
        Van der Waals Correction:       -0.0192649233
# -----------------------------------------------------------
$ SCF_Energy
   description: The SCF energy
   geom. index: 3
   prop. index: 1
        SCF Energy:     -197.6207566388
# -----------------------------------------------------------
$ DFT_Energy
   description: The DFT energy
   geom. index: 3
   prop. index: 1
   Number of Alpha Electrons        21.0000769988 
   Number of Alpha Electrons        21.0000769988 
   Total nuber of  Electrons        42.0001539975 
   Exchange energy                 -23.8678011821 
   Correlation energy               -1.5634903115 
   Correlantion energy NL            0.0000000000 
   Exchange-Correlation energy     -25.4312914936 
   Embedding correction              0.0000000000 
# -----------------------------------------------------------
$ VdW_Correction
   description: The Van der Waals Correction
   geom. index: 3
   prop. index: 1
        Van der Waals Correction:       -0.0192474635
# -----------------------------------------------------------
$ SCF_Energy
   description: The SCF energy
   geom. index: 4
   prop. index: 1
        SCF Energy:     -197.6207762711
# -----------------------------------------------------------
$ DFT_Energy
   description: The DFT energy
   geom. index: 4
   prop. index: 1
   Number of Alpha Electrons        21.0000765329 
   Number of Alpha Electrons        21.0000765329 
   Total nuber of  Electrons        42.0001530657 
   Exchange energy                 -23.8690105252 
   Correlation energy               -1.5636141999 
   Correlantion energy NL            0.0000000000 
   Exchange-Correlation energy     -25.4326247252 
   Embedding correction              0.0000000000 
# -----------------------------------------------------------
$ VdW_Correction
   description: The Van der Waals Correction
   geom. index: 4
   prop. index: 1
        Van der Waals Correction:       -0.0192515428
# -----------------------------------------------------------
$ SCF_Energy
   description: The SCF energy
   geom. index: 5
   prop. index: 1
        SCF Energy:     -197.6207743042
# -----------------------------------------------------------
$ DFT_Energy
   description: The DFT energy
   geom. index: 5
   prop. index: 1
   Number of Alpha Electrons        21.0000763816 
   Number of Alpha Electrons        21.0000763816 
   Total nuber of  Electrons        42.0001527632 
   Exchange energy                 -23.8697796304 
   Correlation energy               -1.5636820585 
   Correlantion energy NL            0.0000000000 
   Exchange-Correlation energy     -25.4334616889 
   Embedding correction              0.0000000000 
# -----------------------------------------------------------
$ VdW_Correction
   description: The Van der Waals Correction
   geom. index: 5
   prop. index: 1
        Van der Waals Correction:       -0.0192563041
# -----------------------------------------------------------
$ SCF_Energy
   description: The SCF energy
   geom. index: 6
   prop. index: 1
        SCF Energy:     -197.6207733086
# -----------------------------------------------------------
$ DFT_Energy
   description: The DFT energy
   geom. index: 6
   prop. index: 1
   Number of Alpha Electrons        21.0000763589 
   Number of Alpha Electrons        21.0000763589 
   Total nuber of  Electrons        42.0001527179 
   Exchange energy                 -23.8699216004 
   Correlation energy               -1.5636936729 
   Correlantion energy NL            0.0000000000 
   Exchange-Correlation energy     -25.4336152733 
   Embedding correction              0.0000000000 
# -----------------------------------------------------------
$ VdW_Correction
   description: The Van der Waals Correction
   geom. index: 6
   prop. index: 1
        Van der Waals Correction:       -0.0192576461
# -----------------------------------------------------------
$ SCF_Electric_Properties
   description: The SCF Calculated Electric Properties
   geom. index: 6
   prop. index: 1
       Filename                          : pentane_B3LYP-D3_cc-pVDZ.scfp 
       Do Dipole Moment Calculation      : true 
       Do Quadrupole Moment Calculation  : false 
       Do Polarizability Calculation     : false 
** Dipole moment part of electric properties **
        Magnitude of dipole moment (Debye) :        0.0648243575
        Electronic Contribution:
                  0    
      0       0.312753
      1      -0.482673
      2      -0.063220
        Nuclear Contribution:
                  0    
      0      -0.298909
      1       0.461450
      2       0.060335
        Total Dipole moment:
                  0    
      0       0.013844
      1      -0.021224
      2      -0.002885
# -----------------------------------------------------------
$ Hessian
   description: Details about the Hessian
   geom. index: 6
   prop. index: 1
Normal modes:
Number of Rows: 51 Number of Columns: 51
                  0          1          2          3          4          5    
      0       0.000000   0.000000   0.000000   0.000000   0.000000   0.000000
      1       0.000000   0.000000   0.000000   0.000000   0.000000   0.000000
      2       0.000000   0.000000   0.000000   0.000000   0.000000   0.000000
      3       0.000000   0.000000   0.000000   0.000000   0.000000   0.000000
      4       0.000000   0.000000   0.000000   0.000000   0.000000   0.000000
      5       0.000000   0.000000   0.000000   0.000000   0.000000   0.000000
      6       0.000000   0.000000   0.000000   0.000000   0.000000   0.000000
      7       0.000000   0.000000   0.000000   0.000000   0.000000   0.000000
      8       0.000000   0.000000   0.000000   0.000000   0.000000   0.000000
      9       0.000000   0.000000   0.000000   0.000000   0.000000   0.000000
     10       0.000000   0.000000   0.000000   0.000000   0.000000   0.000000
     11       0.000000   0.000000   0.000000   0.000000   0.000000   0.000000
     12       0.000000   0.000000   0.000000   0.000000   0.000000   0.000000
     13       0.000000   0.000000   0.000000   0.000000   0.000000   0.000000
     14       0.000000   0.000000   0.000000   0.000000   0.000000   0.000000
     15       0.000000   0.000000   0.000000   0.000000   0.000000   0.000000
     16       0.000000   0.000000   0.000000   0.000000   0.000000   0.000000
     17       0.000000   0.000000   0.000000   0.000000   0.000000   0.000000
     18       0.000000   0.000000   0.000000   0.000000   0.000000   0.000000
     19       0.000000   0.000000   0.000000   0.000000   0.000000   0.000000
     20       0.000000   0.000000   0.000000   0.000000   0.000000   0.000000
     21       0.000000   0.000000   0.000000   0.000000   0.000000   0.000000
     22       0.000000   0.000000   0.000000   0.000000   0.000000   0.000000
     23       0.000000   0.000000   0.000000   0.000000   0.000000   0.000000
     24       0.000000   0.000000   0.000000   0.000000   0.000000   0.000000
     25       0.000000   0.000000   0.000000   0.000000   0.000000   0.000000
     26       0.000000   0.000000   0.000000   0.000000   0.000000   0.000000
     27       0.000000   0.000000   0.000000   0.000000   0.000000   0.000000
     28       0.000000   0.000000   0.000000   0.000000   0.000000   0.000000
     29       0.000000   0.000000   0.000000   0.000000   0.000000   0.000000
     30       0.000000   0.000000   0.000000   0.000000   0.000000   0.000000
     31       0.000000   0.000000   0.000000   0.000000   0.000000   0.000000
     32       0.000000   0.000000   0.000000   0.000000   0.000000   0.000000
     33       0.000000   0.000000   0.000000   0.000000   0.000000   0.000000
     34       0.000000   0.000000   0.000000   0.000000   0.000000   0.000000
     35       0.000000   0.000000   0.000000   0.000000   0.000000   0.000000
     36       0.000000   0.000000   0.000000   0.000000   0.000000   0.000000
     37       0.000000   0.000000   0.000000   0.000000   0.000000   0.000000
     38       0.000000   0.000000   0.000000   0.000000   0.000000   0.000000
     39       0.000000   0.000000   0.000000   0.000000   0.000000   0.000000
     40       0.000000   0.000000   0.000000   0.000000   0.000000   0.000000
     41       0.000000   0.000000   0.000000   0.000000   0.000000   0.000000
     42       0.000000   0.000000   0.000000   0.000000   0.000000   0.000000
     43       0.000000   0.000000   0.000000   0.000000   0.000000   0.000000
     44       0.000000   0.000000   0.000000   0.000000   0.000000   0.000000
     45       0.000000   0.000000   0.000000   0.000000   0.000000   0.000000
     46       0.000000   0.000000   0.000000   0.000000   0.000000   0.000000
     47       0.000000   0.000000   0.000000   0.000000   0.000000   0.000000
     48       0.000000   0.000000   0.000000   0.000000   0.000000   0.000000
     49       0.000000   0.000000   0.000000   0.000000   0.000000   0.000000
     50       0.000000   0.000000   0.000000   0.000000   0.000000   0.000000
                  6          7          8          9         10         11    
      0       0.000411   0.000929   0.001252   0.000104   0.000028  -0.075647
      1       0.010171   0.021130   0.190487   0.000826  -0.001708  -0.085811
      2      -0.074164  -0.147689   0.026645  -0.002605   0.015351  -0.012414
      3      -0.000761  -0.000071  -0.000275  -0.000081   0.000518  -0.057500
      4      -0.019274  -0.004698  -0.109544  -0.004921   0.011199   0.176005
      5       0.138736   0.032393  -0.014799   0.032706  -0.081828   0.024221
      6      -0.124054  -0.115072   0.121501  -0.033280   0.078092  -0.229103
      7       0.243165  -0.096735   0.283087  -0.331086   0.360607  -0.210575
      8      -0.222915  -0.146525   0.037812   0.121726  -0.103199  -0.023639
      9      -0.000304   0.001435  -0.229902   0.001417  -0.002811   0.217811
     10      -0.015015   0.047620   0.287027   0.053038  -0.061238  -0.209695
     11       0.104696  -0.334993   0.039797  -0.372850   0.441494  -0.028569
     12       0.126533   0.117374   0.122210   0.032459  -0.075770  -0.229230
     13      -0.173413   0.134448   0.280721   0.286369  -0.317034  -0.207902
     14      -0.279785  -0.112892   0.040927   0.208472  -0.198826  -0.036862
     15      -0.115683  -0.093574  -0.091052  -0.019900   0.047153  -0.039825
     16       0.095685  -0.114414  -0.158243   0.038880  -0.036919   0.167536
     17       0.287020  -0.019254  -0.016387   0.078483  -0.143158   0.011638
     18      -0.000102  -0.000971   0.106139   0.000440   0.000172   0.126781
     19      -0.001767  -0.035414  -0.164059   0.007860  -0.000723   0.080927
     20       0.013408   0.252009  -0.022919  -0.059113   0.003054   0.011695
     21       0.112793   0.093422  -0.090590   0.018955  -0.045890  -0.040037
     22      -0.170600   0.114634  -0.158511  -0.059791   0.074213   0.163700
     23       0.251192   0.013738  -0.026643   0.064917  -0.128238   0.034491
     24       0.079110   0.092568   0.100804  -0.071126  -0.049895   0.256875
     25       0.036061  -0.213800  -0.153972   0.126143  -0.041186   0.163641
     26       0.026409   0.368769  -0.028597  -0.140362   0.002371   0.023679
     27      -0.079197  -0.095906   0.100556   0.072652   0.050029   0.257458
     28      -0.041504   0.104244  -0.156869  -0.083854   0.038235   0.163338
     29       0.014816   0.412229  -0.015499  -0.168915   0.013950   0.023557
     30       0.000533  -0.000032   0.100637  -0.000095  -0.000216   0.136258
     31       0.018513  -0.007659  -0.045620  -0.005695  -0.010822  -0.126178
     32      -0.133826   0.054603  -0.006421   0.041372   0.077749  -0.016679
     33       0.089900   0.131375   0.182834  -0.040524  -0.027612   0.133502
     34      -0.116286   0.055865   0.014191   0.033436   0.043123  -0.108007
     35      -0.287119   0.049855   0.007092   0.092185   0.135315  -0.002557
     36      -0.000137   0.000044  -0.175293  -0.000354  -0.000420  -0.111442
     37      -0.007846   0.021966   0.078578   0.000705   0.002037  -0.033271
     38       0.057639  -0.158494   0.010603  -0.004445  -0.014786  -0.005043
     39      -0.087660  -0.130586   0.183659   0.040335   0.027149   0.133493
     40       0.189699  -0.066943   0.016524  -0.056783  -0.077983  -0.104740
     41      -0.246068   0.031873  -0.002795   0.080142   0.118936  -0.025536
     42       0.154864   0.130767  -0.313435   0.327195   0.307222  -0.288970
     43      -0.224799   0.110868   0.008751  -0.130035  -0.080069  -0.119643
     44       0.211328  -0.156179  -0.003090   0.166507   0.126801  -0.024497
     45      -0.156957  -0.131857  -0.306089  -0.331055  -0.311086  -0.289495
     46       0.160863  -0.064706   0.008176   0.081434   0.043517  -0.120023
     47       0.261396  -0.182059   0.000459   0.190218   0.138869  -0.010774
     48       0.001312   0.001252  -0.167272   0.002691   0.002443  -0.102330
     49       0.018571   0.044623   0.326794   0.056835   0.054939   0.283291
     50      -0.142340  -0.315678   0.049045  -0.414825  -0.398827   0.037856
                 12         13         14         15         16         17    
      0       0.231823  -0.000093   0.000015   0.000347   0.052515  -0.124119
      1       0.092584  -0.000799   0.002608   0.006460   0.070213  -0.069902
      2       0.014106   0.005562  -0.018763  -0.045282   0.010093  -0.010610
      3       0.168615  -0.000207   0.000411   0.000159  -0.018098   0.075954
      4       0.084409  -0.005173   0.009013   0.004077   0.095269  -0.062264
      5       0.012569   0.036609  -0.065403  -0.027830   0.013195  -0.008205
      6       0.278041  -0.121331   0.246889   0.311055  -0.173963   0.052869
      7       0.134328   0.042254  -0.052854  -0.045518  -0.158146   0.124189
      8       0.015832  -0.063390   0.108473   0.108839   0.008987  -0.014693
      9       0.146077   0.000234  -0.001040  -0.000172   0.522521  -0.528163
     10       0.130287   0.005456  -0.015546  -0.023091  -0.127002   0.097666
     11       0.018720  -0.039254   0.111688   0.163604  -0.015030   0.011334
     12       0.278048   0.121898  -0.248056  -0.312745  -0.173580   0.050782
     13       0.133373  -0.023504   0.021626   0.013997  -0.149192   0.115260
     14       0.024569  -0.071244   0.116175   0.113630  -0.053882   0.049292
     15       0.240361   0.121782  -0.219108  -0.256563  -0.146504   0.175906
     16       0.137486  -0.246761   0.231103  -0.054584   0.002760  -0.006198
     17       0.024052  -0.225452   0.225346   0.040030  -0.005574  -0.003913
     18      -0.066273  -0.000173  -0.000019  -0.000451   0.090925   0.134737
     19       0.101281  -0.006695  -0.000002  -0.012475  -0.140036   0.085826
     20       0.013501   0.048035   0.000051   0.087985  -0.019144   0.012713
     21       0.240227  -0.119885   0.217254   0.255776  -0.147018   0.177647
     22       0.138398   0.299057  -0.284413   0.041350   0.001100  -0.005508
     23       0.016842  -0.150714   0.155907   0.056354   0.004409   0.003982
     24      -0.059347  -0.203281  -0.139108  -0.156362   0.083867   0.224907
     25       0.087996   0.349614  -0.087952   0.261396  -0.126700   0.143291
     26       0.020284  -0.195582  -0.012988  -0.101990  -0.026841   0.020914
     27      -0.059056   0.205631   0.138877   0.157305   0.082955   0.223040
     28       0.090076  -0.282929   0.087813  -0.224222  -0.129220   0.141435
     29       0.003084  -0.281830   0.012839  -0.168206  -0.007737   0.020628
     30      -0.149379  -0.000192  -0.000278   0.000041  -0.079899  -0.024796
     31      -0.115007  -0.005102  -0.009000   0.003743   0.056509   0.094251
     32      -0.016942   0.036607   0.065361  -0.027942   0.007467   0.012707
     33      -0.228140   0.200456   0.145901   0.151158   0.059292   0.067793
     34      -0.158236  -0.197297  -0.278002   0.203992   0.133364   0.160374
     35      -0.020193  -0.217755  -0.231662   0.077883   0.013388   0.026406
     36      -0.180981   0.000012  -0.000053   0.000184  -0.086855  -0.115784
     37      -0.169365  -0.000610  -0.002477   0.006297  -0.018085  -0.082325
     38      -0.024033   0.005580   0.018755  -0.045325  -0.002797  -0.011772
     39      -0.228771  -0.198924  -0.144293  -0.151301   0.060541   0.069205
     40      -0.156012   0.248711   0.330103  -0.217097   0.133250   0.161386
     41      -0.027009  -0.158576  -0.149747   0.018892   0.023546   0.018696
     42      -0.237167   0.021161   0.069722  -0.103302   0.214192   0.130165
     43      -0.192196   0.132382   0.253128  -0.307939   0.089612  -0.007133
     44      -0.032201  -0.050390  -0.079383   0.070865   0.045272   0.032081
     45      -0.235862  -0.020300  -0.068876   0.103209   0.213862   0.130458
     46      -0.193337  -0.113810  -0.222801   0.278636   0.094447  -0.000845
     47      -0.023543  -0.084144  -0.145110   0.152121  -0.018500  -0.032014
     48      -0.179757   0.000344   0.000924  -0.001384  -0.102727  -0.131054
     49      -0.079495   0.005814   0.016108  -0.023470  -0.525318  -0.513843
     50      -0.010923  -0.039218  -0.111539   0.163782  -0.073069  -0.071154
                 18         19         20         21         22         23    
      0       0.000445  -0.103012   0.165519   0.059700  -0.018969  -0.000489
      1       0.007865   0.092835  -0.029572   0.012333   0.108448  -0.012741
      2      -0.055004   0.012533  -0.003203   0.001990   0.014830   0.092666
      3      -0.000334   0.143682  -0.206684  -0.071403   0.073052   0.000814
      4      -0.006772  -0.053950  -0.057852  -0.120014  -0.155509   0.018815
      5       0.048211  -0.006847  -0.009234  -0.017107  -0.020910  -0.137889
      6       0.255026  -0.342657   0.243911   0.018365  -0.254201  -0.271999
      7      -0.041643  -0.154215   0.015822  -0.064614  -0.186327   0.081864
      8       0.075953   0.015662   0.007092   0.013069   0.036860  -0.068414
      9       0.000174   0.274879   0.123609   0.166046   0.341877   0.001807
     10      -0.019711  -0.073044  -0.008365  -0.035550  -0.053934   0.026038
     11       0.139282  -0.009011  -0.000516  -0.003891  -0.005160  -0.186623
     12      -0.256365  -0.341078   0.243944   0.018037  -0.254816   0.271931
     13       0.019086  -0.143512   0.016857  -0.058452  -0.168297  -0.061135
     14       0.081461  -0.061417   0.000245  -0.029869  -0.088829  -0.085739
     15      -0.173577   0.006287  -0.337145  -0.289387  -0.036936  -0.152659
     16      -0.250041  -0.134855  -0.129684  -0.266548  -0.201534   0.223766
     17      -0.083637  -0.013060  -0.015072  -0.041422  -0.011710   0.112707
     18      -0.000231   0.036845  -0.059949   0.166575  -0.108102  -0.000740
     19       0.000001   0.023293   0.090947   0.105771   0.167820  -0.018304
     20       0.000019   0.003451   0.012469   0.015406   0.022445   0.134726
     21       0.173292   0.005875  -0.337314  -0.289480  -0.036859   0.151263
     22       0.262618  -0.134196  -0.128814  -0.267557  -0.195204  -0.247306
     23      -0.010143  -0.024329  -0.024520  -0.036081  -0.044496   0.048608
     24       0.304208  -0.200710  -0.077850   0.276176  -0.096672  -0.149011
     25       0.192891  -0.127095   0.118314   0.174816   0.148048   0.243320
     26       0.028329  -0.018712  -0.000206   0.025776   0.032601  -0.052800
     27      -0.304864  -0.199638  -0.076591   0.275227  -0.096983   0.149934
     28      -0.193053  -0.126579   0.113911   0.175213   0.153132  -0.218625
     29      -0.028427  -0.018648   0.031357   0.025988   0.009038  -0.115846
     30       0.000342   0.010565   0.141084  -0.139316   0.111631   0.000670
     31       0.006732   0.151547   0.162009  -0.012661  -0.131033   0.018678
     32      -0.048208   0.020911   0.022941  -0.002150  -0.017238  -0.138004
     33      -0.308231  -0.119974   0.263671  -0.363922   0.196070  -0.152341
     34      -0.055243   0.062520   0.249778  -0.146610  -0.053484   0.224460
     35       0.038700   0.002138   0.039881  -0.018900   0.010232   0.112364
     36       0.000046   0.041971  -0.042420   0.036284  -0.091393  -0.000534
     37      -0.007657  -0.131339  -0.161930   0.047347   0.062801  -0.012513
     38       0.055034  -0.017877  -0.022422   0.006542   0.007917   0.092787
     39       0.307126  -0.122402   0.261858  -0.365493   0.196907   0.152028
     40       0.041917   0.060541   0.251107  -0.146405  -0.047484  -0.246940
     41       0.054822   0.013170   0.030470  -0.024337  -0.022629   0.049259
     42       0.078348  -0.279184  -0.117588  -0.049987   0.268301   0.048505
     43       0.252672  -0.240659  -0.213970   0.042570   0.146385   0.285329
     44      -0.045474  -0.073745  -0.026443  -0.016312   0.085974  -0.039410
     45      -0.079875  -0.278977  -0.116973  -0.050216   0.269465  -0.047681
     46      -0.232813  -0.248515  -0.212547   0.038077   0.163156  -0.264199
     47      -0.112295   0.003837  -0.033277   0.027052  -0.039947  -0.114732
     48       0.001538   0.047926  -0.044345   0.036936  -0.093628   0.001539
     49       0.021316   0.277916  -0.115330   0.164527  -0.330350   0.025703
     50      -0.139186   0.039079  -0.015571   0.023152  -0.045882  -0.187067
                 24         25         26         27         28         29    
      0      -0.000428  -0.007349  -0.000267  -0.000105   0.020488  -0.099870
      1      -0.011627   0.055393  -0.006858  -0.002354  -0.041838  -0.003497
      2       0.084104   0.007497   0.049244   0.016908  -0.005658  -0.001075
      3       0.000323  -0.033214  -0.000160  -0.000309   0.104440   0.011877
      4       0.011658  -0.075823  -0.000775  -0.005463   0.065354   0.007312
      5      -0.084412  -0.010608   0.005936   0.039036   0.009719   0.001083
      6      -0.209289  -0.041036  -0.111693  -0.057461  -0.105822   0.352968
      7       0.082915  -0.088397   0.044368  -0.002729   0.077076   0.080764
      8      -0.049597   0.046144  -0.020006  -0.002837  -0.096639   0.138586
      9       0.001552   0.185638   0.000713   0.000189  -0.217934   0.352263
     10       0.023540  -0.027044   0.010937  -0.001749   0.055039  -0.178191
     11      -0.168766  -0.002307  -0.078625   0.011808   0.006152  -0.022550
     12       0.209799  -0.041289   0.112187   0.057859  -0.106954   0.354642
     13      -0.066752  -0.071879  -0.037332   0.003299   0.047420   0.115560
     14      -0.068484  -0.068747  -0.030331  -0.001550   0.112791  -0.107127
     15      -0.341974   0.276851  -0.382475  -0.235792  -0.370552  -0.010129
     16      -0.033583   0.138582  -0.256239  -0.230864  -0.225126  -0.030017
     17       0.032655   0.029050  -0.045029  -0.044741  -0.029206  -0.015901
     18      -0.000259  -0.077344   0.000452   0.000175  -0.016711   0.004853
     19      -0.000154  -0.048953   0.012659   0.000022   0.025866   0.002599
     20       0.000055  -0.007221  -0.091498  -0.000108   0.003392   0.000415
     21       0.342655   0.275125   0.383440   0.236253  -0.369689  -0.010357
     22       0.023367   0.140476   0.258427   0.233936  -0.223435  -0.033310
     23       0.044549   0.012814   0.031414   0.022931  -0.037574   0.006948
     24       0.281593   0.407624   0.088873  -0.437313   0.012047  -0.023602
     25       0.178561   0.258126  -0.140977  -0.277248  -0.023834  -0.015861
     26       0.026190   0.037961   0.010815  -0.040732   0.029224  -0.002157
     27      -0.279733   0.408590  -0.089301   0.437739   0.012355  -0.023272
     28      -0.177405   0.258832   0.132187   0.277528  -0.014473  -0.015700
     29      -0.026153   0.038008   0.047935   0.040899  -0.034408  -0.002492
     30      -0.000487  -0.083441   0.000074  -0.000004  -0.103605   0.013997
     31      -0.011522   0.001903  -0.000899   0.005482  -0.066482   0.009644
     32       0.084325  -0.000208   0.006059  -0.039012  -0.009596   0.001316
     33      -0.169267   0.244633   0.397088  -0.311352   0.360850  -0.041776
     34      -0.290352   0.191625   0.237605  -0.115756   0.238330  -0.001101
     35      -0.079870   0.019146   0.027476  -0.006228   0.038574   0.011862
     36       0.000518   0.047663  -0.000332   0.000196   0.029628  -0.048301
     37       0.011392  -0.029869  -0.006720   0.002332  -0.036129  -0.093640
     38      -0.084101  -0.003698   0.049266  -0.016805  -0.004787  -0.013111
     39       0.170546   0.243049  -0.397281   0.311082   0.360735  -0.041270
     40       0.301334   0.187983  -0.235678   0.112887   0.239313   0.002073
     41       0.002819   0.035097  -0.041124   0.028004   0.029989  -0.012017
     42      -0.019135  -0.089828   0.009615  -0.027269  -0.010882   0.255197
     43      -0.227481   0.004546   0.121176  -0.050904   0.136354   0.310991
     44       0.028932  -0.058618  -0.009026  -0.004927  -0.088308  -0.087428
     45       0.018558  -0.091044  -0.009027   0.026493  -0.012843   0.252346
     46       0.211764  -0.011345  -0.114385   0.049837   0.107964   0.275323
     47       0.089068   0.056280  -0.041278   0.009109   0.121383   0.171113
     48      -0.001343   0.052949   0.000631   0.000132   0.040692  -0.017572
     49      -0.022897   0.178478   0.010816   0.001527   0.219644   0.413912
     50       0.169005   0.024840  -0.078709  -0.011961   0.030585   0.056665
                 30         31         32         33         34         35    
      0       0.008169  -0.107041  -0.004090   0.005919   0.000856  -0.004105
      1       0.023063  -0.010295   0.005223  -0.015263  -0.010190   0.021958
      2       0.003239  -0.002042   0.000688  -0.002037   0.028552   0.012612
      3      -0.108842   0.046265   0.014741  -0.033365  -0.006691   0.024859
      4      -0.051943   0.018883  -0.028409   0.028904  -0.003522   0.006077
      5      -0.007853   0.002841  -0.003912   0.003870   0.013472   0.005631
      6       0.036487   0.360286   0.044061  -0.088824   0.193170   0.179942
      7      -0.094896   0.105562  -0.064813   0.206898   0.319862  -0.220853
      8       0.060911   0.131772   0.047969  -0.128561  -0.041479   0.178430
      9       0.040130   0.352091  -0.021025   0.129857   0.057342  -0.207790
     10       0.008778  -0.187510   0.007716  -0.056116   0.038082   0.115406
     11       0.001620  -0.024024   0.001392  -0.008307  -0.454400  -0.131465
     12       0.037297   0.361801   0.045140  -0.091703  -0.250546   0.041243
     13      -0.074459   0.137391  -0.048767   0.162652  -0.171043  -0.312414
     14      -0.084172  -0.093744  -0.063290   0.179148   0.001489  -0.271112
     15       0.275287  -0.103372  -0.131899   0.204565   0.067491  -0.098945
     16       0.160962  -0.094434   0.184570  -0.217548  -0.018025   0.059882
     17       0.004284  -0.023536   0.227976  -0.291497  -0.027119   0.099133
     18       0.146848  -0.008364  -0.029989  -0.001511  -0.006317   0.023980
     19       0.093199   0.009830   0.046455  -0.001321   0.009835  -0.037036
     20       0.013672   0.001293   0.006358  -0.000135  -0.000474  -0.005545
     21       0.274775  -0.103530  -0.129549   0.201205  -0.008233  -0.121071
     22       0.155468  -0.097358   0.240041  -0.289472  -0.022755   0.086807
     23       0.043013  -0.004398  -0.170198   0.223021   0.021962  -0.079965
     24      -0.407890  -0.011134   0.216075   0.003061   0.035302  -0.125783
     25      -0.257598   0.026956  -0.381786   0.004957  -0.058213   0.220298
     26      -0.038160  -0.003835   0.276505  -0.001135   0.048505  -0.168440
     27      -0.408798  -0.011936   0.219053   0.003348   0.030077  -0.125471
     28      -0.258153   0.024542  -0.292011   0.004443  -0.043462   0.168201
     29      -0.037656   0.010922  -0.368404   0.002482  -0.052993   0.224054
     30      -0.094225  -0.033910   0.020060   0.012309   0.004502  -0.016640
     31      -0.076970  -0.031477  -0.025786  -0.041712   0.002960  -0.019992
     32      -0.010968  -0.004400  -0.003358  -0.005741   0.016122   0.000570
     33       0.263813   0.123645  -0.142986  -0.146882  -0.009962  -0.025454
     34       0.179653   0.050473   0.182544   0.250875  -0.067877   0.108833
     35       0.045111  -0.001958   0.230864   0.293002  -0.032612   0.106118
     36       0.026007   0.050813  -0.003187  -0.011500   0.005139  -0.019838
     37       0.000111   0.086185   0.005960   0.011631  -0.008125   0.012392
     38       0.000148   0.012110   0.000938   0.001381   0.031587   0.009007
     39       0.264449   0.123070  -0.140810  -0.144223   0.019488  -0.016560
     40       0.185203   0.048007   0.238492   0.320423   0.000740   0.150570
     41       0.007051   0.016437  -0.174492  -0.216033   0.023434  -0.070685
     42      -0.068690  -0.247019   0.032640   0.130903  -0.392553   0.121074
     43       0.070567  -0.272184  -0.073871  -0.178113  -0.038597  -0.265492
     44      -0.061747   0.069387   0.048349   0.132763  -0.100703   0.175797
     45      -0.069731  -0.244577   0.036945   0.131438   0.284556   0.279791
     46       0.051956  -0.242769  -0.057125  -0.137004   0.163397  -0.157138
     47       0.077383  -0.143234  -0.065970  -0.173525   0.051040  -0.245440
     48       0.025535   0.023108   0.001732   0.002650   0.003772   0.000656
     49       0.021926  -0.370019   0.023984   0.139640   0.005611   0.243694
     50       0.003349  -0.050593   0.000781   0.020369  -0.500706  -0.081845
                 36         37         38         39         40         41    
      0      -0.000101  -0.001005   0.000527  -0.004450  -0.001166  -0.000294
      1      -0.005689   0.029254   0.019569   0.000283  -0.004425  -0.006339
      2       0.032676   0.004189   0.002746   0.000020  -0.000557  -0.000788
      3      -0.001055  -0.002345  -0.022149  -0.005456  -0.025964  -0.025514
      4      -0.003511   0.048396   0.045341   0.010660   0.039927   0.039126
      5       0.019702   0.006819   0.006211   0.001082   0.005120   0.004790
      6       0.242427   0.109064   0.076216   0.016190  -0.001970  -0.006273
      7       0.283170  -0.313837  -0.201090  -0.020466  -0.001354   0.005194
      8      -0.002262   0.185266   0.121299  -0.047796   0.001668   0.016970
      9       0.012821  -0.214383  -0.131698   0.015644   0.020685   0.021278
     10       0.065636   0.106291   0.068122   0.049219   0.056781   0.058535
     11      -0.502998   0.012193   0.008557   0.006953   0.008101   0.008343
     12      -0.251614   0.110042   0.077491   0.015568  -0.002343  -0.006672
     13      -0.249008  -0.252716  -0.160504  -0.032740  -0.000165   0.010634
     14      -0.059526  -0.263603  -0.171131   0.040374  -0.002816  -0.016142
     15       0.037372   0.062868   0.117393   0.038974   0.154143   0.149220
     16      -0.015415  -0.174004  -0.201413  -0.078399  -0.294297  -0.290414
     17      -0.004825  -0.199853  -0.251494   0.096258   0.368789   0.360592
     18      -0.000962  -0.020078  -0.022661   0.035112  -0.000878  -0.009875
     19       0.001874  -0.012955   0.035056  -0.054527  -0.000843   0.015189
     20       0.000191  -0.001879   0.004794  -0.006162  -0.000355   0.002630
     21      -0.030191   0.060684   0.114551   0.038157   0.157174   0.150976
     22       0.014216  -0.221994  -0.262872  -0.046783  -0.180583  -0.177627
     23       0.002317   0.145243   0.187986  -0.108605  -0.429683  -0.417749
     24      -0.038658   0.025170   0.142112  -0.209878  -0.000032   0.059264
     25      -0.039197   0.017412  -0.251526   0.245842   0.002697  -0.069460
     26       0.004171   0.001578   0.185093   0.581906   0.004126  -0.163999
     27       0.050281   0.025845   0.144146  -0.211117   0.001160   0.055024
     28       0.019904   0.017550  -0.191657   0.407994   0.001417  -0.106381
     29      -0.006481   0.003518  -0.245618  -0.508270  -0.000631   0.133101
     30       0.000520   0.043317  -0.032183  -0.007561   0.025972  -0.024774
     31       0.003636  -0.022543   0.038901   0.009612  -0.040629   0.038919
     32      -0.018712  -0.003077   0.005228   0.000866  -0.004751   0.004306
     33       0.001561  -0.156662   0.165015   0.042258  -0.153888   0.149794
     34       0.027944   0.115995  -0.171542  -0.078355   0.300695  -0.286671
     35      -0.000449   0.191669  -0.246519   0.098692  -0.375369   0.358543
     36       0.000895   0.026435  -0.018120   0.001588  -0.004559   0.005816
     37       0.003810  -0.013070   0.007668   0.004039   0.000893  -0.002379
     38      -0.030770  -0.001986   0.001036   0.000565  -0.000011  -0.000136
     39       0.002689  -0.155131   0.163005   0.041032  -0.154045   0.148667
     40      -0.042187   0.162680  -0.231485  -0.046301   0.184731  -0.174411
     41       0.000918  -0.154854   0.192771  -0.110104   0.432032  -0.409253
     42       0.316943  -0.207754   0.130759   0.017834  -0.001618  -0.004226
     43       0.108362   0.248437  -0.164448  -0.019089  -0.001295   0.006287
     44       0.040726  -0.195429   0.126820  -0.046640  -0.002602   0.016647
     45      -0.331676  -0.219324   0.135393   0.017162  -0.001190  -0.004653
     46      -0.102297   0.184913  -0.124051  -0.030750  -0.002935   0.011946
     47       0.022140   0.251986  -0.164311   0.039988   0.003299  -0.016074
     48      -0.003572   0.007600  -0.007329  -0.051003   0.060513  -0.061321
     49      -0.072546  -0.237268   0.146417   0.006509  -0.005186   0.005294
     50       0.469482  -0.026162   0.018051   0.000482  -0.000304   0.000322
                 42         43         44         45         46         47    
      0      -0.000274   0.040571   0.028966  -0.000072  -0.000120  -0.000565
      1       0.000570  -0.007134  -0.005220  -0.002143  -0.003052  -0.011696
      2      -0.004158  -0.000711  -0.000599   0.015028   0.021295   0.069716
      3      -0.000482  -0.002101  -0.001735   0.000496   0.000389  -0.000040
      4      -0.004624   0.001368   0.001367   0.008611   0.006746  -0.002772
      5       0.036439   0.000115   0.000660  -0.063118  -0.049520   0.019006
      6      -0.012358  -0.165172  -0.118400   0.041669   0.055460   0.188024
      7       0.011853   0.177054   0.126572  -0.045661  -0.062671  -0.199033
      8       0.027155   0.429931   0.307416  -0.102795  -0.141252  -0.455802
      9       0.001265  -0.146653  -0.105387   0.000020   0.000193   0.006907
     10       0.003450  -0.377394  -0.269001  -0.000679  -0.000508   0.014537
     11       0.000084  -0.053634  -0.038249   0.005485   0.007525   0.018297
     12       0.014308  -0.161047  -0.115020  -0.040877  -0.054310  -0.188287
     13      -0.022974   0.289154   0.206020   0.072665   0.099552   0.324403
     14       0.028143  -0.367263  -0.261758  -0.087375  -0.119809  -0.396458
     15      -0.092993   0.008586   0.005884   0.156555   0.118761  -0.046311
     16       0.174304  -0.013184  -0.008100  -0.295558  -0.232599   0.084094
     17      -0.201308   0.016050   0.010329   0.344861   0.268876  -0.101230
     18       0.000737   0.000283   0.004603  -0.000006   0.000421   0.000006
     19       0.009654  -0.001538  -0.006841  -0.000019   0.007184  -0.000230
     20      -0.073462  -0.000050  -0.001680   0.000241  -0.053428   0.001707
     21       0.098932   0.008418   0.008484  -0.162431  -0.123338   0.046803
     22      -0.116884  -0.007888  -0.007908   0.191895   0.151768  -0.052381
     23      -0.250025  -0.018067  -0.018364   0.415116   0.324347  -0.117956
     24      -0.192403  -0.002453  -0.028881   0.002628  -0.132461   0.001131
     25       0.231110   0.006024   0.033609   0.000426   0.158412  -0.007153
     26       0.494584   0.011599   0.077386  -0.001584   0.344969  -0.011343
     27       0.183570  -0.003145  -0.024501  -0.002499   0.127486  -0.000957
     28      -0.349078   0.010507   0.046457  -0.000219  -0.243143   0.010098
     29       0.403313  -0.011306  -0.057341  -0.001349   0.284919  -0.009028
     30      -0.000681   0.000143  -0.000636  -0.000570   0.000370  -0.000004
     31      -0.004265  -0.001627   0.002732  -0.008195   0.006524   0.001934
     32       0.036735  -0.000220   0.000668   0.063253  -0.049411  -0.013508
     33      -0.090508  -0.004116   0.005359  -0.153699   0.123129   0.029587
     34       0.173978   0.009718  -0.014026   0.294739  -0.227740  -0.060982
     35      -0.199901  -0.010452   0.014871  -0.343305   0.268314   0.071322
     36       0.000247   0.007534  -0.010216   0.000045  -0.000016  -0.001464
     37       0.001070   0.028500  -0.039369   0.001956  -0.002846   0.008016
     38      -0.004094   0.003759  -0.005227  -0.014942   0.020963  -0.054472
     39       0.098466  -0.004209   0.007023   0.160510  -0.127566  -0.029737
     40      -0.120951   0.006568  -0.011412  -0.196007   0.149593   0.038875
     41      -0.254949   0.012665  -0.022021  -0.418243   0.323609   0.083346
     42      -0.008271   0.106908  -0.147250  -0.037726   0.051646  -0.126175
     43       0.012904  -0.136606   0.188758   0.048950  -0.064482   0.169084
     44       0.024815  -0.310021   0.427680   0.103413  -0.139369   0.355136
     45       0.011754   0.103329  -0.142153   0.035744  -0.049537   0.124143
     46      -0.026902  -0.216292   0.298312  -0.073745   0.099294  -0.265880
     47       0.030240   0.265669  -0.366005   0.085725  -0.117556   0.308636
     48      -0.006370  -0.293697   0.404837   0.001373  -0.001916   0.019504
     49       0.000532   0.019160  -0.025304   0.000698  -0.000928   0.000910
     50      -0.000391   0.000351  -0.000336  -0.005451   0.007349  -0.012423
                 48         49         50    
      0      -0.000446   0.006773   0.001926
      1      -0.008977   0.087134   0.024053
      2       0.052070   0.014606   0.004218
      3      -0.000033  -0.003449  -0.001239
      4      -0.002680   0.005740   0.002218
      5       0.018274   0.001373   0.000612
      6       0.140996   0.127216   0.035736
      7      -0.148443  -0.112752  -0.031526
      8      -0.340227  -0.314530  -0.087994
      9       0.006052  -0.314931  -0.087581
     10       0.013012  -0.755814  -0.209665
     11       0.013664  -0.107040  -0.029660
     12      -0.141819   0.111695   0.030431
     13       0.242989  -0.173539  -0.046940
     14      -0.297340   0.246903   0.067124
     15      -0.043867   0.017788   0.006249
     16       0.084221  -0.032800  -0.012981
     17      -0.098934   0.039469   0.015104
     18      -0.000073  -0.000461  -0.000159
     19      -0.001725   0.000085   0.000545
     20       0.012442   0.000140   0.000397
     21       0.044297   0.021126   0.007898
     22      -0.053012  -0.024006  -0.010201
     23      -0.115594  -0.054003  -0.021935
     24       0.031838   0.000491   0.005382
     25      -0.037478  -0.003926  -0.004496
     26      -0.080929  -0.006330  -0.011360
     27      -0.031198  -0.000039   0.003597
     28       0.058295  -0.004231  -0.004512
     29      -0.067930   0.003656   0.006270
     30       0.000018   0.000664  -0.004105
     31      -0.003205  -0.001065   0.005665
     32       0.022305  -0.000260   0.001593
     33      -0.053191  -0.002382   0.017529
     34       0.102045   0.006096  -0.033994
     35      -0.120475  -0.006775   0.040422
     36       0.002228   0.023211  -0.083030
     37      -0.010198  -0.008457   0.029978
     38       0.068307  -0.001780   0.006814
     39       0.053297  -0.002869   0.021752
     40      -0.064693   0.004689  -0.026627
     41      -0.140268   0.009503  -0.058198
     42       0.157448  -0.025813   0.092699
     43      -0.212329   0.038766  -0.140122
     44      -0.444600   0.089553  -0.322886
     45      -0.155677  -0.021000   0.073337
     46       0.335482   0.053803  -0.189808
     47      -0.388697  -0.067562   0.238337
     48      -0.028357  -0.229889   0.824943
     49      -0.000940   0.009500  -0.033384
     50       0.015170  -0.000594   0.002311
# -----------------------------------------------------------
$ THERMOCHEMISTRY_Energies
   description: The Thermochemistry energies
   geom. index: 6
   prop. index: 1
        Temperature (Kelvin)           :        298.1500000000
        Pressure (atm)                 :          1.0000000000
        Total Mass (AMU)               :         72.1510000000
        Spin Degeneracy                :          1.0000000000
        Electronic Energy (Hartree)    :       -197.6400309547
        Translational Energy (Hartree) :          0.0014162714
        Rotational Energy (Hartree)    :          0.0014162714
        Vibrational Energy (Hartree)   :          0.0042339407
        Number of frequencies          :     51      
        Scaling Factor for frequencies :          1.0000000000
        Vibrational frequencies        :     
                  0    
      0       0.000000
      1       0.000000
      2       0.000000
      3       0.000000
      4       0.000000
      5       0.000000
      6     111.177171
      7     114.834959
      8     178.187121
      9     249.079699
     10     257.359868
     11     397.832830
     12     400.551559
     13     739.819365
     14     767.150566
     15     863.587996
     16     876.854062
     17     934.471523
     18     986.999660
     19     1039.707299
     20     1058.415588
     21     1085.730976
     22     1160.124619
     23     1196.552665
     24     1255.125374
     25     1280.513424
     26     1315.814850
     27     1320.214497
     28     1358.632934
     29     1395.738396
     30     1399.239728
     31     1400.417642
     32     1458.592913
     33     1459.198275
     34     1468.301227
     35     1468.574434
     36     1469.423652
     37     1478.353798
     38     1485.941262
     39     2993.144823
     40     3002.699605
     41     3009.832317
     42     3015.647441
     43     3018.291061
     44     3019.490230
     45     3033.325310
     46     3050.324372
     47     3086.690267
     48     3088.222042
     49     3094.049574
     50     3094.670246
        Zero Point Energy (Hartree)    :          0.1593325545
        Inner Energy (Hartree)         :       -197.4736319167
        Enthalpy (Hartree)             :       -197.4726877077
        Electronic entropy             :          0.0000000000
        Rotational entropy             :          0.0123958230
        Vibrational entropy            :          0.0073154894
        Translational entropy          :          0.0123958230
        Entropy                        :          0.0381202707
        Gibbs Energy (Hartree)         :       -197.5108079784
        Is Linear                      :                 false
# -------------------------------------------------------------
----------------------- !GEOMETRIES! ------------------------
# -------------------------------------------------------------
------------------------ !GEOMETRY! -------------------------
    Number of atoms:    17 
    Geometry Index:     1 
    Coordinates:
               0 C     -1.333200000000    0.144910000000   -0.035010000000
               1 C      0.186620000000    0.103590000000   -0.032780000000
               2 H     -1.716420000000    0.536170000000    0.912830000000
               3 H     -1.739520000000   -0.861520000000   -0.176140000000
               4 H     -1.707250000000    0.778990000000   -0.845180000000
               5 H      0.526950000000   -0.563560000000    0.767720000000
               6 C      0.784530000000    1.496590000000    0.162720000000
               7 H      0.536070000000   -0.322110000000   -0.980600000000
               8 H      0.428530000000    1.919760000000    1.109990000000
               9 H      0.437700000000    2.161140000000   -0.638050000000
              10 C      2.312290000000    1.450560000000    0.164380000000
              11 H      2.664220000000    0.790800000000    0.965990000000
              12 C      2.911190000000    2.834450000000    0.358570000000
              13 H      2.673390000000    1.032170000000   -0.782340000000
              14 H      2.595150000000    3.268370000000    1.312600000000
              15 H      2.604400000000    3.511060000000   -0.445430000000
              16 H      4.004230000000    2.778110000000    0.356550000000
------------------------ !GEOMETRY! -------------------------
    Number of atoms:    17 
    Geometry Index:     2 
    Coordinates:
               0 C     -1.361492311487    0.127532127843   -0.037608669143
               1 C      0.170462067193    0.097289939840   -0.033618702499
               2 H     -1.752455503911    0.522525315826    0.915071220446
               3 H     -1.777663297684   -0.883650504428   -0.180003396087
               4 H     -1.742913225770    0.767173347277   -0.851139596977
               5 H      0.519644302143   -0.576088835514    0.769389038102
               6 C      0.791356543333    1.486007837750    0.161694573640
               7 H      0.529241039887   -0.333139349064   -0.985549368390
               8 H      0.430579914703    1.915963428045    1.113834025681
               9 H      0.439636424650    2.158819793243   -0.641586607450
              10 C      2.324898740212    1.462380845777    0.166084028926
              11 H      2.678157249972    0.791821430544    0.969691300076
              12 C      2.939059392575    2.852621386147    0.360930550688
              13 H      2.687058003581    1.033778685665   -0.785399912473
              14 H      2.621177748052    3.294837137628    1.319960508310
              15 H      2.631532812317    3.538285768262   -0.446371786184
              16 H      4.040600100235    2.803321645161    0.360442793334
------------------------ !GEOMETRY! -------------------------
    Number of atoms:    17 
    Geometry Index:     3 
    Coordinates:
               0 C     -1.363831890840    0.125479367802   -0.037999398233
               1 C      0.167956023730    0.097306942901   -0.033599672665
               2 H     -1.756591144126    0.521848093902    0.914212131646
               3 H     -1.784179822664   -0.883753287772   -0.180695810337
               4 H     -1.746848757478    0.767047821429   -0.850259291536
               5 H      0.520760214267   -0.577701673577    0.767972870503
               6 C      0.794049844752    1.481820745527    0.161594931109
               7 H      0.530655330406   -0.334410010841   -0.984740678758
               8 H      0.431520096796    1.914455310776    1.113515816568
               9 H      0.440377676928    2.157707657554   -0.640237138356
              10 C      2.325989276722    1.464580667789    0.166518536570
              11 H      2.679172341565    0.790369863467    0.968624869469
              12 C      2.941978757506    2.853887186128    0.360789387254
              13 H      2.687699355950    1.031547462270   -0.784398328239
              14 H      2.622641907647    3.298795681434    1.318926169388
              15 H      2.633987666737    3.541266321471   -0.445881357385
              16 H      4.043543122102    2.809231849741    0.361476962999
------------------------ !GEOMETRY! -------------------------
    Number of atoms:    17 
    Geometry Index:     4 
    Coordinates:
               0 C     -1.362611350839    0.125571656838   -0.038089058004
               1 C      0.167435714560    0.097705139103   -0.033577337091
               2 H     -1.756276196855    0.523011926849    0.913413144002
               3 H     -1.786346664231   -0.881803455419   -0.181134656655
               4 H     -1.746417569854    0.768807862362   -0.848794186381
               5 H      0.522691034112   -0.578670475912    0.766171527123
               6 C      0.795462285911    1.479611665189    0.161810749746
               7 H      0.532797096869   -0.335044610524   -0.983576308247
               8 H      0.431618033379    1.914281321222    1.112832688324
               9 H      0.440235843084    2.157883124751   -0.637964960617
              10 C      2.325904786689    1.465151770927    0.166788048889
              11 H      2.679307476443    0.788594417676    0.967232663414
              12 C      2.941431000007    2.852858282840    0.360275190129
              13 H      2.687421713503    1.028767853291   -0.783011132919
              14 H      2.620480076943    3.299770680431    1.317052716638
              15 H      2.632965962452    3.540933123816   -0.445758100177
              16 H      4.042780757827    2.812049716557    0.362149011825
------------------------ !GEOMETRY! -------------------------
    Number of atoms:    17 
    Geometry Index:     5 
    Coordinates:
               0 C     -1.361507128080    0.126010404725   -0.038069303853
               1 C      0.167720907413    0.097778073010   -0.033625544508
               2 H     -1.755330401164    0.523674328841    0.913207400669
               3 H     -1.786299901045   -0.880816338396   -0.181323110706
               4 H     -1.745491279280    0.769829606167   -0.848150088659
               5 H      0.523552658769   -0.579119634240    0.765344999677
               6 C      0.795501837001    1.479534995077    0.162047328671
               7 H      0.533677630450   -0.335267107674   -0.983191492498
               8 H      0.431306307566    1.914710934973    1.112615990660
               9 H      0.439802374755    2.158543225358   -0.636793442452
              10 C      2.325747994892    1.464896600732    0.166876121276
              11 H      2.679373608395    0.787866910621    0.966739722788
              12 C      2.940580651279    2.852068814195    0.359976629815
              13 H      2.687296070320    1.027536684317   -0.782393787152
              14 H      2.618954479623    3.299694820395    1.316128368945
              15 H      2.632090446063    3.540125446637   -0.445983468711
              16 H      4.041903743044    2.812412235261    0.362413676038
------------------------ !GEOMETRY! -------------------------
    Number of atoms:    17 
    Geometry Index:     6 
    Coordinates:
               0 C     -1.361146676934    0.126165325415   -0.038061746036
               1 C      0.167913514074    0.097742494327   -0.033689910506
               2 H     -1.754997985833    0.523759130178    0.913210590279
               3 H     -1.786217079966   -0.880544156256   -0.181460912243
               4 H     -1.745216033134    0.770185656881   -0.847915849398
               5 H      0.523862205213   -0.579347524850    0.765000753771
               6 C      0.795362065809    1.479738705411    0.162207551500
               7 H      0.533944622297   -0.335294330241   -0.983175155625
               8 H      0.431120430501    1.914916895425    1.112669065415
               9 H      0.439554526856    2.158957203253   -0.636301564382
              10 C      2.325714762693    1.464692419175    0.166933669820
              11 H      2.679431710807    0.787654173337    0.966682605745
              12 C      2.940291121699    2.851823959801    0.359832639693
              13 H      2.687266396504    1.027059001705   -0.782154241872
              14 H      2.618384600819    3.299784885525    1.315711228064
              15 H      2.631970197908    3.539759327641   -0.446268143684
              16 H      4.041641620687    2.812426833271    0.362599419457
