17
Coordinates from ORCA-job pentane_B3LYP-D3_def2-TZVP E -197.714466228297
  C      -1.333200      0.144910     -0.035010
  C       0.186620      0.103590     -0.032780
  H      -1.716420      0.536170      0.912830
  H      -1.739520     -0.861520     -0.176140
  H      -1.707250      0.778990     -0.845180
  H       0.526950     -0.563560      0.767720
  C       0.784530      1.496590      0.162720
  H       0.536070     -0.322110     -0.980600
  H       0.428530      1.919760      1.109990
  H       0.437700      2.161140     -0.638050
  C       2.312290      1.450560      0.164380
  H       2.664220      0.790800      0.965990
  C       2.911190      2.834450      0.358570
  H       2.673390      1.032170     -0.782340
  H       2.595150      3.268370      1.312600
  H       2.604400      3.511060     -0.445430
  H       4.004230      2.778110      0.356550
17
Coordinates from ORCA-job pentane_B3LYP-D3_def2-TZVP E -197.715279276986
  C      -1.356359      0.130120     -0.037413
  C       0.172017      0.099933     -0.032811
  H      -1.743603      0.521408      0.906438
  H      -1.768208     -0.872153     -0.178644
  H      -1.733375      0.763607     -0.843945
  H       0.517459     -0.567015      0.763279
  C       0.791666      1.485397      0.161695
  H       0.527245     -0.326774     -0.975974
  H       0.434535      1.911427      1.105309
  H       0.442930      2.151818     -0.634424
  C       2.321718      1.462252      0.165829
  H       2.672074      0.797998      0.962012
  C       2.934579      2.849115      0.360451
  H       2.680432      1.038182     -0.777204
  H       2.620087      3.286353      1.311107
  H       2.629498      3.528254     -0.439302
  H       4.026185      2.799558      0.359417
17
Coordinates from ORCA-job pentane_B3LYP-D3_def2-TZVP E -197.715345428732
  C      -1.358816      0.128332     -0.037924
  C       0.169612      0.099880     -0.032414
  H      -1.747341      0.521049      0.904844
  H      -1.774415     -0.871422     -0.179314
  H      -1.736220      0.763235     -0.843216
  H       0.518009     -0.567708      0.762288
  C       0.794577      1.480819      0.161561
  H       0.528438     -0.327885     -0.974121
  H       0.436355      1.909118      1.104502
  H       0.444073      2.149455     -0.632847
  C       2.322775      1.464442      0.166005
  H       2.672829      0.797048      0.960143
  C       2.937326      2.850597      0.360418
  H       2.680432      1.036848     -0.776202
  H       2.621741      3.289243      1.310107
  H       2.631258      3.530881     -0.438034
  H       4.028248      2.805547      0.360025
17
Coordinates from ORCA-job pentane_B3LYP-D3_def2-TZVP E -197.715358028472
  C      -1.357678      0.128796     -0.038079
  C       0.169461      0.100003     -0.032088
  H      -1.746712      0.522730      0.904211
  H      -1.775850     -0.869720     -0.179667
  H      -1.734887      0.764981     -0.842736
  H       0.519285     -0.568342      0.761834
  C       0.795638      1.479131      0.161748
  H       0.530264     -0.328776     -0.972992
  H       0.436675      1.908984      1.104251
  H       0.443834      2.149392     -0.631376
  C       2.322731      1.464661      0.165943
  H       2.673132      0.795451      0.958889
  C       2.936474      2.849787      0.360092
  H       2.680099      1.035041     -0.775862
  H       2.619713      3.289145      1.309302
  H       2.629319      3.530598     -0.437778
  H       4.027383      2.807618      0.360129
17
Coordinates from ORCA-job pentane_B3LYP-D3_def2-TZVP E -197.715360187459
  C      -1.356576      0.129350     -0.038147
  C       0.169756      0.099966     -0.031918
  H      -1.745835      0.523840      0.903938
  H      -1.775935     -0.868726     -0.179864
  H      -1.733596      0.766137     -0.842560
  H       0.519982     -0.568797      0.761647
  C       0.795752      1.478931      0.161987
  H       0.531322     -0.329374     -0.972418
  H       0.436514      1.909416      1.104236
  H       0.443321      2.149936     -0.630397
  C       2.322642      1.464395      0.165854
  H       2.673413      0.794493      0.958225
  C       2.935529      2.849040      0.359853
  H       2.679972      1.034001     -0.775755
  H       2.618193      3.288705      1.308849
  H       2.627869      3.530028     -0.437815
  H       4.026556      2.808138      0.360105
17
Coordinates from ORCA-job pentane_B3LYP-D3_def2-TZVP E -197.715360383691
  C      -1.356305      0.129486     -0.038199
  C       0.169895      0.099898     -0.031857
  H      -1.745681      0.524056      0.903820
  H      -1.775919     -0.868520     -0.179963
  H      -1.733273      0.766363     -0.842583
  H       0.520111     -0.568938      0.761644
  C       0.795651      1.479075      0.162126
  H       0.531623     -0.329571     -0.972230
  H       0.436427      1.909602      1.104329
  H       0.443071      2.150225     -0.630034
  C       2.322644      1.464249      0.165810
  H       2.673553      0.794238      0.958020
  C       2.935300      2.848859      0.359771
  H       2.679928      1.033749     -0.775763
  H       2.617876      3.288619      1.308709
  H       2.627602      3.529877     -0.437874
  H       4.026376      2.808213      0.360093
