11
Coordinates from ORCA-job propane_B3LYP-D3_aug-cc-pVTZ E -119.108376567384
  C      -1.152140      0.231070     -0.018920
  C       0.366720      0.193200     -0.017650
  H      -1.535600      0.623920      0.928200
  H      -1.556550     -0.776480     -0.157440
  H      -1.528180      0.862680     -0.830140
  H       0.714460     -0.466870      0.784710
  C       0.962020      1.578010      0.172880
  H       0.721840     -0.229430     -0.964050
  H       0.645370      2.013440      1.126050
  H       0.652810      2.252170     -0.632290
  H       2.055200      1.524570      0.170250
11
Coordinates from ORCA-job propane_B3LYP-D3_aug-cc-pVTZ E -119.108706128478
  C      -1.161945      0.221839     -0.020137
  C       0.365083      0.195816     -0.017460
  H      -1.548188      0.614890      0.922503
  H      -1.571063     -0.781001     -0.157854
  H      -1.541101      0.852220     -0.827067
  H       0.714682     -0.466329      0.778963
  C       0.974638      1.583012      0.173591
  H       0.721880     -0.230330     -0.958787
  H       0.659159      2.021352      1.122557
  H       0.667405      2.259019     -0.626968
  H       2.065400      1.535790      0.172259
11
Coordinates from ORCA-job propane_B3LYP-D3_aug-cc-pVTZ E -119.108731376960
  C      -1.163311      0.219272     -0.020428
  C       0.364884      0.196191     -0.017566
  H      -1.550304      0.614019      0.921156
  H      -1.576249     -0.781198     -0.157615
  H      -1.543531      0.850719     -0.825989
  H       0.715765     -0.467644      0.776633
  C       0.977611      1.583178      0.173620
  H       0.722773     -0.232051     -0.957313
  H       0.660768      2.022996      1.121413
  H       0.669797      2.260401     -0.625642
  H       2.067748      1.540398      0.173331
11
Coordinates from ORCA-job propane_B3LYP-D3_aug-cc-pVTZ E -119.108735858482
  C      -1.162649      0.218884     -0.020429
  C       0.365048      0.195977     -0.017714
  H      -1.549688      0.614985      0.920789
  H      -1.578074     -0.780486     -0.157285
  H      -1.543160      0.851288     -0.825363
  H       0.716676     -0.468886      0.775530
  C       0.977718      1.582425      0.173521
  H       0.723519     -0.233366     -0.956932
  H       0.659531      2.022913      1.120775
  H       0.669183      2.260205     -0.625253
  H       2.067847      1.542341      0.173961
11
Coordinates from ORCA-job propane_B3LYP-D3_aug-cc-pVTZ E -119.108736891323
  C      -1.161797      0.219082     -0.020357
  C       0.365275      0.195649     -0.017850
  H      -1.548711      0.616038      0.920704
  H      -1.578689     -0.779764     -0.156986
  H      -1.542382      0.852055     -0.824985
  H       0.717320     -0.469789      0.774921
  C       0.977191      1.581745      0.173433
  H       0.724015     -0.234216     -0.956890
  H       0.658067      2.022541      1.120379
  H       0.668236      2.259753     -0.625161
  H       2.067425      1.543185      0.174392
11
Coordinates from ORCA-job propane_B3LYP-D3_aug-cc-pVTZ E -119.108736927518
  C      -1.161615      0.219216     -0.020322
  C       0.365345      0.195543     -0.017893
  H      -1.548469      0.616265      0.920732
  H      -1.578652     -0.779613     -0.156894
  H      -1.542203      0.852204     -0.824944
  H       0.717438     -0.469952      0.774829
  C       0.976988      1.581638      0.173422
  H       0.724074     -0.234312     -0.956959
  H       0.657716      2.022453      1.120317
  H       0.668068      2.259633     -0.625204
  H       2.067260      1.543204      0.174515
