11
Coordinates from ORCA-job propane_B3LYP-D3_cc-pVDZ E -119.058917188971
  C      -1.152140      0.231070     -0.018920
  C       0.366720      0.193200     -0.017650
  H      -1.535600      0.623920      0.928200
  H      -1.556550     -0.776480     -0.157440
  H      -1.528180      0.862680     -0.830140
  H       0.714460     -0.466870      0.784710
  C       0.962020      1.578010      0.172880
  H       0.721840     -0.229430     -0.964050
  H       0.645370      2.013440      1.126050
  H       0.652810      2.252170     -0.632290
  H       2.055200      1.524570      0.170250
11
Coordinates from ORCA-job propane_B3LYP-D3_cc-pVDZ E -119.059702736746
  C      -1.164627      0.220670     -0.020286
  C       0.366093      0.194216     -0.017618
  H      -1.555358      0.617691      0.932019
  H      -1.578468     -0.792098     -0.159657
  H      -1.548131      0.857805     -0.835255
  H       0.719414     -0.474927      0.787088
  C       0.976827      1.584945      0.173823
  H       0.726755     -0.236578     -0.968670
  H       0.658217      2.028320      1.132459
  H       0.666564      2.268321     -0.634814
  H       2.078663      1.537916      0.172510
11
Coordinates from ORCA-job propane_B3LYP-D3_cc-pVDZ E -119.059735967392
  C      -1.165650      0.218261     -0.020537
  C       0.365822      0.194660     -0.017636
  H      -1.558000      0.616783      0.931196
  H      -1.583591     -0.792727     -0.159799
  H      -1.550970      0.856869     -0.834351
  H       0.720762     -0.476733      0.785325
  C       0.979507      1.584874      0.173776
  H       0.727986     -0.238774     -0.967622
  H       0.659798      2.030531      1.131704
  H       0.668871      2.270235     -0.633896
  H       2.081416      1.542301      0.173441
11
Coordinates from ORCA-job propane_B3LYP-D3_cc-pVDZ E -119.059746462742
  C      -1.164820      0.217338     -0.020569
  C       0.365821      0.194687     -0.017714
  H      -1.558079      0.617281      0.930368
  H      -1.586509     -0.791756     -0.159739
  H      -1.551269      0.857346     -0.832961
  H       0.722032     -0.478382      0.783466
  C       0.980045      1.583755      0.173572
  H       0.729099     -0.240832     -0.966471
  H       0.658973      2.031116      1.130428
  H       0.668873      2.270384     -0.633028
  H       2.081785      1.545344      0.174250
11
Coordinates from ORCA-job propane_B3LYP-D3_cc-pVDZ E -119.059747584044
  C      -1.164020      0.217547     -0.020495
  C       0.365970      0.194466     -0.017776
  H      -1.557365      0.617889      0.930199
  H      -1.586833     -0.791011     -0.159686
  H      -1.550651      0.858026     -0.832383
  H       0.722508     -0.478999      0.782886
  C       0.979527      1.583129      0.173459
  H       0.729489     -0.241559     -0.966173
  H       0.657893      2.030903      1.129894
  H       0.668183      2.269958     -0.632857
  H       2.081249      1.545931      0.174532
