11
Coordinates from ORCA-job propane_B3LYP-D3_cc-pVDZ
  C   -1.16402048019741      0.21754651470354     -0.02049537959221
  C   0.36596971193408      0.19446613071263     -0.01777581064138
  H   -1.55736484598158      0.61788859500103      0.93019883340662
  H   -1.58683272853296     -0.79101053862052     -0.15968584013756
  H   -1.55065120496283      0.85802596187948     -0.83238271415505
  H   0.72250791342072     -0.47899867605169      0.78288592494475
  C   0.97952713777630      1.58312907861609      0.17345870871630
  H   0.72948907760047     -0.24155902365457     -0.96617302098546
  H   0.65789323806962      2.03090252212158      1.12989376780125
  H   0.66818299689338      2.26995827734800     -0.63285682221595
  H   2.08124918398021      1.54593115794442      0.17453235285869
