14
Coordinates from ORCA-job butane_M06_def2-TZVP
  C   -1.26410131263806      0.18680410655148     -0.02641628243058
  C   0.24902818875329      0.18818864911160     -0.02206835952399
  H   -1.65844806486491      0.57762844581098      0.91542838316484
  H   -1.67463624274935     -0.81437805876871     -0.16681796131163
  H   -1.65298161443316      0.82014321654812     -0.82825665847313
  H   0.62287094188243     -0.47471815969041      0.76746264859265
  C   0.83386738807066      1.57292288220177      0.17490432706025
  H   0.62722276404963     -0.22924009614135     -0.96299417305484
  H   0.45567778810358      1.99034919618095      1.11583313168090
  H   0.46002021888291      2.23583146305802     -0.61462310142037
  C   2.34699689915245      1.57430763577343      0.17924436948483
  H   2.73588143230778      0.94096306613049      0.98107851872235
  H   2.75753306673889      2.57548875847200      0.31964994421381
  H   2.74133854674385      1.18348889476161     -0.76260478670508
