20
Coordinates from ORCA-job hexane_M06_aug-cc-pVTZ E -236.961819794907
  C      -5.596720     -0.895900     -0.007080
  C      -4.348320     -0.028410     -0.029150
  H      -6.493920     -0.269800     -0.037940
  H      -5.636900     -1.502500      0.903270
  H      -5.622170     -1.568810     -0.870150
  C      -3.076790     -0.875590      0.013070
  H      -4.369730      0.654290      0.828270
  H      -4.355090      0.588360     -0.935380
  C      -1.823340      0.000710     -0.009260
  H      -3.062370     -1.559510     -0.844320
  H      -3.077030     -1.493600      0.919240
  C      -0.551820     -0.846470      0.032960
  H      -1.837760      0.684620      0.848150
  H      -1.823110      0.618730     -0.915420
  C       0.696580      0.021020      0.010930
  H      -0.530400     -1.529150     -0.824480
  H      -0.545060     -1.463280      0.939160
  H       0.736770      0.627660     -0.899400
  H       1.593780     -0.605080      0.041770
  H       0.722030      0.693890      0.874030
20
Coordinates from ORCA-job hexane_M06_aug-cc-pVTZ E -236.962781469515
  C      -5.602979     -0.893971     -0.007258
  C      -4.351407     -0.033507     -0.029832
  H      -6.503984     -0.279293     -0.035622
  H      -5.640365     -1.502909      0.898063
  H      -5.628390     -1.567324     -0.866139
  C      -3.079411     -0.864586      0.012218
  H      -4.365377      0.652058      0.822680
  H      -4.351307      0.585630     -0.931978
  C      -1.820723     -0.010298     -0.008389
  H      -3.066887     -1.551187     -0.841205
  H      -3.082219     -1.485420      0.914707
  C      -0.548729     -0.841377      0.033656
  H      -1.833247      0.676296      0.845043
  H      -1.817923      0.610547     -0.910870
  C       0.702839      0.019092      0.011086
  H      -0.534759     -1.526937     -0.818862
  H      -0.548825     -1.460531      0.935790
  H       0.740217      0.628045     -0.894226
  H       1.603850     -0.595579      0.039431
  H       0.728256      0.692429      0.869978
20
Coordinates from ORCA-job hexane_M06_aug-cc-pVTZ E -236.963015834623
  C      -5.602174     -0.891231     -0.007418
  C      -4.351620     -0.035159     -0.030657
  H      -6.508774     -0.287000     -0.032909
  H      -5.635476     -1.504421      0.895157
  H      -5.626661     -1.566570     -0.864703
  C      -3.080322     -0.856970      0.011564
  H      -4.359345      0.655378      0.818584
  H      -4.345744      0.587925     -0.930691
  C      -1.819814     -0.017925     -0.007718
  H      -3.068949     -1.548721     -0.839195
  H      -3.085074     -1.482791      0.912019
  C      -0.548510     -0.839730      0.034489
  H      -1.831186      0.673821      0.843043
  H      -1.815068      0.607907     -0.908166
  C       0.702032      0.016359      0.011229
  H      -0.540790     -1.530272     -0.814748
  H      -0.554368     -1.462813      0.934525
  H       0.735304      0.629550     -0.891347
  H       1.608646     -0.587852      0.036700
  H       0.726523      0.691699      0.868512
20
Coordinates from ORCA-job hexane_M06_aug-cc-pVTZ E -236.963036398114
  C      -5.600961     -0.890265     -0.007478
  C      -4.351816     -0.034465     -0.030951
  H      -6.509784     -0.289019     -0.031792
  H      -5.632749     -1.505344      0.894386
  H      -5.625183     -1.566316     -0.864744
  C      -3.080393     -0.856241      0.011504
  H      -4.358222      0.658184      0.817173
  H      -4.344689      0.590170     -0.930447
  C      -1.819741     -0.018663     -0.007653
  H      -3.069188     -1.550280     -0.838069
  H      -3.085564     -1.484119      0.911178
  C      -0.548309     -0.840428      0.034784
  H      -1.830945      0.675370      0.841924
  H      -1.814577      0.609229     -0.907319
  C       0.700816      0.015400      0.011284
  H      -0.541909     -1.533084     -0.813336
  H      -0.555413     -1.465059      0.934284
  H       0.732564      0.630477     -0.890583
  H       1.609658     -0.585818      0.035577
  H       0.725036      0.691453      0.868546
20
Coordinates from ORCA-job hexane_M06_aug-cc-pVTZ E -236.963041098027
  C      -5.599950     -0.889739     -0.007516
  C      -4.351763     -0.033736     -0.031110
  H      -6.510098     -0.290151     -0.030918
  H      -5.630943     -1.506175      0.893743
  H      -5.624297     -1.566039     -0.864880
  C      -3.080303     -0.856481      0.011563
  H      -4.357438      0.660302      0.816116
  H      -4.343885      0.591792     -0.930198
  C      -1.819830     -0.018436     -0.007724
  H      -3.069219     -1.551991     -0.836991
  H      -3.085696     -1.485538      0.910590
  C      -0.548357     -0.841162      0.034943
  H      -1.830920      0.677073      0.840831
  H      -1.814443      0.610630     -0.906746
  C       0.699802      0.014883      0.011330
  H      -0.542677     -1.535208     -0.812277
  H      -0.556213     -1.466683      0.934037
  H       0.730755      0.631314     -0.889934
  H       1.609976     -0.584666      0.034723
  H       0.724129      0.691191      0.868688
20
Coordinates from ORCA-job hexane_M06_aug-cc-pVTZ E -236.963041047857
  C      -5.599884     -0.889749     -0.007521
  C      -4.351686     -0.033680     -0.031106
  H      -6.510068     -0.290194     -0.030757
  H      -5.630915     -1.506358      0.893593
  H      -5.624416     -1.565931     -0.864945
  C      -3.080248     -0.856665      0.011617
  H      -4.357293      0.660463      0.815978
  H      -4.343703      0.591818     -0.930166
  C      -1.819885     -0.018253     -0.007779
  H      -3.069204     -1.552257     -0.836793
  H      -3.085650     -1.485686      0.910592
  C      -0.548434     -0.841219      0.034934
  H      -1.830933      0.677335      0.840634
  H      -1.814490      0.610778     -0.906748
  C       0.699736      0.014894      0.011339
  H      -0.542818     -1.535362     -0.812150
  H      -0.556396     -1.466717      0.933995
  H       0.730728      0.631505     -0.889775
  H       1.609947     -0.584620      0.034564
  H       0.724243      0.691078      0.868762
