-------------------------------------------------------------
----------------------- !PROPERTIES! ------------------------
-------------------------------------------------------------
# -----------------------------------------------------------
$ SCF_Energy
   description: The SCF energy
   geom. index: 1
   prop. index: 1
        SCF Energy:      -40.4715969461
# -----------------------------------------------------------
$ DFT_Energy
   description: The DFT energy
   geom. index: 1
   prop. index: 1
   Number of Alpha Electrons         4.9999986065 
   Number of Alpha Electrons         4.9999986065 
   Total nuber of  Electrons         9.9999972130 
   Exchange energy                   0.0000000000 
   Correlation energy                0.0000000000 
   Correlantion energy NL            0.0000000000 
   Exchange-Correlation energy      -5.0852265918 
   Embedding correction              0.0000000000 
# -----------------------------------------------------------
$ SCF_Energy
   description: The SCF energy
   geom. index: 2
   prop. index: 1
        SCF Energy:      -40.4716845924
# -----------------------------------------------------------
$ DFT_Energy
   description: The DFT energy
   geom. index: 2
   prop. index: 1
   Number of Alpha Electrons         4.9999985990 
   Number of Alpha Electrons         4.9999985990 
   Total nuber of  Electrons         9.9999971979 
   Exchange energy                   0.0000000000 
   Correlation energy                0.0000000000 
   Correlantion energy NL            0.0000000000 
   Exchange-Correlation energy      -5.0791366719 
   Embedding correction              0.0000000000 
# -----------------------------------------------------------
$ SCF_Energy
   description: The SCF energy
   geom. index: 3
   prop. index: 1
        SCF Energy:      -40.4716846439
# -----------------------------------------------------------
$ DFT_Energy
   description: The DFT energy
   geom. index: 3
   prop. index: 1
   Number of Alpha Electrons         4.9999985984 
   Number of Alpha Electrons         4.9999985984 
   Total nuber of  Electrons         9.9999971968 
   Exchange energy                   0.0000000000 
   Correlation energy                0.0000000000 
   Correlantion energy NL            0.0000000000 
   Exchange-Correlation energy      -5.0791084641 
   Embedding correction              0.0000000000 
# -----------------------------------------------------------
$ SCF_Electric_Properties
   description: The SCF Calculated Electric Properties
   geom. index: 3
   prop. index: 1
       Filename                          : methane_M06_cc-pVDZ.scfp 
       Do Dipole Moment Calculation      : true 
       Do Quadrupole Moment Calculation  : false 
       Do Polarizability Calculation     : false 
** Dipole moment part of electric properties **
        Magnitude of dipole moment (Debye) :        0.0006225992
        Electronic Contribution:
                  0    
      0       0.000610
      1      -0.000120
      2       0.000102
        Nuclear Contribution:
                  0    
      0      -0.000613
      1       0.000195
      2       0.000132
        Total Dipole moment:
                  0    
      0      -0.000003
      1       0.000075
      2       0.000233
# -----------------------------------------------------------
$ Hessian
   description: Details about the Hessian
   geom. index: 3
   prop. index: 1
Normal modes:
Number of Rows: 15 Number of Columns: 15
                  0          1          2          3          4          5    
      0       0.000000   0.000000   0.000000   0.000000   0.000000   0.000000
      1       0.000000   0.000000   0.000000   0.000000   0.000000   0.000000
      2       0.000000   0.000000   0.000000   0.000000   0.000000   0.000000
      3       0.000000   0.000000   0.000000   0.000000   0.000000   0.000000
      4       0.000000   0.000000   0.000000   0.000000   0.000000   0.000000
      5       0.000000   0.000000   0.000000   0.000000   0.000000   0.000000
      6       0.000000   0.000000   0.000000   0.000000   0.000000   0.000000
      7       0.000000   0.000000   0.000000   0.000000   0.000000   0.000000
      8       0.000000   0.000000   0.000000   0.000000   0.000000   0.000000
      9       0.000000   0.000000   0.000000   0.000000   0.000000   0.000000
     10       0.000000   0.000000   0.000000   0.000000   0.000000   0.000000
     11       0.000000   0.000000   0.000000   0.000000   0.000000   0.000000
     12       0.000000   0.000000   0.000000   0.000000   0.000000   0.000000
     13       0.000000   0.000000   0.000000   0.000000   0.000000   0.000000
     14       0.000000   0.000000   0.000000   0.000000   0.000000   0.000000
                  6          7          8          9         10         11    
      0       0.052949  -0.091901  -0.064389   0.000669  -0.000583   0.000807
      1      -0.058944   0.037805  -0.102346  -0.001174  -0.000333   0.000514
      2      -0.095425  -0.074435   0.027460   0.001527   0.000602  -0.000538
      3       0.041980  -0.072381  -0.050946   0.000339  -0.000732  -0.508388
      4       0.285270  -0.192381   0.503461  -0.492430  -0.033082   0.000129
      5       0.467049   0.361312  -0.136933  -0.042225   0.495628  -0.000168
      6      -0.025718   0.482590   0.294921  -0.211438   0.425149   0.165296
      7       0.044631  -0.218896   0.511109   0.396003   0.262996  -0.174784
      8      -0.139544   0.254729  -0.086080  -0.241205   0.056913  -0.431243
      9      -0.350489   0.445379   0.094563   0.465321  -0.030239   0.164936
     10       0.024230  -0.212986  -0.101335  -0.158513   0.079002   0.460899
     11       0.424930   0.356953  -0.213270  -0.065029  -0.495912   0.063458
     12      -0.296691   0.239470   0.428697  -0.262189  -0.387233   0.168541
     13       0.348227   0.173788   0.306287   0.268933  -0.304950  -0.292371
     14       0.384619  -0.086046   0.109079   0.330265  -0.063802   0.374369
                 12         13         14    
      0      -0.067207   0.061659   0.018428
      1       0.045115   0.064229  -0.050111
      2      -0.045724  -0.027338  -0.076243
      3       0.622690  -0.563930  -0.167632
      4       0.007567   0.010609  -0.008114
      5      -0.007771  -0.004493  -0.012631
      6      -0.016031  -0.060406  -0.282901
      7       0.012303   0.084436   0.295135
      8       0.005237   0.179614   0.734526
      9      -0.054392  -0.234575   0.161077
     10      -0.112513  -0.672546   0.434438
     11      -0.024557  -0.098959   0.049089
     12       0.248548   0.124197   0.069871
     13      -0.444930  -0.187827  -0.124348
     14       0.571927   0.249591   0.137506
# -----------------------------------------------------------
$ THERMOCHEMISTRY_Energies
   description: The Thermochemistry energies
   geom. index: 3
   prop. index: 1
        Temperature (Kelvin)           :        298.1500000000
        Pressure (atm)                 :          1.0000000000
        Total Mass (AMU)               :         16.0430000000
        Spin Degeneracy                :          1.0000000000
        Electronic Energy (Hartree)    :        -40.4716846439
        Translational Energy (Hartree) :          0.0014162714
        Rotational Energy (Hartree)    :          0.0014162714
        Vibrational Energy (Hartree)   :          0.0000461790
        Number of frequencies          :     15      
        Scaling Factor for frequencies :          1.0000000000
        Vibrational frequencies        :     
                  0    
      0       0.000000
      1       0.000000
      2       0.000000
      3       0.000000
      4       0.000000
      5       0.000000
      6     1274.602151
      7     1282.382755
      8     1285.382710
      9     1496.743958
     10     1502.046973
     11     3020.615659
     12     3174.173148
     13     3177.353694
     14     3179.945259
        Zero Point Energy (Hartree)    :          0.0441810660
        Inner Energy (Hartree)         :        -40.4246248560
        Enthalpy (Hartree)             :        -40.4236806470
        Electronic entropy             :          0.0000000000
        Rotational entropy             :          0.0071755594
        Vibrational entropy            :          0.0000534263
        Translational entropy          :          0.0071755594
        Entropy                        :          0.0235085962
        Gibbs Energy (Hartree)         :        -40.4471892432
        Is Linear                      :                 false
# -------------------------------------------------------------
----------------------- !GEOMETRIES! ------------------------
# -------------------------------------------------------------
------------------------ !GEOMETRY! -------------------------
    Number of atoms:    5 
    Geometry Index:     1 
    Coordinates:
               0 C     -0.857070000000    0.342760000000    0.000000000000
               1 H      0.235130000000    0.342760000000   -0.000000000000
               2 H     -1.221130000000    0.729800000000    0.954230000000
               3 H     -1.221130000000   -0.677150000000   -0.141920000000
               4 H     -1.221130000000    0.975630000000   -0.812300000000
------------------------ !GEOMETRY! -------------------------
    Number of atoms:    5 
    Geometry Index:     2 
    Coordinates:
               0 C     -0.856960426878    0.342724334853   -0.000029526839
               1 H      0.241039802706    0.342883096832   -0.000190317074
               2 H     -1.223268708995    0.731735799632    0.959390458309
               3 H     -1.223217392325   -0.682558260367   -0.142521738976
               4 H     -1.222923274508    0.979015029051   -0.816638875420
------------------------ !GEOMETRY! -------------------------
    Number of atoms:    5 
    Geometry Index:     3 
    Coordinates:
               0 C     -0.856891423344    0.342704410722   -0.000035450215
               1 H      0.241124060859    0.342969457411   -0.000283652055
               2 H     -1.223373781839    0.731640196980    0.959387245069
               3 H     -1.223332160286   -0.682564617818   -0.142411134790
               4 H     -1.222856695391    0.979050552706   -0.816647008009
