5
Coordinates from ORCA-job methane_M06_aug-cc-pVTZ
  C   -0.85698898741285      0.34274250161426      0.00006379338964
  H   0.23002449017793      0.34280566652554     -0.00018897224285
  H   -1.21959170911414      0.72792635419120      0.94973512465558
  H   -1.21947124212076     -0.67226770059499     -0.14119505600506
  H   -1.21930255153019      0.97259317826398     -0.80840488979730
