-------------------------------------------------------------
----------------------- !PROPERTIES! ------------------------
-------------------------------------------------------------
# -----------------------------------------------------------
$ SCF_Energy
   description: The SCF energy
   geom. index: 1
   prop. index: 1
        SCF Energy:     -119.0789163192
# -----------------------------------------------------------
$ DFT_Energy
   description: The DFT energy
   geom. index: 1
   prop. index: 1
   Number of Alpha Electrons        13.0000121166 
   Number of Alpha Electrons        13.0000121166 
   Total nuber of  Electrons        26.0000242332 
   Exchange energy                   0.0000000000 
   Correlation energy                0.0000000000 
   Correlantion energy NL            0.0000000000 
   Exchange-Correlation energy     -14.2150295235 
   Embedding correction              0.0000000000 
# -----------------------------------------------------------
$ SCF_Energy
   description: The SCF energy
   geom. index: 2
   prop. index: 1
        SCF Energy:     -119.0791520761
# -----------------------------------------------------------
$ DFT_Energy
   description: The DFT energy
   geom. index: 2
   prop. index: 1
   Number of Alpha Electrons        13.0000111627 
   Number of Alpha Electrons        13.0000111627 
   Total nuber of  Electrons        26.0000223253 
   Exchange energy                   0.0000000000 
   Correlation energy                0.0000000000 
   Correlantion energy NL            0.0000000000 
   Exchange-Correlation energy     -14.2222970658 
   Embedding correction              0.0000000000 
# -----------------------------------------------------------
$ SCF_Energy
   description: The SCF energy
   geom. index: 3
   prop. index: 1
        SCF Energy:     -119.0792306895
# -----------------------------------------------------------
$ DFT_Energy
   description: The DFT energy
   geom. index: 3
   prop. index: 1
   Number of Alpha Electrons        13.0000099969 
   Number of Alpha Electrons        13.0000099969 
   Total nuber of  Electrons        26.0000199939 
   Exchange energy                   0.0000000000 
   Correlation energy                0.0000000000 
   Correlantion energy NL            0.0000000000 
   Exchange-Correlation energy     -14.2245302360 
   Embedding correction              0.0000000000 
# -----------------------------------------------------------
$ SCF_Energy
   description: The SCF energy
   geom. index: 4
   prop. index: 1
        SCF Energy:     -119.0792389434
# -----------------------------------------------------------
$ DFT_Energy
   description: The DFT energy
   geom. index: 4
   prop. index: 1
   Number of Alpha Electrons        13.0000095221 
   Number of Alpha Electrons        13.0000095221 
   Total nuber of  Electrons        26.0000190442 
   Exchange energy                   0.0000000000 
   Correlation energy                0.0000000000 
   Correlantion energy NL            0.0000000000 
   Exchange-Correlation energy     -14.2238466330 
   Embedding correction              0.0000000000 
# -----------------------------------------------------------
$ SCF_Energy
   description: The SCF energy
   geom. index: 5
   prop. index: 1
        SCF Energy:     -119.0792399058
# -----------------------------------------------------------
$ DFT_Energy
   description: The DFT energy
   geom. index: 5
   prop. index: 1
   Number of Alpha Electrons        13.0000093686 
   Number of Alpha Electrons        13.0000093686 
   Total nuber of  Electrons        26.0000187373 
   Exchange energy                   0.0000000000 
   Correlation energy                0.0000000000 
   Correlantion energy NL            0.0000000000 
   Exchange-Correlation energy     -14.2234307065 
   Embedding correction              0.0000000000 
# -----------------------------------------------------------
$ SCF_Energy
   description: The SCF energy
   geom. index: 6
   prop. index: 1
        SCF Energy:     -119.0792399651
# -----------------------------------------------------------
$ DFT_Energy
   description: The DFT energy
   geom. index: 6
   prop. index: 1
   Number of Alpha Electrons        13.0000093686 
   Number of Alpha Electrons        13.0000093686 
   Total nuber of  Electrons        26.0000187371 
   Exchange energy                   0.0000000000 
   Correlation energy                0.0000000000 
   Correlantion energy NL            0.0000000000 
   Exchange-Correlation energy     -14.2233946006 
   Embedding correction              0.0000000000 
# -----------------------------------------------------------
$ SCF_Electric_Properties
   description: The SCF Calculated Electric Properties
   geom. index: 6
   prop. index: 1
       Filename                          : propane_M06_aug-cc-pVTZ.scfp 
       Do Dipole Moment Calculation      : true 
       Do Quadrupole Moment Calculation  : false 
       Do Polarizability Calculation     : false 
** Dipole moment part of electric properties **
        Magnitude of dipole moment (Debye) :        0.0918602936
        Electronic Contribution:
                  0    
      0       0.280653
      1      -0.429703
      2      -0.058810
        Nuclear Contribution:
                  0    
      0      -0.261267
      1       0.399459
      2       0.054859
        Total Dipole moment:
                  0    
      0       0.019385
      1      -0.030244
      2      -0.003951
# -----------------------------------------------------------
$ Hessian
   description: Details about the Hessian
   geom. index: 6
   prop. index: 1
Normal modes:
Number of Rows: 33 Number of Columns: 33
                  0          1          2          3          4          5    
      0       0.000000   0.000000   0.000000   0.000000   0.000000   0.000000
      1       0.000000   0.000000   0.000000   0.000000   0.000000   0.000000
      2       0.000000   0.000000   0.000000   0.000000   0.000000   0.000000
      3       0.000000   0.000000   0.000000   0.000000   0.000000   0.000000
      4       0.000000   0.000000   0.000000   0.000000   0.000000   0.000000
      5       0.000000   0.000000   0.000000   0.000000   0.000000   0.000000
      6       0.000000   0.000000   0.000000   0.000000   0.000000   0.000000
      7       0.000000   0.000000   0.000000   0.000000   0.000000   0.000000
      8       0.000000   0.000000   0.000000   0.000000   0.000000   0.000000
      9       0.000000   0.000000   0.000000   0.000000   0.000000   0.000000
     10       0.000000   0.000000   0.000000   0.000000   0.000000   0.000000
     11       0.000000   0.000000   0.000000   0.000000   0.000000   0.000000
     12       0.000000   0.000000   0.000000   0.000000   0.000000   0.000000
     13       0.000000   0.000000   0.000000   0.000000   0.000000   0.000000
     14       0.000000   0.000000   0.000000   0.000000   0.000000   0.000000
     15       0.000000   0.000000   0.000000   0.000000   0.000000   0.000000
     16       0.000000   0.000000   0.000000   0.000000   0.000000   0.000000
     17       0.000000   0.000000   0.000000   0.000000   0.000000   0.000000
     18       0.000000   0.000000   0.000000   0.000000   0.000000   0.000000
     19       0.000000   0.000000   0.000000   0.000000   0.000000   0.000000
     20       0.000000   0.000000   0.000000   0.000000   0.000000   0.000000
     21       0.000000   0.000000   0.000000   0.000000   0.000000   0.000000
     22       0.000000   0.000000   0.000000   0.000000   0.000000   0.000000
     23       0.000000   0.000000   0.000000   0.000000   0.000000   0.000000
     24       0.000000   0.000000   0.000000   0.000000   0.000000   0.000000
     25       0.000000   0.000000   0.000000   0.000000   0.000000   0.000000
     26       0.000000   0.000000   0.000000   0.000000   0.000000   0.000000
     27       0.000000   0.000000   0.000000   0.000000   0.000000   0.000000
     28       0.000000   0.000000   0.000000   0.000000   0.000000   0.000000
     29       0.000000   0.000000   0.000000   0.000000   0.000000   0.000000
     30       0.000000   0.000000   0.000000   0.000000   0.000000   0.000000
     31       0.000000   0.000000   0.000000   0.000000   0.000000   0.000000
     32       0.000000   0.000000   0.000000   0.000000   0.000000   0.000000
                  6          7          8          9         10         11    
      0      -0.000529  -0.006031   0.111640  -0.002552  -0.185320  -0.016629
      1      -0.008630  -0.009012   0.139129  -0.002512  -0.021941  -0.022111
      2       0.042389   0.022578   0.023766   0.011663  -0.009368   0.062837
      3      -0.000231  -0.006262   0.091563  -0.000529   0.092707   0.002781
      4       0.007738   0.019779  -0.138861  -0.010171  -0.119381  -0.017713
      5      -0.037325  -0.075374  -0.028822   0.081963  -0.020319   0.006525
      6       0.053140   0.051203   0.280047  -0.244419  -0.125521  -0.352494
      7      -0.200016   0.450192   0.312386   0.044936   0.002968   0.067894
      8       0.148773  -0.155666   0.017947  -0.112003   0.005772  -0.121284
      9      -0.000619   0.022469  -0.182976  -0.009431  -0.299124  -0.095400
     10       0.014366  -0.092354   0.262103   0.019747   0.018747   0.050147
     11      -0.125294   0.545207   0.093413  -0.130877   0.031924  -0.219857
     12      -0.063647  -0.083103   0.264145   0.261266  -0.215910   0.426274
     13       0.153917  -0.440983   0.218210  -0.012981  -0.000119   0.007795
     14       0.201698  -0.285580   0.014369  -0.123590   0.021932  -0.128439
     15       0.029420   0.052820   0.080536   0.238975  -0.041599   0.341721
     16      -0.023356  -0.055960  -0.134782  -0.369709  -0.198227   0.164218
     17      -0.077184  -0.165750  -0.023308  -0.337797  -0.028331   0.007482
     18      -0.000821   0.008775  -0.169354   0.000726   0.162421   0.005376
     19       0.003675  -0.004610  -0.048109   0.000487   0.108171   0.027298
     20      -0.010909   0.047076  -0.002140   0.019030   0.023391  -0.065548
     21      -0.029635  -0.059879   0.062609  -0.219409   0.023765  -0.275498
     22       0.045015   0.109647  -0.113762   0.418146  -0.174770  -0.161050
     23      -0.066012  -0.138212  -0.048970  -0.210455  -0.020259  -0.036785
     24      -0.406379  -0.121760  -0.399681   0.082697  -0.168539  -0.084427
     25       0.188983  -0.032295  -0.149241   0.298443   0.036693  -0.320675
     26      -0.240948   0.014524  -0.035319  -0.095374  -0.057636   0.072608
     27       0.438814   0.172355  -0.342600  -0.082988  -0.178465   0.136713
     28      -0.126705   0.043366  -0.144849  -0.271747  -0.044444   0.365647
     29      -0.292914   0.023902  -0.017029  -0.183332   0.022619   0.177969
     30      -0.002252   0.007820  -0.165422   0.001377   0.173571   0.004065
     31      -0.085366  -0.054983   0.319988   0.018486   0.754170  -0.024735
     32       0.521538   0.229739   0.084634  -0.148934   0.099004   0.202859
                 12         13         14         15         16         17    
      0      -0.034844   0.165846  -0.039297  -0.003695  -0.001225   0.014876
      1      -0.086734  -0.022858   0.134611  -0.006844  -0.011438  -0.051117
      2      -0.022498  -0.004731   0.011302   0.117930   0.074482  -0.007191
      3       0.007307  -0.206890   0.103154   0.004639   0.006107   0.142905
      4      -0.064268  -0.126065  -0.161540   0.012655   0.004135   0.092006
      5      -0.012746  -0.017015  -0.009490  -0.177860  -0.003243   0.012603
      6       0.307284   0.238826  -0.316911  -0.352387  -0.171559  -0.105134
      7       0.190054  -0.020523  -0.220271   0.074516   0.055554   0.104603
      8       0.001541   0.019673   0.045246  -0.075166  -0.026224  -0.113362
      9      -0.584051   0.179903   0.399838   0.027713  -0.006763  -0.262429
     10       0.148507  -0.029329  -0.071850   0.026074   0.016497   0.067757
     11       0.067346  -0.000707  -0.006064  -0.245323  -0.115462  -0.000758
     12       0.176088   0.219435  -0.351259   0.344779   0.186210  -0.111844
     13       0.175243  -0.010803  -0.188180  -0.092445  -0.051293   0.053559
     14       0.084164  -0.014699  -0.089703  -0.127486  -0.046813   0.120426
     15       0.156891  -0.463826   0.091644  -0.172969  -0.570005  -0.443512
     16       0.046314  -0.293396  -0.187254   0.301121  -0.351301  -0.287831
     17       0.013431  -0.044016  -0.024343   0.153148  -0.045571  -0.045047
     18      -0.035491   0.048642  -0.093925  -0.003926  -0.001469  -0.033568
     19       0.091370   0.153287   0.093742  -0.007524   0.008625   0.045689
     20       0.024269   0.021948   0.004706   0.119218  -0.070983   0.007640
     21       0.266512  -0.468870   0.071691   0.165432   0.520611  -0.495690
     22       0.090687  -0.293498  -0.151217  -0.311027   0.323011  -0.332204
     23       0.018544  -0.041994  -0.030842   0.041523   0.050665  -0.041976
     24       0.251563   0.079201   0.277072   0.057284  -0.013672  -0.003809
     25       0.238430   0.217669   0.158540   0.347927  -0.165295  -0.190019
     26       0.053782   0.007513   0.099354  -0.039821   0.007483   0.116566
     27       0.213927   0.075386   0.277262  -0.032859   0.017008  -0.013580
     28       0.144282   0.198721   0.215778  -0.336160   0.174139  -0.148684
     29      -0.026687   0.044989  -0.028075  -0.162858   0.063696  -0.148873
     30      -0.037201   0.049407  -0.091056  -0.001468  -0.002497  -0.044072
     31      -0.322961   0.179165  -0.351665   0.010406  -0.017068  -0.298810
     32      -0.081346   0.026817  -0.043239  -0.250475   0.109179  -0.042494
                 18         19         20         21         22         23    
      0      -0.074751   0.129611  -0.010402  -0.005198  -0.005800  -0.003768
      1      -0.020433  -0.008636  -0.010701  -0.003021   0.032104  -0.001857
      2      -0.005387   0.005384  -0.002458   0.024102   0.003202   0.039109
      3       0.072752  -0.021147  -0.020503  -0.003860   0.044040  -0.007629
      4       0.051509   0.004127   0.044404   0.008037   0.008649   0.005874
      5       0.004746  -0.002085   0.000963  -0.009117   0.003573   0.029905
      6       0.235153  -0.450420  -0.054574   0.168444   0.139820   0.329212
      7       0.095619  -0.006453   0.144227   0.186633  -0.367331   0.279422
      8       0.064090  -0.221318  -0.082818   0.000592   0.228128   0.037626
      9       0.186554  -0.418225   0.138921   0.026015  -0.254874  -0.010293
     10      -0.126140   0.223953  -0.071792   0.031658   0.127391   0.084757
     11      -0.001810  -0.014190   0.040054  -0.333936  -0.003978  -0.601528
     12       0.236742  -0.461675  -0.001284  -0.139422   0.099801  -0.268271
     13       0.125073  -0.106847   0.168532  -0.153439  -0.308605  -0.330135
     14      -0.026456   0.185798   0.132828  -0.045523  -0.307577  -0.111551
     15      -0.165187   0.030277   0.203854   0.072122  -0.131546   0.065482
     16      -0.104521   0.022572  -0.306099  -0.000065   0.027351  -0.063521
     17      -0.021671  -0.013084  -0.372877  -0.047993   0.092500  -0.054500
     18      -0.076410  -0.020931   0.023602   0.003412   0.026203  -0.004505
     19      -0.112621  -0.067989  -0.006908   0.005405  -0.023634  -0.001159
     20      -0.011257  -0.007270   0.007598  -0.039072  -0.000434   0.018281
     21      -0.182982   0.025600   0.227357   0.002590  -0.152084   0.000843
     22      -0.126781   0.015871  -0.412037  -0.100325   0.051515  -0.023248
     23      -0.012887   0.014207   0.288862   0.039490  -0.087699   0.048197
     24       0.346072   0.128701  -0.272187   0.387684  -0.253535  -0.191385
     25       0.375708   0.258082   0.202813   0.157457   0.294035  -0.120608
     26      -0.077504  -0.099786  -0.189716   0.042639  -0.239014   0.002015
     27       0.332857   0.114358  -0.163386  -0.446146  -0.227157   0.263543
     28       0.301648   0.199654   0.171109  -0.131025   0.212355   0.055121
     29       0.163731   0.157610   0.220846   0.040967   0.288532  -0.044495
     30      -0.054914  -0.011642   0.008325  -0.004006   0.011691   0.000355
     31       0.431052   0.257029  -0.216032  -0.115054  -0.240702   0.084158
     32       0.054282   0.038088  -0.109896   0.590770  -0.046437  -0.315940
                 24         25         26         27         28         29    
      0       0.012628   0.004850   0.005266   0.049341   0.001926  -0.001810
      1       0.032405  -0.006754  -0.009336  -0.011736  -0.004871  -0.016368
      2      -0.003866  -0.001232   0.001413  -0.002301   0.027700   0.054875
      3      -0.036624  -0.019339  -0.031249   0.004459   0.005009   0.000229
      4       0.061518   0.031350   0.047477  -0.009429   0.004255   0.000360
      5       0.002827   0.001198  -0.002882   0.003478  -0.080892  -0.005994
      6       0.045777  -0.030625  -0.025747  -0.206185   0.066101   0.140163
      7      -0.405664   0.029281   0.027194   0.229252  -0.074711  -0.159470
      8       0.194971   0.074474   0.070639   0.536278  -0.162757  -0.344913
      9      -0.258750  -0.000580   0.005119  -0.179150  -0.004376   0.037489
     10       0.124249   0.007524   0.015603  -0.437968  -0.015321   0.083592
     11       0.122883   0.000895   0.002918  -0.058799   0.005263   0.023884
     12       0.136432  -0.027676  -0.039206  -0.195600  -0.084860  -0.156138
     13      -0.228306   0.044158   0.068703   0.351509   0.149870   0.272492
     14      -0.256960  -0.059090  -0.090030  -0.448120  -0.183828  -0.334863
     15       0.146757   0.123525   0.202288  -0.041944   0.178424   0.009906
     16      -0.201564  -0.237161  -0.382631   0.083162  -0.335387  -0.026295
     17      -0.290755   0.291112   0.473222  -0.102537   0.385103   0.028774
     18      -0.025504  -0.002878   0.009516  -0.000406   0.000542  -0.007132
     19       0.002322  -0.043979   0.025832   0.001267  -0.005532   0.010793
     20      -0.002375  -0.004012   0.004390  -0.002164   0.028376  -0.070735
     21       0.170242   0.112848   0.162823  -0.018969  -0.236829  -0.013409
     22      -0.298074  -0.133499  -0.186481   0.024095   0.280009   0.021572
     23       0.239152  -0.306609  -0.439198   0.058263   0.600434   0.042409
     24       0.210039  -0.159585   0.104904   0.000112   0.065738  -0.170026
     25      -0.186300   0.200385  -0.128292   0.003385  -0.083163   0.216849
     26       0.162680   0.456630  -0.289557   0.002739  -0.175800   0.455229
     27       0.155466  -0.160677   0.095577   0.010878  -0.074109   0.166008
     28      -0.149031   0.333678  -0.192105  -0.018530   0.153905  -0.347148
     29      -0.193364  -0.410398   0.236596   0.024415  -0.180499   0.405145
     30      -0.016135   0.349703  -0.309540  -0.005361   0.000815   0.089827
     31       0.197870  -0.013404   0.015725   0.002179  -0.001940   0.000544
     32       0.062065   0.001193   0.000608  -0.000464   0.007778  -0.015252
                 30         31         32    
      0      -0.001444  -0.010367  -0.001155
      1      -0.018594  -0.087238  -0.001453
      2       0.063317  -0.025051   0.001690
      3      -0.000387   0.004399   0.003647
      4      -0.005717  -0.006905  -0.005418
      5       0.042320  -0.003554  -0.001310
      6       0.165034  -0.150551   0.002700
      7      -0.179854   0.144888  -0.006260
      8      -0.392525   0.369223  -0.010314
      9       0.038424   0.344528   0.007900
     10       0.086576   0.789531   0.017378
     11       0.022979   0.101641   0.002758
     12      -0.186397  -0.075994  -0.006098
     13       0.315839   0.110617   0.007199
     14      -0.390339  -0.170393  -0.009489
     15      -0.101947  -0.017681  -0.016031
     16       0.190853   0.033239   0.032074
     17      -0.222415  -0.040233  -0.037742
     18       0.002869  -0.001792   0.087482
     19      -0.007256   0.001385  -0.026067
     20       0.048569   0.001799  -0.011751
     21       0.106972  -0.032107  -0.017670
     22      -0.125955   0.035025   0.023523
     23      -0.270172   0.077974   0.048937
     24       0.114002   0.009157  -0.106431
     25      -0.152357  -0.008201   0.149016
     26      -0.314736  -0.020343   0.338594
     27      -0.111265   0.000763  -0.057171
     28       0.241562   0.000844   0.150694
     29      -0.278110   0.001076  -0.192581
     30      -0.037185   0.014353  -0.879308
     31      -0.000528  -0.000667   0.018849
     32       0.007851   0.000468  -0.004659
# -----------------------------------------------------------
$ THERMOCHEMISTRY_Energies
   description: The Thermochemistry energies
   geom. index: 6
   prop. index: 1
        Temperature (Kelvin)           :        298.1500000000
        Pressure (atm)                 :          1.0000000000
        Total Mass (AMU)               :         44.0970000000
        Spin Degeneracy                :          1.0000000000
        Electronic Energy (Hartree)    :       -119.0792399651
        Translational Energy (Hartree) :          0.0014162714
        Rotational Energy (Hartree)    :          0.0014162714
        Vibrational Energy (Hartree)   :          0.0012030609
        Number of frequencies          :     33      
        Scaling Factor for frequencies :          1.0000000000
        Vibrational frequencies        :     
                  0    
      0       0.000000
      1       0.000000
      2       0.000000
      3       0.000000
      4       0.000000
      5       0.000000
      6     -48.998025
      7     258.268026
      8     375.352759
      9     710.800945
     10     888.694670
     11     894.835466
     12     928.596512
     13     1075.982454
     14     1173.497769
     15     1191.350648
     16     1303.866830
     17     1357.835467
     18     1392.190362
     19     1406.262299
     20     1460.659748
     21     1465.325360
     22     1469.359810
     23     1485.434925
     24     1487.753939
     25     2999.742516
     26     3003.070474
     27     3004.339788
     28     3022.500437
     29     3062.278870
     30     3070.058839
     31     3081.549286
     32     3090.285330
        Zero Point Energy (Hartree)    :          0.1017427238
        Inner Energy (Hartree)         :       -118.9734616376
        Enthalpy (Hartree)             :       -118.9725174285
        Electronic entropy             :          0.0000000000
        Rotational entropy             :          0.0107531348
        Vibrational entropy            :          0.0017838800
        Translational entropy          :          0.0107531348
        Entropy                        :          0.0302486444
        Gibbs Energy (Hartree)         :       -119.0027660730
        Is Linear                      :                 false
# -------------------------------------------------------------
----------------------- !GEOMETRIES! ------------------------
# -------------------------------------------------------------
------------------------ !GEOMETRY! -------------------------
    Number of atoms:    11 
    Geometry Index:     1 
    Coordinates:
               0 C     -1.152140000000    0.231070000000   -0.018920000000
               1 C      0.366720000000    0.193200000000   -0.017650000000
               2 H     -1.535600000000    0.623920000000    0.928200000000
               3 H     -1.556550000000   -0.776480000000   -0.157440000000
               4 H     -1.528180000000    0.862680000000   -0.830140000000
               5 H      0.714460000000   -0.466870000000    0.784710000000
               6 C      0.962020000000    1.578010000000    0.172880000000
               7 H      0.721840000000   -0.229430000000   -0.964050000000
               8 H      0.645370000000    2.013440000000    1.126050000000
               9 H      0.652810000000    2.252170000000   -0.632290000000
              10 H      2.055200000000    1.524570000000    0.170250000000
------------------------ !GEOMETRY! -------------------------
    Number of atoms:    11 
    Geometry Index:     2 
    Coordinates:
               0 C     -1.150973080671    0.227377666784   -0.019317649792
               1 C      0.366223764025    0.194226349569   -0.017952608476
               2 H     -1.532740285455    0.624508360726    0.923373895616
               3 H     -1.566545106312   -0.772161260842   -0.155370562014
               4 H     -1.526108089049    0.860331444975   -0.825930708622
               5 H      0.715384624913   -0.467675798235    0.778625193150
               6 C      0.965064220746    1.575396628129    0.172593022882
               7 H      0.722904629622   -0.230529565472   -0.959736724225
               8 H      0.644031007135    2.010806135448    1.120872398589
               9 H      0.653388388557    2.248966459268   -0.628217494048
              10 H      2.055319926487    1.535033579651    0.172661236940
------------------------ !GEOMETRY! -------------------------
    Number of atoms:    11 
    Geometry Index:     3 
    Coordinates:
               0 C     -1.148073934303    0.224930293096   -0.019524093082
               1 C      0.366919910817    0.193339789487   -0.018587572087
               2 H     -1.528323968981    0.628489777994    0.920836866583
               3 H     -1.577442947189   -0.767648181743   -0.152912140246
               4 H     -1.522757950748    0.861499818376   -0.823233644558
               5 H      0.718596702617   -0.472330919214    0.773446063041
               6 C      0.966255381547    1.571824298563    0.172226136388
               7 H      0.725989697831   -0.234708724550   -0.957719294213
               8 H      0.638701253002    2.008263052156    1.117562211939
               9 H      0.650505203701    2.246189427618   -0.626053601591
              10 H      2.055580651704    1.546431368218    0.175559067826
------------------------ !GEOMETRY! -------------------------
    Number of atoms:    11 
    Geometry Index:     4 
    Coordinates:
               0 C     -1.146480740268    0.225022232933   -0.019456529517
               1 C      0.367730019328    0.192103259098   -0.018931312737
               2 H     -1.526331168353    0.631017798548    0.920725456376
               3 H     -1.580561280166   -0.765976385599   -0.151984776647
               4 H     -1.521216477338    0.863168013202   -0.822718217124
               5 H      0.720492408062   -0.475227466134    0.771981026979
               6 C      0.965562272859    1.570468111993    0.172104881931
               7 H      0.727615798118   -0.237155056767   -0.957836840456
               8 H      0.635490974403    2.007578650429    1.116966325655
               9 H      0.648356328679    2.245378347315   -0.625948242071
              10 H      2.055291864676    1.549902494983    0.176698227610
------------------------ !GEOMETRY! -------------------------
    Number of atoms:    11 
    Geometry Index:     5 
    Coordinates:
               0 C     -1.145866805248    0.225407371321   -0.019362774222
               1 C      0.368176358455    0.191404364425   -0.019086135300
               2 H     -1.525640740704    0.632048899254    0.920858425914
               3 H     -1.581142636525   -0.765372295335   -0.151645614660
               4 H     -1.520722858355    0.863957034772   -0.822577276227
               5 H      0.721324648718   -0.476477870550    0.771482209051
               6 C      0.964975452566    1.570082013869    0.172080289943
               7 H      0.728197651204   -0.238121903342   -0.958070146497
               8 H      0.634119075429    2.007516446348    1.116804183768
               9 H      0.647564190086    2.245136172247   -0.626095606639
              10 H      2.054965664374    1.550699766990    0.177212444869
------------------------ !GEOMETRY! -------------------------
    Number of atoms:    11 
    Geometry Index:     6 
    Coordinates:
               0 C     -1.145809609976    0.225529039422   -0.019314205774
               1 C      0.368261366144    0.191271277810   -0.019122792487
               2 H     -1.525593085367    0.632154688042    0.920909412872
               3 H     -1.581083999362   -0.765292056813   -0.151570480514
               4 H     -1.520741271342    0.864042447231   -0.822517809479
               5 H      0.721489213472   -0.476695493204    0.771334153639
               6 C      0.964845746572    1.570075131236    0.172084122673
               7 H      0.728223217899   -0.238208450672   -0.958152306583
               8 H      0.633871240277    2.007617128244    1.116716209321
               9 H      0.647619323167    2.245096152650   -0.626190574815
              10 H      2.054867858516    1.550690136055    0.177424271148
