11
Coordinates from ORCA-job propane_M06_cc-pVDZ E -119.028982484908
  C      -1.152140      0.231070     -0.018920
  C       0.366720      0.193200     -0.017650
  H      -1.535600      0.623920      0.928200
  H      -1.556550     -0.776480     -0.157440
  H      -1.528180      0.862680     -0.830140
  H       0.714460     -0.466870      0.784710
  C       0.962020      1.578010      0.172880
  H       0.721840     -0.229430     -0.964050
  H       0.645370      2.013440      1.126050
  H       0.652810      2.252170     -0.632290
  H       2.055200      1.524570      0.170250
11
Coordinates from ORCA-job propane_M06_cc-pVDZ E -119.029525966656
  C      -1.154543      0.225556     -0.019286
  C       0.366628      0.193559     -0.017772
  H      -1.541837      0.624013      0.933223
  H      -1.574069     -0.783482     -0.158714
  H      -1.534884      0.865675     -0.832426
  H       0.719892     -0.475463      0.786356
  C       0.968128      1.577949      0.172670
  H       0.727666     -0.236152     -0.968717
  H       0.644453      2.019749      1.129551
  H       0.655620      2.258214     -0.636823
  H       2.068895      1.536662      0.173539
11
Coordinates from ORCA-job propane_M06_cc-pVDZ E -119.029612501384
  C      -1.152921      0.223209     -0.019162
  C       0.366857      0.193266     -0.017969
  H      -1.541091      0.624380      0.933438
  H      -1.583349     -0.781730     -0.158933
  H      -1.534938      0.868170     -0.829529
  H       0.723180     -0.480054      0.783274
  C       0.969638      1.575679      0.172120
  H       0.730826     -0.240164     -0.967842
  H       0.640557      2.021055      1.127034
  H       0.656018      2.257420     -0.637542
  H       2.071172      1.545050      0.176711
11
Coordinates from ORCA-job propane_M06_cc-pVDZ E -119.029638817062
  C      -1.150363      0.222423     -0.018777
  C       0.367469      0.192302     -0.018243
  H      -1.538635      0.624978      0.933173
  H      -1.589091     -0.778193     -0.159155
  H      -1.533436      0.871214     -0.825576
  H       0.726071     -0.483827      0.779554
  C       0.969325      1.573243      0.171513
  H       0.733147     -0.243632     -0.966239
  H       0.635402      2.021505      1.123353
  H       0.655654      2.255109     -0.637971
  H       2.070408      1.551158      0.179969
11
Coordinates from ORCA-job propane_M06_cc-pVDZ E -119.029640402710
  C      -1.149637      0.222712     -0.018523
  C       0.367793      0.191782     -0.018369
  H      -1.537763      0.624919      0.933330
  H      -1.589472     -0.777073     -0.159415
  H      -1.532980      0.872363     -0.824153
  H       0.726845     -0.484682      0.778511
  C       0.968763      1.572767      0.171317
  H       0.733446     -0.244408     -0.965892
  H       0.633539      2.021812      1.122026
  H       0.655806      2.254209     -0.638432
  H       2.069611      1.551879      0.181201
11
Coordinates from ORCA-job propane_M06_cc-pVDZ E -119.029640565329
  C      -1.149455      0.222903     -0.018320
  C       0.367942      0.191553     -0.018460
  H      -1.537471      0.624571      0.933703
  H      -1.589340     -0.776754     -0.159692
  H      -1.533015      0.873009     -0.823360
  H       0.727209     -0.484992      0.778100
  C       0.968505      1.572712      0.171198
  H       0.733404     -0.244602     -0.965950
  H       0.632501      2.022250      1.121297
  H       0.656363      2.253791     -0.639043
  H       2.069308      1.551838      0.182125
