14
Coordinates from ORCA-job butane_PBE0_aug-cc-pVTZ
  C   -1.27568388734818      0.18474579594168     -0.02660414927200
  C   0.24360905644660      0.18781939626426     -0.02168909970668
  H   -1.67371354398307      0.56886788643204      0.91614375082475
  H   -1.67569185149451     -0.82097936705444     -0.16962936817374
  H   -1.66802802052709      0.81481079763037     -0.82901147019268
  H   0.61061856987218     -0.47563505854442      0.76924634681311
  C   0.83928701694784      1.57329085097000      0.17452476504654
  H   0.61534582570481     -0.23231814794639     -0.96284210234307
  H   0.46755423014491      1.99342452300758      1.11568106160853
  H   0.47227219507788      2.23674690807242     -0.61640685415730
  C   2.35857990820185      1.57636675673930      0.17943209833784
  H   2.75092873669965      0.94628999845805      0.98182783529583
  H   2.75858702876470      2.58209045229693      0.32247079032470
  H   2.75660473549244      1.19225920773261     -0.76332360440583
