14
Coordinates from ORCA-job butane_PBE0_6-311G_d-p_ E -158.291732130951
  C      -1.265080      0.193850     -0.025430
  C       0.255200      0.179570     -0.022990
  H      -1.655350      0.575980      0.923260
  H      -1.653420     -0.819310     -0.169030
  H      -1.650210      0.823100     -0.834170
  H       0.607390     -0.483440      0.775850
  C       0.827700      1.581540      0.175840
  H       0.612500     -0.237690     -0.971680
  H       0.470410      1.998790      1.124540
  H       0.475480      2.244560     -0.622990
  C       2.347970      1.567260      0.178250
  H       2.733130      0.937990      0.986960
  H       2.736320      2.580420      0.321870
  H       2.738230      1.185160     -0.770460
14
Coordinates from ORCA-job butane_PBE0_6-311G_d-p_ E -158.292232242243
  C      -1.280056      0.185724     -0.026514
  C       0.245862      0.184048     -0.022212
  H      -1.675107      0.567791      0.919801
  H      -1.673443     -0.825225     -0.170243
  H      -1.669662      0.814687     -0.832813
  H       0.605266     -0.478993      0.773777
  C       0.837035      1.577061      0.175057
  H       0.610303     -0.234191     -0.968060
  H       0.472603      1.995293      1.120913
  H       0.477610      2.240107     -0.620920
  C       2.362949      1.575389      0.179336
  H       2.752578      0.946408      0.985611
  H       2.756341      2.586334      0.323081
  H       2.757991      1.193348     -0.766994
14
Coordinates from ORCA-job butane_PBE0_6-311G_d-p_ E -158.292304272518
  C      -1.282133      0.183331     -0.026769
  C       0.242638      0.186426     -0.021745
  H      -1.679730      0.566229      0.918506
  H      -1.679088     -0.825489     -0.170596
  H      -1.674044      0.813232     -0.831653
  H       0.606890     -0.477220      0.772460
  C       0.840258      1.574684      0.174586
  H       0.611867     -0.233129     -0.965952
  H       0.471035      1.994233      1.118797
  H       0.475993      2.238332     -0.619611
  C       2.365028      1.577782      0.179594
  H       2.756952      0.947867      0.984461
  H       2.761986      2.586598      0.323435
  H       2.762618      1.194903     -0.765692
14
Coordinates from ORCA-job butane_PBE0_6-311G_d-p_ E -158.292316449843
  C      -1.280837      0.183083     -0.026747
  C       0.242178      0.186831     -0.021600
  H      -1.679490      0.566629      0.918065
  H      -1.679876     -0.824798     -0.170726
  H      -1.673658      0.813811     -0.830836
  H       0.608563     -0.477384      0.771576
  C       0.840718      1.574279      0.174437
  H       0.613504     -0.233774     -0.964883
  H       0.469396      1.994882      1.117723
  H       0.474326      2.238496     -0.618734
  C       2.363732      1.578029      0.179575
  H       2.756560      0.947291      0.983652
  H       2.762772      2.585908      0.323564
  H       2.762381      1.194497     -0.765245
14
Coordinates from ORCA-job butane_PBE0_6-311G_d-p_ E -158.292318633310
  C      -1.279686      0.183287     -0.026685
  C       0.242468      0.186607     -0.021572
  H      -1.678770      0.567096      0.917929
  H      -1.679765     -0.824227     -0.170809
  H      -1.672854      0.814465     -0.830362
  H       0.609651     -0.477837      0.771132
  C       0.840428      1.574504      0.174407
  H       0.614581     -0.234529     -0.964385
  H       0.468317      1.995638      1.117221
  H       0.473241      2.238950     -0.618295
  C       2.362582      1.577825      0.179514
  H       2.755752      0.946639      0.983184
  H       2.762661      2.585337      0.323647
  H       2.761662      1.194025     -0.765105
14
Coordinates from ORCA-job butane_PBE0_6-311G_d-p_ E -158.292318756489
  C      -1.279449      0.183383     -0.026660
  C       0.242661      0.186442     -0.021567
  H      -1.678609      0.567162      0.917933
  H      -1.679755     -0.824068     -0.170870
  H      -1.672663      0.814661     -0.830235
  H       0.609932     -0.477955      0.771098
  C       0.840234      1.574669      0.174401
  H       0.614870     -0.234757     -0.964283
  H       0.468028      1.995867      1.117117
  H       0.472961      2.239067     -0.618263
  C       2.362345      1.577729      0.179490
  H       2.755560      0.946444      0.983059
  H       2.762651      2.585179      0.323707
  H       2.761503      1.193957     -0.765107
