# ethane
! PBE0 aug-cc-pVTZ Opt Freq

* xyz 0 1
   C       -1.06977        0.34276        0.00000
   C        0.44229        0.34276       -0.00000
   H       -1.45414        0.72778        0.94923
   H       -1.45414       -0.67181       -0.14118
   H       -1.45414        0.97231       -0.80805
   H        0.82666       -0.28679        0.80805
   H        0.82666        1.35733        0.14118
   H        0.82666       -0.04226       -0.94923
*