20
Coordinates from ORCA-job hexane_PBE0_cc-pVDZ
  C   -5.62730639797478     -0.89409635419741     -0.00725151478211
  C   -4.36790719122079     -0.04041065031571     -0.02839523740234
  H   -6.53819148313216     -0.27696749390936     -0.03992681239806
  H   -5.67599855678150     -1.51157852723006      0.90463523304780
  H   -5.65883262757618     -1.58012876418895     -0.86952979554391
  C   -3.08379626581240     -0.85953405176745      0.01226591385865
  H   -4.37906754325589      0.65874385165345      0.82711431101090
  H   -4.36473366611496      0.59356244467316     -0.93336165511849
  C   -1.81634080152270     -0.01534880551897     -0.00843799130342
  H   -3.07121730741701     -1.55965864032174     -0.84387052440902
  H   -3.08546849509155     -1.49497239192490      0.91755358064918
  C   -0.53222936895253     -0.83447172761798      0.03221792881245
  H   -1.82891810849175      0.68477357042102      0.84770029636199
  H   -1.81467029429735      0.62009209442749     -0.91372384564749
  C   0.72716912922366      0.01921506227102      0.01108114483527
  H   -0.52106825486586     -1.53362007622037     -0.82329664564409
  H   -0.53540303705972     -1.46845139764997      0.93717975551327
  H   0.77586027559801      0.63670532411377     -0.90080016483359
  H   1.63805469473225     -0.59791343114334      0.04375061967835
  H   0.75869530001321      0.70523996444627      0.87336540331466
