20
Coordinates from ORCA-job hexane_PBE0_6-31G_d_ E -236.776480927672
  C      -5.596720     -0.895900     -0.007080
  C      -4.348320     -0.028410     -0.029150
  H      -6.493920     -0.269800     -0.037940
  H      -5.636900     -1.502500      0.903270
  H      -5.622170     -1.568810     -0.870150
  C      -3.076790     -0.875590      0.013070
  H      -4.369730      0.654290      0.828270
  H      -4.355090      0.588360     -0.935380
  C      -1.823340      0.000710     -0.009260
  H      -3.062370     -1.559510     -0.844320
  H      -3.077030     -1.493600      0.919240
  C      -0.551820     -0.846470      0.032960
  H      -1.837760      0.684620      0.848150
  H      -1.823110      0.618730     -0.915420
  C       0.696580      0.021020      0.010930
  H      -0.530400     -1.529150     -0.824480
  H      -0.545060     -1.463280      0.939160
  H       0.736770      0.627660     -0.899400
  H       1.593780     -0.605080      0.041770
  H       0.722030      0.693890      0.874030
20
Coordinates from ORCA-job hexane_PBE0_6-31G_d_ E -236.777438310458
  C      -5.628364     -0.897178     -0.007276
  C      -4.367136     -0.035810     -0.028877
  H      -6.530675     -0.275433     -0.038458
  H      -5.672358     -1.507423      0.902246
  H      -5.657064     -1.574024     -0.869026
  C      -3.083788     -0.866560      0.012692
  H      -4.383518      0.652385      0.826782
  H      -4.368969      0.586679     -0.933614
  C      -1.816347     -0.008322     -0.008873
  H      -3.070609     -1.555456     -0.843341
  H      -3.085081     -1.489784      0.917739
  C      -0.533001     -0.839070      0.032689
  H      -1.829526      0.680563      0.847169
  H      -1.815063      0.614912     -0.913913
  C       0.728226      0.022298      0.011119
  H      -0.516611     -1.527246     -0.822987
  H      -0.531174     -1.461591      0.937404
  H       0.772224      0.632574     -0.898381
  H       1.630538     -0.599447      0.042282
  H       0.756926      0.699112      0.872894
20
Coordinates from ORCA-job hexane_PBE0_6-31G_d_ E -236.777551282362
  C      -5.631606     -0.896212     -0.007315
  C      -4.369299     -0.038136     -0.028677
  H      -6.535944     -0.278418     -0.038828
  H      -5.676652     -1.508401      0.901327
  H      -5.660807     -1.575383     -0.867721
  C      -3.084608     -0.862287      0.012524
  H      -4.382644      0.653212      0.825421
  H      -4.368159      0.587772     -0.931938
  C      -1.815529     -0.012596     -0.008700
  H      -3.072023     -1.554497     -0.842261
  H      -3.086345     -1.489119      0.916419
  C      -0.530837     -0.836746      0.032492
  H      -1.828113      0.679607      0.846090
  H      -1.813798      0.614243     -0.912590
  C       0.731469      0.021332      0.011154
  H      -0.517486     -1.528078     -0.821619
  H      -0.531981     -1.462676      0.935737
  H       0.776516      0.633544     -0.897472
  H       1.635808     -0.596462      0.042652
  H       0.760669      0.700479      0.871578
20
Coordinates from ORCA-job hexane_PBE0_6-31G_d_ E -236.777570559691
  C      -5.629824     -0.895349     -0.007310
  C      -4.368821     -0.038352     -0.028573
  H      -6.535439     -0.279739     -0.039143
  H      -5.675069     -1.508461      0.900836
  H      -5.658779     -1.575831     -0.866836
  C      -3.084393     -0.861044      0.012459
  H      -4.380960      0.654632      0.824494
  H      -4.366517      0.589420     -0.930801
  C      -1.815744     -0.013838     -0.008633
  H      -3.072111     -1.555128     -0.841243
  H      -3.086338     -1.490032      0.915267
  C      -0.531315     -0.836531      0.032391
  H      -1.828025      0.680240      0.845073
  H      -1.813802      0.615154     -0.911437
  C       0.729687      0.020468      0.011144
  H      -0.519173     -1.529503     -0.820685
  H      -0.533622     -1.464315      0.934611
  H       0.774931      0.633596     -0.896991
  H       1.635302     -0.595142      0.042966
  H       0.758642      0.700934      0.870682
20
Coordinates from ORCA-job hexane_PBE0_6-31G_d_ E -236.777573714893
  C      -5.628576     -0.895013     -0.007294
  C      -4.368401     -0.038036     -0.028531
  H      -6.534776     -0.280260     -0.039373
  H      -5.673901     -1.508371      0.900708
  H      -5.657316     -1.576060     -0.866408
  C      -3.084220     -0.861051      0.012431
  H      -4.380201      0.655506      0.824112
  H      -4.365788      0.590439     -0.930291
  C      -1.815917     -0.013832     -0.008605
  H      -3.072102     -1.555792     -0.840757
  H      -3.086291     -1.490906      0.914651
  C      -0.531735     -0.836846      0.032352
  H      -1.828034      0.680907      0.844585
  H      -1.813847      0.616025     -0.910823
  C       0.728439      0.020132      0.011126
  H      -0.519932     -1.530381     -0.820297
  H      -0.534350     -1.465330      0.934107
  H       0.773763      0.633500     -0.896869
  H       1.634639     -0.594621      0.043199
  H       0.757178      0.701169      0.870248
20
Coordinates from ORCA-job hexane_PBE0_6-31G_d_ E -236.777574018081
  C      -5.628328     -0.894968     -0.007280
  C      -4.368312     -0.037857     -0.028514
  H      -6.534698     -0.280428     -0.039519
  H      -5.673732     -1.508286      0.900745
  H      -5.656979     -1.576193     -0.866259
  C      -3.084183     -0.861195      0.012409
  H      -4.380042      0.655741      0.824061
  H      -4.365651      0.590751     -0.930160
  C      -1.815954     -0.013688     -0.008583
  H      -3.072131     -1.555988     -0.840693
  H      -3.086314     -1.491229      0.914461
  C      -0.531824     -0.837025      0.032338
  H      -1.828006      0.681103      0.844520
  H      -1.813824      0.616347     -0.910634
  C       0.728191      0.020087      0.011111
  H      -0.520092     -1.530619     -0.820241
  H      -0.534487     -1.465638      0.933980
  H       0.773595      0.633411     -0.896911
  H       1.634561     -0.594453      0.043345
  H       0.756841      0.701306      0.870094
