# hexane
! PBE0 cc-pVDZ Opt Freq

* xyz 0 1
   C       -5.59672       -0.89590       -0.00708
   C       -4.34832       -0.02841       -0.02915
   H       -6.49392       -0.26980       -0.03794
   H       -5.63690       -1.50250        0.90327
   H       -5.62217       -1.56881       -0.87015
   C       -3.07679       -0.87559        0.01307
   H       -4.36973        0.65429        0.82827
   H       -4.35509        0.58836       -0.93538
   C       -1.82334        0.00071       -0.00926
   H       -3.06237       -1.55951       -0.84432
   H       -3.07703       -1.49360        0.91924
   C       -0.55182       -0.84647        0.03296
   H       -1.83776        0.68462        0.84815
   H       -1.82311        0.61873       -0.91542
   C        0.69658        0.02102        0.01093
   H       -0.53040       -1.52915       -0.82448
   H       -0.54506       -1.46328        0.93916
   H        0.73677        0.62766       -0.89940
   H        1.59378       -0.60508        0.04177
   H        0.72203        0.69389        0.87403
*