5
Coordinates from ORCA-job methane_PBE0_def2-TZVP
  C   -0.85708637886957      0.34277247930924      0.00006234752418
  H   0.23248503738255      0.34277427084099     -0.00002470878023
  H   -1.22024469831131      0.72887306204405      0.95195949157892
  H   -1.22025793948824     -0.67468192123146     -0.14162018853914
  H   -1.22022602071343      0.97406210903717     -0.81036694178372
