5
Coordinates from ORCA-job methane_PBE0_aug-cc-pVTZ
  C   -0.85708515060934      0.34278873153377      0.00001789678889
  H   0.23185034220049      0.34273269077315     -0.00001018852073
  H   -1.22004386178779      0.72865095255111      0.95139649942432
  H   -1.22001219287394     -0.67409758751898     -0.14151215600454
  H   -1.22003913692942      0.97372521266094     -0.80988205168794
