5
Coordinates from ORCA-job methane_PBE0_STO-3G
  C   -0.85706737520979      0.34275729258994      0.00001659598780
  H   0.23652163236339      0.34276193846065     -0.00001302963275
  H   -1.22160206134920      0.73030468601798      0.95545193548396
  H   -1.22159477687417     -0.67844920815892     -0.14211518667869
  H   -1.22158741893022      0.97642529109034     -0.81333031516031
