17
Coordinates from ORCA-job pentane_PBE0_6-311G_d-p_
  C   -1.35105299999348      0.13149479212562     -0.03761284863484
  C   0.17100984581895      0.10261218663287     -0.03186111287779
  H   -1.74233693193977      0.52599734425923      0.90582910192817
  H   -1.77232908717780     -0.86772099340917     -0.17955596583274
  H   -1.73074621023383      0.76889988132079     -0.84282098921043
  H   0.52291063969713     -0.56823028874257      0.76218036867539
  C   0.79608967186974      1.47852480943951      0.16175040348376
  H   0.53385979186421     -0.32799887397988     -0.97380562717672
  H   0.43534716559888      1.91072603557325      1.10530404572714
  H   0.44277166208524      2.15157885266405     -0.63168000547458
  C   2.31983259157692      1.46422076059101      0.16603213406103
  H   2.67134253763319      0.79238536314646      0.95942217488152
  C   2.93123388474388      2.84493016944809      0.35927329510495
  H   2.67832689213254      1.03167121509998     -0.77667113737858
  H   2.61420562809894      3.28682163806932      1.30948559179605
  H   2.62430735133167      3.52813058338364     -0.43938327052312
  H   4.02410756689359      2.80543652437780      0.35993384145079
