-------------------------------------------------------------
----------------------- !PROPERTIES! ------------------------
-------------------------------------------------------------
# -----------------------------------------------------------
$ SCF_Energy
   description: The SCF energy
   geom. index: 1
   prop. index: 1
        SCF Energy:     -197.5659790356
# -----------------------------------------------------------
$ DFT_Energy
   description: The DFT energy
   geom. index: 1
   prop. index: 1
   Number of Alpha Electrons        21.0000784577 
   Number of Alpha Electrons        21.0000784577 
   Total nuber of  Electrons        42.0001569153 
   Exchange energy                 -22.5212397803 
   Correlation energy               -1.3480172080 
   Correlantion energy NL            0.0000000000 
   Exchange-Correlation energy     -23.8692569883 
   Embedding correction              0.0000000000 
# -----------------------------------------------------------
$ SCF_Energy
   description: The SCF energy
   geom. index: 2
   prop. index: 1
        SCF Energy:     -197.5667028101
# -----------------------------------------------------------
$ DFT_Energy
   description: The DFT energy
   geom. index: 2
   prop. index: 1
   Number of Alpha Electrons        21.0000826142 
   Number of Alpha Electrons        21.0000826142 
   Total nuber of  Electrons        42.0001652285 
   Exchange energy                 -22.5171026870 
   Correlation energy               -1.3472426987 
   Correlantion energy NL            0.0000000000 
   Exchange-Correlation energy     -23.8643453857 
   Embedding correction              0.0000000000 
# -----------------------------------------------------------
$ SCF_Energy
   description: The SCF energy
   geom. index: 3
   prop. index: 1
        SCF Energy:     -197.5668026196
# -----------------------------------------------------------
$ DFT_Energy
   description: The DFT energy
   geom. index: 3
   prop. index: 1
   Number of Alpha Electrons        21.0000827389 
   Number of Alpha Electrons        21.0000827389 
   Total nuber of  Electrons        42.0001654778 
   Exchange energy                 -22.5176969950 
   Correlation energy               -1.3473472586 
   Correlantion energy NL            0.0000000000 
   Exchange-Correlation energy     -23.8650442536 
   Embedding correction              0.0000000000 
# -----------------------------------------------------------
$ SCF_Energy
   description: The SCF energy
   geom. index: 4
   prop. index: 1
        SCF Energy:     -197.5668175872
# -----------------------------------------------------------
$ DFT_Energy
   description: The DFT energy
   geom. index: 4
   prop. index: 1
   Number of Alpha Electrons        21.0000823700 
   Number of Alpha Electrons        21.0000823700 
   Total nuber of  Electrons        42.0001647400 
   Exchange energy                 -22.5183987426 
   Correlation energy               -1.3474848719 
   Correlantion energy NL            0.0000000000 
   Exchange-Correlation energy     -23.8658836145 
   Embedding correction              0.0000000000 
# -----------------------------------------------------------
$ SCF_Energy
   description: The SCF energy
   geom. index: 5
   prop. index: 1
        SCF Energy:     -197.5668205550
# -----------------------------------------------------------
$ DFT_Energy
   description: The DFT energy
   geom. index: 5
   prop. index: 1
   Number of Alpha Electrons        21.0000820938 
   Number of Alpha Electrons        21.0000820938 
   Total nuber of  Electrons        42.0001641876 
   Exchange energy                 -22.5186634035 
   Correlation energy               -1.3475413293 
   Correlantion energy NL            0.0000000000 
   Exchange-Correlation energy     -23.8662047328 
   Embedding correction              0.0000000000 
# -----------------------------------------------------------
$ SCF_Energy
   description: The SCF energy
   geom. index: 6
   prop. index: 1
        SCF Energy:     -197.5668208068
# -----------------------------------------------------------
$ DFT_Energy
   description: The DFT energy
   geom. index: 6
   prop. index: 1
   Number of Alpha Electrons        21.0000820358 
   Number of Alpha Electrons        21.0000820358 
   Total nuber of  Electrons        42.0001640717 
   Exchange energy                 -22.5186401667 
   Correlation energy               -1.3475391317 
   Correlantion energy NL            0.0000000000 
   Exchange-Correlation energy     -23.8661792984 
   Embedding correction              0.0000000000 
# -----------------------------------------------------------
$ SCF_Electric_Properties
   description: The SCF Calculated Electric Properties
   geom. index: 6
   prop. index: 1
       Filename                          : pentane_PBE0_6-311G_d-p_.scfp 
       Do Dipole Moment Calculation      : true 
       Do Quadrupole Moment Calculation  : false 
       Do Polarizability Calculation     : false 
** Dipole moment part of electric properties **
        Magnitude of dipole moment (Debye) :        0.0712748291
        Electronic Contribution:
                  0    
      0       0.311324
      1      -0.480543
      2      -0.062570
        Nuclear Contribution:
                  0    
      0      -0.296196
      1       0.457149
      2       0.059380
        Total Dipole moment:
                  0    
      0       0.015128
      1      -0.023394
      2      -0.003190
# -----------------------------------------------------------
$ Hessian
   description: Details about the Hessian
   geom. index: 6
   prop. index: 1
Normal modes:
Number of Rows: 51 Number of Columns: 51
                  0          1          2          3          4          5    
      0       0.000000   0.000000   0.000000   0.000000   0.000000   0.000000
      1       0.000000   0.000000   0.000000   0.000000   0.000000   0.000000
      2       0.000000   0.000000   0.000000   0.000000   0.000000   0.000000
      3       0.000000   0.000000   0.000000   0.000000   0.000000   0.000000
      4       0.000000   0.000000   0.000000   0.000000   0.000000   0.000000
      5       0.000000   0.000000   0.000000   0.000000   0.000000   0.000000
      6       0.000000   0.000000   0.000000   0.000000   0.000000   0.000000
      7       0.000000   0.000000   0.000000   0.000000   0.000000   0.000000
      8       0.000000   0.000000   0.000000   0.000000   0.000000   0.000000
      9       0.000000   0.000000   0.000000   0.000000   0.000000   0.000000
     10       0.000000   0.000000   0.000000   0.000000   0.000000   0.000000
     11       0.000000   0.000000   0.000000   0.000000   0.000000   0.000000
     12       0.000000   0.000000   0.000000   0.000000   0.000000   0.000000
     13       0.000000   0.000000   0.000000   0.000000   0.000000   0.000000
     14       0.000000   0.000000   0.000000   0.000000   0.000000   0.000000
     15       0.000000   0.000000   0.000000   0.000000   0.000000   0.000000
     16       0.000000   0.000000   0.000000   0.000000   0.000000   0.000000
     17       0.000000   0.000000   0.000000   0.000000   0.000000   0.000000
     18       0.000000   0.000000   0.000000   0.000000   0.000000   0.000000
     19       0.000000   0.000000   0.000000   0.000000   0.000000   0.000000
     20       0.000000   0.000000   0.000000   0.000000   0.000000   0.000000
     21       0.000000   0.000000   0.000000   0.000000   0.000000   0.000000
     22       0.000000   0.000000   0.000000   0.000000   0.000000   0.000000
     23       0.000000   0.000000   0.000000   0.000000   0.000000   0.000000
     24       0.000000   0.000000   0.000000   0.000000   0.000000   0.000000
     25       0.000000   0.000000   0.000000   0.000000   0.000000   0.000000
     26       0.000000   0.000000   0.000000   0.000000   0.000000   0.000000
     27       0.000000   0.000000   0.000000   0.000000   0.000000   0.000000
     28       0.000000   0.000000   0.000000   0.000000   0.000000   0.000000
     29       0.000000   0.000000   0.000000   0.000000   0.000000   0.000000
     30       0.000000   0.000000   0.000000   0.000000   0.000000   0.000000
     31       0.000000   0.000000   0.000000   0.000000   0.000000   0.000000
     32       0.000000   0.000000   0.000000   0.000000   0.000000   0.000000
     33       0.000000   0.000000   0.000000   0.000000   0.000000   0.000000
     34       0.000000   0.000000   0.000000   0.000000   0.000000   0.000000
     35       0.000000   0.000000   0.000000   0.000000   0.000000   0.000000
     36       0.000000   0.000000   0.000000   0.000000   0.000000   0.000000
     37       0.000000   0.000000   0.000000   0.000000   0.000000   0.000000
     38       0.000000   0.000000   0.000000   0.000000   0.000000   0.000000
     39       0.000000   0.000000   0.000000   0.000000   0.000000   0.000000
     40       0.000000   0.000000   0.000000   0.000000   0.000000   0.000000
     41       0.000000   0.000000   0.000000   0.000000   0.000000   0.000000
     42       0.000000   0.000000   0.000000   0.000000   0.000000   0.000000
     43       0.000000   0.000000   0.000000   0.000000   0.000000   0.000000
     44       0.000000   0.000000   0.000000   0.000000   0.000000   0.000000
     45       0.000000   0.000000   0.000000   0.000000   0.000000   0.000000
     46       0.000000   0.000000   0.000000   0.000000   0.000000   0.000000
     47       0.000000   0.000000   0.000000   0.000000   0.000000   0.000000
     48       0.000000   0.000000   0.000000   0.000000   0.000000   0.000000
     49       0.000000   0.000000   0.000000   0.000000   0.000000   0.000000
     50       0.000000   0.000000   0.000000   0.000000   0.000000   0.000000
                  6          7          8          9         10         11    
      0      -0.000523  -0.001017  -0.001125  -0.000012   0.000059  -0.075831
      1      -0.008816  -0.021846  -0.190470  -0.000603   0.002005  -0.086099
      2       0.067673   0.152459  -0.026548   0.002637  -0.015147  -0.012338
      3       0.000784   0.000237   0.000989   0.000183  -0.000502  -0.057914
      4       0.018719   0.006096   0.109968   0.004777  -0.011116   0.175253
      5      -0.137498  -0.041565   0.014592  -0.033471   0.080822   0.023818
      6       0.118815   0.122934  -0.121025   0.034180  -0.076958  -0.228858
      7      -0.245514   0.081080  -0.284311   0.335180  -0.357072  -0.209591
      8       0.215966   0.160923  -0.037308  -0.122920   0.102388  -0.024613
      9       0.000008  -0.001427   0.230195  -0.002113   0.002932   0.217865
     10       0.017382  -0.046641  -0.286630  -0.052873   0.060707  -0.209802
     11      -0.118289   0.328168  -0.041116   0.376769  -0.436867  -0.027389
     12      -0.121450  -0.125725  -0.121654  -0.032361   0.074818  -0.229182
     13       0.179264  -0.123602  -0.278967  -0.289696   0.315261  -0.208148
     14       0.273387   0.130834  -0.039448  -0.210191   0.196812  -0.036127
     15       0.111530   0.102250   0.091843   0.020071  -0.046918  -0.040257
     16      -0.101459   0.107818   0.158226  -0.040360   0.036817   0.166233
     17      -0.287690  -0.000361   0.016080  -0.080244   0.141640   0.010708
     18       0.000286   0.000871  -0.106232  -0.000415   0.000055   0.127520
     19      -0.000156   0.035472   0.164146  -0.008013   0.000384   0.081227
     20      -0.002179  -0.252570   0.023113   0.059366  -0.002452   0.011901
     21      -0.108797  -0.101340   0.091267  -0.019066   0.045329  -0.040614
     22       0.175117  -0.102385   0.159525   0.061026  -0.073845   0.162884
     23      -0.250853  -0.030700   0.025879  -0.066457   0.126945   0.034163
     24      -0.075160  -0.098233  -0.100760   0.070221   0.051201   0.259397
     25      -0.046210   0.211362   0.153845  -0.126132   0.039735   0.164371
     26      -0.009920  -0.370179   0.028640   0.140351  -0.000922   0.024232
     27       0.075564   0.101113  -0.100844  -0.071845  -0.050835   0.259280
     28       0.046106  -0.101930   0.157236   0.083648  -0.037690   0.165000
     29       0.003538  -0.412773   0.016369   0.168786  -0.012071   0.024275
     30      -0.000285   0.000003  -0.101290   0.000033   0.000389   0.135680
     31      -0.018986   0.006471   0.045130   0.005631   0.010674  -0.125961
     32       0.136448  -0.045439   0.006532  -0.040381  -0.077591  -0.016750
     33      -0.083510  -0.137157  -0.183747   0.041091   0.028661   0.132789
     34       0.118796  -0.048606  -0.014478  -0.032798  -0.043458  -0.107751
     35       0.289571  -0.030799  -0.006426  -0.090934  -0.135736  -0.002405
     36      -0.000153  -0.000002   0.175223   0.000215  -0.000013  -0.111375
     37       0.009139  -0.021500  -0.078656  -0.000635  -0.002017  -0.032957
     38      -0.064777   0.154377  -0.010816   0.004116   0.014723  -0.004963
     39       0.082239   0.136452  -0.184120  -0.040917  -0.027527   0.132664
     40      -0.192909   0.054997  -0.017287   0.056158   0.078544  -0.104274
     41       0.247289  -0.015391   0.002833  -0.078975  -0.119146  -0.025871
     42      -0.148451  -0.141928   0.310381  -0.324793  -0.312199  -0.288041
     43       0.229685  -0.095161  -0.008040   0.130094   0.082374  -0.118918
     44      -0.216639   0.141381   0.001152  -0.164396  -0.128072  -0.023469
     45       0.149098   0.142965   0.308040   0.327540   0.313837  -0.288656
     46      -0.162820   0.053191  -0.009032  -0.081231  -0.045113  -0.119946
     47      -0.269029   0.163442  -0.001978  -0.189786  -0.142047  -0.011769
     48      -0.001189  -0.000993   0.166914  -0.002065  -0.002185  -0.101826
     49      -0.016248  -0.046040  -0.327270  -0.056798  -0.055425   0.283356
     50       0.126618   0.325554  -0.046581   0.410149   0.402846   0.038376
                 12         13         14         15         16         17    
      0      -0.230065  -0.000106  -0.000122  -0.000429   0.054063   0.116979
      1      -0.092513  -0.000705  -0.002545  -0.006447   0.070926   0.071432
      2      -0.014126   0.005051   0.018422   0.044911   0.010304   0.010676
      3      -0.169105  -0.000229  -0.000411  -0.000134  -0.018093  -0.069376
      4      -0.083239  -0.005048  -0.009077  -0.004176   0.092827   0.057052
      5      -0.012261   0.036536   0.065872   0.028428   0.012785   0.007486
      6      -0.277956  -0.118615  -0.245931  -0.312108  -0.172748  -0.062342
      7      -0.134868   0.040957   0.051517   0.044814  -0.156994  -0.126943
      8      -0.016751  -0.062602  -0.108420  -0.109834   0.008422   0.015500
      9      -0.141461   0.000389   0.000917  -0.000309   0.526181   0.529336
     10      -0.131121   0.005301   0.015315   0.022815  -0.127342  -0.100233
     11      -0.018748  -0.038688  -0.110340  -0.161353  -0.014798  -0.010737
     12      -0.277806   0.119142   0.247208   0.314467  -0.170657  -0.061511
     13      -0.134117  -0.022735  -0.020588  -0.012983  -0.148302  -0.117569
     14      -0.023998  -0.069887  -0.115176  -0.113523  -0.053665  -0.050389
     15      -0.241582   0.119529   0.216837   0.258305  -0.147502  -0.176199
     16      -0.137332  -0.247203  -0.234306   0.051412  -0.000963  -0.004049
     17      -0.025037  -0.224854  -0.225762  -0.042105  -0.006812   0.002054
     18       0.066387  -0.000231   0.000022   0.000241   0.088314  -0.126583
     19      -0.101929  -0.006799  -0.000013   0.012451  -0.135846  -0.080510
     20      -0.013556   0.048918  -0.000002  -0.087739  -0.018685  -0.011854
     21      -0.241183  -0.117327  -0.214577  -0.256673  -0.149340  -0.176764
     22      -0.139209   0.299120   0.287112  -0.037488  -0.003030  -0.003442
     23      -0.015115  -0.150794  -0.156323  -0.057654   0.004101  -0.005255
     24       0.058841  -0.204817   0.140822   0.154933   0.081071  -0.223560
     25      -0.087926   0.351524   0.089333  -0.258978  -0.122838  -0.142451
     26      -0.021625  -0.197089   0.012908   0.100245  -0.026681  -0.020535
     27       0.058527   0.206760  -0.140547  -0.156160   0.080094  -0.223256
     28      -0.090276  -0.284856  -0.089162   0.222686  -0.124338  -0.141334
     29      -0.001622  -0.283513  -0.013030   0.165637  -0.006130  -0.020385
     30       0.148089  -0.000101   0.000297   0.000045  -0.077793   0.023027
     31       0.116365  -0.005094   0.009049  -0.003950   0.055400  -0.086007
     32       0.016891   0.036601  -0.065810   0.028533   0.007427  -0.011788
     33       0.228730   0.201870  -0.149247  -0.148415   0.063545  -0.076948
     34       0.159297  -0.195272   0.276428  -0.206335   0.133034  -0.156008
     35       0.018287  -0.217689   0.231960  -0.080054   0.012845  -0.025614
     36       0.180528   0.000029   0.000064  -0.000039  -0.088105   0.114115
     37       0.167900  -0.000646   0.002556  -0.006228  -0.019127   0.075099
     38       0.023922   0.005063  -0.018395   0.044943  -0.002891   0.010890
     39       0.228747  -0.200237   0.147827   0.148642   0.064589  -0.077047
     40       0.157486   0.247138  -0.329160   0.219901   0.133045  -0.156896
     41       0.028040  -0.158397   0.149729  -0.020152   0.024018  -0.018309
     42       0.238161   0.020943  -0.070513   0.104693   0.212432  -0.136736
     43       0.192238   0.129569  -0.251768   0.309034   0.087801  -0.000061
     44       0.031360  -0.049602   0.078621  -0.070784   0.044523  -0.034140
     45       0.237740  -0.020326   0.069657  -0.104743   0.212131  -0.137286
     46       0.193248  -0.111231   0.221183  -0.278929   0.093491  -0.008444
     47       0.024166  -0.082998   0.144597  -0.152921  -0.018291   0.031631
     48       0.178891   0.000281  -0.000660   0.001150  -0.103941   0.129274
     49       0.074110   0.005651  -0.015543   0.023534  -0.528308   0.515768
     50       0.010672  -0.038760   0.110209  -0.161420  -0.074052   0.071728
                 18         19         20         21         22         23    
      0      -0.000388   0.106070  -0.161083  -0.061840   0.020474   0.000553
      1      -0.007753  -0.091170   0.030198  -0.006130  -0.107049   0.012531
      2       0.054743  -0.012131   0.003010  -0.001350  -0.014552  -0.091465
      3       0.000277  -0.145241   0.199956   0.074073  -0.076073  -0.000897
      4       0.006761   0.062828   0.057272   0.115203   0.157126  -0.018730
      5      -0.047471   0.007967   0.009198   0.016435   0.020953   0.137625
      6      -0.257524   0.347438  -0.245621  -0.038712   0.257368   0.275076
      7       0.040705   0.152457  -0.017885   0.051274   0.181635  -0.077984
      8      -0.076962  -0.012861  -0.008729  -0.011441  -0.033184   0.068851
      9       0.000256  -0.261789  -0.118101  -0.142708  -0.333098  -0.001859
     10       0.019283   0.070973   0.008469   0.030457   0.052410  -0.024816
     11      -0.137353   0.008472   0.000794   0.003479   0.004704   0.178752
     12       0.259143   0.345473  -0.246691  -0.039643   0.257506  -0.275211
     13      -0.018198   0.142563  -0.019085   0.046311   0.164870   0.057358
     14      -0.081557   0.058807   0.000616   0.024634   0.084362   0.084153
     15       0.175519   0.000698   0.336107   0.290732   0.040420   0.147071
     16       0.248360   0.150439   0.133756   0.263093   0.206975  -0.228122
     17       0.081636   0.015267   0.017629   0.042453   0.011373  -0.112247
     18      -0.000019  -0.052649   0.061163  -0.161174   0.110391   0.000781
     19      -0.000143  -0.033058  -0.093243  -0.102311  -0.171644   0.018288
     20      -0.000033  -0.004884  -0.012642  -0.014739  -0.022784  -0.135278
     21      -0.174878   0.001469   0.335963   0.290698   0.040280  -0.145342
     22      -0.259738   0.150675   0.133056   0.264385   0.200778   0.251146
     23       0.009154   0.026025   0.023364   0.034079   0.045858  -0.047673
     24      -0.303668   0.183427   0.080002  -0.290983   0.096794   0.150357
     25      -0.192599   0.116438  -0.119839  -0.184610  -0.149001  -0.244453
     26      -0.027943   0.016913  -0.000536  -0.026689  -0.035534   0.052395
     27       0.303763   0.182224   0.078407  -0.290977   0.097229  -0.150430
     28       0.192335   0.115985  -0.116483  -0.185000  -0.155156   0.220342
     29       0.027977   0.016941  -0.031323  -0.027022  -0.006430   0.115550
     30      -0.000276  -0.002524  -0.137828   0.136076  -0.111610  -0.000787
     31      -0.006802  -0.155979  -0.157244   0.016828   0.134376  -0.018625
     32       0.047434  -0.021563  -0.022365   0.002714   0.017633   0.137696
     33       0.306666   0.139136  -0.266321   0.361680  -0.202251   0.158627
     34       0.057339  -0.061810  -0.248064   0.149522   0.053267  -0.220478
     35      -0.036905  -0.002568  -0.038129   0.018043  -0.010908  -0.111290
     36       0.000168  -0.039338   0.039984  -0.031753   0.089492   0.000596
     37       0.007780   0.132690   0.159063  -0.051667  -0.063634   0.012383
     38      -0.054736   0.018224   0.022236  -0.007184  -0.008073  -0.091523
     39      -0.306025   0.140563  -0.265094   0.362820  -0.201812  -0.158568
     40      -0.045086  -0.059791  -0.248606   0.148245   0.046724   0.243288
     41      -0.053509  -0.012974  -0.032355   0.026209   0.023628  -0.048705
     42      -0.080901   0.279435   0.121935   0.030349  -0.266013  -0.053936
     43      -0.255084   0.244292   0.217116  -0.055521  -0.150602  -0.286677
     44       0.045270   0.071547   0.025732   0.011027  -0.082364   0.037976
     45       0.081419   0.279459   0.121441   0.030451  -0.267171   0.052193
     46       0.234310   0.252571   0.214818  -0.051246  -0.167919   0.264909
     47       0.113516  -0.000529   0.034763  -0.025629   0.035213   0.114851
     48      -0.000925  -0.044615   0.041854  -0.032065   0.091422  -0.000913
     49      -0.019754  -0.265666   0.109855  -0.142348   0.321645  -0.024186
     50       0.137424  -0.037440   0.014868  -0.020007   0.044580   0.179113
                 24         25         26         27         28         29    
      0       0.000525   0.006543   0.000343   0.000172  -0.018154   0.089157
      1       0.011604  -0.055481   0.006882   0.002430   0.042139  -0.006314
      2      -0.083420  -0.007606  -0.049733  -0.017594   0.005777  -0.000300
      3      -0.000584   0.031859  -0.000086   0.000179  -0.106584   0.029626
      4      -0.011927   0.076044   0.000552   0.005330  -0.069182   0.016130
      5       0.085146   0.010814  -0.004611  -0.038585  -0.010253   0.002411
      6       0.212972   0.047963   0.115921   0.056952   0.096531  -0.336435
      7      -0.079152   0.084762  -0.043029   0.000584  -0.069974  -0.035885
      8       0.049813  -0.041835   0.020353   0.002695   0.089849  -0.151873
      9      -0.001024  -0.187882  -0.000472  -0.000054   0.227261  -0.339435
     10      -0.022429   0.027508  -0.010750   0.001003  -0.057198   0.159918
     11       0.160782   0.002450   0.076908  -0.006804  -0.006427   0.019931
     12      -0.213604   0.047427  -0.115941  -0.057030   0.098213  -0.338491
     13       0.062842   0.069929   0.036081  -0.001210  -0.042955  -0.075395
     14       0.066569   0.063904   0.029734   0.001748  -0.104283   0.131950
     15       0.341587  -0.272971   0.383729   0.239325   0.369412  -0.093008
     16       0.030224  -0.134498   0.253138   0.231194   0.227659  -0.040838
     17      -0.032790  -0.029188   0.043989   0.043748   0.034234   0.004221
     18       0.000107   0.078777  -0.000321  -0.000114   0.014332  -0.060835
     19       0.000122   0.049894  -0.012363  -0.000009  -0.022389  -0.038366
     20      -0.000007   0.007150   0.090235   0.000332  -0.003030  -0.005567
     21      -0.340816  -0.272276  -0.384096  -0.239923   0.370382  -0.093050
     22      -0.019784  -0.136078  -0.255062  -0.234120   0.228325  -0.038105
     23      -0.043900  -0.011687  -0.031142  -0.023652   0.033480  -0.016332
     24      -0.284431  -0.413236  -0.088888   0.435499  -0.007344   0.170991
     25      -0.180164  -0.262002   0.137739   0.276793   0.016242   0.108409
     26      -0.026176  -0.038060  -0.009600   0.040058  -0.022728   0.015863
     27       0.284173  -0.413172   0.088449  -0.435957  -0.007809   0.171345
     28       0.180218  -0.261482  -0.129909  -0.276740   0.009335   0.108578
     29       0.026264  -0.037914  -0.045751  -0.040334   0.026237   0.015656
     30       0.000408   0.083093   0.000070   0.000013   0.108192   0.026042
     31       0.011770  -0.003232   0.000653  -0.005308   0.066926   0.018909
     32      -0.085135  -0.000069  -0.004866   0.038504   0.009719   0.002734
     33       0.165642  -0.238601  -0.396430   0.311122  -0.364894  -0.071703
     34       0.290716  -0.189786  -0.240552   0.117678  -0.237312  -0.063777
     35       0.079778  -0.018296  -0.028138   0.007326  -0.033633  -0.019528
     36      -0.000424  -0.048099   0.000201  -0.000161  -0.030948   0.032968
     37      -0.011456   0.029160   0.006914  -0.002389   0.034148   0.085006
     38       0.083429   0.003793  -0.049863   0.017296   0.004545   0.011888
     39      -0.166335  -0.238438   0.395864  -0.311311  -0.364823  -0.071695
     40      -0.301766  -0.187088   0.238568  -0.115352  -0.236851  -0.066409
     41      -0.003108  -0.035680   0.040967  -0.027286  -0.034738   0.000989
     42       0.024353   0.090311  -0.012400   0.024816   0.009855  -0.199674
     43       0.229349   0.003197  -0.124573   0.050487  -0.125189  -0.306863
     44      -0.027468   0.054841   0.008340   0.005037   0.081973   0.103867
     45      -0.023826   0.091098   0.012324  -0.024408   0.011060  -0.197756
     46      -0.213470   0.017665   0.117727  -0.049838  -0.098340  -0.266767
     47      -0.088899  -0.050987   0.041775  -0.009170  -0.112636  -0.185230
     48       0.000935  -0.053464  -0.000521  -0.000096  -0.042699   0.005277
     49       0.022061  -0.180632  -0.010816  -0.001114  -0.229087  -0.380894
     50      -0.161011  -0.025347   0.077037   0.007187  -0.031841  -0.052567
                 30         31         32         33         34         35    
      0      -0.062384   0.107842  -0.002183  -0.003679   0.003007   0.000333
      1      -0.021700   0.008450   0.000236   0.012793  -0.024102   0.003815
      2      -0.003422   0.001873   0.000023   0.001642  -0.002318  -0.032867
      3       0.108496  -0.046496   0.011118   0.033126  -0.027393  -0.000769
      4       0.055924  -0.018010  -0.028523  -0.033990   0.004580   0.002077
      5       0.008388  -0.002747  -0.003865  -0.004527   0.000900  -0.013913
      6       0.159298  -0.361007   0.020609   0.068385  -0.095932  -0.236881
      7       0.113512  -0.091629  -0.010828  -0.177224   0.305390  -0.251473
      8       0.027868  -0.139321   0.013630   0.106281  -0.173856  -0.009592
      9       0.134396  -0.341346   0.010435  -0.113407   0.204204   0.002901
     10      -0.096143   0.181862  -0.007147   0.048518  -0.091652  -0.070586
     11      -0.012404   0.023002  -0.001124   0.007610  -0.026516   0.486848
     12       0.159539  -0.362754   0.020568   0.071605  -0.112986   0.230135
     13       0.116590  -0.125541  -0.006913  -0.140031   0.231299   0.258681
     14       0.006227   0.104357  -0.015818  -0.149219   0.245021   0.077469
     15      -0.253847   0.097934  -0.118242  -0.208404   0.139864  -0.033310
     16      -0.164719   0.086876   0.170770   0.233248  -0.120157  -0.002338
     17      -0.016912   0.019590   0.209187   0.308049  -0.166548  -0.005509
     18      -0.133845   0.006944  -0.033865   0.003436  -0.021653  -0.000667
     19      -0.084971  -0.009556   0.052762   0.001795   0.033486   0.000933
     20      -0.012341  -0.001272   0.007192   0.000258   0.004506   0.001776
     21      -0.253993   0.098141  -0.116148  -0.204775   0.135667   0.041510
     22      -0.162979   0.088976   0.221243   0.308436  -0.161037  -0.005898
     23      -0.031636   0.005961  -0.156434  -0.235708   0.129415   0.003492
     24       0.348314   0.012627   0.236751  -0.004503   0.102430   0.002290
     25       0.219485  -0.023437  -0.418576   0.000024  -0.182418  -0.004687
     26       0.032410   0.003102   0.304633  -0.001874   0.142172   0.000325
     27       0.349140   0.012985   0.239747  -0.004635   0.103883   0.004799
     28       0.220056  -0.021610  -0.320367  -0.000507  -0.136952  -0.005423
     29       0.031447  -0.009240  -0.405052   0.001747  -0.185336  -0.011464
     30       0.097500   0.034820   0.021162  -0.017412   0.007384   0.000108
     31       0.074874   0.033263  -0.021672   0.044259   0.026402   0.002750
     32       0.010699   0.004699  -0.002879   0.006059   0.004072  -0.014149
     33      -0.260044  -0.118868  -0.129493   0.163812   0.070640   0.017162
     34      -0.159387  -0.050758   0.160046  -0.263420  -0.162887   0.030133
     35      -0.029889  -0.000518   0.205281  -0.314410  -0.172217  -0.000837
     36      -0.047313  -0.051212   0.000868   0.010177   0.020887   0.000609
     37      -0.049380  -0.090313   0.001958  -0.008697  -0.012932   0.004379
     38      -0.007063  -0.012736   0.000378  -0.001148  -0.000763  -0.033321
     39      -0.259896  -0.118538  -0.127934   0.161600   0.070349  -0.012224
     40      -0.161198  -0.048892   0.209830  -0.338640  -0.201447  -0.040674
     41      -0.016351  -0.014117  -0.155323   0.232679   0.122564  -0.001475
     42       0.178677   0.243647  -0.002959  -0.115499  -0.211330   0.333806
     43       0.104536   0.287283  -0.022638   0.147333   0.233980   0.104954
     44       0.001127  -0.079121   0.010092  -0.110910  -0.185757   0.045928
     45       0.178279   0.241953  -0.001015  -0.116974  -0.195686  -0.342777
     46       0.100449   0.254521  -0.018515   0.112052   0.181189  -0.105707
     47       0.029210   0.156619  -0.015968   0.145379   0.238890   0.021920
     48      -0.032474  -0.023180   0.002241  -0.002815   0.000616  -0.002816
     49       0.170703   0.369922  -0.013627  -0.122357  -0.222203  -0.073260
     50       0.023453   0.051030  -0.003222  -0.016834  -0.044062   0.494791
                 36         37         38         39         40         41    
      0       0.000259   0.000798  -0.000734   0.003275  -0.001541  -0.004924
      1       0.004845  -0.031910  -0.022894   0.000290   0.004990   0.007109
      2      -0.033296  -0.004695  -0.003212   0.000068   0.000619   0.000885
      3       0.000011   0.002223   0.020595   0.007064   0.026193   0.025104
      4       0.002980  -0.042901  -0.044221  -0.012851  -0.040260  -0.038115
      5      -0.018008  -0.006066  -0.005983  -0.001430  -0.005158  -0.004977
      6      -0.236921  -0.114417  -0.084395  -0.010726   0.012636   0.026928
      7      -0.266754   0.335002   0.235011   0.014876  -0.010483  -0.027942
      8      -0.003503  -0.197006  -0.139563   0.033572  -0.030365  -0.071774
      9      -0.004895   0.224921   0.153713  -0.012136  -0.010688  -0.001498
     10      -0.068002  -0.112326  -0.078890  -0.040413  -0.031713  -0.007885
     11       0.494901  -0.010308  -0.009584  -0.005670  -0.004518  -0.001135
     12       0.237827  -0.114022  -0.086305  -0.010243   0.012617   0.026387
     13       0.253609   0.272716   0.188599   0.023508  -0.019019  -0.047139
     14       0.068856   0.280486   0.197379  -0.028378   0.027280   0.062549
     15      -0.030303  -0.052219  -0.109109  -0.047126  -0.154227  -0.143514
     16       0.011080   0.143519   0.186969   0.093562   0.295271   0.281022
     17       0.000021   0.167080   0.234565  -0.115944  -0.370807  -0.349675
     18      -0.000146   0.016030   0.020289  -0.034813   0.000954   0.011047
     19      -0.000198   0.010440  -0.031301   0.054073   0.000517  -0.017118
     20      -0.000009   0.001508  -0.004267   0.006109   0.000304  -0.002174
     21       0.032225  -0.049977  -0.106361  -0.047064  -0.158055  -0.147626
     22      -0.015572   0.183351   0.243940   0.056748   0.182366   0.174966
     23       0.000771  -0.122493  -0.176322   0.132303   0.432009   0.409288
     24       0.038540  -0.014189  -0.132035   0.207173  -0.000539  -0.064851
     25       0.025338  -0.010715   0.232878  -0.243380  -0.001161   0.076196
     26       0.003088  -0.000408  -0.170552  -0.575518  -0.001192   0.180039
     27      -0.038900  -0.015069  -0.133596   0.208759  -0.001672  -0.064157
     28      -0.023942  -0.010924   0.178114  -0.402615   0.000805   0.123721
     29      -0.002983  -0.002676   0.226429   0.502779  -0.001720  -0.154644
     30       0.000412  -0.038418   0.031676   0.008726  -0.025926   0.024374
     31      -0.002739   0.020289  -0.036992  -0.011706   0.040565  -0.038579
     32       0.017819   0.002885  -0.005063  -0.001169   0.004778  -0.004682
     33      -0.002682   0.129775  -0.152463  -0.049131   0.153594  -0.147530
     34      -0.031626  -0.096518   0.158868   0.092322  -0.299489   0.280966
     35      -0.003066  -0.161941   0.230143  -0.115913   0.373390  -0.351588
     36       0.000188  -0.029016   0.021183  -0.001617   0.003927  -0.004470
     37      -0.004750   0.013990  -0.008825  -0.002799  -0.003478   0.007294
     38       0.032710   0.002251  -0.001273  -0.000385  -0.000338   0.000825
     39      -0.000729   0.128714  -0.151009  -0.048057   0.153327  -0.147923
     40       0.035088  -0.135870   0.214857   0.054961  -0.183170   0.172339
     41       0.002094   0.130898  -0.179810   0.130698  -0.430080   0.406415
     42      -0.334998   0.224479  -0.154502  -0.013266  -0.008018   0.022769
     43      -0.094969  -0.264014   0.187869   0.013066   0.013093  -0.029310
     44      -0.051232   0.207205  -0.145209   0.033006   0.030293  -0.070136
     45       0.329372   0.236917  -0.160104  -0.012982  -0.008261   0.022741
     46       0.110108  -0.195283   0.140570   0.021535   0.022001  -0.048692
     47      -0.012700  -0.268871   0.189069  -0.028432  -0.027096   0.061560
     48       0.002852  -0.008385   0.007913   0.041700  -0.033693   0.009024
     49       0.064007   0.249635  -0.170140  -0.005977   0.003688  -0.002029
     50      -0.486896   0.027081  -0.020645  -0.000562   0.000363  -0.000289
                 42         43         44         45         46         47    
      0      -0.039155  -0.030479   0.000798   0.000074   0.000151   0.000615
      1       0.006085   0.004403   0.000592   0.002352   0.003184   0.011560
      2       0.000608   0.000265  -0.005072  -0.016427  -0.021987  -0.067308
      3      -0.000363  -0.001580  -0.000222  -0.000519  -0.000389   0.000046
      4       0.002330   0.003628  -0.005096  -0.008525  -0.006656   0.002835
      5       0.000080   0.001569   0.036636   0.062955   0.048998  -0.019519
      6       0.159162   0.123210  -0.018930  -0.044785  -0.056806  -0.181357
      7      -0.170259  -0.131521   0.018706   0.049066   0.064197   0.191475
      8      -0.413416  -0.319345   0.043762   0.111024   0.145075   0.438146
      9       0.144345   0.114480  -0.002903  -0.000017  -0.000386  -0.007709
     10       0.371796   0.293188  -0.007247   0.000684  -0.000007  -0.016619
     11       0.052700   0.041549  -0.001589  -0.005511  -0.007418  -0.018076
     12       0.153882   0.120113   0.012375   0.043939   0.055459   0.181823
     13      -0.276558  -0.215191  -0.019279  -0.078457  -0.102052  -0.313066
     14       0.353028   0.274627   0.023603   0.095197   0.123707   0.384561
     15       0.006711   0.009710  -0.094391  -0.155094  -0.116676   0.048098
     16      -0.015414  -0.022680   0.177746   0.294090   0.230499  -0.086884
     17       0.019787   0.028563  -0.206758  -0.344180  -0.266446   0.104575
     18      -0.000296  -0.004913   0.000972  -0.000005  -0.000414  -0.000008
     19       0.001114   0.007857   0.009196  -0.000003  -0.007132   0.000149
     20       0.000462  -0.001275  -0.073658   0.000038   0.053578  -0.001139
     21       0.005765   0.015726   0.097031   0.161292   0.121267  -0.048654
     22      -0.008026  -0.020731  -0.114818  -0.191553  -0.150835   0.054359
     23      -0.020038  -0.047727  -0.245343  -0.413122  -0.320089   0.121470
     24       0.002419   0.022929  -0.193224  -0.002114   0.133012   0.000669
     25      -0.006450  -0.026525   0.232544  -0.001495  -0.159649   0.005703
     26      -0.012064  -0.062994   0.498369  -0.000414  -0.346196   0.007689
     27       0.000769   0.034043   0.181683   0.002105  -0.128130  -0.000852
     28      -0.006599  -0.064698  -0.344942   0.001547   0.243750  -0.007689
     29       0.006506   0.079159   0.399707   0.000007  -0.285560   0.005854
     30       0.001180  -0.003178  -0.000327   0.000538  -0.000348   0.000006
     31      -0.000423   0.003048  -0.004737   0.008223  -0.006538  -0.002244
     32      -0.000220   0.001569   0.036692  -0.062947   0.049165   0.015561
     33      -0.003245   0.013722  -0.091937   0.153182  -0.123328  -0.034627
     34       0.005161  -0.022773   0.176371  -0.292830   0.226381   0.071100
     35      -0.008077   0.031616  -0.203561   0.341212  -0.266625  -0.082600
     36      -0.008444   0.010975  -0.000339  -0.000039  -0.000029   0.001854
     37      -0.029997   0.037279  -0.000668  -0.002187   0.002982  -0.008519
     38      -0.003923   0.004752  -0.005197   0.016310  -0.021872   0.056842
     39      -0.004183   0.019913   0.095934  -0.159588   0.127513   0.034777
     40       0.003822  -0.020614  -0.117590   0.193832  -0.148073  -0.045330
     41       0.011339  -0.051803  -0.249145   0.415957  -0.321939  -0.096828
     42      -0.111773   0.138540  -0.016915   0.040317  -0.053311   0.130375
     43       0.143041  -0.177817   0.024196  -0.052169   0.066433  -0.175346
     44       0.327342  -0.406188   0.050601  -0.111851   0.145381  -0.370598
     45      -0.109494   0.136281   0.006640  -0.038721   0.051430  -0.129760
     46       0.228948  -0.285738  -0.016430   0.079680  -0.102812   0.278095
     47      -0.280489   0.349446   0.017212  -0.092940   0.121855  -0.321746
     48       0.316604  -0.401019   0.014136  -0.001089   0.002213  -0.022735
     49      -0.020543   0.025258  -0.000763  -0.000721   0.000897  -0.000842
     50      -0.000967   0.001110  -0.000567   0.005452  -0.007233   0.012999
                 48         49         50    
      0       0.000514  -0.006328  -0.002316
      1       0.009557  -0.084984  -0.030414
      2      -0.054521  -0.014537  -0.005368
      3       0.000036   0.003360   0.001480
      4       0.002904  -0.005494  -0.002557
      5      -0.019839  -0.001417  -0.000730
      6      -0.147595  -0.126551  -0.045878
      7       0.154964   0.111621   0.040268
      8       0.354846   0.311874   0.112647
      9      -0.006952   0.306357   0.110274
     10      -0.015167   0.736253   0.264529
     11      -0.014639   0.103895   0.037299
     12       0.148505  -0.108866  -0.038631
     13      -0.254246   0.168632   0.059459
     14       0.312641  -0.241936  -0.085667
     15       0.048054  -0.017003  -0.007312
     16      -0.091913   0.030766   0.014796
     17       0.107924  -0.037441  -0.017461
     18       0.000052   0.000431   0.000228
     19       0.001703  -0.000077  -0.000576
     20      -0.012233  -0.000107  -0.000419
     21      -0.048525  -0.020849  -0.009401
     22       0.058026   0.023237   0.011822
     23       0.125528   0.052550   0.025626
     24      -0.031219   0.000078  -0.005605
     25       0.037078   0.003719   0.004849
     26       0.079184   0.005571   0.012169
     27       0.030810   0.000403  -0.003707
     28      -0.057613   0.004078   0.004889
     29       0.066802  -0.003333  -0.006782
     30      -0.000025  -0.000994   0.003983
     31       0.003313   0.001512  -0.005542
     32      -0.022859   0.000451  -0.001714
     33       0.055066   0.003535  -0.016645
     34      -0.105567  -0.008544   0.032685
     35       0.123806   0.009623  -0.038806
     36      -0.002491  -0.029231   0.080864
     37       0.009993   0.010713  -0.029453
     38      -0.065778   0.002491  -0.007123
     39      -0.055076   0.004633  -0.021468
     40       0.066859  -0.007021   0.026536
     41       0.144448  -0.014520   0.058052
     42      -0.150181   0.032774  -0.090609
     43       0.203318  -0.049551   0.137884
     44       0.428267  -0.115284   0.320174
     45       0.150179   0.026346  -0.071710
     46      -0.323868  -0.067853   0.186281
     47       0.373913   0.085084  -0.233524
     48       0.029729   0.289512  -0.803055
     49       0.000806  -0.011982   0.032728
     50      -0.014749   0.000237  -0.000769
# -----------------------------------------------------------
$ THERMOCHEMISTRY_Energies
   description: The Thermochemistry energies
   geom. index: 6
   prop. index: 1
        Temperature (Kelvin)           :        298.1500000000
        Pressure (atm)                 :          1.0000000000
        Total Mass (AMU)               :         72.1510000000
        Spin Degeneracy                :          1.0000000000
        Electronic Energy (Hartree)    :       -197.5668208068
        Translational Energy (Hartree) :          0.0014162714
        Rotational Energy (Hartree)    :          0.0014162714
        Vibrational Energy (Hartree)   :          0.0042654462
        Number of frequencies          :     51      
        Scaling Factor for frequencies :          1.0000000000
        Vibrational frequencies        :     
                  0    
      0       0.000000
      1       0.000000
      2       0.000000
      3       0.000000
      4       0.000000
      5       0.000000
      6     107.694034
      7     111.341804
      8     175.612783
      9     242.295530
     10     249.542995
     11     394.322994
     12     400.797984
     13     731.287207
     14     762.761057
     15     863.483139
     16     881.982396
     17     941.787124
     18     990.903353
     19     1049.314125
     20     1070.959771
     21     1097.438042
     22     1169.690834
     23     1202.663726
     24     1263.797282
     25     1283.913478
     26     1324.456620
     27     1330.255207
     28     1363.923016
     29     1405.500141
     30     1407.703550
     31     1410.682953
     32     1480.548986
     33     1482.712953
     34     1492.455673
     35     1494.405079
     36     1495.297000
     37     1501.309348
     38     1507.498635
     39     3015.872199
     40     3028.032107
     41     3034.885219
     42     3040.656743
     43     3041.660346
     44     3042.150296
     45     3061.949777
     46     3078.134119
     47     3112.995849
     48     3114.344818
     49     3120.028327
     50     3120.507171
        Zero Point Energy (Hartree)    :          0.1606098059
        Inner Energy (Hartree)         :       -197.3991130118
        Enthalpy (Hartree)             :       -197.3981688028
        Electronic entropy             :          0.0000000000
        Rotational entropy             :          0.0123812764
        Vibrational entropy            :          0.0074040974
        Translational entropy          :          0.0123812764
        Entropy                        :          0.0381943321
        Gibbs Energy (Hartree)         :       -197.4363631349
        Is Linear                      :                 false
# -------------------------------------------------------------
----------------------- !GEOMETRIES! ------------------------
# -------------------------------------------------------------
------------------------ !GEOMETRY! -------------------------
    Number of atoms:    17 
    Geometry Index:     1 
    Coordinates:
               0 C     -1.333200000000    0.144910000000   -0.035010000000
               1 C      0.186620000000    0.103590000000   -0.032780000000
               2 H     -1.716420000000    0.536170000000    0.912830000000
               3 H     -1.739520000000   -0.861520000000   -0.176140000000
               4 H     -1.707250000000    0.778990000000   -0.845180000000
               5 H      0.526950000000   -0.563560000000    0.767720000000
               6 C      0.784530000000    1.496590000000    0.162720000000
               7 H      0.536070000000   -0.322110000000   -0.980600000000
               8 H      0.428530000000    1.919760000000    1.109990000000
               9 H      0.437700000000    2.161140000000   -0.638050000000
              10 C      2.312290000000    1.450560000000    0.164380000000
              11 H      2.664220000000    0.790800000000    0.965990000000
              12 C      2.911190000000    2.834450000000    0.358570000000
              13 H      2.673390000000    1.032170000000   -0.782340000000
              14 H      2.595150000000    3.268370000000    1.312600000000
              15 H      2.604400000000    3.511060000000   -0.445430000000
              16 H      4.004230000000    2.778110000000    0.356550000000
------------------------ !GEOMETRY! -------------------------
    Number of atoms:    17 
    Geometry Index:     2 
    Coordinates:
               0 C     -1.351935754054    0.132446916820   -0.036996436520
               1 C      0.173804332703    0.101798981757   -0.032660557169
               2 H     -1.739659423000    0.524222822917    0.908416511160
               3 H     -1.764670325809   -0.871135782610   -0.178384790266
               4 H     -1.729654080973    0.766829789242   -0.844753203155
               5 H      0.519846505131   -0.566285378765    0.764812316713
               6 C      0.791810752047    1.485210953720    0.161586729019
               7 H      0.529518870145   -0.325449106649   -0.977597532609
               8 H      0.433984753425    1.911886336491    1.107058168186
               9 H      0.442631850855    2.152769448485   -0.636252515971
              10 C      2.319328322289    1.461357293008    0.165769859858
              11 H      2.670156424921    0.796114520105    0.963526407783
              12 C      2.930579833635    2.846087000208    0.360035753896
              13 H      2.678694460837    1.036596065924   -0.778914647713
              14 H      2.615599758634    3.283971266005    1.312144270173
              15 H      2.625096875410    3.526197664875   -0.441048546378
              16 H      4.023746843805    2.796861208467    0.359078212993
------------------------ !GEOMETRY! -------------------------
    Number of atoms:    17 
    Geometry Index:     3 
    Coordinates:
               0 C     -1.353982826599    0.130342573302   -0.037490262950
               1 C      0.170647284116    0.102485606272   -0.032224027854
               2 H     -1.743879297964    0.523474825214    0.906780214383
               3 H     -1.771332195478   -0.870562614585   -0.179065718340
               4 H     -1.733124266941    0.766133786468   -0.843850429445
               5 H      0.520466728826   -0.566841247231    0.763495633091
               6 C      0.795363216043    1.479671384992    0.161279608451
               7 H      0.530698664543   -0.326320014052   -0.975620698780
               8 H      0.435901682757    1.909385703327    1.105961285289
               9 H      0.444029893691    2.150151377756   -0.634607598173
              10 C      2.320060207960    1.464493506026    0.166115782214
              11 H      2.670722923129    0.795273050330    0.961565997132
              12 C      2.933446588299    2.847054967870    0.359928857442
              13 H      2.678599338488    1.035176356131   -0.777609045627
              14 H      2.617690376058    3.287216234040    1.311044173528
              15 H      2.627420349681    3.529108301581   -0.439673374729
              16 H      4.026151333392    2.803236202562    0.359789604371
------------------------ !GEOMETRY! -------------------------
    Number of atoms:    17 
    Geometry Index:     4 
    Coordinates:
               0 C     -1.352441214060    0.130838756138   -0.037559891656
               1 C      0.170494098996    0.102762403503   -0.031984839513
               2 H     -1.743192078834    0.524885576791    0.906198562114
               3 H     -1.772247438227   -0.868932869309   -0.179313401768
               4 H     -1.731972632822    0.767638877440   -0.843208223173
               5 H      0.521806554015   -0.567510927730    0.762716982409
               6 C      0.796197616231    1.478369956443    0.161420519966
               7 H      0.532412376683   -0.327169549641   -0.974530143306
               8 H      0.435843630005    1.909776002401    1.105455858106
               9 H      0.443612700450    2.150509235544   -0.633070823450
              10 C      2.319895130515    1.464748773736    0.166113748390
              11 H      2.670977250170    0.793739663258    0.960312833222
              12 C      2.932386861241    2.845887359413    0.359584005330
              13 H      2.678394390026    1.033287672261   -0.777018357787
              14 H      2.615849756709    3.287099249484    1.310179350271
              15 H      2.625741235740    3.528731430084   -0.439372609617
              16 H      4.025121763164    2.804818390184    0.359896430463
------------------------ !GEOMETRY! -------------------------
    Number of atoms:    17 
    Geometry Index:     5 
    Coordinates:
               0 C     -1.351257631045    0.131386770006   -0.037584449222
               1 C      0.170844271660    0.102701325477   -0.031881382596
               2 H     -1.742425111240    0.525859206120    0.905914161456
               3 H     -1.772286838497   -0.867907806522   -0.179471994895
               4 H     -1.730926426858    0.768705711447   -0.842867107782
               5 H      0.522701941580   -0.568075382493    0.762262901652
               6 C      0.796204190929    1.478353409176    0.161638805042
               7 H      0.533555268977   -0.327830221035   -0.973940449227
               8 H      0.435469941312    1.910511573283    1.105261827994
               9 H      0.442994775151    2.151287358467   -0.631996435617
              10 C      2.319817747480    1.464407203534    0.166056958691
              11 H      2.671247682337    0.792659909088    0.959586444859
              12 C      2.931411211026    2.845063209000    0.359342298164
              13 H      2.678353610856    1.031997143440   -0.776718598519
              14 H      2.614454685347    3.286813721201    1.309639845383
              15 H      2.624475054526    3.528229319453   -0.439335497425
              16 H      4.024245626460    2.805317550357    0.359912672042
------------------------ !GEOMETRY! -------------------------
    Number of atoms:    17 
    Geometry Index:     6 
    Coordinates:
               0 C     -1.351052999993    0.131494792126   -0.037612848635
               1 C      0.171009845819    0.102612186633   -0.031861112878
               2 H     -1.742336931940    0.525997344259    0.905829101928
               3 H     -1.772329087178   -0.867720993409   -0.179555965833
               4 H     -1.730746210234    0.768899881321   -0.842820989210
               5 H      0.522910639697   -0.568230288743    0.762180368675
               6 C      0.796089671870    1.478524809440    0.161750403484
               7 H      0.533859791864   -0.327998873980   -0.973805627177
               8 H      0.435347165599    1.910726035573    1.105304045727
               9 H      0.442771662085    2.151578852664   -0.631680005475
              10 C      2.319832591577    1.464220760591    0.166032134061
              11 H      2.671342537633    0.792385363146    0.959422174882
              12 C      2.931233884744    2.844930169448    0.359273295105
              13 H      2.678326892133    1.031671215100   -0.776671137379
              14 H      2.614205628099    3.286821638069    1.309485591796
              15 H      2.624307351332    3.528130583384   -0.439383270523
              16 H      4.024107566894    2.805436524378    0.359933841451
