17
Coordinates from ORCA-job pentane_PBE0_cc-pVDZ E -197.522482656677
  C      -1.333200      0.144910     -0.035010
  C       0.186620      0.103590     -0.032780
  H      -1.716420      0.536170      0.912830
  H      -1.739520     -0.861520     -0.176140
  H      -1.707250      0.778990     -0.845180
  H       0.526950     -0.563560      0.767720
  C       0.784530      1.496590      0.162720
  H       0.536070     -0.322110     -0.980600
  H       0.428530      1.919760      1.109990
  H       0.437700      2.161140     -0.638050
  C       2.312290      1.450560      0.164380
  H       2.664220      0.790800      0.965990
  C       2.911190      2.834450      0.358570
  H       2.673390      1.032170     -0.782340
  H       2.595150      3.268370      1.312600
  H       2.604400      3.511060     -0.445430
  H       4.004230      2.778110      0.356550
17
Coordinates from ORCA-job pentane_PBE0_cc-pVDZ E -197.523675614029
  C      -1.352848      0.131586     -0.037024
  C       0.173245      0.101776     -0.032909
  H      -1.743668      0.525633      0.914618
  H      -1.767716     -0.878715     -0.179398
  H      -1.734011      0.770131     -0.849804
  H       0.521933     -0.571035      0.769401
  C       0.791655      1.485493      0.161675
  H       0.531605     -0.328326     -0.983983
  H       0.431227      1.915043      1.113168
  H       0.440181      2.157723     -0.641059
  C       2.319605      1.461784      0.165932
  H       2.672686      0.791917      0.968813
  C       2.931743      2.846553      0.360028
  H       2.681494      1.033692     -0.784715
  H       2.614694      3.288286      1.318086
  H       2.625121      3.531500     -0.446472
  H       4.031935      2.796439      0.359464
17
Coordinates from ORCA-job pentane_PBE0_cc-pVDZ E -197.523816186419
  C      -1.354685      0.129019     -0.037510
  C       0.169718      0.103090     -0.032640
  H      -1.748719      0.524056      0.913406
  H      -1.773927     -0.879327     -0.180312
  H      -1.738720      0.769164     -0.848873
  H       0.522802     -0.571982      0.767742
  C       0.795068      1.480169      0.161499
  H       0.532900     -0.329034     -0.982565
  H       0.432397      1.913264      1.112527
  H       0.441041      2.156267     -0.639252
  C       2.319931      1.465461      0.166526
  H       2.673261      0.790959      0.967315
  C       2.934940      2.847151      0.359751
  H       2.681575      1.031849     -0.783299
  H       2.617244      3.292664      1.316845
  H       2.628805      3.534842     -0.445801
  H       4.035249      2.801866      0.360461
17
Coordinates from ORCA-job pentane_PBE0_cc-pVDZ E -197.523844390269
  C      -1.353029      0.129079     -0.037620
  C       0.169118      0.103893     -0.032505
  H      -1.748702      0.524614      0.912352
  H      -1.774941     -0.877633     -0.180794
  H      -1.738496      0.770230     -0.847451
  H       0.524476     -0.572661      0.765823
  C       0.796166      1.478443      0.161773
  H       0.534845     -0.329565     -0.981018
  H       0.432166      1.913710      1.111616
  H       0.440510      2.156907     -0.636643
  C       2.319496      1.466294      0.166786
  H       2.673318      0.789487      0.965618
  C       2.934239      2.845713      0.359199
  H       2.681168      1.029397     -0.781692
  H       2.615870      3.293542      1.314935
  H       2.628434      3.534503     -0.445477
  H       4.034240      2.803527      0.360917
17
Coordinates from ORCA-job pentane_PBE0_cc-pVDZ E -197.523848488952
  C      -1.351925      0.129465     -0.037636
  C       0.169430      0.103950     -0.032523
  H      -1.748142      0.525066      0.911969
  H      -1.774841     -0.876671     -0.181065
  H      -1.737882      0.771064     -0.846748
  H       0.525460     -0.573230      0.764829
  C       0.796091      1.478541      0.162083
  H       0.535913     -0.329960     -0.980415
  H       0.431667      1.914477      1.111312
  H       0.439836      2.157879     -0.635156
  C       2.319341      1.466009      0.166870
  H       2.673483      0.788590      0.964894
  C       2.933442      2.844903      0.358872
  H       2.681070      1.027939     -0.780921
  H       2.614683      3.293727      1.313902
  H       2.627877      3.533898     -0.445586
  H       4.033376      2.803833      0.361139
17
Coordinates from ORCA-job pentane_PBE0_cc-pVDZ E -197.523848987576
  C      -1.351632      0.129597     -0.037650
  C       0.169668      0.103867     -0.032574
  H      -1.747990      0.525098      0.911921
  H      -1.774845     -0.876416     -0.181255
  H      -1.737737      0.771394     -0.846515
  H       0.525841     -0.573518      0.764472
  C       0.795920      1.478792      0.162280
  H       0.536294     -0.330058     -0.980345
  H       0.431442      1.914759      1.111387
  H       0.439519      2.158380     -0.634577
  C       2.319332      1.465743      0.166921
  H       2.673579      0.788272      0.964784
  C       2.933205      2.844710      0.358720
  H       2.681038      1.027344     -0.780670
  H       2.614228      3.293949      1.313464
  H       2.627843      3.533645     -0.445846
  H       4.033173      2.803923      0.361304
