17
Coordinates from ORCA-job pentane_PBE0_6-31G_d_
  C   -1.35266666121217      0.13091951840656     -0.03784684271770
  C   0.17093257337117      0.10123415646234     -0.03208378850049
  H   -1.74410111109178      0.52700485266076      0.90693002715791
  H   -1.77452318019048     -0.87026996091273     -0.17937485609794
  H   -1.73230862564714      0.76935495440849     -0.84476412742829
  H   0.52308759029329     -0.57099181548443      0.76311711272903
  C   0.79542996231944      1.47955052335608      0.16216508650124
  H   0.53399046064341     -0.32998025594659     -0.97569972733097
  H   0.43431427032714      1.91211351787827      1.10731219250046
  H   0.44151503102699      2.15383302377472     -0.63226072994973
  C   2.32107140090540      1.46368344717753      0.16604611556527
  H   2.67345855739347      0.79100326201077      0.96079032506136
  C   2.93247023906858      2.84615139200205      0.35936358732578
  H   2.68013469354015      1.03070092934683     -0.77827204222520
  H   2.61447234291136      3.28858778871914      1.31108166055035
  H   2.62431831469536      3.53011328361606     -0.44067028677018
  H   4.02728414164580      2.80647138252415      0.35998629362910
