17
Coordinates from ORCA-job pentane_PBE0_cc-pVDZ
  C   -1.35163207825875      0.12959666483287     -0.03765043753841
  C   0.16966835245451      0.10386673546886     -0.03257448528843
  H   -1.74799003519391      0.52509797318782      0.91192068397480
  H   -1.77484480965488     -0.87641605625772     -0.18125520322105
  H   -1.73773722550713      0.77139362906899     -0.84651450801435
  H   0.52584100871013     -0.57351786165892      0.76447218251827
  C   0.79591994995876      1.47879176236840      0.16228011416975
  H   0.53629411347310     -0.33005797413434     -0.98034511749914
  H   0.43144221978787      1.91475902987585      1.11138659355644
  H   0.43951943707742      2.15837976733521     -0.63457727336930
  C   2.31933232835325      1.46574274470055      0.16692099573865
  H   2.67357921167164      0.78827236696416      0.96478386834700
  C   2.93320508276671      2.84471035695371      0.35872018628266
  H   2.68103842165377      1.02734365081349     -0.78066956999441
  H   2.61422813979834      3.29394942573539      1.31346449713784
  H   2.62784299956452      3.53364503910678     -0.44584628313981
  H   4.03317288334464      2.80392274563889      0.36130375633949
