11
Coordinates from ORCA-job propane_PBE0_cc-pVDZ E -118.989122316047
  C      -1.152140      0.231070     -0.018920
  C       0.366720      0.193200     -0.017650
  H      -1.535600      0.623920      0.928200
  H      -1.556550     -0.776480     -0.157440
  H      -1.528180      0.862680     -0.830140
  H       0.714460     -0.466870      0.784710
  C       0.962020      1.578010      0.172880
  H       0.721840     -0.229430     -0.964050
  H       0.645370      2.013440      1.126050
  H       0.652810      2.252170     -0.632290
  H       2.055200      1.524570      0.170250
11
Coordinates from ORCA-job propane_PBE0_cc-pVDZ E -118.989647456514
  C      -1.160050      0.222644     -0.019986
  C       0.364582      0.196546     -0.017297
  H      -1.550405      0.618836      0.931256
  H      -1.572752     -0.789136     -0.159286
  H      -1.543188      0.858774     -0.834088
  H       0.717502     -0.471839      0.786432
  C       0.973119      1.581635      0.173349
  H       0.724838     -0.233774     -0.967213
  H       0.655170      2.024450      1.130913
  H       0.663559      2.264142     -0.634452
  H       2.073575      1.534001      0.171972
11
Coordinates from ORCA-job propane_PBE0_cc-pVDZ E -118.989698540502
  C      -1.160588      0.219882     -0.020269
  C       0.363449      0.198324     -0.017138
  H      -1.553714      0.617284      0.930247
  H      -1.577568     -0.790184     -0.159525
  H      -1.546717      0.857229     -0.833095
  H       0.718512     -0.473076      0.784365
  C       0.975931      1.580976      0.173211
  H       0.725729     -0.235508     -0.965722
  H       0.657554      2.027038      1.130040
  H       0.666761      2.266369     -0.633390
  H       2.076600      1.537946      0.172877
11
Coordinates from ORCA-job propane_PBE0_cc-pVDZ E -118.989714371533
  C      -1.159415      0.218866     -0.020305
  C       0.362958      0.199111     -0.017111
  H      -1.554447      0.617246      0.929075
  H      -1.579994     -0.789237     -0.159511
  H      -1.547683      0.857162     -0.831449
  H       0.719616     -0.474405      0.782030
  C       0.976417      1.579508      0.172951
  H       0.726679     -0.237394     -0.964014
  H       0.657473      2.028052      1.128496
  H       0.667546      2.266829     -0.632202
  H       2.076800      1.540541      0.173640
11
Coordinates from ORCA-job propane_PBE0_cc-pVDZ E -118.989715422459
  C      -1.158742      0.219150     -0.020229
  C       0.363139      0.198838     -0.017169
  H      -1.554013      0.617694      0.928861
  H      -1.580072     -0.788537     -0.159475
  H      -1.547323      0.857682     -0.830895
  H       0.720057     -0.474973      0.781448
  C       0.975881      1.579028      0.172860
  H       0.727050     -0.238087     -0.963670
  H       0.656695      2.028017      1.127995
  H       0.667075      2.266581     -0.631976
  H       2.076204      1.540888      0.173849
