14
Coordinates from ORCA-job butane_B3LYP_STO-3G E -156.457305744504
  C      -1.265080      0.193850     -0.025430
  C       0.255200      0.179570     -0.022990
  H      -1.655350      0.575980      0.923260
  H      -1.653420     -0.819310     -0.169030
  H      -1.650210      0.823100     -0.834170
  H       0.607390     -0.483440      0.775850
  C       0.827700      1.581540      0.175840
  H       0.612500     -0.237690     -0.971680
  H       0.470410      1.998790      1.124540
  H       0.475480      2.244560     -0.622990
  C       2.347970      1.567260      0.178250
  H       2.733130      0.937990      0.986960
  H       2.736320      2.580420      0.321870
  H       2.738230      1.185160     -0.770460
14
Coordinates from ORCA-job butane_B3LYP_STO-3G E -156.460272384880
  C      -1.315465      0.172532     -0.028547
  C       0.239792      0.168743     -0.024536
  H      -1.711130      0.557722      0.924917
  H      -1.708799     -0.847127     -0.173120
  H      -1.705849      0.806113     -0.841072
  H       0.600038     -0.499133      0.779018
  C       0.843105      1.592367      0.177382
  H       0.605154     -0.251880     -0.979049
  H       0.477754      2.012981      1.131904
  H       0.482838      2.260246     -0.626157
  C       2.398359      1.588581      0.181367
  H       2.788765      0.954982      0.993868
  H       2.791697      2.608236      0.325958
  H       2.794012      1.203418     -0.772113
14
Coordinates from ORCA-job butane_B3LYP_STO-3G E -156.460303020062
  C      -1.315088      0.172966     -0.028477
  C       0.240685      0.167895     -0.024643
  H      -1.707960      0.559146      0.924940
  H      -1.706740     -0.845939     -0.172965
  H      -1.702649      0.807523     -0.840660
  H       0.601522     -0.497587      0.779501
  C       0.842211      1.593214      0.177486
  H       0.606604     -0.250295     -0.979074
  H       0.476302      2.011397      1.131925
  H       0.481359      2.258700     -0.626648
  C       2.397982      1.588147      0.181299
  H       2.785559      0.953574      0.993462
  H       2.789637      2.607049      0.325803
  H       2.790845      1.201989     -0.772131
14
Coordinates from ORCA-job butane_B3LYP_STO-3G E -156.460311493742
  C      -1.314727      0.173318     -0.028416
  C       0.241423      0.167140     -0.024729
  H      -1.704914      0.560657      0.925489
  H      -1.705485     -0.845871     -0.172994
  H      -1.699557      0.809187     -0.840703
  H       0.602907     -0.496472      0.780463
  C       0.841473      1.593970      0.177568
  H       0.607938     -0.249012     -0.979651
  H       0.474965      2.010118      1.132495
  H       0.479981      2.257585     -0.627618
  C       2.397623      1.587794      0.181241
  H       2.782461      0.951914      0.993516
  H       2.788381      2.606982      0.325832
  H       2.787802      1.200470     -0.772673
14
Coordinates from ORCA-job butane_B3LYP_STO-3G E -156.460311579340
  C      -1.314806      0.173237     -0.028423
  C       0.241394      0.167109     -0.024725
  H      -1.704827      0.560611      0.925567
  H      -1.705698     -0.845918     -0.173026
  H      -1.699459      0.809199     -0.840760
  H       0.602938     -0.496436      0.780539
  C       0.841502      1.594002      0.177562
  H       0.607957     -0.248983     -0.979692
  H       0.474945      2.010090      1.132533
  H       0.479952      2.257549     -0.627697
  C       2.397701      1.587875      0.181250
  H       2.782361      0.951904      0.993576
  H       2.788594      2.607029      0.325862
  H       2.787717      1.200513     -0.772748
