-------------------------------------------------------------
----------------------- !PROPERTIES! ------------------------
-------------------------------------------------------------
# -----------------------------------------------------------
$ SCF_Energy
   description: The SCF energy
   geom. index: 1
   prop. index: 1
        SCF Energy:     -158.3963905376
# -----------------------------------------------------------
$ DFT_Energy
   description: The DFT energy
   geom. index: 1
   prop. index: 1
   Number of Alpha Electrons        17.0000658823 
   Number of Alpha Electrons        17.0000658823 
   Total nuber of  Electrons        34.0001317646 
   Exchange energy                 -19.2531044607 
   Correlation energy               -1.2639139962 
   Correlantion energy NL            0.0000000000 
   Exchange-Correlation energy     -20.5170184569 
   Embedding correction              0.0000000000 
# -----------------------------------------------------------
$ SCF_Energy
   description: The SCF energy
   geom. index: 2
   prop. index: 1
        SCF Energy:     -158.3970714983
# -----------------------------------------------------------
$ DFT_Energy
   description: The DFT energy
   geom. index: 2
   prop. index: 1
   Number of Alpha Electrons        17.0000671346 
   Number of Alpha Electrons        17.0000671346 
   Total nuber of  Electrons        34.0001342691 
   Exchange energy                 -19.2492455540 
   Correlation energy               -1.2633055158 
   Correlantion energy NL            0.0000000000 
   Exchange-Correlation energy     -20.5125510698 
   Embedding correction              0.0000000000 
# -----------------------------------------------------------
$ SCF_Energy
   description: The SCF energy
   geom. index: 3
   prop. index: 1
        SCF Energy:     -158.3971183885
# -----------------------------------------------------------
$ DFT_Energy
   description: The DFT energy
   geom. index: 3
   prop. index: 1
   Number of Alpha Electrons        17.0000668959 
   Number of Alpha Electrons        17.0000668959 
   Total nuber of  Electrons        34.0001337918 
   Exchange energy                 -19.2489354589 
   Correlation energy               -1.2632564283 
   Correlantion energy NL            0.0000000000 
   Exchange-Correlation energy     -20.5121918873 
   Embedding correction              0.0000000000 
# -----------------------------------------------------------
$ SCF_Energy
   description: The SCF energy
   geom. index: 4
   prop. index: 1
        SCF Energy:     -158.3971276341
# -----------------------------------------------------------
$ DFT_Energy
   description: The DFT energy
   geom. index: 4
   prop. index: 1
   Number of Alpha Electrons        17.0000666086 
   Number of Alpha Electrons        17.0000666086 
   Total nuber of  Electrons        34.0001332171 
   Exchange energy                 -19.2492086495 
   Correlation energy               -1.2632944920 
   Correlantion energy NL            0.0000000000 
   Exchange-Correlation energy     -20.5125031415 
   Embedding correction              0.0000000000 
# -----------------------------------------------------------
$ SCF_Energy
   description: The SCF energy
   geom. index: 5
   prop. index: 1
        SCF Energy:     -158.3971294794
# -----------------------------------------------------------
$ DFT_Energy
   description: The DFT energy
   geom. index: 5
   prop. index: 1
   Number of Alpha Electrons        17.0000663805 
   Number of Alpha Electrons        17.0000663805 
   Total nuber of  Electrons        34.0001327610 
   Exchange energy                 -19.2494711427 
   Correlation energy               -1.2633299787 
   Correlantion energy NL            0.0000000000 
   Exchange-Correlation energy     -20.5128011215 
   Embedding correction              0.0000000000 
# -----------------------------------------------------------
$ SCF_Energy
   description: The SCF energy
   geom. index: 6
   prop. index: 1
        SCF Energy:     -158.3971295775
# -----------------------------------------------------------
$ DFT_Energy
   description: The DFT energy
   geom. index: 6
   prop. index: 1
   Number of Alpha Electrons        17.0000663060 
   Number of Alpha Electrons        17.0000663060 
   Total nuber of  Electrons        34.0001326121 
   Exchange energy                 -19.2495098176 
   Correlation energy               -1.2633356568 
   Correlantion energy NL            0.0000000000 
   Exchange-Correlation energy     -20.5128454744 
   Embedding correction              0.0000000000 
# -----------------------------------------------------------
$ SCF_Electric_Properties
   description: The SCF Calculated Electric Properties
   geom. index: 6
   prop. index: 1
       Filename                          : butane_B3LYP_def2-TZVP.scfp 
       Do Dipole Moment Calculation      : true 
       Do Quadrupole Moment Calculation  : false 
       Do Polarizability Calculation     : false 
** Dipole moment part of electric properties **
        Magnitude of dipole moment (Debye) :        0.0000005010
        Electronic Contribution:
                  0    
      0      -0.000000
      1       0.000000
      2       0.000002
        Nuclear Contribution:
                  0    
      0       0.000000
      1      -0.000000
      2      -0.000002
        Total Dipole moment:
                  0    
      0      -0.000000
      1      -0.000000
      2      -0.000000
# -----------------------------------------------------------
$ Hessian
   description: Details about the Hessian
   geom. index: 6
   prop. index: 1
Normal modes:
Number of Rows: 42 Number of Columns: 42
                  0          1          2          3          4          5    
      0       0.000000   0.000000   0.000000   0.000000   0.000000   0.000000
      1       0.000000   0.000000   0.000000   0.000000   0.000000   0.000000
      2       0.000000   0.000000   0.000000   0.000000   0.000000   0.000000
      3       0.000000   0.000000   0.000000   0.000000   0.000000   0.000000
      4       0.000000   0.000000   0.000000   0.000000   0.000000   0.000000
      5       0.000000   0.000000   0.000000   0.000000   0.000000   0.000000
      6       0.000000   0.000000   0.000000   0.000000   0.000000   0.000000
      7       0.000000   0.000000   0.000000   0.000000   0.000000   0.000000
      8       0.000000   0.000000   0.000000   0.000000   0.000000   0.000000
      9       0.000000   0.000000   0.000000   0.000000   0.000000   0.000000
     10       0.000000   0.000000   0.000000   0.000000   0.000000   0.000000
     11       0.000000   0.000000   0.000000   0.000000   0.000000   0.000000
     12       0.000000   0.000000   0.000000   0.000000   0.000000   0.000000
     13       0.000000   0.000000   0.000000   0.000000   0.000000   0.000000
     14       0.000000   0.000000   0.000000   0.000000   0.000000   0.000000
     15       0.000000   0.000000   0.000000   0.000000   0.000000   0.000000
     16       0.000000   0.000000   0.000000   0.000000   0.000000   0.000000
     17       0.000000   0.000000   0.000000   0.000000   0.000000   0.000000
     18       0.000000   0.000000   0.000000   0.000000   0.000000   0.000000
     19       0.000000   0.000000   0.000000   0.000000   0.000000   0.000000
     20       0.000000   0.000000   0.000000   0.000000   0.000000   0.000000
     21       0.000000   0.000000   0.000000   0.000000   0.000000   0.000000
     22       0.000000   0.000000   0.000000   0.000000   0.000000   0.000000
     23       0.000000   0.000000   0.000000   0.000000   0.000000   0.000000
     24       0.000000   0.000000   0.000000   0.000000   0.000000   0.000000
     25       0.000000   0.000000   0.000000   0.000000   0.000000   0.000000
     26       0.000000   0.000000   0.000000   0.000000   0.000000   0.000000
     27       0.000000   0.000000   0.000000   0.000000   0.000000   0.000000
     28       0.000000   0.000000   0.000000   0.000000   0.000000   0.000000
     29       0.000000   0.000000   0.000000   0.000000   0.000000   0.000000
     30       0.000000   0.000000   0.000000   0.000000   0.000000   0.000000
     31       0.000000   0.000000   0.000000   0.000000   0.000000   0.000000
     32       0.000000   0.000000   0.000000   0.000000   0.000000   0.000000
     33       0.000000   0.000000   0.000000   0.000000   0.000000   0.000000
     34       0.000000   0.000000   0.000000   0.000000   0.000000   0.000000
     35       0.000000   0.000000   0.000000   0.000000   0.000000   0.000000
     36       0.000000   0.000000   0.000000   0.000000   0.000000   0.000000
     37       0.000000   0.000000   0.000000   0.000000   0.000000   0.000000
     38       0.000000   0.000000   0.000000   0.000000   0.000000   0.000000
     39       0.000000   0.000000   0.000000   0.000000   0.000000   0.000000
     40       0.000000   0.000000   0.000000   0.000000   0.000000   0.000000
     41       0.000000   0.000000   0.000000   0.000000   0.000000   0.000000
                  6          7          8          9         10         11    
      0      -0.000415   0.000067   0.000100   0.002211   0.211094  -0.000011
      1      -0.018997   0.004451   0.000342   0.150570   0.106984  -0.001102
      2       0.136013  -0.030335  -0.001934   0.021131   0.015595   0.007774
      3       0.000469  -0.000079   0.000240   0.008926   0.146517  -0.000181
      4       0.020721  -0.005474   0.009940  -0.180420  -0.030724  -0.007397
      5      -0.148412   0.037219  -0.071248  -0.025270  -0.003815   0.052764
      6       0.175087  -0.049616   0.046830   0.145452   0.325371  -0.175250
      7      -0.180745  -0.362747   0.343447   0.267526   0.207104   0.047810
      8       0.275598   0.096622  -0.120438   0.034645   0.024085  -0.087712
      9      -0.000553   0.001051  -0.001283  -0.281180  -0.015270   0.000455
     10      -0.007092   0.063898  -0.055074   0.261062   0.196704   0.008905
     11       0.053193  -0.448365   0.389059   0.036817   0.027207  -0.063386
     12      -0.176580   0.048992  -0.045415   0.146044   0.325682   0.175719
     13       0.098116   0.322240  -0.296225   0.264796   0.205760  -0.021891
     14       0.313879   0.193944  -0.211326   0.039903   0.036098  -0.096392
     15       0.151000  -0.029264   0.041224  -0.071484   0.201633   0.173322
     16      -0.024653  -0.023751  -0.080496  -0.219804   0.020909  -0.308164
     17      -0.255339   0.035271  -0.165731  -0.022800   0.012751  -0.284271
     18       0.000469  -0.000078  -0.000236   0.008926  -0.146517  -0.000181
     19       0.020721  -0.005474  -0.010019  -0.180411   0.030725  -0.007398
     20      -0.148412   0.037217   0.071238  -0.025334   0.003815   0.052764
     21      -0.149611   0.028978  -0.040370  -0.071537   0.201975  -0.171963
     22       0.093830   0.012549   0.122894  -0.217966   0.023161   0.374610
     23      -0.239590   0.040513  -0.137503  -0.038749  -0.005013  -0.189585
     24      -0.149612   0.028978   0.040340  -0.071573  -0.201975  -0.171965
     25       0.093829   0.012552  -0.122990  -0.217855  -0.023159   0.374610
     26      -0.239589   0.040510   0.137487  -0.038872   0.005013  -0.189584
     27       0.150998  -0.029262  -0.041255  -0.071448  -0.201632   0.173321
     28      -0.024653  -0.023752   0.080399  -0.219876  -0.020910  -0.308164
     29      -0.255339   0.035268   0.165723  -0.022949  -0.012752  -0.284273
     30      -0.000414   0.000066  -0.000100   0.002211  -0.211094  -0.000010
     31      -0.018997   0.004451  -0.000276   0.150570  -0.106984  -0.001102
     32       0.136013  -0.030335   0.001942   0.021130  -0.015594   0.007774
     33      -0.176578   0.048993   0.045481   0.146005  -0.325685   0.175721
     34       0.098117   0.322232   0.296346   0.264536  -0.205760  -0.021891
     35       0.313882   0.193942   0.211349   0.039718  -0.036097  -0.096394
     36      -0.000554   0.001049   0.001157  -0.281181   0.015271   0.000454
     37      -0.007090   0.063901   0.055193   0.261013  -0.196704   0.008906
     38       0.053191  -0.448356  -0.389051   0.037159  -0.027209  -0.063386
     39       0.175090  -0.049614  -0.046768   0.145491  -0.325369  -0.175251
     40      -0.180747  -0.362742  -0.343338   0.267826  -0.207105   0.047811
     41       0.275596   0.096616   0.120452   0.034539  -0.024083  -0.087711
                 12         13         14         15         16         17    
      0      -0.000109  -0.098963  -0.000641  -0.083225   0.162264   0.136004
      1      -0.004996  -0.067987  -0.008840  -0.073803  -0.079031  -0.036114
      2       0.035272  -0.009879   0.060890  -0.010941  -0.010507  -0.004655
      3      -0.000174   0.037976   0.000521   0.066063  -0.198561  -0.186148
      4      -0.008997  -0.167002   0.005243   0.020444   0.027606  -0.108319
      5       0.063485  -0.023326  -0.036739   0.003279   0.003213  -0.015694
      6      -0.326730   0.117255  -0.313867   0.105949   0.382294   0.207840
      7       0.042947   0.148037   0.038237   0.143245   0.148301   0.012268
      8      -0.125743  -0.003958  -0.096408  -0.014886  -0.007156   0.003621
      9       0.000669  -0.570936  -0.001030  -0.500891  -0.211255   0.050316
     10       0.022413   0.115330   0.023271   0.090958   0.073107  -0.003075
     11      -0.158370   0.014559  -0.162362   0.012039   0.009037  -0.000340
     12       0.327358   0.117428   0.314413   0.103105   0.383547   0.207808
     13      -0.006805   0.140662  -0.009627   0.133177   0.140032   0.012719
     14      -0.130544   0.045440  -0.100806   0.055491   0.050000   0.001386
     15       0.277163   0.108769   0.228657   0.247049  -0.060720  -0.345593
     16      -0.104942  -0.102259   0.260431   0.133476   0.126038  -0.226654
     17      -0.149651  -0.005952   0.073640   0.014642   0.018497  -0.039601
     18       0.000174  -0.037976   0.000521   0.066063  -0.198561   0.186147
     19       0.008997   0.167002   0.005243   0.020444   0.027606   0.108319
     20      -0.063485   0.023326  -0.036739   0.003279   0.003214   0.015693
     21      -0.276378   0.109339  -0.226743   0.249281  -0.061362  -0.345137
     22       0.142030  -0.100349  -0.269456   0.134947   0.125282  -0.228313
     23      -0.116584  -0.021496  -0.001839   0.024009   0.016540  -0.025986
     24       0.276379  -0.109338  -0.226743   0.249280  -0.061363   0.345135
     25      -0.142028   0.100352  -0.269457   0.134947   0.125280   0.228315
     26       0.116581   0.021496  -0.001838   0.024008   0.016541   0.025983
     27      -0.277162  -0.108770   0.228656   0.247050  -0.060719   0.345595
     28       0.104940   0.102256   0.260431   0.133476   0.126040   0.226653
     29       0.149652   0.005951   0.073640   0.014641   0.018498   0.039598
     30       0.000109   0.098963  -0.000641  -0.083225   0.162264  -0.136004
     31       0.004996   0.067987  -0.008839  -0.073803  -0.079031   0.036114
     32      -0.035272   0.009878   0.060890  -0.010941  -0.010508   0.004656
     33      -0.327356  -0.117432   0.314410   0.103108   0.383550  -0.207807
     34       0.006805  -0.140662  -0.009628   0.133176   0.140032  -0.012719
     35       0.130546  -0.045440  -0.100808   0.055491   0.049999  -0.001386
     36      -0.000671   0.570936  -0.001026  -0.500891  -0.211255  -0.050316
     37      -0.022414  -0.115330   0.023272   0.090958   0.073106   0.003075
     38       0.158370  -0.014562  -0.162361   0.012042   0.009037   0.000340
     39       0.326731  -0.117252  -0.313869   0.105947   0.382293  -0.207841
     40      -0.042947  -0.148037   0.038236   0.143246   0.148302  -0.012268
     41       0.125741   0.003958  -0.096405  -0.014886  -0.007157  -0.003621
                 18         19         20         21         22         23    
      0       0.020642   0.000271  -0.000214  -0.008492  -0.000156  -0.025563
      1      -0.111647   0.014286  -0.011411   0.057246  -0.004829  -0.034032
      2      -0.015594  -0.101848   0.080930   0.008067   0.034180  -0.004868
      3      -0.074387  -0.000448   0.000237  -0.072186  -0.000087   0.133096
      4       0.166955  -0.021181   0.008951  -0.081145  -0.005489   0.070342
      5       0.023129   0.151466  -0.063525  -0.011642   0.039717   0.010230
      6       0.258094   0.312471  -0.204078  -0.015230  -0.097250   0.052539
      7       0.192793  -0.076422   0.070093  -0.087888   0.011020   0.104377
      8      -0.033109   0.076471  -0.044823   0.054956  -0.010194  -0.027014
      9      -0.380775  -0.001042   0.000467   0.210501   0.000189  -0.023053
     10       0.055927  -0.027283   0.020987  -0.028522   0.002613  -0.030967
     11       0.006223   0.192294  -0.147434  -0.003166  -0.018764  -0.004610
     12       0.258355  -0.312317   0.203914  -0.014577   0.097432   0.052278
     13       0.175395   0.052835  -0.055117  -0.068984  -0.007696   0.092589
     14       0.086651   0.092658  -0.060977  -0.077275  -0.012205   0.055242
     15       0.031175   0.181620  -0.409538   0.389977  -0.362214  -0.385754
     16       0.215122  -0.238369  -0.132442   0.234240  -0.322362  -0.268932
     17       0.017047  -0.123489   0.003720   0.039769  -0.059434  -0.037092
     18       0.074387   0.000447   0.000237  -0.072185   0.000089  -0.133096
     19      -0.166955   0.021182   0.008951  -0.081145   0.005492  -0.070342
     20      -0.023129  -0.151467  -0.063525  -0.011643  -0.039717  -0.010230
     21       0.030793  -0.180971   0.408957   0.390653   0.362358  -0.385862
     22       0.211059   0.263298   0.125791   0.235920   0.326176  -0.268553
     23       0.042862  -0.054139   0.042122   0.028330   0.033424  -0.040324
     24      -0.030793   0.180974   0.408959   0.390639  -0.362367   0.385862
     25      -0.211057  -0.263298   0.125794   0.235909  -0.326182   0.268553
     26      -0.042862   0.054138   0.042120   0.028327  -0.033424   0.040323
     27      -0.031176  -0.181622  -0.409538   0.389989   0.362201   0.385756
     28      -0.215123   0.238368  -0.132444   0.234251   0.322355   0.268933
     29      -0.017048   0.123491   0.003721   0.039769   0.059433   0.037090
     30      -0.020642  -0.000271  -0.000214  -0.008492   0.000156   0.025563
     31       0.111647  -0.014286  -0.011412   0.057246   0.004827   0.034032
     32       0.015594   0.101849   0.080930   0.008066  -0.034180   0.004868
     33      -0.258358   0.312316   0.203911  -0.014581  -0.097430  -0.052278
     34      -0.175394  -0.052836  -0.055117  -0.068982   0.007698  -0.092588
     35      -0.086650  -0.092662  -0.060979  -0.077275   0.012208  -0.055242
     36       0.380774   0.001043   0.000468   0.210501  -0.000194   0.023053
     37      -0.055926   0.027284   0.020988  -0.028522  -0.002612   0.030967
     38      -0.006223  -0.192295  -0.147434  -0.003164   0.018764   0.004612
     39      -0.258089  -0.312473  -0.204078  -0.015226   0.097249  -0.052540
     40      -0.192794   0.076421   0.070093  -0.087890  -0.011017  -0.104377
     41       0.033109  -0.076469  -0.044821   0.054955   0.010192   0.027013
                 24         25         26         27         28         29    
      0      -0.097358  -0.100253  -0.001111   0.001794  -0.000149   0.000127
      1       0.006054  -0.009446   0.007559  -0.027452  -0.005217   0.004496
      2       0.000543  -0.001619   0.000941  -0.003742   0.036624  -0.032812
      3      -0.006412   0.016771   0.030742  -0.027225   0.000043  -0.000054
      4      -0.010780   0.009081  -0.037457   0.017294  -0.002555   0.002030
      5      -0.001575   0.001291  -0.005198   0.002397   0.016284  -0.013785
      6       0.358474   0.369511   0.048369  -0.104343   0.220983  -0.228910
      7       0.051374   0.089773  -0.112283   0.308376   0.271541  -0.266124
      8       0.159604   0.143530   0.067444  -0.176282   0.002428  -0.004734
      9       0.379173   0.352175  -0.068004   0.202045   0.002195  -0.000788
     10      -0.165326  -0.169190   0.025714  -0.089616   0.070240  -0.070082
     11      -0.022132  -0.022935   0.005100  -0.014230  -0.497284   0.491630
     12       0.359714   0.370608   0.050400  -0.107874  -0.221051   0.227842
     13       0.093411   0.125634  -0.087440   0.245172  -0.260640   0.259153
     14      -0.136687  -0.110592  -0.095128   0.253675  -0.073853   0.073275
     15       0.050297  -0.048933  -0.220700   0.157307   0.012358  -0.046304
     16       0.010552  -0.022001   0.257407  -0.146016  -0.019685  -0.005464
     17      -0.004056   0.004442   0.334408  -0.204852  -0.003935  -0.004017
     18       0.006411   0.016771  -0.030742  -0.027225  -0.000042  -0.000054
     19       0.010779   0.009081   0.037457   0.017294   0.002555   0.002029
     20       0.001575   0.001291   0.005198   0.002396  -0.016285  -0.013784
     21       0.050118  -0.048615  -0.219032   0.155890  -0.013730   0.047293
     22       0.008678  -0.019866   0.339456  -0.196880   0.022801   0.004756
     23       0.007057  -0.010540  -0.252035   0.157721  -0.000461  -0.000913
     24      -0.050117  -0.048615   0.219034   0.155891   0.013730   0.047289
     25      -0.008677  -0.019865  -0.339457  -0.196881  -0.022798   0.004764
     26      -0.007056  -0.010540   0.252033   0.157720   0.000458  -0.000918
     27      -0.050296  -0.048936   0.220698   0.157305  -0.012367  -0.046308
     28      -0.010552  -0.022001  -0.257406  -0.146014   0.019686  -0.005462
     29       0.004056   0.004442  -0.334410  -0.204852   0.003938  -0.004011
     30       0.097362  -0.100250   0.001111   0.001794   0.000148   0.000127
     31      -0.006054  -0.009446  -0.007559  -0.027452   0.005219   0.004495
     32      -0.000543  -0.001619  -0.000942  -0.003743  -0.036627  -0.032809
     33      -0.359725   0.370594  -0.050396  -0.107866   0.221076   0.227824
     34      -0.093418   0.125631   0.087443   0.245180   0.260650   0.259134
     35       0.136691  -0.110588   0.095130   0.253682   0.073848   0.073273
     36      -0.379185   0.352163   0.068004   0.202046  -0.002201  -0.000784
     37       0.165332  -0.169184  -0.025715  -0.089619  -0.070246  -0.070082
     38       0.022135  -0.022938  -0.005093  -0.014214   0.497323   0.491590
     39      -0.358486   0.369499  -0.048372  -0.104353  -0.220996  -0.228894
     40      -0.051376   0.089771   0.112280   0.308370  -0.271576  -0.266100
     41      -0.159607   0.143524  -0.067443  -0.176280  -0.002421  -0.004737
                 30         31         32         33         34         35    
      0       0.000382   0.002343  -0.002466  -0.008107   0.000081   0.033880
      1      -0.032906  -0.024292  -0.004702   0.008504  -0.001639  -0.002964
      2      -0.004762  -0.003431  -0.000598   0.001046   0.011502  -0.000188
      3      -0.003058   0.026470  -0.026011   0.026396   0.000351   0.005673
      4      -0.038091  -0.048351   0.039191  -0.038253   0.008575  -0.009591
      5      -0.005392  -0.006690   0.004986  -0.005062  -0.063143  -0.001333
      6      -0.123916  -0.091602   0.001802   0.043555   0.033123  -0.140507
      7       0.361006   0.227399  -0.006167  -0.043282  -0.033491   0.143038
      8      -0.207064  -0.138881  -0.009488  -0.113648  -0.078276   0.357673
      9       0.253257   0.136876   0.021085   0.004855  -0.000438  -0.122236
     10      -0.115719  -0.068202   0.069623   0.015295  -0.001726  -0.341882
     11      -0.014321  -0.009416   0.009955   0.002131   0.002970  -0.048836
     12      -0.124657  -0.093049   0.001312   0.043532  -0.033602  -0.138887
     13       0.290759   0.179806  -0.007852  -0.074378   0.055675   0.237910
     14       0.298753   0.195938   0.006548   0.098899  -0.068339  -0.306099
     15      -0.015112  -0.148436   0.158309  -0.154402   0.163893  -0.034563
     16       0.095266   0.228052  -0.293971   0.283812  -0.296634   0.068252
     17       0.107727   0.288077   0.371232  -0.359114   0.348054  -0.085255
     18       0.003058   0.026470   0.026011   0.026396  -0.000350   0.005671
     19       0.038092  -0.048350  -0.039190  -0.038253  -0.008575  -0.009588
     20       0.005392  -0.006691  -0.004986  -0.005064   0.063142  -0.001331
     21      -0.014568  -0.147120   0.158326  -0.155455  -0.168170  -0.035117
     22       0.121061   0.298527  -0.178222   0.173033   0.192150   0.042281
     23      -0.077487  -0.215114  -0.431259   0.419590   0.421142   0.100641
     24       0.014570  -0.147121  -0.158323  -0.155458   0.168162  -0.035098
     25      -0.121063   0.298527   0.178219   0.173038  -0.192142   0.042260
     26       0.077488  -0.215112   0.431257   0.419604  -0.421128   0.100596
     27       0.015112  -0.148435  -0.158310  -0.154402  -0.163894  -0.034557
     28      -0.095267   0.228051   0.293971   0.283808   0.296634   0.068240
     29      -0.107729   0.288079  -0.371229  -0.359106  -0.348051  -0.085240
     30      -0.000382   0.002343   0.002466  -0.008108  -0.000082   0.033918
     31       0.032906  -0.024291   0.004701   0.008504   0.001639  -0.002971
     32       0.004762  -0.003432   0.000598   0.001046  -0.011502  -0.000189
     33       0.124658  -0.093044  -0.001313   0.043533   0.033607  -0.139047
     34      -0.290751   0.179808   0.007852  -0.074381  -0.055684   0.238183
     35      -0.298755   0.195940  -0.006549   0.098900   0.068349  -0.306447
     36      -0.253256   0.136876  -0.021086   0.004856   0.000442  -0.122362
     37       0.115717  -0.068203  -0.069623   0.015298   0.001736  -0.342230
     38       0.014330  -0.009410  -0.009956   0.002131  -0.002968  -0.048889
     39       0.123915  -0.091606  -0.001803   0.043556  -0.033117  -0.140666
     40      -0.361009   0.227395   0.006167  -0.043283   0.033484   0.143198
     41       0.207060  -0.138878   0.009489  -0.113654   0.078260   0.358087
                 36         37         38         39         40         41    
      0       0.034715   0.000153   0.000415  -0.000421  -0.004019  -0.003115
      1      -0.006922   0.003665   0.010873  -0.011548  -0.063771  -0.063367
      2      -0.000758  -0.025337  -0.063353   0.058757  -0.010959  -0.012038
      3      -0.002092  -0.000276  -0.000044   0.000108   0.002439   0.003481
      4       0.002581  -0.008307   0.001922  -0.003947  -0.004326  -0.005096
      5       0.000573   0.060421  -0.012730   0.026228  -0.000957  -0.001926
      6      -0.148427  -0.068563  -0.174306   0.162648  -0.092653  -0.099681
      7       0.151177   0.072913   0.176092  -0.162184   0.076697   0.082595
      8       0.379573   0.169520   0.414410  -0.381751   0.225287   0.240036
      9      -0.115400  -0.000474  -0.006667   0.010884   0.219578   0.215368
     10      -0.319957  -0.000056  -0.015176   0.026364   0.566686   0.556673
     11      -0.045714  -0.009243  -0.018034   0.017600   0.080607   0.078936
     12      -0.146580   0.067242   0.176119  -0.168698  -0.081030  -0.081608
     13       0.251679  -0.116638  -0.290766   0.274253   0.119391   0.118999
     14      -0.324767   0.142457   0.359801  -0.340706  -0.174880  -0.174860
     15       0.010482  -0.150570   0.033573  -0.065574  -0.014001  -0.016124
     16      -0.019247   0.278826  -0.054345   0.121140   0.022363   0.031034
     17       0.022758  -0.327095   0.067974  -0.142845  -0.028331  -0.037510
     18       0.002097  -0.000275   0.000045   0.000109  -0.002438   0.003481
     19      -0.002591  -0.008308  -0.001922  -0.003948   0.004324  -0.005097
     20      -0.000574   0.060422   0.012731   0.026227   0.000958  -0.001926
     21       0.011728   0.153823  -0.033061   0.064463  -0.016024  -0.022311
     22      -0.013527  -0.179727   0.032697  -0.074940   0.015547   0.026480
     23      -0.029878  -0.393682   0.077936  -0.164951   0.037664   0.059786
     24      -0.011763   0.153824   0.033064   0.064460   0.016023  -0.022315
     25       0.013570  -0.179730  -0.032700  -0.074938  -0.015546   0.026484
     26       0.029981  -0.393693  -0.077943  -0.164948  -0.037661   0.059795
     27      -0.010519  -0.150574  -0.033577  -0.065574   0.013994  -0.016127
     28       0.019319   0.278831   0.054352   0.121140  -0.022348   0.031039
     29      -0.022848  -0.327099  -0.067982  -0.142844   0.028313  -0.037516
     30      -0.034678   0.000153  -0.000415  -0.000421   0.004018  -0.003116
     31       0.006919   0.003665  -0.010875  -0.011551   0.063756  -0.063381
     32       0.000757  -0.025338   0.063355   0.058754   0.010961  -0.012042
     33       0.146432   0.067244  -0.176129  -0.168697   0.081003  -0.081625
     34      -0.251424  -0.116640   0.290780   0.274251  -0.119351   0.119025
     35       0.324432   0.142456  -0.359812  -0.340698   0.174820  -0.174894
     36       0.115268  -0.000475   0.006671   0.010898  -0.219529   0.215418
     37       0.319587  -0.000056   0.015185   0.026398  -0.566556   0.556800
     38       0.045663  -0.009243   0.018035   0.017605  -0.080592   0.078958
     39       0.148272  -0.068565   0.174310   0.162633   0.092640  -0.099703
     40      -0.151017   0.072914  -0.176093  -0.162169  -0.076686   0.082613
     41      -0.379184   0.169528  -0.414425  -0.381724  -0.225257   0.240096
# -----------------------------------------------------------
$ THERMOCHEMISTRY_Energies
   description: The Thermochemistry energies
   geom. index: 6
   prop. index: 1
        Temperature (Kelvin)           :        298.1500000000
        Pressure (atm)                 :          1.0000000000
        Total Mass (AMU)               :         58.1240000000
        Spin Degeneracy                :          1.0000000000
        Electronic Energy (Hartree)    :       -158.3971295775
        Translational Energy (Hartree) :          0.0014162714
        Rotational Energy (Hartree)    :          0.0014162714
        Vibrational Energy (Hartree)   :          0.0029685308
        Number of frequencies          :     42      
        Scaling Factor for frequencies :          1.0000000000
        Vibrational frequencies        :     
                  0    
      0       0.000000
      1       0.000000
      2       0.000000
      3       0.000000
      4       0.000000
      5       0.000000
      6     118.824238
      7     220.432531
      8     257.077182
      9     259.183958
     10     424.495937
     11     737.941561
     12     813.990176
     13     840.584034
     14     964.979378
     15     981.558756
     16     1015.536679
     17     1063.258931
     18     1169.538630
     19     1211.132881
     20     1291.446393
     21     1328.233561
     22     1333.459069
     23     1394.541418
     24     1412.742828
     25     1414.355937
     26     1486.764971
     27     1490.740749
     28     1497.955890
     29     1499.314657
     30     1504.042945
     31     1512.210389
     32     2999.092446
     33     3007.711023
     34     3015.226661
     35     3020.388395
     36     3020.850998
     37     3038.765303
     38     3076.114849
     39     3080.170808
     40     3083.195914
     41     3084.110078
        Zero Point Energy (Hartree)    :          0.1313818592
        Inner Energy (Hartree)         :       -158.2599466446
        Enthalpy (Hartree)             :       -158.2590024356
        Electronic entropy             :          0.0000000000
        Rotational entropy             :          0.0116517727
        Vibrational entropy            :          0.0049722353
        Translational entropy          :          0.0116517727
        Entropy                        :          0.0347267932
        Gibbs Energy (Hartree)         :       -158.2937292288
        Is Linear                      :                 false
# -------------------------------------------------------------
----------------------- !GEOMETRIES! ------------------------
# -------------------------------------------------------------
------------------------ !GEOMETRY! -------------------------
    Number of atoms:    14 
    Geometry Index:     1 
    Coordinates:
               0 C     -1.265080000000    0.193850000000   -0.025430000000
               1 C      0.255200000000    0.179570000000   -0.022990000000
               2 H     -1.655350000000    0.575980000000    0.923260000000
               3 H     -1.653420000000   -0.819310000000   -0.169030000000
               4 H     -1.650210000000    0.823100000000   -0.834170000000
               5 H      0.607390000000   -0.483440000000    0.775850000000
               6 C      0.827700000000    1.581540000000    0.175840000000
               7 H      0.612500000000   -0.237690000000   -0.971680000000
               8 H      0.470410000000    1.998790000000    1.124540000000
               9 H      0.475480000000    2.244560000000   -0.622990000000
              10 C      2.347970000000    1.567260000000    0.178250000000
              11 H      2.733130000000    0.937990000000    0.986960000000
              12 H      2.736320000000    2.580420000000    0.321870000000
              13 H      2.738230000000    1.185160000000   -0.770460000000
------------------------ !GEOMETRY! -------------------------
    Number of atoms:    14 
    Geometry Index:     2 
    Coordinates:
               0 C     -1.286764448950    0.182947483297   -0.026921285039
               1 C      0.243161719101    0.182726756551   -0.022400108584
               2 H     -1.682466237304    0.563773410420    0.917897978290
               3 H     -1.678704599748   -0.827160626898   -0.170550260157
               4 H     -1.677011743863    0.810361887458   -0.832128090969
               5 H      0.601418866047   -0.480295616472    0.771989988298
               6 C      0.839735944930    1.578382609054    0.175246414017
               7 H      0.606386700524   -0.235983360278   -0.966699574513
               8 H      0.476520391463    1.997084035391    1.119553678486
               9 H      0.481457267522    2.241409868492   -0.619130996394
              10 C      2.369657083506    1.578165025441    0.179742169552
              11 H      2.759927638613    0.950733279345    0.984924478448
              12 H      2.761602401489    2.588269769479    0.323388135044
              13 H      2.765349016671    1.197365478720   -0.765092526478
------------------------ !GEOMETRY! -------------------------
    Number of atoms:    14 
    Geometry Index:     3 
    Coordinates:
               0 C     -1.289836563907    0.180727285911   -0.027170702581
               1 C      0.240285722721    0.184312084770   -0.022071145289
               2 H     -1.687796797137    0.561879362252    0.916691918140
               3 H     -1.683621064230   -0.827758513655   -0.170906163685
               4 H     -1.682126655304    0.808564074747   -0.831211532271
               5 H      0.602018340813   -0.479196749865    0.770793528687
               6 C      0.842610659580    1.576797531468    0.174914020955
               7 H      0.606899022224   -0.235524471768   -0.964961184175
               8 H      0.476006066554    1.996627284088    1.117810567196
               9 H      0.480863145352    2.240309949990   -0.617940644562
              10 C      2.372730817411    1.580385546831    0.179993656952
              11 H      2.765036861447    0.952533965194    0.984015433467
              12 H      2.766518289468    2.588868249157    0.323743600253
              13 H      2.770682155007    1.199254400883   -0.763881353087
------------------------ !GEOMETRY! -------------------------
    Number of atoms:    14 
    Geometry Index:     4 
    Coordinates:
               0 C     -1.289277953885    0.180382458431   -0.027165376573
               1 C      0.239612771394    0.184866231702   -0.021906461330
               2 H     -1.688356886058    0.561986629419    0.916272619901
               3 H     -1.684434584190   -0.827408102424   -0.171081952810
               4 H     -1.682526891001    0.808868521835   -0.830507013455
               5 H      0.603228999955   -0.479162181768    0.770080567401
               6 C      0.843283023974    1.576243873728    0.174746117701
               7 H      0.608054267154   -0.235937937687   -0.964011419695
               8 H      0.474849042159    1.997042994235    1.116856265163
               9 H      0.479657137939    2.240275116645   -0.617233908628
              10 C      2.372173162318    1.580730151414    0.179990512733
              11 H      2.765431994623    0.952232208793    0.983318169792
              12 H      2.767331245247    2.588518441601    0.323918861425
              13 H      2.771244670370    1.199141594075   -0.763456981623
------------------------ !GEOMETRY! -------------------------
    Number of atoms:    14 
    Geometry Index:     5 
    Coordinates:
               0 C     -1.288259216898    0.180548098497   -0.027106190862
               1 C      0.239716214377    0.184865917772   -0.021843004603
               2 H     -1.687818851575    0.562376168625    0.916155881820
               3 H     -1.684234799013   -0.826978156099   -0.171193972757
               4 H     -1.681890323402    0.809469075475   -0.830062080398
               5 H      0.604116936212   -0.479431262649    0.769729442876
               6 C      0.843179416962    1.576244800389    0.174679915360
               7 H      0.608924605204   -0.236497827280   -0.963542573570
               8 H      0.473976946376    1.997604995761    1.116383345236
               9 H      0.478772758339    2.240544183406   -0.616887894881
              10 C      2.371154838607    1.580564063268    0.179933266497
              11 H      2.764791544454    0.951634121080    0.982879459539
              12 H      2.767131035517    2.588088791369    0.324030051705
              13 H      2.770708894841    1.198747030385   -0.763335645963
------------------------ !GEOMETRY! -------------------------
    Number of atoms:    14 
    Geometry Index:     6 
    Coordinates:
               0 C     -1.287961958624    0.180651687004   -0.027079272639
               1 C      0.239871419702    0.184748876729   -0.021831091363
               2 H     -1.687594047006    0.562452186878    0.916172286084
               3 H     -1.684139269873   -0.826834145028   -0.171256194273
               4 H     -1.681633859829    0.809678116042   -0.829943839018
               5 H      0.604339374647   -0.479534563525    0.769709904546
               6 C      0.843024252905    1.576362155452    0.174666805446
               7 H      0.609157125197   -0.236704513863   -0.963449567461
               8 H      0.473743411849    1.997812730381    1.116288413707
               9 H      0.478551729353    2.240647418506   -0.616870526269
              10 C      2.370857608281    1.580460205303    0.179907249952
              11 H      2.764533665822    0.951426628383    0.982764231627
              12 H      2.767035348905    2.587944852225    0.324091321973
              13 H      2.770485198672    1.198668365514   -0.763349722314
