8
Coordinates from ORCA-job ethane_B3LYP_aug-cc-pVTZ E -79.799312433178
  C      -1.069770      0.342760      0.000000
  C       0.442290      0.342760     -0.000000
  H      -1.454140      0.727780      0.949230
  H      -1.454140     -0.671810     -0.141180
  H      -1.454140      0.972310     -0.808050
  H       0.826660     -0.286790      0.808050
  H       0.826660      1.357330      0.141180
  H       0.826660     -0.042260     -0.949230
8
Coordinates from ORCA-job ethane_B3LYP_aug-cc-pVTZ E -79.799684650779
  C      -1.077190      0.342773      0.000016
  C       0.449710      0.342747     -0.000016
  H      -1.468702      0.725653      0.943966
  H      -1.468666     -0.666169     -0.140403
  H      -1.468689      0.968811     -0.803559
  H       0.841209     -0.283292      0.803559
  H       0.841187      1.351689      0.140403
  H       0.841222     -0.040133     -0.943966
8
Coordinates from ORCA-job ethane_B3LYP_aug-cc-pVTZ E -79.799711230639
  C      -1.078610      0.342781      0.000027
  C       0.451130      0.342739     -0.000027
  H      -1.473625      0.725033      0.942424
  H      -1.473569     -0.664510     -0.140179
  H      -1.473604      0.967781     -0.802241
  H       0.846124     -0.282261      0.802241
  H       0.846089      1.350030      0.140179
  H       0.846145     -0.039513     -0.942424
8
Coordinates from ORCA-job ethane_B3LYP_aug-cc-pVTZ E -79.799714906365
  C      -1.078311      0.342785      0.000033
  C       0.450831      0.342735     -0.000033
  H      -1.474761      0.724870      0.942019
  H      -1.474699     -0.664071     -0.140123
  H      -1.474738      0.967507     -0.801894
  H       0.847258     -0.281987      0.801894
  H       0.847219      1.349591      0.140123
  H       0.847281     -0.039350     -0.942019
8
Coordinates from ORCA-job ethane_B3LYP_aug-cc-pVTZ E -79.799716271480
  C      -1.077700      0.342787      0.000036
  C       0.450220      0.342733     -0.000036
  H      -1.475137      0.724779      0.941792
  H      -1.475074     -0.663825     -0.140092
  H      -1.475115      0.967352     -0.801700
  H       0.847635     -0.281832      0.801700
  H       0.847594      1.349345      0.140092
  H       0.847657     -0.039259     -0.941792
8
Coordinates from ORCA-job ethane_B3LYP_aug-cc-pVTZ E -79.799716316249
  C      -1.077567      0.342786      0.000035
  C       0.450087      0.342734     -0.000035
  H      -1.475020      0.724783      0.941804
  H      -1.474959     -0.663837     -0.140094
  H      -1.474999      0.967359     -0.801711
  H       0.847519     -0.281839      0.801711
  H       0.847479      1.349357      0.140094
  H       0.847540     -0.039263     -0.941804
