20
Coordinates from ORCA-job hexane_B3LYP_6-31G_d_ E -236.897985478095
  C      -5.596720     -0.895900     -0.007080
  C      -4.348320     -0.028410     -0.029150
  H      -6.493920     -0.269800     -0.037940
  H      -5.636900     -1.502500      0.903270
  H      -5.622170     -1.568810     -0.870150
  C      -3.076790     -0.875590      0.013070
  H      -4.369730      0.654290      0.828270
  H      -4.355090      0.588360     -0.935380
  C      -1.823340      0.000710     -0.009260
  H      -3.062370     -1.559510     -0.844320
  H      -3.077030     -1.493600      0.919240
  C      -0.551820     -0.846470      0.032960
  H      -1.837760      0.684620      0.848150
  H      -1.823110      0.618730     -0.915420
  C       0.696580      0.021020      0.010930
  H      -0.530400     -1.529150     -0.824480
  H      -0.545060     -1.463280      0.939160
  H       0.736770      0.627660     -0.899400
  H       1.593780     -0.605080      0.041770
  H       0.722030      0.693890      0.874030
20
Coordinates from ORCA-job hexane_B3LYP_6-31G_d_ E -236.899503516720
  C      -5.647550     -0.899366     -0.007352
  C      -4.379342     -0.036020     -0.028987
  H      -6.550005     -0.276210     -0.038547
  H      -5.693485     -1.510282      0.902611
  H      -5.678230     -1.576888     -0.869544
  C      -3.087591     -0.867774      0.012694
  H      -4.396481      0.653273      0.826738
  H      -4.381937      0.587532     -0.933905
  C      -1.812544     -0.007108     -0.008875
  H      -3.074072     -1.557660     -0.843304
  H      -3.088567     -1.491995      0.917787
  C      -0.520796     -0.838861      0.032798
  H      -1.826062      0.682767      0.847133
  H      -1.811577      0.617123     -0.913961
  C       0.747412      0.024486      0.011196
  H      -0.503648     -1.528134     -0.822943
  H      -0.518206     -1.462444      0.937694
  H       0.793351      0.635434     -0.898746
  H       1.649868     -0.598669      0.042371
  H       0.778092      0.701976      0.873413
20
Coordinates from ORCA-job hexane_B3LYP_6-31G_d_ E -236.899566632134
  C      -5.651749     -0.899102     -0.007375
  C      -4.381694     -0.037461     -0.028850
  H      -6.555108     -0.278359     -0.038874
  H      -5.698873     -1.511459      0.901903
  H      -5.683161     -1.578409     -0.868497
  C      -3.088325     -0.865176      0.012581
  H      -4.396574      0.654176      0.825655
  H      -4.382085      0.588646     -0.932604
  C      -1.811811     -0.009707     -0.008757
  H      -3.075160     -1.557507     -0.842539
  H      -3.089541     -1.492102      0.916836
  C      -0.518443     -0.837421      0.032663
  H      -1.824975      0.682616      0.846369
  H      -1.810601      0.617227     -0.913007
  C       0.751612      0.024221      0.011214
  H      -0.503556     -1.529041     -0.821855
  H      -0.518055     -1.463551      0.936402
  H       0.798736      0.636604     -0.898046
  H       1.654972     -0.596521      0.042697
  H       0.783023      0.703503      0.872356
20
Coordinates from ORCA-job hexane_B3LYP_6-31G_d_ E -236.899582541229
  C      -5.651095     -0.898478     -0.007367
  C      -4.381554     -0.037904     -0.028733
  H      -6.555405     -0.279512     -0.039240
  H      -5.698649     -1.511760      0.901409
  H      -5.682444     -1.579152     -0.867564
  C      -3.088179     -0.863834      0.012504
  H      -4.395093      0.655355      0.824773
  H      -4.380655      0.590056     -0.931480
  C      -1.811959     -0.011049     -0.008678
  H      -3.075307     -1.557974     -0.841650
  H      -3.089590     -1.492883      0.915754
  C      -0.518583     -0.836978      0.032551
  H      -1.824828      0.683086      0.845480
  H      -1.810550      0.618005     -0.911924
  C       0.750957      0.023597      0.011201
  H      -0.505040     -1.530225     -0.820965
  H      -0.519483     -1.464952      0.935288
  H       0.798511      0.636897     -0.897562
  H       1.655268     -0.595369      0.043062
  H       0.782307      0.704255      0.871411
20
Coordinates from ORCA-job hexane_B3LYP_6-31G_d_ E -236.899584678341
  C      -5.649984     -0.898182     -0.007350
  C      -4.381140     -0.037779     -0.028687
  H      -6.554721     -0.279791     -0.039467
  H      -5.697596     -1.511632      0.901337
  H      -5.681110     -1.579336     -0.867206
  C      -3.088002     -0.863730      0.012471
  H      -4.394425      0.655913      0.824514
  H      -4.380019      0.590740     -0.931085
  C      -1.812136     -0.011153     -0.008644
  H      -3.075271     -1.558380     -0.841303
  H      -3.089521     -1.493488      0.915258
  C      -0.518996     -0.837104      0.032508
  H      -1.824865      0.683494      0.845133
  H      -1.810619      0.618608     -0.911429
  C       0.749847      0.023301      0.011182
  H      -0.505708     -1.530787     -0.820700
  H      -0.520119     -1.465632      0.934899
  H       0.797458      0.636763     -0.897497
  H       1.654583     -0.595090      0.043291
  H       0.780972      0.704444      0.871047
20
Coordinates from ORCA-job hexane_B3LYP_6-31G_d_ E -236.899584946172
  C      -5.649626     -0.898110     -0.007336
  C      -4.381021     -0.037660     -0.028668
  H      -6.554507     -0.279879     -0.039614
  H      -5.697291     -1.511499      0.901392
  H      -5.680636     -1.579424     -0.867075
  C      -3.087952     -0.863827      0.012446
  H      -4.394286      0.656071      0.824490
  H      -4.379903      0.590970     -0.930979
  C      -1.812185     -0.011056     -0.008620
  H      -3.075281     -1.558514     -0.841260
  H      -3.089526     -1.493750      0.915082
  C      -0.519116     -0.837222      0.032491
  H      -1.824855      0.683630      0.845087
  H      -1.810613      0.618869     -0.911254
  C       0.749489      0.023229      0.011168
  H      -0.505848     -1.530947     -0.820673
  H      -0.520235     -1.465859      0.934797
  H       0.797154      0.636626     -0.897555
  H       1.654370     -0.595002      0.043440
  H       0.780498      0.704534      0.870913
