20
Coordinates from ORCA-job hexane_B3LYP_STO-3G
  C   -5.68346367958265     -0.90642974811513     -0.00735969756345
  C   -4.40020773756923     -0.02609209891110     -0.02933641576351
  H   -6.58607951923591     -0.27660312947810     -0.03947069792991
  H   -5.72074202540335     -1.51718167573897      0.90797717783497
  H   -5.70450902430510     -1.58487469181516     -0.87425516730706
  C   -3.09341068353354     -0.87921730917967      0.01304742121963
  H   -4.41344671077659      0.66188702216161      0.83432515273555
  H   -4.39887335093781      0.59579022190845     -0.94185372283768
  C   -1.80672633174526      0.00433498549649     -0.00922066163118
  H   -3.07931026692417     -1.56703089740957     -0.85076394041235
  H   -3.09375902304261     -1.50110139899928      0.92559208904042
  C   -0.49992905736957     -0.84879024882620      0.03315547048319
  H   -1.82082451300755      0.69214491322839      0.85459366936515
  H   -1.80638051915683      0.62622304034583     -0.92176263504189
  C   0.78332658686434      0.03154814633428      0.01119294625438
  H   -0.48668774755291     -1.53675837986129     -0.83051479881310
  H   -0.50126542054998     -1.47068409482227      0.94566493441611
  H   0.82060383203135      0.64231603798437     -0.90413335244557
  H   1.68594260135904     -0.59827880464776      0.04329211583669
  H   0.80437259043834      0.70997811034508      0.87810011255962
