20
Coordinates from ORCA-job hexane_B3LYP_6-311G_d-p_ E -236.970270360787
  C      -5.596720     -0.895900     -0.007080
  C      -4.348320     -0.028410     -0.029150
  H      -6.493920     -0.269800     -0.037940
  H      -5.636900     -1.502500      0.903270
  H      -5.622170     -1.568810     -0.870150
  C      -3.076790     -0.875590      0.013070
  H      -4.369730      0.654290      0.828270
  H      -4.355090      0.588360     -0.935380
  C      -1.823340      0.000710     -0.009260
  H      -3.062370     -1.559510     -0.844320
  H      -3.077030     -1.493600      0.919240
  C      -0.551820     -0.846470      0.032960
  H      -1.837760      0.684620      0.848150
  H      -1.823110      0.618730     -0.915420
  C       0.696580      0.021020      0.010930
  H      -0.530400     -1.529150     -0.824480
  H      -0.545060     -1.463280      0.939160
  H       0.736770      0.627660     -0.899400
  H       1.593780     -0.605080      0.041770
  H       0.722030      0.693890      0.874030
20
Coordinates from ORCA-job hexane_B3LYP_6-311G_d-p_ E -236.971685554650
  C      -5.645551     -0.899118     -0.007345
  C      -4.378077     -0.036826     -0.028891
  H      -6.545592     -0.276960     -0.038554
  H      -5.691751     -1.508403      0.900676
  H      -5.676384     -1.574921     -0.867690
  C      -3.087121     -0.867198      0.012668
  H      -4.395177      0.650731      0.824966
  H      -4.380687      0.585114     -0.931844
  C      -1.813014     -0.007684     -0.008850
  H      -3.073618     -1.555302     -0.841559
  H      -3.088040     -1.489777      0.915879
  C      -0.522061     -0.838055      0.032703
  H      -1.826517      0.680410      0.845387
  H      -1.812103      0.614905     -0.912053
  C       0.745413      0.024238      0.011188
  H      -0.504952     -1.525593     -0.821171
  H      -0.519456     -1.460026      0.935634
  H       0.791617      0.633554     -0.896811
  H       1.645455     -0.597920      0.042377
  H       0.776246      0.700009      0.871558
20
Coordinates from ORCA-job hexane_B3LYP_6-311G_d-p_ E -236.971752160815
  C      -5.650341     -0.898910     -0.007370
  C      -4.380695     -0.038540     -0.028705
  H      -6.551147     -0.279201     -0.038959
  H      -5.697996     -1.509489      0.899907
  H      -5.682038     -1.576419     -0.866547
  C      -3.087912     -0.864404      0.012543
  H      -4.395410      0.651254      0.823824
  H      -4.380988      0.585862     -0.930380
  C      -1.812224     -0.010479     -0.008720
  H      -3.074753     -1.554796     -0.840769
  H      -3.089028     -1.489555      0.914860
  C      -0.519442     -0.836341      0.032520
  H      -1.825383      0.679905      0.844598
  H      -1.811114      0.614679     -0.911032
  C       0.750204      0.024030      0.011208
  H      -0.504721     -1.526121     -0.820021
  H      -0.519153     -1.460765      0.934181
  H       0.797860      0.634633     -0.896052
  H       1.651011     -0.595679      0.042781
  H       0.781901      0.701515      0.870404
20
Coordinates from ORCA-job hexane_B3LYP_6-311G_d-p_ E -236.971767510385
  C      -5.649765     -0.898315     -0.007359
  C      -4.380559     -0.039044     -0.028556
  H      -6.551487     -0.280293     -0.039397
  H      -5.697993     -1.509730      0.899503
  H      -5.681428     -1.577183     -0.865651
  C      -3.087744     -0.863086      0.012463
  H      -4.393940      0.652313      0.823051
  H      -4.379578      0.587157     -0.929293
  C      -1.812393     -0.011797     -0.008637
  H      -3.074857     -1.555193     -0.839996
  H      -3.089013     -1.490286      0.913867
  C      -0.519578     -0.835838      0.032375
  H      -1.825279      0.680306      0.843825
  H      -1.811127      0.615408     -0.910037
  C       0.749628      0.023434      0.011192
  H      -0.506194     -1.527184     -0.819240
  H      -0.520561     -1.462051      0.933104
  H       0.797855      0.634865     -0.895659
  H       1.651350     -0.594589      0.043218
  H       0.781292      0.702287      0.869496
20
Coordinates from ORCA-job hexane_B3LYP_6-311G_d-p_ E -236.971770046092
  C      -5.648532     -0.897968     -0.007337
  C      -4.380097     -0.038936     -0.028487
  H      -6.550768     -0.280621     -0.039707
  H      -5.696906     -1.509588      0.899449
  H      -5.679947     -1.577459     -0.865223
  C      -3.087537     -0.862932      0.012420
  H      -4.393147      0.652970      0.822781
  H      -4.378826      0.587974     -0.928829
  C      -1.812600     -0.011950     -0.008593
  H      -3.074810     -1.555671     -0.839628
  H      -3.088917     -1.491017      0.913304
  C      -0.520039     -0.835946      0.032310
  H      -1.825326      0.680786      0.843458
  H      -1.811221      0.616137     -0.909475
  C       0.748395      0.023086      0.011167
  H      -0.506989     -1.527846     -0.818963
  H      -0.521311     -1.462863      0.932647
  H       0.796767      0.634716     -0.895612
  H       1.650632     -0.594261      0.043529
  H       0.779812      0.702568      0.869060
20
Coordinates from ORCA-job hexane_B3LYP_6-311G_d-p_ E -236.971770354909
  C      -5.648119     -0.897880     -0.007320
  C      -4.379962     -0.038805     -0.028462
  H      -6.550527     -0.280717     -0.039897
  H      -5.696577     -1.509433      0.899519
  H      -5.679399     -1.577586     -0.865054
  C      -3.087481     -0.863041      0.012390
  H      -4.392986      0.653164      0.822756
  H      -4.378696      0.588259     -0.928697
  C      -1.812656     -0.011842     -0.008563
  H      -3.074822     -1.555841     -0.839579
  H      -3.088922     -1.491349      0.913089
  C      -0.520175     -0.836077      0.032287
  H      -1.825314      0.680957      0.843407
  H      -1.811216      0.616468     -0.909261
  C       0.747982      0.022998      0.011149
  H      -0.507151     -1.528042     -0.818934
  H      -0.521441     -1.463145      0.932519
  H       0.796439      0.634558     -0.895686
  H       1.650390     -0.594165      0.043720
  H       0.779263      0.702698      0.868888
