-------------------------------------------------------------
----------------------- !PROPERTIES! ------------------------
-------------------------------------------------------------
# -----------------------------------------------------------
$ SCF_Energy
   description: The SCF energy
   geom. index: 1
   prop. index: 1
        SCF Energy:     -236.8979854781
# -----------------------------------------------------------
$ DFT_Energy
   description: The DFT energy
   geom. index: 1
   prop. index: 1
   Number of Alpha Electrons        25.0001172802 
   Number of Alpha Electrons        25.0001172802 
   Total nuber of  Electrons        50.0002345604 
   Exchange energy                 -28.6116342557 
   Correlation energy               -1.8718607743 
   Correlantion energy NL            0.0000000000 
   Exchange-Correlation energy     -30.4834950300 
   Embedding correction              0.0000000000 
# -----------------------------------------------------------
$ SCF_Energy
   description: The SCF energy
   geom. index: 2
   prop. index: 1
        SCF Energy:     -236.8995035167
# -----------------------------------------------------------
$ DFT_Energy
   description: The DFT energy
   geom. index: 2
   prop. index: 1
   Number of Alpha Electrons        25.0001122712 
   Number of Alpha Electrons        25.0001122712 
   Total nuber of  Electrons        50.0002245423 
   Exchange energy                 -28.5832385349 
   Correlation energy               -1.8692765430 
   Correlantion energy NL            0.0000000000 
   Exchange-Correlation energy     -30.4525150779 
   Embedding correction              0.0000000000 
# -----------------------------------------------------------
$ SCF_Energy
   description: The SCF energy
   geom. index: 3
   prop. index: 1
        SCF Energy:     -236.8995666321
# -----------------------------------------------------------
$ DFT_Energy
   description: The DFT energy
   geom. index: 3
   prop. index: 1
   Number of Alpha Electrons        25.0001133311 
   Number of Alpha Electrons        25.0001133311 
   Total nuber of  Electrons        50.0002266621 
   Exchange energy                 -28.5819411915 
   Correlation energy               -1.8691763745 
   Correlantion energy NL            0.0000000000 
   Exchange-Correlation energy     -30.4511175660 
   Embedding correction              0.0000000000 
# -----------------------------------------------------------
$ SCF_Energy
   description: The SCF energy
   geom. index: 4
   prop. index: 1
        SCF Energy:     -236.8995825412
# -----------------------------------------------------------
$ DFT_Energy
   description: The DFT energy
   geom. index: 4
   prop. index: 1
   Number of Alpha Electrons        25.0001156573 
   Number of Alpha Electrons        25.0001156573 
   Total nuber of  Electrons        50.0002313146 
   Exchange energy                 -28.5826933556 
   Correlation energy               -1.8692667290 
   Correlantion energy NL            0.0000000000 
   Exchange-Correlation energy     -30.4519600846 
   Embedding correction              0.0000000000 
# -----------------------------------------------------------
$ SCF_Energy
   description: The SCF energy
   geom. index: 5
   prop. index: 1
        SCF Energy:     -236.8995846783
# -----------------------------------------------------------
$ DFT_Energy
   description: The DFT energy
   geom. index: 5
   prop. index: 1
   Number of Alpha Electrons        25.0001168589 
   Number of Alpha Electrons        25.0001168589 
   Total nuber of  Electrons        50.0002337178 
   Exchange energy                 -28.5831872506 
   Correlation energy               -1.8693199433 
   Correlantion energy NL            0.0000000000 
   Exchange-Correlation energy     -30.4525071939 
   Embedding correction              0.0000000000 
# -----------------------------------------------------------
$ SCF_Energy
   description: The SCF energy
   geom. index: 6
   prop. index: 1
        SCF Energy:     -236.8995849462
# -----------------------------------------------------------
$ DFT_Energy
   description: The DFT energy
   geom. index: 6
   prop. index: 1
   Number of Alpha Electrons        25.0001172314 
   Number of Alpha Electrons        25.0001172314 
   Total nuber of  Electrons        50.0002344629 
   Exchange energy                 -28.5832668242 
   Correlation energy               -1.8693285999 
   Correlantion energy NL            0.0000000000 
   Exchange-Correlation energy     -30.4525954241 
   Embedding correction              0.0000000000 
# -----------------------------------------------------------
$ SCF_Electric_Properties
   description: The SCF Calculated Electric Properties
   geom. index: 6
   prop. index: 1
       Filename                          : hexane_B3LYP_6-31G_d_.scfp 
       Do Dipole Moment Calculation      : true 
       Do Quadrupole Moment Calculation  : false 
       Do Polarizability Calculation     : false 
** Dipole moment part of electric properties **
        Magnitude of dipole moment (Debye) :        0.0000038273
        Electronic Contribution:
                  0    
      0       0.000001
      1      -0.000001
      2      -0.000004
        Nuclear Contribution:
                  0    
      0       0.000000
      1       0.000001
      2       0.000004
        Total Dipole moment:
                  0    
      0       0.000001
      1      -0.000000
      2      -0.000000
# -----------------------------------------------------------
$ Hessian
   description: Details about the Hessian
   geom. index: 6
   prop. index: 1
Normal modes:
Number of Rows: 60 Number of Columns: 60
                  0          1          2          3          4          5    
      0       0.000000   0.000000   0.000000   0.000000   0.000000   0.000000
      1       0.000000   0.000000   0.000000   0.000000   0.000000   0.000000
      2       0.000000   0.000000   0.000000   0.000000   0.000000   0.000000
      3       0.000000   0.000000   0.000000   0.000000   0.000000   0.000000
      4       0.000000   0.000000   0.000000   0.000000   0.000000   0.000000
      5       0.000000   0.000000   0.000000   0.000000   0.000000   0.000000
      6       0.000000   0.000000   0.000000   0.000000   0.000000   0.000000
      7       0.000000   0.000000   0.000000   0.000000   0.000000   0.000000
      8       0.000000   0.000000   0.000000   0.000000   0.000000   0.000000
      9       0.000000   0.000000   0.000000   0.000000   0.000000   0.000000
     10       0.000000   0.000000   0.000000   0.000000   0.000000   0.000000
     11       0.000000   0.000000   0.000000   0.000000   0.000000   0.000000
     12       0.000000   0.000000   0.000000   0.000000   0.000000   0.000000
     13       0.000000   0.000000   0.000000   0.000000   0.000000   0.000000
     14       0.000000   0.000000   0.000000   0.000000   0.000000   0.000000
     15       0.000000   0.000000   0.000000   0.000000   0.000000   0.000000
     16       0.000000   0.000000   0.000000   0.000000   0.000000   0.000000
     17       0.000000   0.000000   0.000000   0.000000   0.000000   0.000000
     18       0.000000   0.000000   0.000000   0.000000   0.000000   0.000000
     19       0.000000   0.000000   0.000000   0.000000   0.000000   0.000000
     20       0.000000   0.000000   0.000000   0.000000   0.000000   0.000000
     21       0.000000   0.000000   0.000000   0.000000   0.000000   0.000000
     22       0.000000   0.000000   0.000000   0.000000   0.000000   0.000000
     23       0.000000   0.000000   0.000000   0.000000   0.000000   0.000000
     24       0.000000   0.000000   0.000000   0.000000   0.000000   0.000000
     25       0.000000   0.000000   0.000000   0.000000   0.000000   0.000000
     26       0.000000   0.000000   0.000000   0.000000   0.000000   0.000000
     27       0.000000   0.000000   0.000000   0.000000   0.000000   0.000000
     28       0.000000   0.000000   0.000000   0.000000   0.000000   0.000000
     29       0.000000   0.000000   0.000000   0.000000   0.000000   0.000000
     30       0.000000   0.000000   0.000000   0.000000   0.000000   0.000000
     31       0.000000   0.000000   0.000000   0.000000   0.000000   0.000000
     32       0.000000   0.000000   0.000000   0.000000   0.000000   0.000000
     33       0.000000   0.000000   0.000000   0.000000   0.000000   0.000000
     34       0.000000   0.000000   0.000000   0.000000   0.000000   0.000000
     35       0.000000   0.000000   0.000000   0.000000   0.000000   0.000000
     36       0.000000   0.000000   0.000000   0.000000   0.000000   0.000000
     37       0.000000   0.000000   0.000000   0.000000   0.000000   0.000000
     38       0.000000   0.000000   0.000000   0.000000   0.000000   0.000000
     39       0.000000   0.000000   0.000000   0.000000   0.000000   0.000000
     40       0.000000   0.000000   0.000000   0.000000   0.000000   0.000000
     41       0.000000   0.000000   0.000000   0.000000   0.000000   0.000000
     42       0.000000   0.000000   0.000000   0.000000   0.000000   0.000000
     43       0.000000   0.000000   0.000000   0.000000   0.000000   0.000000
     44       0.000000   0.000000   0.000000   0.000000   0.000000   0.000000
     45       0.000000   0.000000   0.000000   0.000000   0.000000   0.000000
     46       0.000000   0.000000   0.000000   0.000000   0.000000   0.000000
     47       0.000000   0.000000   0.000000   0.000000   0.000000   0.000000
     48       0.000000   0.000000   0.000000   0.000000   0.000000   0.000000
     49       0.000000   0.000000   0.000000   0.000000   0.000000   0.000000
     50       0.000000   0.000000   0.000000   0.000000   0.000000   0.000000
     51       0.000000   0.000000   0.000000   0.000000   0.000000   0.000000
     52       0.000000   0.000000   0.000000   0.000000   0.000000   0.000000
     53       0.000000   0.000000   0.000000   0.000000   0.000000   0.000000
     54       0.000000   0.000000   0.000000   0.000000   0.000000   0.000000
     55       0.000000   0.000000   0.000000   0.000000   0.000000   0.000000
     56       0.000000   0.000000   0.000000   0.000000   0.000000   0.000000
     57       0.000000   0.000000   0.000000   0.000000   0.000000   0.000000
     58       0.000000   0.000000   0.000000   0.000000   0.000000   0.000000
     59       0.000000   0.000000   0.000000   0.000000   0.000000   0.000000
                  6          7          8          9         10         11    
      0       0.001473   0.000100  -0.068490   0.000635   0.000090   0.000015
      1      -0.006825  -0.000639   0.188487  -0.003014   0.000455  -0.000317
      2      -0.192330  -0.025981  -0.007108  -0.082654   0.012676  -0.007628
      3      -0.000639   0.000943   0.080289  -0.000828   0.000518  -0.000487
      4       0.003325  -0.003667  -0.036954   0.003779  -0.002038   0.002216
      5       0.091736  -0.098079   0.002171   0.104440  -0.057345   0.060049
      6       0.001810   0.002418   0.049517   0.000721  -0.003872   0.003730
      7      -0.006012  -0.009473   0.361588  -0.002111   0.016115  -0.015451
      8      -0.186274  -0.260364  -0.011941  -0.067870   0.424001  -0.401871
      9      -0.097296  -0.090743  -0.192893  -0.063070   0.231428  -0.221607
     10      -0.165110   0.209341   0.197095  -0.121116  -0.256398   0.245641
     11      -0.304319   0.110843  -0.007950  -0.165565  -0.147980   0.146189
     12       0.101622   0.087936  -0.194138   0.065491  -0.227664   0.218372
     13       0.142521  -0.199418   0.197199   0.108462   0.244049  -0.233597
     14      -0.314250   0.128212  -0.009338  -0.173177  -0.171519   0.168740
     15      -0.000977  -0.001071  -0.006372  -0.001337  -0.000065   0.000439
     16       0.004097   0.004425  -0.180330   0.006126   0.000285  -0.001732
     17       0.118001   0.128461   0.006001   0.167561   0.006712  -0.048093
     18      -0.104380  -0.058207   0.182256  -0.080015   0.010246   0.007927
     19      -0.117852   0.155726  -0.032455  -0.042984   0.044539  -0.071137
     20       0.188377  -0.228478   0.000557   0.140854  -0.094935   0.119577
     21       0.101912   0.062505   0.181436   0.077851  -0.008738  -0.009777
     22       0.131418  -0.172239  -0.031693   0.053168  -0.051312   0.079796
     23       0.180844  -0.215327   0.005527   0.138589  -0.091576   0.113867
     24      -0.000976  -0.001071  -0.006372   0.001337   0.000065   0.000439
     25       0.004097   0.004426  -0.180330  -0.006129  -0.000285  -0.001733
     26       0.118000   0.128461   0.006006  -0.167562  -0.006709  -0.048093
     27       0.012654   0.071107  -0.045643  -0.092619   0.024350  -0.038340
     28       0.008897  -0.095862  -0.174122  -0.190195  -0.054036   0.063813
     29       0.114029   0.210716   0.001167   0.325332   0.051170  -0.101845
     30      -0.014630  -0.074685  -0.045192   0.087607  -0.025255   0.040091
     31      -0.000974   0.110494  -0.174468   0.213644   0.057718  -0.071044
     32       0.114187   0.201957   0.009274   0.311943   0.046654  -0.096245
     33      -0.000639   0.000943   0.080289   0.000830  -0.000518  -0.000487
     34       0.003324  -0.003666  -0.036955  -0.003780   0.002037   0.002215
     35       0.091735  -0.098079   0.002172  -0.104440   0.057342   0.060053
     36       0.012655   0.071107  -0.045645   0.092618  -0.024348  -0.038342
     37       0.008897  -0.095862  -0.174128   0.190192   0.054032   0.063817
     38       0.114027   0.210715   0.001176  -0.325333  -0.051163  -0.101848
     39      -0.014630  -0.074685  -0.045190  -0.087607   0.025253   0.040093
     40      -0.000976   0.110493  -0.174462  -0.213647  -0.057713  -0.071048
     41       0.114185   0.201957   0.009283  -0.311944  -0.046647  -0.096248
     42       0.001474   0.000101  -0.068491  -0.000637  -0.000090   0.000015
     43      -0.006824  -0.000639   0.188487   0.003017  -0.000454  -0.000317
     44      -0.192329  -0.025981  -0.007110   0.082655  -0.012676  -0.007629
     45      -0.104381  -0.058208   0.182254   0.080020  -0.010247   0.007926
     46      -0.117853   0.155729  -0.032455   0.042984  -0.044535  -0.071141
     47       0.188374  -0.228478   0.000559  -0.140854   0.094928   0.119582
     48       0.101911   0.062505   0.181439  -0.077848   0.008738  -0.009776
     49       0.131416  -0.172237  -0.031694  -0.053168   0.051307   0.079799
     50       0.180843  -0.215329   0.005529  -0.138590   0.091570   0.113873
     51      -0.097292  -0.090742  -0.192898   0.063066  -0.231414  -0.221621
     52      -0.165109   0.209339   0.197093   0.121119   0.256380   0.245656
     53      -0.304320   0.110846  -0.007954   0.165568   0.147972   0.146201
     54       0.001810   0.002418   0.049517  -0.000720   0.003872   0.003731
     55      -0.006012  -0.009472   0.361589   0.002117  -0.016111  -0.015448
     56      -0.186270  -0.260364  -0.011942   0.067871  -0.423977  -0.401899
     57       0.101621   0.087937  -0.194136  -0.065495   0.227652   0.218388
     58       0.142524  -0.199420   0.197202  -0.108461  -0.244035  -0.233614
     59      -0.314248   0.128210  -0.009342   0.173177   0.171505   0.168749
                 12         13         14         15         16         17    
      0      -0.191111  -0.159907  -0.135698   0.000015   0.000058  -0.000239
      1       0.053887  -0.068090  -0.008654  -0.000149  -0.000418   0.001069
      2      -0.003486   0.001183  -0.000774  -0.003386  -0.010425   0.028211
      3      -0.030827  -0.213767  -0.009422   0.000247   0.000476  -0.000456
      4      -0.155998   0.088126  -0.122684  -0.000985  -0.001992   0.002036
      5       0.005357  -0.005008   0.004424  -0.027263  -0.054487   0.054854
      6      -0.037962  -0.225051   0.011334  -0.000371  -0.000930   0.001448
      7       0.279943  -0.162893   0.209392   0.000840   0.002555  -0.004726
      8      -0.009850   0.004418  -0.007442   0.026483   0.074475  -0.130362
      9      -0.355957  -0.091680  -0.296953   0.059924   0.136793  -0.210933
     10       0.069052  -0.072499   0.010212   0.070497   0.133220  -0.173937
     11      -0.002216   0.001490   0.003123   0.048066   0.088257  -0.103318
     12      -0.357323  -0.091659  -0.297488  -0.060751  -0.138238   0.212504
     13       0.069115  -0.071834   0.009580  -0.066739  -0.126295   0.165742
     14      -0.009207   0.002006  -0.008973   0.052234   0.095693  -0.112438
     15       0.033001  -0.114394   0.157980   0.000329   0.000234   0.000421
     16      -0.089164   0.111815   0.112610  -0.001513  -0.001100  -0.001927
     17       0.003488  -0.005005  -0.002845  -0.041119  -0.029766  -0.051644
     18       0.005266  -0.295973  -0.063307   0.045045   0.013207   0.127803
     19      -0.143659   0.082613  -0.107184  -0.226470  -0.323186   0.221240
     20      -0.002974  -0.002677  -0.006827   0.158855   0.210248  -0.124980
     21       0.004989  -0.295811  -0.063431  -0.047336  -0.016273  -0.125843
     22      -0.143386   0.082370  -0.106673   0.237594   0.337871  -0.229955
     23       0.013114  -0.008301   0.013444   0.140880   0.185482  -0.110334
     24      -0.033001   0.114393   0.157980   0.000329  -0.000234   0.000421
     25       0.089163  -0.111815   0.112610  -0.001512   0.001100  -0.001927
     26      -0.003489   0.005005  -0.002844  -0.041119   0.029766  -0.051644
     27       0.115579  -0.197003   0.278236  -0.014704   0.107165  -0.140786
     28      -0.084132   0.099548   0.104028  -0.327785  -0.169053  -0.200301
     29       0.001399   0.002753   0.004905   0.226586   0.110049   0.109896
     30       0.115376  -0.196831   0.278361   0.011160  -0.108858   0.139083
     31      -0.083935   0.099145   0.103806   0.343598   0.176632   0.207897
     32       0.006542  -0.013045  -0.007823   0.202063   0.095565   0.097130
     33       0.030827   0.213768  -0.009421   0.000247  -0.000476  -0.000457
     34       0.155998  -0.088125  -0.122684  -0.000984   0.001991   0.002035
     35      -0.005356   0.005007   0.004423  -0.027263   0.054487   0.054854
     36      -0.115580   0.197003   0.278236  -0.014704  -0.107164  -0.140787
     37       0.084133  -0.099550   0.104027  -0.327785   0.169055  -0.200301
     38      -0.001401  -0.002752   0.004907   0.226585  -0.110049   0.109896
     39      -0.115376   0.196831   0.278361   0.011161   0.108858   0.139083
     40       0.083933  -0.099144   0.103808   0.343597  -0.176633   0.207896
     41      -0.006543   0.013046  -0.007822   0.202064  -0.095567   0.097130
     42       0.191111   0.159907  -0.135697   0.000015  -0.000058  -0.000239
     43      -0.053886   0.068089  -0.008654  -0.000149   0.000418   0.001069
     44       0.003486  -0.001183  -0.000774  -0.003386   0.010425   0.028211
     45      -0.005265   0.295973  -0.063306   0.045044  -0.013207   0.127803
     46       0.143658  -0.082611  -0.107185  -0.226470   0.323188   0.221241
     47       0.002975   0.002674  -0.006827   0.158853  -0.210246  -0.124978
     48      -0.004989   0.295812  -0.063431  -0.047336   0.016274  -0.125843
     49       0.143386  -0.082372  -0.106673   0.237591  -0.337870  -0.229955
     50      -0.013113   0.008299   0.013444   0.140881  -0.185485  -0.110336
     51       0.355959   0.091681  -0.296954   0.059924  -0.136793  -0.210932
     52      -0.069052   0.072498   0.010212   0.070496  -0.133220  -0.173936
     53       0.002215  -0.001490   0.003123   0.048066  -0.088258  -0.103320
     54       0.037962   0.225051   0.011335  -0.000371   0.000930   0.001448
     55      -0.279942   0.162893   0.209392   0.000839  -0.002554  -0.004726
     56       0.009851  -0.004414  -0.007441   0.026483  -0.074476  -0.130362
     57       0.357321   0.091658  -0.297486  -0.060750   0.138238   0.212505
     58      -0.069113   0.071835   0.009580  -0.066739   0.126296   0.165743
     59       0.009206  -0.002007  -0.008973   0.052233  -0.095692  -0.112436
                 18         19         20         21         22         23    
      0      -0.135861   0.080965   0.000815   0.144353  -0.000453   0.081307
      1      -0.009101  -0.031431   0.001246   0.124537   0.001658   0.136514
      2      -0.000792   0.000831   0.047459  -0.003373   0.046739  -0.004303
      3      -0.011410   0.016475   0.000304  -0.179610   0.000570  -0.181267
      4       0.128962  -0.068723  -0.000992  -0.107375  -0.001803  -0.083728
      5      -0.004884   0.002625   0.001671   0.002491  -0.048381   0.001517
      6      -0.396276   0.357365   0.007201   0.102815   0.001311  -0.070199
      7      -0.389405   0.375644   0.000500   0.057405  -0.003974  -0.091877
      8       0.011131  -0.007683  -0.146940  -0.001638  -0.110699   0.002382
      9       0.129373  -0.212547  -0.230069   0.243470  -0.166616   0.304388
     10      -0.065532   0.035462  -0.179893   0.119832  -0.138320   0.100898
     11      -0.022518   0.028139  -0.090597  -0.002830  -0.060125  -0.017584
     12       0.129563  -0.222571   0.224343   0.244115   0.166961   0.305160
     13      -0.062631   0.024733   0.173467   0.120077   0.133323   0.102915
     14       0.029454  -0.029954  -0.100878  -0.001914  -0.067510   0.015196
     15       0.123135  -0.028050   0.000173  -0.154756  -0.000237   0.049482
     16      -0.083715   0.123371  -0.000668  -0.157615   0.000723  -0.039098
     17       0.004141  -0.003248  -0.071557   0.004451   0.017183   0.001860
     18       0.091296  -0.162810   0.264732  -0.189021   0.245127  -0.201834
     19       0.124908  -0.064530   0.011323  -0.118815  -0.116477  -0.081996
     20      -0.001204  -0.001888  -0.005388   0.008190   0.050657  -0.002068
     21       0.091000  -0.150993  -0.269282  -0.189277  -0.245262  -0.202608
     22       0.124815  -0.063675  -0.013841  -0.118870   0.119693  -0.081010
     23      -0.006502   0.004394  -0.008757  -0.002265   0.037855   0.005145
     24       0.123135   0.028050  -0.000175   0.154756  -0.000241   0.049478
     25      -0.083716  -0.123371   0.000670   0.157615   0.000719  -0.039099
     26       0.004144   0.003248   0.071557  -0.004450   0.017183   0.001860
     27       0.121488  -0.111104   0.132651  -0.166666   0.335309   0.233849
     28      -0.081379   0.112203  -0.206787  -0.164408   0.046968  -0.055685
     29       0.002174   0.002409   0.102047   0.007292  -0.016713   0.013072
     30       0.121146  -0.105166  -0.137524  -0.166926  -0.335371   0.232744
     31      -0.081475   0.102380   0.217090  -0.164014  -0.048069  -0.056331
     32       0.005746  -0.016121   0.083945   0.002356  -0.018640  -0.005105
     33      -0.011410  -0.016475  -0.000304   0.179609   0.000565  -0.181265
     34       0.128962   0.068723   0.000989   0.107375  -0.001806  -0.083728
     35      -0.004883  -0.002624  -0.001671  -0.002494  -0.048381   0.001516
     36       0.121483   0.111102  -0.132653   0.166696   0.335306   0.233841
     37      -0.081372  -0.112202   0.206789   0.164411   0.046965  -0.055686
     38       0.002169  -0.002410  -0.102046  -0.007293  -0.016713   0.013071
     39       0.121151   0.105168   0.137521   0.166900  -0.335375   0.232736
     40      -0.081484  -0.102380  -0.217089   0.164009  -0.048072  -0.056333
     41       0.005743   0.016121  -0.083946  -0.002358  -0.018640  -0.005105
     42      -0.135861  -0.080964  -0.000813  -0.144354  -0.000449   0.081306
     43      -0.009101   0.031431  -0.001246  -0.124536   0.001661   0.136513
     44      -0.000794  -0.000832  -0.047459   0.003376   0.046739  -0.004302
     45       0.091286   0.162808  -0.264735   0.189044   0.245125  -0.201830
     46       0.124908   0.064531  -0.011325   0.118806  -0.116481  -0.081996
     47      -0.001203   0.001888   0.005387  -0.008185   0.050657  -0.002069
     48       0.091009   0.150995   0.269280   0.189254  -0.245266  -0.202601
     49       0.124815   0.063673   0.013840   0.118881   0.119690  -0.081012
     50      -0.006501  -0.004394   0.008758   0.002270   0.037855   0.005144
     51       0.129383   0.212550   0.230064  -0.243484  -0.166607   0.304387
     52      -0.065525  -0.035460   0.179893  -0.119845  -0.138317   0.100899
     53      -0.022515  -0.028138   0.090600   0.002824  -0.060127  -0.017582
     54      -0.396277  -0.357365  -0.007193  -0.102817   0.001311  -0.070198
     55      -0.389406  -0.375643  -0.000493  -0.057408  -0.003974  -0.091876
     56       0.011132   0.007681   0.146939   0.001627  -0.110700   0.002382
     57       0.129555   0.222569  -0.224347  -0.244098   0.166970   0.305157
     58      -0.062637  -0.024734  -0.173467  -0.120065   0.133327   0.102914
     59       0.029458   0.029954   0.100875   0.001906  -0.067508   0.015197
                 24         25         26         27         28         29    
      0      -0.046133  -0.049812  -0.038280   0.000694   0.000730   0.022376
      1      -0.052413   0.052924   0.097222  -0.003085  -0.003117  -0.044619
      2       0.001536  -0.002463  -0.003994  -0.082163  -0.082390   0.001901
      3       0.121163   0.060164   0.015307  -0.001035  -0.000899  -0.047439
      4      -0.013333  -0.101712  -0.157993   0.004677   0.003738   0.051395
      5       0.001499   0.004315   0.006016   0.125290   0.099209  -0.002381
      6      -0.030288  -0.252472  -0.260822  -0.001661  -0.001480   0.124912
      7      -0.030624  -0.253929  -0.244290   0.005685   0.005762   0.109124
      8       0.000958   0.007301   0.006705   0.152000   0.149798  -0.002945
      9      -0.077973   0.213867   0.296826   0.183499   0.158476  -0.093503
     10      -0.058988  -0.020349   0.002381   0.187923   0.179201   0.021357
     11      -0.001898  -0.034708  -0.047257   0.063000   0.055444   0.035439
     12      -0.078234   0.213228   0.296160  -0.184329  -0.159323  -0.092744
     13      -0.058766  -0.017218   0.006674  -0.182798  -0.174573   0.018459
     14       0.004901   0.040034   0.052299   0.073957   0.066141  -0.038726
     15      -0.180708  -0.090508  -0.016781   0.001029   0.000253  -0.074603
     16      -0.044172   0.075237   0.167771  -0.004706  -0.001320  -0.023981
     17       0.000201  -0.003511  -0.006336  -0.126514  -0.034710   0.000323
     18       0.272925   0.319077   0.146676  -0.013946   0.204946   0.207297
     19      -0.022676  -0.092483  -0.142035   0.254084   0.193383   0.042463
     20       0.008950   0.000322  -0.005603  -0.082859  -0.054008   0.006323
     21       0.272835   0.318856   0.146137   0.015112  -0.203926   0.207468
     22      -0.023322  -0.092356  -0.141236  -0.259348  -0.196814   0.042304
     23      -0.002907   0.011636   0.018497  -0.063519  -0.042861  -0.006010
     24       0.180710  -0.090507   0.016781  -0.001029   0.000253  -0.074603
     25       0.044170   0.075237  -0.167771   0.004706  -0.001320  -0.023981
     26      -0.000201  -0.003510   0.006336   0.126514  -0.034710   0.000323
     27      -0.367589   0.071060  -0.004407  -0.016973   0.287727   0.416779
     28      -0.046690   0.080542   0.147036  -0.258297  -0.064365  -0.014338
     29      -0.001317  -0.004240   0.008006   0.087725   0.024063   0.001952
     30      -0.367487   0.071489  -0.004128   0.015707  -0.287416   0.417385
     31      -0.046962   0.080636   0.146077   0.264036   0.065742  -0.014355
     32      -0.001334  -0.000582  -0.018894   0.068761   0.014605   0.005835
     33      -0.121166   0.060164  -0.015307   0.001035  -0.000900  -0.047440
     34       0.013332  -0.101713   0.157993  -0.004677   0.003737   0.051395
     35      -0.001499   0.004314  -0.006016  -0.125289   0.099209  -0.002381
     36       0.367592   0.071061   0.004410   0.016972   0.287727   0.416778
     37       0.046690   0.080542  -0.147035   0.258297  -0.064367  -0.014338
     38       0.001315  -0.004240  -0.008007  -0.087724   0.024063   0.001951
     39       0.367491   0.071491   0.004126  -0.015710  -0.287415   0.417387
     40       0.046960   0.080637  -0.146078  -0.264036   0.065743  -0.014355
     41       0.001333  -0.000582   0.018893  -0.068761   0.014606   0.005835
     42       0.046135  -0.049812   0.038280  -0.000695   0.000731   0.022376
     43       0.052415   0.052924  -0.097222   0.003085  -0.003117  -0.044619
     44      -0.001536  -0.002463   0.003994   0.082163  -0.082390   0.001901
     45      -0.272931   0.319075  -0.146673   0.013947   0.204946   0.207295
     46       0.022676  -0.092482   0.142033  -0.254085   0.193385   0.042461
     47      -0.008951   0.000322   0.005604   0.082857  -0.054006   0.006325
     48      -0.272841   0.318856  -0.146137  -0.015115  -0.203923   0.207473
     49       0.023321  -0.092357   0.141238   0.259346  -0.196814   0.042305
     50       0.002907   0.011636  -0.018496   0.063521  -0.042863  -0.006009
     51       0.077978   0.213869  -0.296828  -0.183496   0.158475  -0.093504
     52       0.058990  -0.020346  -0.002384  -0.187922   0.179202   0.021355
     53       0.001899  -0.034707   0.047256  -0.063002   0.055447   0.035438
     54       0.030289  -0.252471   0.260822   0.001659  -0.001479   0.124913
     55       0.030624  -0.253928   0.244290  -0.005685   0.005761   0.109124
     56      -0.000957   0.007300  -0.006705  -0.151999   0.149798  -0.002945
     57       0.078237   0.213227  -0.296158   0.184330  -0.159325  -0.092742
     58       0.058768  -0.017219  -0.006673   0.182798  -0.174573   0.018461
     59      -0.004901   0.040035  -0.052300  -0.073954   0.066139  -0.038726
                 30         31         32         33         34         35    
      0       0.000560  -0.000087  -0.000316  -0.018728   0.010498   0.033611
      1      -0.002218   0.000186   0.001169   0.040331  -0.030054   0.003883
      2      -0.057705   0.004232   0.031394  -0.001766   0.001246   0.000161
      3      -0.000371  -0.000144  -0.000086   0.098646  -0.121058  -0.088518
      4       0.000735   0.001200   0.000954  -0.013043  -0.009635  -0.010188
      5       0.018530   0.032955   0.025849   0.001298  -0.000622  -0.000327
      6      -0.000695  -0.000305   0.000241  -0.132313   0.106017  -0.016508
      7       0.003598   0.000761  -0.000956  -0.125208   0.107055  -0.063859
      8       0.088956   0.021532  -0.024951   0.003500  -0.002985   0.002316
      9       0.098719  -0.023632  -0.063481   0.025443   0.020359  -0.100902
     10       0.116611  -0.004858  -0.058939  -0.054044   0.076234   0.010551
     11       0.029786   0.003401  -0.010588  -0.055641   0.067399   0.000565
     12      -0.099311   0.023861   0.063780   0.023982   0.021842  -0.100949
     13      -0.113915   0.005053   0.057935  -0.049780   0.070829   0.010389
     14       0.036702   0.003532  -0.013896   0.060153  -0.072660  -0.003286
     15      -0.000646  -0.000197   0.000335   0.058044   0.072981   0.139815
     16       0.002710   0.000811  -0.001988  -0.029097   0.017405  -0.000295
     17       0.072542   0.022787  -0.053419   0.001651  -0.000101   0.001150
     18       0.425318  -0.182218  -0.395194  -0.393946   0.395244   0.245495
     19       0.037320   0.056908   0.042599  -0.014974   0.005363  -0.005169
     20      -0.002251  -0.011289  -0.016181  -0.005597  -0.000812  -0.000673
     21      -0.424116   0.181536   0.395025  -0.395988   0.396113   0.245922
     22      -0.037679  -0.057451  -0.043254  -0.014750   0.005593  -0.005029
     23      -0.006536  -0.004005  -0.006378   0.000266   0.006838   0.005044
     24       0.000646   0.000196   0.000333  -0.058043   0.072980  -0.139815
     25      -0.002710  -0.000812  -0.001986   0.029097   0.017405   0.000295
     26      -0.072542  -0.022786  -0.053419  -0.001650  -0.000102  -0.001150
     27       0.128386   0.458046   0.270296  -0.249580  -0.245733  -0.403156
     28       0.134275   0.045286  -0.092047  -0.012674   0.000519  -0.001447
     29      -0.033581  -0.004488   0.018803  -0.011031   0.007679  -0.006188
     30      -0.127181  -0.458055  -0.269864  -0.249215  -0.246065  -0.403739
     31      -0.136384  -0.045777   0.093044  -0.012344  -0.000060  -0.001243
     32      -0.025657  -0.008537   0.007625   0.007826  -0.011684  -0.000257
     33       0.000372   0.000144  -0.000088  -0.098646  -0.121058   0.088519
     34      -0.000735  -0.001200   0.000954   0.013043  -0.009635   0.010188
     35      -0.018531  -0.032955   0.025848  -0.001299  -0.000623   0.000327
     36      -0.128388  -0.458052   0.270294   0.249570  -0.245733   0.403157
     37      -0.134275  -0.045283  -0.092048   0.012677   0.000518   0.001447
     38       0.033581   0.004488   0.018803   0.011030   0.007680   0.006187
     39       0.127178   0.458061  -0.269847   0.249223  -0.246060   0.403741
     40       0.136384   0.045775   0.093044   0.012341  -0.000059   0.001244
     41       0.025658   0.008537   0.007625  -0.007827  -0.011684   0.000257
     42      -0.000560   0.000087  -0.000316   0.018728   0.010499  -0.033611
     43       0.002218  -0.000186   0.001168  -0.040331  -0.030054  -0.003883
     44       0.057705  -0.004233   0.031394   0.001765   0.001246  -0.000162
     45      -0.425323   0.182225  -0.395179   0.393957   0.395241  -0.245496
     46      -0.037321  -0.056909   0.042597   0.014973   0.005363   0.005169
     47       0.002250   0.011289  -0.016181   0.005599  -0.000811   0.000673
     48       0.424116  -0.181546   0.395029   0.395977   0.396112  -0.245926
     49       0.037679   0.057452  -0.043252   0.014752   0.005594   0.005029
     50       0.006537   0.004006  -0.006378  -0.000265   0.006839  -0.005045
     51      -0.098719   0.023634  -0.063482  -0.025441   0.020359   0.100901
     52      -0.116612   0.004859  -0.058937   0.054045   0.076233  -0.010552
     53      -0.029788  -0.003401  -0.010587   0.055642   0.067400  -0.000566
     54       0.000693   0.000305   0.000244   0.132313   0.106016   0.016507
     55      -0.003598  -0.000761  -0.000953   0.125207   0.107054   0.063858
     56      -0.088956  -0.021532  -0.024951  -0.003499  -0.002985  -0.002314
     57       0.099313  -0.023863   0.063779  -0.023983   0.021841   0.100949
     58       0.113916  -0.005054   0.057936   0.049780   0.070830  -0.010391
     59      -0.036701  -0.003532  -0.013897  -0.060152  -0.072659   0.003287
                 36         37         38         39         40         41    
      0      -0.087935  -0.082339   0.002109  -0.002805   0.009109   0.000104
      1      -0.050846  -0.052813   0.000260   0.009332  -0.017995   0.000568
      2       0.001121   0.001247   0.000049  -0.000328   0.000715   0.036158
      3       0.026898   0.004096   0.004077  -0.002166   0.011322   0.000393
      4       0.004603   0.002792  -0.015875  -0.042605   0.038809   0.000488
      5       0.000030  -0.000085   0.000645   0.001564  -0.001343   0.014228
      6       0.195708   0.199907  -0.012315   0.039967  -0.086335   0.001282
      7       0.341672   0.338785  -0.021784   0.060582  -0.138464  -0.025052
      8      -0.011157  -0.010995   0.000081  -0.002757   0.005348  -0.500358
      9       0.360656   0.347077  -0.013330   0.017719  -0.051625   0.331506
     10       0.120651   0.131581   0.004486  -0.122344   0.228974  -0.088874
     11       0.126939   0.135013   0.001830  -0.084787   0.157859  -0.022593
     12       0.363398   0.349973  -0.014182   0.014996  -0.047457  -0.335176
     13       0.110753   0.121013   0.004566  -0.115140   0.215792   0.104333
     14      -0.128970  -0.138115  -0.002545   0.094090  -0.175741  -0.050060
     15      -0.008395   0.033035   0.002115  -0.003864   0.001139  -0.000154
     16      -0.001294  -0.006495   0.052389   0.028728   0.017978   0.000950
     17      -0.000006   0.000507  -0.001905  -0.001084  -0.000666  -0.002835
     18      -0.070702  -0.009425  -0.007593   0.011108  -0.026036   0.015924
     19       0.011117   0.013176   0.119040   0.302368  -0.286296   0.020943
     20      -0.004588  -0.005949  -0.103260  -0.261362   0.245843   0.000175
     21      -0.071003  -0.009620  -0.009353   0.006841  -0.022062  -0.017900
     22       0.011511   0.013687   0.126296   0.320901  -0.303763  -0.023279
     23       0.002641   0.004839   0.094036   0.238387  -0.224356   0.000016
     24      -0.008399  -0.033034  -0.002115  -0.003864  -0.001138  -0.000154
     25      -0.001293   0.006496  -0.052386   0.028733  -0.017979   0.000949
     26      -0.000006  -0.000507   0.001905  -0.001084   0.000666  -0.002833
     27       0.024493  -0.101678  -0.001697   0.006019   0.003432   0.016163
     28      -0.014383  -0.020117  -0.356123  -0.190257  -0.082147  -0.009603
     29       0.007348   0.006907   0.310276   0.165756   0.076057   0.008430
     30       0.024789  -0.101403   0.003027   0.008632   0.004661  -0.015887
     31      -0.014898  -0.020610  -0.378016  -0.201952  -0.087481  -0.002361
     32      -0.005864  -0.007046  -0.283153  -0.151140  -0.069728  -0.002257
     33       0.026898  -0.004099  -0.004077  -0.002166  -0.011322   0.000393
     34       0.004602  -0.002793   0.015871  -0.042607  -0.038809   0.000488
     35       0.000030   0.000084  -0.000645   0.001564   0.001342   0.014263
     36       0.024506   0.101675   0.001697   0.006019  -0.003432   0.016223
     37      -0.014380   0.020119   0.356107  -0.190290   0.082152  -0.009595
     38       0.007347  -0.006909  -0.310260   0.165784  -0.076061   0.008432
     39       0.024801   0.101401  -0.003026   0.008632  -0.004661  -0.015947
     40      -0.014896   0.020612   0.377998  -0.201986   0.087486  -0.002361
     41      -0.005863   0.007046   0.283141  -0.151166   0.069732  -0.002250
     42      -0.087925   0.082350  -0.002110  -0.002805  -0.009109   0.000104
     43      -0.050839   0.052819  -0.000259   0.009332   0.017995   0.000570
     44       0.001120  -0.001247  -0.000049  -0.000328  -0.000714   0.036245
     45      -0.070701   0.009433   0.007594   0.011107   0.026037   0.015968
     46       0.011115  -0.013177  -0.119012   0.302384   0.286296   0.021000
     47      -0.004587   0.005948   0.103234  -0.261371  -0.245839   0.000171
     48      -0.071002   0.009627   0.009355   0.006839   0.022063  -0.017946
     49       0.011509  -0.013687  -0.126265   0.320913   0.303759  -0.023327
     50       0.002640  -0.004839  -0.094014   0.238400   0.224357   0.000022
     51       0.360614  -0.347121   0.013331   0.017720   0.051627   0.332314
     52       0.120635  -0.131595  -0.004497  -0.122345  -0.228975  -0.089102
     53       0.126924  -0.135030  -0.001838  -0.084790  -0.157863  -0.022658
     54       0.195684  -0.199931   0.012319   0.039967   0.086337   0.001290
     55       0.341631  -0.338826   0.021789   0.060582   0.138466  -0.025099
     56      -0.011152   0.010993  -0.000080  -0.002759  -0.005347  -0.501573
     57       0.363355  -0.350016   0.014183   0.014994   0.047458  -0.335986
     58       0.110739  -0.121028  -0.004577  -0.115142  -0.215796   0.104573
     59      -0.128951   0.138129   0.002554   0.094089   0.175741  -0.050170
                 42         43         44         45         46         47    
      0       0.000333   0.015293  -0.016709  -0.010485   0.002297   0.002269
      1      -0.001293  -0.025428   0.026006   0.017187   0.001913   0.000037
      2      -0.036045   0.000027  -0.001079  -0.000722  -0.000053   0.000030
      3       0.000117   0.017561  -0.012485  -0.005992  -0.000708  -0.000683
      4      -0.000564  -0.003380   0.043389   0.041816   0.002312   0.024433
      5      -0.014236  -0.000132  -0.001700  -0.001593  -0.000090  -0.001002
      6      -0.004608  -0.115052   0.108024   0.064085  -0.023295  -0.029489
      7       0.019486  -0.193620   0.189840   0.115554   0.020176   0.024176
      8       0.501464   0.021405  -0.007228  -0.004244  -0.000989  -0.001200
      9      -0.334574  -0.085266   0.069906   0.038313   0.000269   0.002002
     10       0.097467   0.303455  -0.297458  -0.189617  -0.020179  -0.010245
     11       0.028555   0.208925  -0.206950  -0.132865   0.031538   0.015630
     12       0.334017  -0.061241   0.064657   0.035216   0.000852   0.002291
     13      -0.096123   0.280702  -0.280267  -0.178669  -0.022533  -0.011507
     14       0.043382  -0.230582   0.230280   0.147653  -0.029882  -0.014882
     15       0.000018  -0.006099   0.007935   0.000889  -0.000077   0.000987
     16       0.000066   0.037749   0.010989   0.040078  -0.047642  -0.041225
     17      -0.000604  -0.001358  -0.000343  -0.001484   0.001743   0.001560
     18      -0.018874  -0.034457   0.029657   0.023740   0.002362   0.002391
     19      -0.021833  -0.029373  -0.202044  -0.215290  -0.016039  -0.154826
     20       0.000120   0.017917   0.188442   0.197389  -0.020345  -0.203092
     21       0.018898  -0.033224   0.032710   0.026981   0.002010  -0.001030
     22       0.022217  -0.029386  -0.215495  -0.229364  -0.014450  -0.140141
     23      -0.000866  -0.016300  -0.172438  -0.180487   0.021476   0.215116
     24      -0.000027  -0.006099  -0.007935   0.000889   0.000077   0.000987
     25      -0.000014   0.037748  -0.010990   0.040078   0.047642  -0.041225
     26       0.000608  -0.001359   0.000343  -0.001484  -0.001742   0.001560
     27      -0.024698   0.003284  -0.003663  -0.002873  -0.005228  -0.006244
     28      -0.002528  -0.212318  -0.080998  -0.234249   0.301385   0.258788
     29      -0.001526   0.190357   0.068907   0.208748   0.394388   0.339082
     30       0.024643   0.007149  -0.002696   0.000280   0.001338  -0.000582
     31       0.001147  -0.225988  -0.085867  -0.248971   0.271412   0.233401
     32      -0.002253  -0.174260  -0.062791  -0.190926  -0.415378  -0.357664
     33      -0.000092   0.017561   0.012485  -0.005992   0.000708  -0.000683
     34       0.000557  -0.003381  -0.043389   0.041815  -0.002312   0.024433
     35       0.014202  -0.000154   0.001700  -0.001593   0.000090  -0.001002
     36       0.024664   0.003247   0.003663  -0.002872   0.005228  -0.006244
     37       0.002243  -0.212320   0.080999  -0.234248  -0.301385   0.258787
     38       0.001782   0.190353  -0.068908   0.208747  -0.394390   0.339083
     39      -0.024594   0.007186   0.002696   0.000281  -0.001337  -0.000582
     40      -0.001470  -0.225984   0.085868  -0.248969  -0.271413   0.233403
     41       0.002005  -0.174262   0.062792  -0.190925   0.415377  -0.357664
     42      -0.000310   0.015294   0.016709  -0.010485  -0.002297   0.002269
     43       0.001254  -0.025430  -0.026006   0.017187  -0.001913   0.000037
     44       0.035957  -0.000027   0.001078  -0.000722   0.000053   0.000030
     45       0.018783  -0.034486  -0.029659   0.023740  -0.002362   0.002391
     46       0.021741  -0.029402   0.202046  -0.215290   0.016039  -0.154823
     47      -0.000095   0.017914  -0.188442   0.197386   0.020345  -0.203092
     48      -0.018903  -0.033195  -0.032710   0.026980  -0.002010  -0.001030
     49      -0.022203  -0.029349   0.215496  -0.229362   0.014449  -0.140143
     50       0.000843  -0.016299   0.172441  -0.180488  -0.021474   0.215115
     51       0.333644  -0.085768  -0.069915   0.038317  -0.000269   0.002002
     52      -0.096802   0.303596   0.297459  -0.189616   0.020179  -0.010245
     53      -0.028192   0.208968   0.206954  -0.132867  -0.031538   0.015629
     54       0.004435  -0.115058  -0.108024   0.064085   0.023295  -0.029488
     55      -0.019707  -0.193589  -0.189839   0.115552  -0.020176   0.024176
     56      -0.500218   0.022157   0.007239  -0.004249   0.000989  -0.001199
     57      -0.333294  -0.060738  -0.064648   0.035211  -0.000852   0.002291
     58       0.096286   0.280556   0.280268  -0.178669   0.022532  -0.011507
     59      -0.043601  -0.230511  -0.230277   0.147651   0.029882  -0.014882
                 48         49         50         51         52         53    
      0       0.002806   0.000582   0.000022  -0.026523  -0.026144  -0.000451
      1      -0.005199   0.008305  -0.000111  -0.022775  -0.023830   0.000041
      2       0.000255  -0.000351  -0.001986   0.000508   0.000659   0.008386
      3      -0.000290   0.000170  -0.000186   0.000605   0.000609   0.000411
      4       0.048258  -0.041043   0.001094  -0.004290  -0.000228  -0.002134
      5      -0.002059   0.001815   0.022852   0.000821   0.000021  -0.049038
      6      -0.038256   0.000252  -0.000080   0.296468   0.292081   0.004175
      7       0.030233  -0.000894   0.000083  -0.214998  -0.211331  -0.002964
      8      -0.001509   0.000020   0.000443   0.011021   0.010868   0.002431
      9       0.002138  -0.002283  -0.001258   0.010493   0.010674   0.002417
     10       0.014291  -0.045040  -0.009252   0.229260   0.233506   0.041384
     11      -0.024348   0.071716   0.013175  -0.350665  -0.357424  -0.059801
     12       0.001682  -0.000956   0.001035   0.004115   0.004137  -0.001219
     13       0.015836  -0.050039   0.010593   0.256672   0.260335  -0.039098
     14       0.022853  -0.067618   0.012929   0.333649   0.338723  -0.047735
     15       0.000309   0.000001   0.000492   0.000240   0.000300  -0.000343
     16       0.002624  -0.024581  -0.002207  -0.005983  -0.004418   0.001414
     17       0.000145   0.000736  -0.060419  -0.000332   0.000191   0.042589
     18       0.005605  -0.006371   0.001923  -0.001923  -0.000960  -0.003018
     19      -0.300137   0.256146  -0.115860   0.024028   0.002114   0.239676
     20      -0.392500   0.334082  -0.139486   0.032771   0.004077   0.291125
     21      -0.001006  -0.000739   0.000414  -0.001316  -0.000885  -0.001924
     22      -0.272616   0.233280   0.102432   0.027308   0.001870  -0.213876
     23       0.417017  -0.355815  -0.143452  -0.042663  -0.004328   0.302616
     24      -0.000309   0.000001  -0.000492   0.000240  -0.000300  -0.000343
     25      -0.002624  -0.024581   0.002205  -0.005982   0.004419   0.001414
     26      -0.000145   0.000732   0.060419  -0.000332  -0.000194   0.042588
     27       0.001372  -0.001090  -0.006211  -0.001342  -0.001982   0.002462
     28      -0.016113   0.153057   0.295628   0.040126   0.025891  -0.203210
     29      -0.021599   0.199419   0.357810   0.051420   0.033258  -0.247375
     30       0.001037   0.002217   0.000242  -0.000525  -0.001422   0.001671
     31      -0.012332   0.136480  -0.268687   0.031404   0.023589   0.186185
     32       0.019721  -0.208022   0.379030  -0.047398  -0.035419  -0.264345
     33       0.000290   0.000170   0.000187   0.000605  -0.000609   0.000411
     34      -0.048259  -0.041043  -0.001096  -0.004290   0.000229  -0.002134
     35       0.002060   0.001817  -0.022852   0.000820  -0.000018  -0.049038
     36      -0.001372  -0.001091   0.006211  -0.001342   0.001982   0.002462
     37       0.016115   0.153073  -0.295619   0.040122  -0.025884  -0.203208
     38       0.021601   0.199439  -0.357800   0.051414  -0.033251  -0.247374
     39      -0.001037   0.002217  -0.000242  -0.000524   0.001422   0.001671
     40       0.012332   0.136464   0.268697   0.031399  -0.023605   0.186183
     41      -0.019720  -0.207999  -0.379043  -0.047391   0.035443  -0.264342
     42      -0.002806   0.000582  -0.000022  -0.026519   0.026149  -0.000450
     43       0.005199   0.008305   0.000111  -0.022772   0.023834   0.000042
     44      -0.000255  -0.000351   0.001986   0.000507  -0.000659   0.008386
     45      -0.005606  -0.006371  -0.001923  -0.001923   0.000961  -0.003019
     46       0.300133   0.256133   0.115877   0.024029  -0.002134   0.239677
     47       0.392502   0.334070   0.139510   0.032772  -0.004102   0.291130
     48       0.001007  -0.000739  -0.000414  -0.001316   0.000885  -0.001925
     49       0.272624   0.233288  -0.102419   0.027307  -0.001862  -0.213876
     50      -0.417023  -0.355820   0.143430  -0.042662   0.004316   0.302610
     51      -0.002138  -0.002283   0.001258   0.010492  -0.010676   0.002416
     52      -0.014292  -0.045042   0.009249   0.229225  -0.233551   0.041369
     53       0.024349   0.071717  -0.013171  -0.350604   0.357486  -0.059777
     54       0.038256   0.000252   0.000080   0.296419  -0.292130   0.004155
     55      -0.030233  -0.000894  -0.000083  -0.214962   0.211367  -0.002950
     56       0.001509   0.000020  -0.000443   0.011017  -0.010868   0.002431
     57      -0.001682  -0.000956  -0.001035   0.004114  -0.004138  -0.001219
     58      -0.015836  -0.050038  -0.010596   0.256625  -0.260372  -0.039115
     59      -0.022853  -0.067617  -0.012934   0.333594  -0.338778  -0.047758
                 54         55         56         57         58         59    
      0      -0.000176  -0.000186  -0.000621  -0.000623   0.041991   0.036241
      1       0.000678   0.000756   0.002445   0.002419  -0.055742  -0.047832
      2       0.017718   0.019911   0.062929   0.061739   0.002597   0.002212
      3       0.000486   0.000321  -0.000148  -0.000163   0.000282   0.000229
      4      -0.002326  -0.001501   0.000699   0.000771  -0.005537  -0.004735
      5      -0.059296  -0.039047   0.018157   0.020028   0.000239   0.000196
      6       0.000045  -0.000081   0.000201   0.000379  -0.530845  -0.458205
      7       0.000152   0.000263   0.000310   0.000174   0.367137   0.316766
      8       0.006055   0.006504   0.013809   0.013420  -0.019086  -0.016473
      9       0.002343   0.002140   0.016156   0.016178   0.017963   0.015353
     10       0.077333   0.085164   0.271483   0.266546   0.141721   0.120780
     11      -0.112618  -0.124494  -0.393635  -0.386311  -0.231696  -0.197628
     12      -0.000283   0.000141  -0.008967  -0.009132   0.013696   0.011720
     13      -0.085627  -0.094370  -0.301024  -0.295654   0.158519   0.135279
     14      -0.106241  -0.117499  -0.372045  -0.365282   0.219741   0.187650
     15       0.000193   0.000406  -0.000038  -0.000078  -0.000245  -0.000075
     16      -0.000886  -0.001851   0.000170   0.000358  -0.000939   0.000048
     17      -0.023814  -0.050076   0.004626   0.009665   0.000050   0.000002
     18      -0.006014  -0.007417  -0.000042   0.001002  -0.000186   0.000035
     19       0.283203   0.187066  -0.083571  -0.093021   0.030963   0.026082
     20       0.345225   0.227451  -0.102955  -0.114241   0.038517   0.032381
     21       0.000201   0.003579   0.001767   0.000915   0.000467   0.000586
     22      -0.255419  -0.169108   0.075458   0.084017   0.028312   0.023784
     23       0.363155   0.239899  -0.108460  -0.120388  -0.041095  -0.034451
     24      -0.000193   0.000406   0.000038  -0.000078  -0.000231   0.000111
     25       0.000886  -0.001851  -0.000170   0.000358  -0.000936   0.000093
     26       0.023814  -0.050076  -0.004627   0.009664   0.000049  -0.000009
     27      -0.005461  -0.002563   0.003398   0.001786  -0.001033  -0.001708
     28       0.110887   0.235665  -0.021667  -0.047019   0.007612   0.001169
     29       0.136246   0.288144  -0.026371  -0.056689   0.009412   0.001513
     30       0.003172  -0.002241  -0.002941  -0.000831  -0.000877  -0.001688
     31      -0.100464  -0.213755   0.019659   0.042683   0.007045   0.001088
     32       0.144014   0.304698  -0.027940  -0.059978  -0.010172  -0.001675
     33      -0.000487   0.000321   0.000148  -0.000163   0.000244  -0.000269
     34       0.002326  -0.001501  -0.000699   0.000770  -0.004767   0.005510
     35       0.059296  -0.039047  -0.018160   0.020025   0.000206  -0.000228
     36       0.005461  -0.002563  -0.003399   0.001786  -0.000766   0.001843
     37      -0.110887   0.235665   0.021673  -0.047016   0.007352  -0.002296
     38      -0.136247   0.288145   0.026379  -0.056686   0.009081  -0.002907
     39      -0.003172  -0.002241   0.002942  -0.000831  -0.000614   0.001800
     40       0.100464  -0.213756  -0.019665   0.042680   0.006803  -0.002128
     41      -0.144014   0.304698   0.027949  -0.059974  -0.009806   0.003175
     42       0.000176  -0.000186   0.000619  -0.000621   0.036097  -0.042115
     43      -0.000678   0.000756  -0.002443   0.002415  -0.047959   0.055633
     44      -0.017718   0.019912  -0.062938   0.061730   0.002234  -0.002572
     45       0.006015  -0.007418   0.000041   0.001002  -0.000189  -0.000007
     46      -0.283201   0.187065   0.083582  -0.093008   0.026715  -0.030424
     47      -0.345228   0.227454   0.102970  -0.114226   0.033242  -0.037783
     48      -0.000201   0.003579  -0.001767   0.000915   0.000374  -0.000649
     49       0.255419  -0.169110  -0.075471   0.084008   0.024434  -0.027748
     50      -0.363150   0.239897   0.108477  -0.120374  -0.035476   0.040206
     51      -0.002343   0.002140  -0.016159   0.016176   0.015464  -0.017867
     52      -0.077333   0.085165  -0.271528   0.266518   0.122050  -0.140609
     53       0.112616  -0.124493   0.393693  -0.386264  -0.199508   0.230042
     54      -0.000044  -0.000082  -0.000182   0.000355  -0.456325   0.532459
     55      -0.000153   0.000263  -0.000323   0.000191   0.315618  -0.368122
     56      -0.006055   0.006504  -0.013810   0.013417  -0.016405   0.019140
     57       0.000283   0.000141   0.008967  -0.009130   0.011789  -0.013637
     58       0.085627  -0.094369   0.301056  -0.295602   0.136506  -0.157482
     59       0.106243  -0.117501   0.372091  -0.365224   0.189210  -0.218429
# -----------------------------------------------------------
$ THERMOCHEMISTRY_Energies
   description: The Thermochemistry energies
   geom. index: 6
   prop. index: 1
        Temperature (Kelvin)           :        298.1500000000
        Pressure (atm)                 :          1.0000000000
        Total Mass (AMU)               :         86.1780000000
        Spin Degeneracy                :          1.0000000000
        Electronic Energy (Hartree)    :       -236.8995849462
        Translational Energy (Hartree) :          0.0014162714
        Rotational Energy (Hartree)    :          0.0014162714
        Vibrational Energy (Hartree)   :          0.0055683688
        Number of frequencies          :     60      
        Scaling Factor for frequencies :          1.0000000000
        Vibrational frequencies        :     
                  0    
      0       0.000000
      1       0.000000
      2       0.000000
      3       0.000000
      4       0.000000
      5       0.000000
      6      74.692888
      7     100.723229
      8     131.043938
      9     150.367355
     10     242.276557
     11     253.707664
     12     296.207611
     13     366.032468
     14     465.032274
     15     737.440165
     16     752.374471
     17     814.398903
     18     895.565346
     19     913.913981
     20     916.401981
     21     1018.623053
     22     1023.530009
     23     1059.487791
     24     1073.747502
     25     1085.653527
     26     1168.113635
     27     1221.035954
     28     1267.223065
     29     1287.539440
     30     1322.932592
     31     1344.515367
     32     1350.144436
     33     1358.948374
     34     1409.707839
     35     1424.231282
     36     1439.980140
     37     1441.698287
     38     1514.287330
     39     1514.333970
     40     1520.987494
     41     1529.326107
     42     1529.506931
     43     1529.588144
     44     1538.317836
     45     1543.838232
     46     3008.098491
     47     3011.119052
     48     3022.335295
     49     3026.549950
     50     3028.657163
     51     3038.397723
     52     3038.584472
     53     3039.239674
     54     3055.363209
     55     3068.818738
     56     3102.326845
     57     3103.109601
     58     3107.146242
     59     3107.146661
        Zero Point Energy (Hartree)    :          0.1899635732
        Inner Energy (Hartree)         :       -236.7012204614
        Enthalpy (Hartree)             :       -236.7002762523
        Electronic entropy             :          0.0000000000
        Rotational entropy             :          0.0129692219
        Vibrational entropy            :          0.0098140381
        Translational entropy          :          0.0129692219
        Entropy                        :          0.0414438243
        Gibbs Energy (Hartree)         :       -236.7417200767
        Is Linear                      :                 false
# -------------------------------------------------------------
----------------------- !GEOMETRIES! ------------------------
# -------------------------------------------------------------
------------------------ !GEOMETRY! -------------------------
    Number of atoms:    20 
    Geometry Index:     1 
    Coordinates:
               0 C     -5.596720000000   -0.895900000000   -0.007080000000
               1 C     -4.348320000000   -0.028410000000   -0.029150000000
               2 H     -6.493920000000   -0.269800000000   -0.037940000000
               3 H     -5.636900000000   -1.502500000000    0.903270000000
               4 H     -5.622170000000   -1.568810000000   -0.870150000000
               5 C     -3.076790000000   -0.875590000000    0.013070000000
               6 H     -4.369730000000    0.654290000000    0.828270000000
               7 H     -4.355090000000    0.588360000000   -0.935380000000
               8 C     -1.823340000000    0.000710000000   -0.009260000000
               9 H     -3.062370000000   -1.559510000000   -0.844320000000
              10 H     -3.077030000000   -1.493600000000    0.919240000000
              11 C     -0.551820000000   -0.846470000000    0.032960000000
              12 H     -1.837760000000    0.684620000000    0.848150000000
              13 H     -1.823110000000    0.618730000000   -0.915420000000
              14 C      0.696580000000    0.021020000000    0.010930000000
              15 H     -0.530400000000   -1.529150000000   -0.824480000000
              16 H     -0.545060000000   -1.463280000000    0.939160000000
              17 H      0.736770000000    0.627660000000   -0.899400000000
              18 H      1.593780000000   -0.605080000000    0.041770000000
              19 H      0.722030000000    0.693890000000    0.874030000000
------------------------ !GEOMETRY! -------------------------
    Number of atoms:    20 
    Geometry Index:     2 
    Coordinates:
               0 C     -5.647550414848   -0.899365973509   -0.007352073326
               1 C     -4.379341569776   -0.036019609908   -0.028986633693
               2 H     -6.550005248130   -0.276210117761   -0.038546673372
               3 H     -5.693484903051   -1.510282144579    0.902610964614
               4 H     -5.678230000395   -1.576888284690   -0.869544236374
               5 C     -3.087591153909   -0.867773668774    0.012693769872
               6 H     -4.396480757760    0.653272902679    0.826737697230
               7 H     -4.381937235981    0.587531633109   -0.933904896707
               8 C     -1.812543982224   -0.007108113552   -0.008875210231
               9 H     -3.074072240275   -1.557659529484   -0.843304322027
              10 H     -3.088566618148   -1.491995266064    0.917787225942
              11 C     -0.520796018672   -0.838860910717    0.032797953862
              12 H     -1.826062432960    0.682766857090    0.847132826574
              13 H     -1.811576889265    0.617123309635   -0.913961031475
              14 C      0.747412318191    0.024486081724    0.011195859548
              15 H     -0.503648156797   -1.528133816151   -0.822943390188
              16 H     -0.518205589051   -1.462444121186    0.937693908569
              17 H      0.793350740665    0.635434014382   -0.898745771794
              18 H      1.649868324062   -0.598669423791    0.042370698358
              19 H      0.778091828323    0.701976181546    0.873413334619
------------------------ !GEOMETRY! -------------------------
    Number of atoms:    20 
    Geometry Index:     3 
    Coordinates:
               0 C     -5.651749227294   -0.899101670100   -0.007375197559
               1 C     -4.381693992169   -0.037460713762   -0.028849530334
               2 H     -6.555108479175   -0.278359108781   -0.038874228978
               3 H     -5.698872992917   -1.511458527009    0.901902825653
               4 H     -5.683160524897   -1.578408669820   -0.868497418612
               5 C     -3.088325480131   -0.865175703688    0.012580663294
               6 H     -4.396574279524    0.654175835571    0.825655123157
               7 H     -4.382085352694    0.588645877133   -0.932604320036
               8 C     -1.811811156767   -0.009707191926   -0.008757486500
               9 H     -3.075160243142   -1.557507176688   -0.842539368291
              10 H     -3.089541450213   -1.492101971205    0.916835901406
              11 C     -0.518442651378   -0.837420815941    0.032663296888
              12 H     -1.824975312832    0.682616206736    0.846369082308
              13 H     -1.810601095187    0.617226899194   -0.913007087614
              14 C      0.751611597677    0.024221498985    0.011214333750
              15 H     -0.503555633350   -1.529040509354   -0.821855382689
              16 H     -0.518054628737   -1.463550940958    0.936401900630
              17 H      0.798736493318    0.636603893746   -0.898046217951
              18 H      1.654971898965   -0.596520600009    0.042696635551
              19 H      0.783022510447    0.703503387878    0.872356475928
------------------------ !GEOMETRY! -------------------------
    Number of atoms:    20 
    Geometry Index:     4 
    Coordinates:
               0 C     -5.651094655191   -0.898477943509   -0.007366822050
               1 C     -4.381553597964   -0.037904269764   -0.028732867500
               2 H     -6.555404831780   -0.279511649550   -0.039239938001
               3 H     -5.698648531658   -1.511760294794    0.901408612866
               4 H     -5.682444243239   -1.579152371275   -0.867563960533
               5 C     -3.088178625863   -0.863833627489    0.012504421022
               6 H     -4.395092578963    0.655355408502    0.824772505847
               7 H     -4.380655114553    0.590055662993   -0.931480045356
               8 C     -1.811958659343   -0.011049463219   -0.008678145908
               9 H     -3.075307430874   -1.557973629180   -0.841649766141
              10 H     -3.089590497317   -1.492882761260    0.915754177027
              11 C     -0.518582791919   -0.836977940147    0.032550633950
              12 H     -1.824828287220    0.683085810497    0.845479746579
              13 H     -1.810550019230    0.618004701887   -0.911924440388
              14 C      0.750957317916    0.023597106733    0.011201197121
              15 H     -0.505039698318   -1.530225364655   -0.820964616866
              16 H     -0.519483180166   -1.464952188886    0.935288025555
              17 H      0.798510745010    0.636896850675   -0.897562468851
              18 H      1.655267970606   -0.595369124348    0.043062338339
              19 H      0.782306710066    0.704255086790    0.871411413287
------------------------ !GEOMETRY! -------------------------
    Number of atoms:    20 
    Geometry Index:     5 
    Coordinates:
               0 C     -5.649984395617   -0.898182172088   -0.007350159795
               1 C     -4.381140193045   -0.037778610341   -0.028687153455
               2 H     -6.554720603639   -0.279791010330   -0.039467347871
               3 H     -5.697596334403   -1.511631672226    0.901336932694
               4 H     -5.681110149464   -1.579336331157   -0.867206331130
               5 C     -3.088001544069   -0.863729774737    0.012470760262
               6 H     -4.394425443813    0.655913035096    0.824513643197
               7 H     -4.380018967255    0.590740206056   -0.931085307644
               8 C     -1.812135681489   -0.011153281248   -0.008644060188
               9 H     -3.075270888263   -1.558379594876   -0.841303459249
              10 H     -3.089520714099   -1.493487553230    0.915257579658
              11 C     -0.518996247160   -0.837103773375    0.032507743747
              12 H     -1.824864877441    0.683493574492    0.845132550155
              13 H     -1.810618504887    0.618607783576   -0.911428622588
              14 C      0.749847042802    0.023301120817    0.011182242845
              15 H     -0.505708126437   -1.530786634628   -0.820700077840
              16 H     -0.520118751945   -1.465631972644    0.934899443104
              17 H      0.797458443806    0.636762631075   -0.897496799977
              18 H      1.654583477622   -0.595090070049    0.043291134330
              19 H      0.780972458795    0.704444099818    0.871047289744
------------------------ !GEOMETRY! -------------------------
    Number of atoms:    20 
    Geometry Index:     6 
    Coordinates:
               0 C     -5.649626227353   -0.898110334708   -0.007336218382
               1 C     -4.381020523841   -0.037659902276   -0.028668429558
               2 H     -6.554507148347   -0.279879442314   -0.039614113034
               3 H     -5.697291147785   -1.511498502161    0.901392468259
               4 H     -5.680636444240   -1.579423628479   -0.867074613413
               5 C     -3.087951863336   -0.863826768280    0.012446226374
               6 H     -4.394286141503    0.656071220250    0.824490126034
               7 H     -4.379903301845    0.590969890972   -0.930979181678
               8 C     -1.812185280736   -0.011056068103   -0.008620223057
               9 H     -3.075281415281   -1.558514388079   -0.841259773439
              10 H     -3.089525800448   -1.493750109663    0.915081635704
              11 C     -0.519116034158   -0.837222437745    0.032490635651
              12 H     -1.824854737818    0.683629558842    0.845087430036
              13 H     -1.810612638510    0.618869479057   -0.911254098031
              14 C      0.749488892327    0.023229132979    0.011167541866
              15 H     -0.505847791234   -1.530947048607   -0.820673151274
              16 H     -0.520234551589   -1.465859106052    0.934796628080
              17 H      0.797153893399    0.636626154138   -0.897555207387
              18 H      1.654369909234   -0.595001854854    0.043439804582
              19 H      0.780498353065    0.704534155081    0.870912512669
