-------------------------------------------------------------
----------------------- !PROPERTIES! ------------------------
-------------------------------------------------------------
# -----------------------------------------------------------
$ SCF_Energy
   description: The SCF energy
   geom. index: 1
   prop. index: 1
        SCF Energy:     -197.6189626970
# -----------------------------------------------------------
$ DFT_Energy
   description: The DFT energy
   geom. index: 1
   prop. index: 1
   Number of Alpha Electrons        21.0000747042 
   Number of Alpha Electrons        21.0000747042 
   Total nuber of  Electrons        42.0001494083 
   Exchange energy                 -23.9084816027 
   Correlation energy               -1.5664815453 
   Correlantion energy NL            0.0000000000 
   Exchange-Correlation energy     -25.4749631480 
   Embedding correction              0.0000000000 
# -----------------------------------------------------------
$ SCF_Energy
   description: The SCF energy
   geom. index: 2
   prop. index: 1
        SCF Energy:     -197.6206799266
# -----------------------------------------------------------
$ DFT_Energy
   description: The DFT energy
   geom. index: 2
   prop. index: 1
   Number of Alpha Electrons        21.0000778691 
   Number of Alpha Electrons        21.0000778691 
   Total nuber of  Electrons        42.0001557381 
   Exchange energy                 -23.8667437724 
   Correlation energy               -1.5633305914 
   Correlantion energy NL            0.0000000000 
   Exchange-Correlation energy     -25.4300743639 
   Embedding correction              0.0000000000 
# -----------------------------------------------------------
$ SCF_Energy
   description: The SCF energy
   geom. index: 3
   prop. index: 1
        SCF Energy:     -197.6207655476
# -----------------------------------------------------------
$ DFT_Energy
   description: The DFT energy
   geom. index: 3
   prop. index: 1
   Number of Alpha Electrons        21.0000774318 
   Number of Alpha Electrons        21.0000774318 
   Total nuber of  Electrons        42.0001548637 
   Exchange energy                 -23.8645193990 
   Correlation energy               -1.5631797258 
   Correlantion energy NL            0.0000000000 
   Exchange-Correlation energy     -25.4276991248 
   Embedding correction              0.0000000000 
# -----------------------------------------------------------
$ SCF_Energy
   description: The SCF energy
   geom. index: 4
   prop. index: 1
        SCF Energy:     -197.6207890708
# -----------------------------------------------------------
$ DFT_Energy
   description: The DFT energy
   geom. index: 4
   prop. index: 1
   Number of Alpha Electrons        21.0000769984 
   Number of Alpha Electrons        21.0000769984 
   Total nuber of  Electrons        42.0001539968 
   Exchange energy                 -23.8655709845 
   Correlation energy               -1.5632883201 
   Correlantion energy NL            0.0000000000 
   Exchange-Correlation energy     -25.4288593046 
   Embedding correction              0.0000000000 
# -----------------------------------------------------------
$ SCF_Energy
   description: The SCF energy
   geom. index: 5
   prop. index: 1
        SCF Energy:     -197.6207919574
# -----------------------------------------------------------
$ DFT_Energy
   description: The DFT energy
   geom. index: 5
   prop. index: 1
   Number of Alpha Electrons        21.0000768812 
   Number of Alpha Electrons        21.0000768812 
   Total nuber of  Electrons        42.0001537624 
   Exchange energy                 -23.8663636095 
   Correlation energy               -1.5633589352 
   Correlantion energy NL            0.0000000000 
   Exchange-Correlation energy     -25.4297225447 
   Embedding correction              0.0000000000 
# -----------------------------------------------------------
$ SCF_Energy
   description: The SCF energy
   geom. index: 6
   prop. index: 1
        SCF Energy:     -197.6207923077
# -----------------------------------------------------------
$ DFT_Energy
   description: The DFT energy
   geom. index: 6
   prop. index: 1
   Number of Alpha Electrons        21.0000768761 
   Number of Alpha Electrons        21.0000768761 
   Total nuber of  Electrons        42.0001537521 
   Exchange energy                 -23.8665287135 
   Correlation energy               -1.5633728796 
   Correlantion energy NL            0.0000000000 
   Exchange-Correlation energy     -25.4299015931 
   Embedding correction              0.0000000000 
# -----------------------------------------------------------
$ SCF_Electric_Properties
   description: The SCF Calculated Electric Properties
   geom. index: 6
   prop. index: 1
       Filename                          : pentane_B3LYP_cc-pVDZ.scfp 
       Do Dipole Moment Calculation      : true 
       Do Quadrupole Moment Calculation  : false 
       Do Polarizability Calculation     : false 
** Dipole moment part of electric properties **
        Magnitude of dipole moment (Debye) :        0.0655983457
        Electronic Contribution:
                  0    
      0       0.307563
      1      -0.474650
      2      -0.061982
        Nuclear Contribution:
                  0    
      0      -0.293557
      1       0.453172
      2       0.059061
        Total Dipole moment:
                  0    
      0       0.014007
      1      -0.021479
      2      -0.002921
# -----------------------------------------------------------
$ Hessian
   description: Details about the Hessian
   geom. index: 6
   prop. index: 1
Normal modes:
Number of Rows: 51 Number of Columns: 51
                  0          1          2          3          4          5    
      0       0.000000   0.000000   0.000000   0.000000   0.000000   0.000000
      1       0.000000   0.000000   0.000000   0.000000   0.000000   0.000000
      2       0.000000   0.000000   0.000000   0.000000   0.000000   0.000000
      3       0.000000   0.000000   0.000000   0.000000   0.000000   0.000000
      4       0.000000   0.000000   0.000000   0.000000   0.000000   0.000000
      5       0.000000   0.000000   0.000000   0.000000   0.000000   0.000000
      6       0.000000   0.000000   0.000000   0.000000   0.000000   0.000000
      7       0.000000   0.000000   0.000000   0.000000   0.000000   0.000000
      8       0.000000   0.000000   0.000000   0.000000   0.000000   0.000000
      9       0.000000   0.000000   0.000000   0.000000   0.000000   0.000000
     10       0.000000   0.000000   0.000000   0.000000   0.000000   0.000000
     11       0.000000   0.000000   0.000000   0.000000   0.000000   0.000000
     12       0.000000   0.000000   0.000000   0.000000   0.000000   0.000000
     13       0.000000   0.000000   0.000000   0.000000   0.000000   0.000000
     14       0.000000   0.000000   0.000000   0.000000   0.000000   0.000000
     15       0.000000   0.000000   0.000000   0.000000   0.000000   0.000000
     16       0.000000   0.000000   0.000000   0.000000   0.000000   0.000000
     17       0.000000   0.000000   0.000000   0.000000   0.000000   0.000000
     18       0.000000   0.000000   0.000000   0.000000   0.000000   0.000000
     19       0.000000   0.000000   0.000000   0.000000   0.000000   0.000000
     20       0.000000   0.000000   0.000000   0.000000   0.000000   0.000000
     21       0.000000   0.000000   0.000000   0.000000   0.000000   0.000000
     22       0.000000   0.000000   0.000000   0.000000   0.000000   0.000000
     23       0.000000   0.000000   0.000000   0.000000   0.000000   0.000000
     24       0.000000   0.000000   0.000000   0.000000   0.000000   0.000000
     25       0.000000   0.000000   0.000000   0.000000   0.000000   0.000000
     26       0.000000   0.000000   0.000000   0.000000   0.000000   0.000000
     27       0.000000   0.000000   0.000000   0.000000   0.000000   0.000000
     28       0.000000   0.000000   0.000000   0.000000   0.000000   0.000000
     29       0.000000   0.000000   0.000000   0.000000   0.000000   0.000000
     30       0.000000   0.000000   0.000000   0.000000   0.000000   0.000000
     31       0.000000   0.000000   0.000000   0.000000   0.000000   0.000000
     32       0.000000   0.000000   0.000000   0.000000   0.000000   0.000000
     33       0.000000   0.000000   0.000000   0.000000   0.000000   0.000000
     34       0.000000   0.000000   0.000000   0.000000   0.000000   0.000000
     35       0.000000   0.000000   0.000000   0.000000   0.000000   0.000000
     36       0.000000   0.000000   0.000000   0.000000   0.000000   0.000000
     37       0.000000   0.000000   0.000000   0.000000   0.000000   0.000000
     38       0.000000   0.000000   0.000000   0.000000   0.000000   0.000000
     39       0.000000   0.000000   0.000000   0.000000   0.000000   0.000000
     40       0.000000   0.000000   0.000000   0.000000   0.000000   0.000000
     41       0.000000   0.000000   0.000000   0.000000   0.000000   0.000000
     42       0.000000   0.000000   0.000000   0.000000   0.000000   0.000000
     43       0.000000   0.000000   0.000000   0.000000   0.000000   0.000000
     44       0.000000   0.000000   0.000000   0.000000   0.000000   0.000000
     45       0.000000   0.000000   0.000000   0.000000   0.000000   0.000000
     46       0.000000   0.000000   0.000000   0.000000   0.000000   0.000000
     47       0.000000   0.000000   0.000000   0.000000   0.000000   0.000000
     48       0.000000   0.000000   0.000000   0.000000   0.000000   0.000000
     49       0.000000   0.000000   0.000000   0.000000   0.000000   0.000000
     50       0.000000   0.000000   0.000000   0.000000   0.000000   0.000000
                  6          7          8          9         10         11    
      0       0.000422   0.000935   0.000830   0.000098   0.000030  -0.075885
      1       0.010276   0.021064   0.190399   0.000822  -0.001721  -0.086113
      2      -0.074996  -0.147088   0.026628  -0.002530   0.015405  -0.012457
      3      -0.000767  -0.000066  -0.000197  -0.000084   0.000524  -0.057691
      4      -0.019291  -0.004565  -0.109637  -0.004920   0.011192   0.175724
      5       0.138906   0.031427  -0.014799   0.032649  -0.081794   0.024169
      6      -0.125233  -0.113637   0.120398  -0.031908   0.076685  -0.228503
      7       0.241960  -0.099340   0.283763  -0.330538   0.361661  -0.211489
      8      -0.223608  -0.145059   0.037933   0.121168  -0.102932  -0.024040
      9      -0.000272   0.001460  -0.230446   0.001422  -0.002847   0.217431
     10      -0.014794   0.047798   0.285831   0.052937  -0.061370  -0.208442
     11       0.102881  -0.336057   0.039733  -0.371905   0.442194  -0.028335
     12       0.127730   0.115931   0.121143   0.031063  -0.074331  -0.228672
     13      -0.172084   0.136581   0.281211   0.285986  -0.318088  -0.208949
     14      -0.280121  -0.110749   0.040844   0.207815  -0.198895  -0.036791
     15      -0.116469  -0.092643  -0.091081  -0.019952   0.047314  -0.040064
     16       0.095313  -0.114307  -0.158406   0.038959  -0.036902   0.167568
     17       0.287381  -0.020865  -0.016500   0.078594  -0.143253   0.011758
     18      -0.000113  -0.000959   0.106230   0.000447   0.000159   0.127154
     19      -0.001964  -0.035341  -0.164206   0.007880  -0.000741   0.081040
     20       0.014893   0.251404  -0.022956  -0.059317   0.003186   0.011711
     21       0.113562   0.092497  -0.090586   0.018987  -0.046030  -0.040299
     22      -0.170328   0.114956  -0.158776  -0.059917   0.074222   0.163792
     23       0.251657   0.012162  -0.026515   0.064999  -0.128338   0.034339
     24       0.079425   0.091919   0.101043  -0.071323  -0.049920   0.257627
     25       0.034644  -0.214101  -0.154381   0.126291  -0.041542   0.164015
     26       0.028580   0.368218  -0.028497  -0.140764   0.002658   0.023720
     27      -0.079529  -0.095222   0.100820   0.072863   0.050012   0.258233
     28      -0.040709   0.104655  -0.157266  -0.083894   0.038489   0.163714
     29       0.017293   0.411801  -0.015778  -0.169353   0.014318   0.023614
     30       0.000523  -0.000034   0.100680  -0.000086  -0.000224   0.136158
     31       0.018457  -0.007863  -0.045720  -0.005727  -0.010788  -0.126053
     32      -0.133438   0.056053  -0.006441   0.041594   0.077572  -0.016652
     33       0.090795   0.129595   0.183015  -0.040683  -0.027385   0.133823
     34      -0.116192   0.057377   0.014136   0.033681   0.043125  -0.107980
     35      -0.287175   0.053356   0.006946   0.092801   0.135077  -0.002682
     36      -0.000125   0.000025  -0.175031  -0.000359  -0.000409  -0.111548
     37      -0.007706   0.022042   0.078920   0.000710   0.002045  -0.033087
     38       0.056622  -0.159063   0.010662  -0.004432  -0.014847  -0.005013
     39      -0.088588  -0.128817   0.183858   0.040519   0.026903   0.133818
     40       0.189606  -0.069349   0.016445  -0.057178  -0.077906  -0.104765
     41      -0.246163   0.034868  -0.002687   0.080673   0.118711  -0.025377
     42       0.155017   0.129754  -0.313488   0.327334   0.306534  -0.289241
     43      -0.224351   0.112476   0.009989  -0.131433  -0.081155  -0.118428
     44       0.210030  -0.158557  -0.002807   0.166138   0.125907  -0.024052
     45      -0.157045  -0.130878  -0.306128  -0.331172  -0.310303  -0.289811
     46       0.160791  -0.065637   0.009387   0.082899   0.044825  -0.118759
     47       0.260044  -0.184736   0.000557   0.190293   0.138367  -0.010827
     48       0.001310   0.001212  -0.165958   0.002654   0.002415  -0.101065
     49       0.018860   0.044457   0.326766   0.056909   0.054796   0.282560
     50      -0.144472  -0.314428   0.049059  -0.415368  -0.398120   0.037722
                 12         13         14         15         16         17    
      0       0.231974  -0.000096  -0.000014   0.000350   0.051991  -0.126499
      1       0.092959  -0.000770  -0.002593   0.006462   0.069929  -0.069113
      2       0.014166   0.005356   0.018670  -0.045290   0.010054  -0.010524
      3       0.168684  -0.000209  -0.000415   0.000158  -0.018109   0.078468
      4       0.084875  -0.005191  -0.009045   0.004091   0.096235  -0.065590
      5       0.012632   0.036704   0.065625  -0.027923   0.013327  -0.008658
      6       0.277656  -0.121275  -0.246944   0.311569  -0.173654   0.048008
      7       0.134575   0.041563   0.051756  -0.044091  -0.159396   0.123816
      8       0.016031  -0.063591  -0.108871   0.109426   0.008305  -0.014040
      9       0.146648   0.000240   0.001061  -0.000188   0.521716  -0.527801
     10       0.130001   0.005444   0.015437  -0.022992  -0.124838   0.095240
     11       0.018665  -0.039166  -0.110866   0.162855  -0.014688   0.010978
     12       0.277655   0.121835   0.248114  -0.313259  -0.173336   0.045908
     13       0.133697  -0.022784  -0.020461   0.012459  -0.150563   0.115060
     14       0.024501  -0.071236  -0.116228   0.113757  -0.053586   0.048534
     15       0.240179   0.121439   0.218473  -0.256684  -0.146424   0.174544
     16       0.137372  -0.246881  -0.231561  -0.054240   0.003855  -0.011790
     17       0.024008  -0.225466  -0.225281   0.039984  -0.005617  -0.004403
     18      -0.065665  -0.000174   0.000019  -0.000459   0.091863   0.139211
     19       0.100656  -0.006729   0.000001  -0.012497  -0.141471   0.088669
     20       0.013406   0.048273  -0.000059   0.088131  -0.019339   0.013141
     21       0.240032  -0.119529  -0.216604   0.255874  -0.146905   0.176314
     22       0.138291   0.299170   0.284839   0.041022   0.002143  -0.011040
     23       0.016843  -0.150691  -0.155717   0.056241   0.004744   0.002931
     24      -0.058831  -0.203409   0.139966  -0.156093   0.084717   0.225931
     25       0.087846   0.349834   0.088444   0.260903  -0.127997   0.143980
     26       0.020121  -0.195523   0.013081  -0.101488  -0.027179   0.021005
     27      -0.058507   0.205744  -0.139725   0.157001   0.083826   0.224071
     28       0.089853  -0.283138  -0.088308  -0.223875  -0.130594   0.142074
     29       0.003133  -0.281864  -0.012888  -0.167614  -0.007796   0.020713
     30      -0.149526  -0.000191   0.000277   0.000044  -0.080791  -0.026785
     31      -0.115158  -0.005113   0.009030   0.003751   0.056940   0.097903
     32      -0.016964   0.036694  -0.065588  -0.028044   0.007521   0.013198
     33      -0.227647   0.200682  -0.146609   0.150882   0.058253   0.062175
     34      -0.158361  -0.196995   0.277652   0.204255   0.133766   0.161553
     35      -0.020210  -0.217674   0.231500   0.077836   0.013239   0.026253
     36      -0.181640   0.000017   0.000050   0.000191  -0.086369  -0.116051
     37      -0.169419  -0.000576   0.002463   0.006302  -0.017742  -0.084796
     38      -0.024035   0.005371  -0.018657  -0.045331  -0.002743  -0.012110
     39      -0.228300  -0.199161   0.145019  -0.151026   0.059494   0.063498
     40      -0.156116   0.248390  -0.329713  -0.217359   0.133587   0.162431
     41      -0.027036  -0.158588   0.149708   0.018803   0.023777   0.019094
     42      -0.237897   0.021776  -0.070779  -0.104891   0.215270   0.127838
     43      -0.192022   0.132010  -0.252733  -0.307840   0.088851  -0.011348
     44      -0.032033  -0.050520   0.079673   0.071249   0.044653   0.030776
     45      -0.236620  -0.020911   0.069939   0.104780   0.214918   0.128137
     46      -0.193118  -0.113411   0.222348   0.278435   0.093586  -0.005143
     47      -0.023610  -0.084168   0.145274   0.152457  -0.018130  -0.031895
     48      -0.179973   0.000344  -0.000911  -0.001357  -0.104378  -0.133108
     49      -0.079484   0.005792  -0.015977  -0.023308  -0.523687  -0.512484
     50      -0.010938  -0.039120   0.110730   0.163057  -0.072814  -0.070920
                 18         19         20         21         22         23    
      0       0.000461  -0.100479   0.166701   0.061399  -0.019365  -0.000490
      1       0.007873   0.093015  -0.028323   0.013877   0.108724  -0.012728
      2      -0.055100   0.012564  -0.003007   0.002229   0.014885   0.092483
      3      -0.000352   0.141593  -0.208095  -0.073372   0.073501   0.000814
      4      -0.006759  -0.052060  -0.059069  -0.120681  -0.154268   0.018847
      5       0.048094  -0.006582  -0.009424  -0.017226  -0.020760  -0.137975
      6       0.255957  -0.339825   0.242376   0.016935  -0.254602  -0.272663
      7      -0.040374  -0.156096   0.014443  -0.066936  -0.187595   0.079976
      8       0.076478   0.015191   0.007528   0.013197   0.036013  -0.068733
      9       0.000134   0.281875   0.128156   0.174131   0.344441   0.001795
     10      -0.019703  -0.072664  -0.008802  -0.036035  -0.052928   0.025859
     11       0.139246  -0.008879  -0.000566  -0.003918  -0.005008  -0.185196
     12      -0.257230  -0.338312   0.242474   0.016664  -0.255150   0.272637
     13       0.017743  -0.145424   0.015651  -0.060651  -0.169750  -0.059206
     14       0.081585  -0.061493  -0.000549  -0.030665  -0.088447  -0.085473
     15      -0.173736   0.003304  -0.336403  -0.289823  -0.035628  -0.151414
     16      -0.249201  -0.133030  -0.129923  -0.265587  -0.199794   0.224527
     17      -0.083363  -0.012693  -0.015488  -0.041191  -0.011573   0.112788
     18      -0.000237   0.033970  -0.060225   0.166591  -0.107019  -0.000736
     19       0.000007   0.021450   0.091369   0.105790   0.166131  -0.018371
     20       0.000020   0.003177   0.012525   0.015407   0.022234   0.135058
     21       0.173429   0.002915  -0.336574  -0.289897  -0.035500   0.150022
     22       0.261729  -0.132292  -0.129153  -0.266597  -0.193588  -0.248004
     23      -0.010078  -0.024218  -0.024214  -0.036072  -0.044131   0.048470
     24       0.304199  -0.203151  -0.077918   0.271723  -0.095613  -0.149349
     25       0.192889  -0.128682   0.118112   0.172002   0.146460   0.243867
     26       0.028328  -0.018934   0.000172   0.025361   0.032409  -0.052797
     27      -0.304796  -0.202156  -0.076586   0.270788  -0.095915   0.150279
     28      -0.192991  -0.128197   0.113872   0.172418   0.151500  -0.219166
     29      -0.028411  -0.018885   0.030952   0.025580   0.008790  -0.116014
     30       0.000345   0.011362   0.142839  -0.140723   0.110298   0.000654
     31       0.006707   0.148785   0.162887  -0.014128  -0.130930   0.018700
     32      -0.048091   0.020526   0.023068  -0.002348  -0.017247  -0.138087
     33      -0.307488  -0.119667   0.263638  -0.363189   0.194008  -0.153551
     34      -0.055718   0.058946   0.249109  -0.147367  -0.053912   0.223649
     35       0.038480   0.001524   0.039388  -0.019097   0.010045   0.112206
     36       0.000041   0.043211  -0.044055   0.038398  -0.091478  -0.000517
     37      -0.007666  -0.129054  -0.162578   0.048207   0.063282  -0.012493
     38       0.055128  -0.017549  -0.022518   0.006664   0.007997   0.092601
     39       0.306430  -0.122016   0.261738  -0.364776   0.194863   0.153233
     40       0.042453   0.056954   0.250346  -0.147189  -0.048017  -0.246086
     41       0.054705   0.012820   0.030708  -0.024311  -0.022581   0.049353
     42       0.079938  -0.279670  -0.115958  -0.052660   0.269727   0.050509
     43       0.252997  -0.237240  -0.213437   0.042273   0.146280   0.285115
     44      -0.045758  -0.073054  -0.025725  -0.016826   0.085304  -0.039466
     45      -0.081433  -0.279470  -0.115323  -0.052865   0.270855  -0.049744
     46      -0.233020  -0.245105  -0.211816   0.037707   0.162829  -0.264023
     47      -0.112658   0.004124  -0.033746   0.027456  -0.039393  -0.114734
     48       0.001526   0.051222  -0.045834   0.039865  -0.095620   0.001519
     49       0.021265   0.284121  -0.119483   0.171973  -0.332274   0.025529
     50      -0.139169   0.039892  -0.016135   0.024179  -0.046147  -0.185643
                 24         25         26         27         28         29    
      0      -0.000433  -0.007351  -0.000273  -0.000109   0.019455  -0.100462
      1      -0.011589   0.055299  -0.006868  -0.002433  -0.041940  -0.007431
      2       0.083815   0.007478   0.049324   0.017462  -0.005683  -0.001630
      3       0.000335  -0.032759  -0.000151  -0.000301   0.104544   0.029294
      4       0.011724  -0.075523  -0.000735  -0.005391   0.065212   0.015240
      5      -0.084841  -0.010565   0.005642   0.038533   0.009705   0.002288
      6      -0.209769  -0.042133  -0.112766  -0.058189  -0.100095   0.344718
      7       0.081144  -0.088690   0.043578  -0.002046   0.078004   0.096642
      8      -0.049783   0.045329  -0.020314  -0.003230  -0.094607   0.129037
      9       0.001547   0.183439   0.000719   0.000188  -0.212735   0.345962
     10       0.023278  -0.025272   0.010856  -0.001465   0.051399  -0.177373
     11      -0.166765  -0.002042  -0.077990   0.009806   0.005661  -0.022499
     12       0.210267  -0.042439   0.113240   0.058568  -0.101238   0.346277
     13      -0.064993  -0.072364  -0.036496   0.002749   0.048851   0.128199
     14      -0.068144  -0.068059  -0.030390  -0.002090   0.111152  -0.093621
     15      -0.340384   0.277269  -0.382797  -0.238409  -0.373419  -0.055495
     16      -0.031438   0.138221  -0.255477  -0.231186  -0.226517  -0.055466
     17       0.032996   0.029001  -0.045018  -0.044803  -0.029606  -0.015729
     18      -0.000269  -0.077834   0.000439   0.000178  -0.017051  -0.019041
     19      -0.000163  -0.049268   0.012599   0.000035   0.026400  -0.012534
     20       0.000053  -0.007259  -0.091120  -0.000140   0.003466  -0.001804
     21       0.341075   0.275444   0.383795   0.238866  -0.372645  -0.055630
     22       0.021229   0.140064   0.257695   0.234235  -0.224937  -0.057651
     23       0.044300   0.012788   0.031265   0.023023  -0.037654  -0.000696
     24       0.285601   0.408116   0.088754  -0.435150   0.010955   0.044644
     25       0.181095   0.258447  -0.140280  -0.275951  -0.021963   0.027232
     26       0.026559   0.038000   0.010799  -0.040520   0.028563   0.004248
     27      -0.283710   0.409150  -0.089083   0.435553   0.011194   0.045138
     28      -0.179923   0.259163   0.131566   0.276201  -0.012890   0.027500
     29      -0.026519   0.038051   0.047749   0.040703  -0.033280   0.003788
     30      -0.000487  -0.082983   0.000066  -0.000015  -0.103526   0.028545
     31      -0.011581   0.002189  -0.000865   0.005405  -0.066639   0.021991
     32       0.084760  -0.000165   0.005798  -0.038505  -0.009608   0.003072
     33      -0.166633   0.244399   0.396820  -0.312411   0.363423  -0.083575
     34      -0.289828   0.192107   0.238337  -0.117780   0.240371  -0.030854
     35      -0.079815   0.019211   0.027469  -0.006516   0.038672   0.003633
     36       0.000513   0.047579  -0.000325   0.000201   0.030160  -0.052284
     37       0.011348  -0.029834  -0.006733   0.002401  -0.035232  -0.092773
     38      -0.083820  -0.003699   0.049360  -0.017324  -0.004659  -0.013005
     39       0.167950   0.242880  -0.396961   0.312203   0.363268  -0.083176
     40       0.300847   0.188505  -0.236359   0.114958   0.241303  -0.028795
     41       0.002675   0.035138  -0.041272   0.028254   0.030419  -0.012432
     42      -0.020950  -0.090678   0.010814  -0.026999  -0.014416   0.265465
     43      -0.227178   0.003577   0.121860  -0.051773   0.131411   0.296867
     44       0.028891  -0.057986  -0.009124  -0.004589  -0.087129  -0.078018
     45       0.020370  -0.091864  -0.010240   0.026211  -0.016311   0.262818
     46       0.211480  -0.012093  -0.115011   0.050604   0.103530   0.264189
     47       0.088966   0.055420  -0.041549   0.009670   0.118867   0.158344
     48      -0.001307   0.053662   0.000623   0.000119   0.041861  -0.019373
     49      -0.022611   0.175788   0.010746   0.001265   0.213420   0.409214
     50       0.167039   0.024468  -0.078076  -0.010007   0.029722   0.055961
                 30         31         32         33         34         35    
      0       0.012437  -0.106775  -0.003973   0.005724   0.002654  -0.003297
      1      -0.021583  -0.009868   0.004978  -0.015092  -0.019077   0.014865
      2      -0.002913  -0.001989   0.000656  -0.002014   0.020152   0.024113
      3       0.102360   0.043472   0.014604  -0.033212  -0.017217   0.019030
      4       0.048296   0.017245  -0.028503   0.029362  -0.005323   0.003172
      5       0.007316   0.002600  -0.003923   0.003933   0.009574   0.010793
      6      -0.104715   0.361057   0.042964  -0.088127   0.090558   0.245110
      7       0.073174   0.104947  -0.061799   0.204380   0.387193  -0.050577
      8      -0.085460   0.134287   0.046153  -0.126900  -0.117161   0.139236
      9      -0.110928   0.356868  -0.019374   0.129304   0.145102  -0.158257
     10       0.027375  -0.186556   0.006869  -0.055213  -0.016864   0.118478
     11       0.002957  -0.023855   0.001253  -0.008200  -0.349719  -0.320506
     12      -0.105833   0.362616   0.043993  -0.091013  -0.242980  -0.073532
     13       0.046848   0.137495  -0.046386   0.160637  -0.014722  -0.353411
     14       0.101045  -0.096254  -0.060738   0.176873   0.122769  -0.238997
     15      -0.266237  -0.096639  -0.131105   0.204514   0.105917  -0.059000
     16      -0.152375  -0.089004   0.184292  -0.218775  -0.045466   0.047425
     17      -0.002606  -0.022234   0.227571  -0.292805  -0.071591   0.078584
     18      -0.140929  -0.006770  -0.030251  -0.001700  -0.016317   0.018231
     19      -0.089168   0.010288   0.046866  -0.001349   0.025292  -0.028120
     20      -0.013087   0.001365   0.006417  -0.000140   0.002016  -0.005132
     21      -0.265725  -0.096809  -0.128745   0.201116   0.048633  -0.111845
     22      -0.146749  -0.091797   0.239678  -0.291030  -0.062131   0.069830
     23      -0.042203  -0.004100  -0.169878   0.223951   0.057653  -0.063132
     24       0.398070  -0.015325   0.217320   0.003569   0.087433  -0.094322
     25       0.251998   0.025517  -0.384043   0.004548  -0.150456   0.167675
     26       0.037188  -0.004945   0.278292  -0.000726   0.118389  -0.126275
     27       0.398927  -0.016138   0.220312   0.003844   0.082984  -0.097185
     28       0.252507   0.022857  -0.293657   0.004152  -0.113604   0.128196
     29       0.036961   0.011558  -0.370757   0.001982  -0.147268   0.173193
     30       0.086833  -0.032955   0.020173   0.012851   0.011001  -0.012116
     31       0.071459  -0.031027  -0.025585  -0.041836   0.011969  -0.016694
     32       0.010189  -0.004334  -0.003334  -0.005750   0.014009   0.007869
     33      -0.247270   0.120542  -0.142615  -0.148577   0.004728  -0.028991
     34      -0.173079   0.049889   0.181059   0.251734  -0.111246   0.067699
     35      -0.044910  -0.001223   0.229575   0.294808  -0.079667   0.082235
     36      -0.014054   0.050656  -0.002977  -0.011432   0.013540  -0.015251
     37       0.021080   0.085904   0.005716   0.011401  -0.012910   0.007282
     38       0.002821   0.012065   0.000901   0.001356   0.024269   0.022800
     39      -0.247946   0.119980  -0.140470  -0.145921   0.026546  -0.008133
     40      -0.178787   0.047646   0.236676   0.321734  -0.070268   0.136688
     41      -0.005318   0.015534  -0.173655  -0.217566   0.054900  -0.054361
     42       0.007681  -0.247674   0.030345   0.129162  -0.404140  -0.075331
     43      -0.135016  -0.271336  -0.070864  -0.176469   0.087797  -0.252580
     44       0.077722   0.070417   0.046054   0.131100  -0.168530   0.109478
     45       0.009258  -0.245246   0.034456   0.129766   0.128426   0.379805
     46      -0.109550  -0.241702  -0.054912  -0.135809   0.215117  -0.066108
     47      -0.110886  -0.143941  -0.062987  -0.171525   0.155851  -0.194505
     48      -0.021118   0.020805   0.001816   0.003245   0.002336   0.003071
     49      -0.114823  -0.372340   0.021722   0.138809  -0.104770   0.218980
     50      -0.016026  -0.050911   0.000580   0.020165  -0.409954  -0.305168
                 36         37         38         39         40         41    
      0      -0.000133  -0.001376   0.000104  -0.004309  -0.001135  -0.000442
      1      -0.005543   0.029399   0.019698   0.000228  -0.004436  -0.006293
      2       0.033031   0.004214   0.002765   0.000014  -0.000560  -0.000781
      3      -0.000847  -0.002454  -0.021649  -0.005360  -0.025914  -0.025500
      4      -0.003385   0.047823   0.045413   0.010499   0.039971   0.039248
      5       0.019455   0.006739   0.006223   0.001060   0.005133   0.004769
      6       0.241733   0.111480   0.078189   0.015677  -0.002058  -0.005619
      7       0.282744  -0.314869  -0.202755  -0.019660  -0.001280   0.004362
      8      -0.000551   0.186416   0.122719  -0.046087   0.001910   0.015100
      9       0.011111  -0.215321  -0.133122   0.014845   0.020363   0.021541
     10       0.066812   0.105494   0.067882   0.047748   0.056624   0.060007
     11      -0.504992   0.012014   0.008506   0.006747   0.008082   0.008556
     12      -0.249166   0.112472   0.079503   0.015060  -0.002424  -0.006056
     13      -0.253114  -0.253425  -0.161705  -0.031492  -0.000043   0.009340
     14      -0.062070  -0.265005  -0.172948   0.038933  -0.003014  -0.014593
     15       0.036322   0.061796   0.116068   0.038239   0.153777   0.149218
     16      -0.014763  -0.172063  -0.201111  -0.077207  -0.294442  -0.291324
     17      -0.004106  -0.197704  -0.250745   0.094671   0.368492   0.361194
     18      -0.000749  -0.019129  -0.022541   0.035198  -0.000856  -0.009727
     19       0.001538  -0.012343   0.034876  -0.054664  -0.000834   0.014947
     20       0.000140  -0.001789   0.004771  -0.006174  -0.000371   0.002686
     21      -0.030828   0.059608   0.113215   0.037414   0.156882   0.150824
     22       0.014472  -0.219553  -0.262388  -0.046060  -0.180828  -0.178084
     23       0.001742   0.143691   0.187335  -0.106756  -0.429528  -0.418073
     24      -0.038261   0.023813   0.141227  -0.210257  -0.000089   0.058643
     25      -0.036226   0.016492  -0.249973   0.246311   0.002775  -0.068754
     26       0.002787   0.001484   0.184034   0.582898   0.004291  -0.162162
     27       0.047614   0.024463   0.143232  -0.211562   0.001190   0.053990
     28       0.020470   0.016623  -0.190438   0.408824   0.001372  -0.104370
     29      -0.004594   0.003342  -0.244202  -0.509149  -0.000577   0.130546
     30       0.000346   0.042747  -0.032465  -0.007454   0.026055  -0.024865
     31       0.003437  -0.022390   0.038485   0.009458  -0.040638   0.038931
     32      -0.018413  -0.003057   0.005170   0.000843  -0.004730   0.004245
     33       0.001610  -0.155061   0.165222   0.041707  -0.154412   0.150463
     34       0.028419   0.114321  -0.170305  -0.077052   0.300772  -0.286979
     35       0.000259   0.189514  -0.245659   0.097122  -0.375591   0.359044
     36       0.000722   0.026418  -0.018068   0.001580  -0.004561   0.005829
     37       0.003945  -0.013466   0.008102   0.003892   0.000923  -0.002230
     38      -0.030915  -0.002043   0.001097   0.000546  -0.000008  -0.000112
     39       0.002484  -0.153556   0.163232   0.040442  -0.154429   0.148995
     40      -0.040651   0.160483  -0.230043  -0.045462   0.184648  -0.174225
     41       0.000461  -0.153215   0.192282  -0.108216   0.431983  -0.409012
     42       0.318351  -0.207612   0.131282   0.017109  -0.001580  -0.003514
     43       0.103675   0.251143  -0.167078  -0.018435  -0.001359   0.005508
     44       0.041925  -0.196385   0.128143  -0.044994  -0.002787   0.014824
     45      -0.329528  -0.219139   0.135925   0.016463  -0.001152  -0.003983
     46      -0.101257   0.187343  -0.126252  -0.029661  -0.003064   0.010757
     47       0.020370   0.253666  -0.166300   0.038550   0.003477  -0.014566
     48      -0.003555   0.006477  -0.006521  -0.049358   0.060320  -0.062670
     49      -0.070490  -0.237816   0.147638   0.006610  -0.005415   0.005659
     50       0.469475  -0.026248   0.018210   0.000513  -0.000342   0.000369
                 42         43         44         45         46         47    
      0      -0.000220   0.040766   0.028941  -0.000068  -0.000115  -0.000578
      1       0.000541  -0.006817  -0.004988  -0.002098  -0.002957  -0.012005
      2      -0.004077  -0.000664  -0.000553   0.014694   0.020624   0.070336
      3      -0.000509  -0.002117  -0.001817   0.000497   0.000394  -0.000031
      4      -0.004573   0.001384   0.001492   0.008629   0.006792  -0.002750
      5       0.036356   0.000136   0.000593  -0.063214  -0.049846   0.018746
      6      -0.012469  -0.166860  -0.118919   0.041114   0.054138   0.191056
      7       0.011789   0.176219   0.125253  -0.044409  -0.060370  -0.199404
      8       0.027200   0.430325   0.305950  -0.100475  -0.136718  -0.459122
      9       0.001074  -0.145700  -0.104043   0.000010   0.000175   0.007585
     10       0.003007  -0.379883  -0.269067  -0.000693  -0.000530   0.016366
     11       0.000005  -0.054011  -0.038275   0.005439   0.007390   0.018794
     12       0.013983  -0.162673  -0.115582  -0.040355  -0.053022  -0.191845
     13      -0.022118   0.288514   0.204502   0.070870   0.096118   0.326605
     14       0.027186  -0.367868  -0.260838  -0.085523  -0.116071  -0.400844
     15      -0.092409   0.008562   0.006492   0.156497   0.119368  -0.045668
     16       0.173678  -0.013159  -0.009334  -0.296232  -0.234313   0.083150
     17      -0.200282   0.016031   0.011817   0.345191   0.270550  -0.099984
     18       0.000743   0.000275   0.004407  -0.000007   0.000419   0.000007
     19       0.009669  -0.001492  -0.006565  -0.000020   0.007180  -0.000236
     20      -0.073630  -0.000082  -0.001459   0.000254  -0.053387   0.001751
     21       0.098654   0.008494   0.008662  -0.162384  -0.124000   0.046057
     22      -0.116916  -0.007986  -0.008166   0.192408   0.152962  -0.051694
     23      -0.249699  -0.018290  -0.019001   0.415536   0.326439  -0.116250
     24      -0.192751  -0.002381  -0.027248   0.002662  -0.132367   0.001307
     25       0.231541   0.006022   0.031662   0.000381   0.158314  -0.007256
     26       0.495445   0.011497   0.072909  -0.001679   0.344705  -0.011636
     27       0.183852  -0.002882  -0.023827  -0.002528   0.127414  -0.001125
     28      -0.349598   0.010110   0.045104  -0.000161  -0.242992   0.010287
     29       0.403808  -0.010783  -0.055565  -0.001414   0.284669  -0.009285
     30      -0.000720   0.000123  -0.000706  -0.000577   0.000375  -0.000012
     31      -0.004186  -0.001590   0.002878  -0.008196   0.006556   0.001873
     32       0.036661  -0.000192   0.000582   0.063364  -0.049711  -0.013010
     33      -0.090245  -0.004007   0.006081  -0.154252   0.124103   0.028563
     34       0.172941   0.009495  -0.015356   0.294943  -0.228988  -0.058784
     35      -0.198717  -0.010182   0.016513  -0.343620   0.269830   0.068772
     36       0.000227   0.007763  -0.010576   0.000044  -0.000017  -0.001597
     37       0.000935   0.028347  -0.039436   0.001903  -0.002753   0.007986
     38      -0.004030   0.003735  -0.005221  -0.014616   0.020298  -0.053823
     39       0.098686  -0.003978   0.007226   0.161145  -0.128596  -0.028629
     40      -0.120880   0.006281  -0.011595  -0.196259   0.150475   0.037380
     41      -0.254899   0.012040  -0.022566  -0.418853   0.325545   0.080162
     42      -0.008433   0.105217  -0.145905  -0.036571   0.049545  -0.123170
     43       0.013295  -0.136521   0.189917   0.048172  -0.062697   0.167521
     44       0.025619  -0.308494   0.428481   0.101319  -0.134986   0.350445
     45       0.011007   0.101724  -0.140939   0.034590  -0.047516   0.121492
     46      -0.025668  -0.215816   0.299779  -0.072304   0.096362  -0.263783
     47       0.028646   0.264229  -0.366625   0.083749  -0.113745   0.305322
     48      -0.005246  -0.293292   0.406724   0.001392  -0.001821   0.020743
     49       0.000489   0.020404  -0.027192   0.000685  -0.000907   0.000758
     50      -0.000405   0.000550  -0.000614  -0.005410   0.007221  -0.012353
                 48         49         50    
      0      -0.000449   0.006239   0.001723
      1      -0.009074   0.087288   0.023348
      2       0.051568   0.014887   0.004196
      3      -0.000023  -0.003429  -0.001196
      4      -0.002591   0.005728   0.002154
      5       0.017542   0.001427   0.000625
      6       0.140562   0.129527   0.035349
      7      -0.145962  -0.113175  -0.030756
      8      -0.336315  -0.317624  -0.086324
      9       0.006556  -0.311920  -0.084071
     10       0.014424  -0.757989  -0.203781
     11       0.013837  -0.107340  -0.028819
     12      -0.141859   0.112485   0.029611
     13       0.240233  -0.172630  -0.045102
     14      -0.295221   0.246961   0.064886
     15      -0.042113   0.017623   0.005988
     16       0.081063  -0.032664  -0.012533
     17      -0.095128   0.039195   0.014537
     18      -0.000068  -0.000453  -0.000153
     19      -0.001647   0.000086   0.000529
     20       0.011863   0.000154   0.000418
     21       0.042419   0.021230   0.007732
     22      -0.050899  -0.024264  -0.010057
     23      -0.110848  -0.054396  -0.021547
     24       0.030438   0.000571   0.005354
     25      -0.035758  -0.003931  -0.004481
     26      -0.077238  -0.006395  -0.011294
     27      -0.029866  -0.000020   0.003446
     28       0.055686  -0.004110  -0.004269
     29      -0.064900   0.003560   0.005958
     30       0.000034   0.000633  -0.004099
     31      -0.003153  -0.001017   0.005621
     32       0.021803  -0.000255   0.001657
     33      -0.052140  -0.002269   0.017417
     34       0.099866   0.005824  -0.033605
     35      -0.117940  -0.006457   0.039963
     36       0.002491   0.022486  -0.082983
     37      -0.010418  -0.008342   0.030497
     38       0.069089  -0.001802   0.007202
     39       0.052076  -0.002749   0.021966
     40      -0.063125   0.004518  -0.026780
     41      -0.136900   0.009131  -0.058522
     42       0.157307  -0.024946   0.092653
     43      -0.215233   0.038078  -0.142322
     44      -0.448932   0.087616  -0.326587
     45      -0.156018  -0.020084   0.072107
     46       0.340782   0.052311  -0.189871
     47      -0.393763  -0.065540   0.237933
     48      -0.031023  -0.223020   0.825624
     49      -0.000737   0.010185  -0.036993
     50       0.015468  -0.000437   0.001823
# -----------------------------------------------------------
$ THERMOCHEMISTRY_Energies
   description: The Thermochemistry energies
   geom. index: 6
   prop. index: 1
        Temperature (Kelvin)           :        298.1500000000
        Pressure (atm)                 :          1.0000000000
        Total Mass (AMU)               :         72.1510000000
        Spin Degeneracy                :          1.0000000000
        Electronic Energy (Hartree)    :       -197.6207923077
        Translational Energy (Hartree) :          0.0014162714
        Rotational Energy (Hartree)    :          0.0014162714
        Vibrational Energy (Hartree)   :          0.0042501563
        Number of frequencies          :     51      
        Scaling Factor for frequencies :          1.0000000000
        Vibrational frequencies        :     
                  0    
      0       0.000000
      1       0.000000
      2       0.000000
      3       0.000000
      4       0.000000
      5       0.000000
      6     111.032375
      7     114.296524
      8     177.307321
      9     247.841738
     10     255.641905
     11     395.535586
     12     398.068831
     13     738.000966
     14     765.542060
     15     862.228335
     16     874.609097
     17     930.938912
     18     985.911540
     19     1037.062355
     20     1053.764807
     21     1081.604624
     22     1157.483618
     23     1195.389513
     24     1254.472162
     25     1279.866377
     26     1314.962466
     27     1319.416457
     28     1357.961583
     29     1395.359443
     30     1396.883873
     31     1399.848755
     32     1457.857886
     33     1458.656937
     34     1468.047361
     35     1468.183497
     36     1469.134508
     37     1477.941083
     38     1485.574040
     39     2990.841544
     40     3000.598246
     41     3007.695992
     42     3013.211920
     43     3017.117085
     44     3018.310863
     45     3031.041190
     46     3047.934295
     47     3085.244935
     48     3086.694348
     49     3091.985128
     50     3092.609544
        Zero Point Energy (Hartree)    :          0.1591749153
        Inner Energy (Hartree)         :       -197.4545346933
        Enthalpy (Hartree)             :       -197.4535904842
        Electronic entropy             :          0.0000000000
        Rotational entropy             :          0.0123995538
        Vibrational entropy            :          0.0073471503
        Translational entropy          :          0.0123995538
        Entropy                        :          0.0381556624
        Gibbs Energy (Hartree)         :       -197.4917461467
        Is Linear                      :                 false
# -------------------------------------------------------------
----------------------- !GEOMETRIES! ------------------------
# -------------------------------------------------------------
------------------------ !GEOMETRY! -------------------------
    Number of atoms:    17 
    Geometry Index:     1 
    Coordinates:
               0 C     -1.333200000000    0.144910000000   -0.035010000000
               1 C      0.186620000000    0.103590000000   -0.032780000000
               2 H     -1.716420000000    0.536170000000    0.912830000000
               3 H     -1.739520000000   -0.861520000000   -0.176140000000
               4 H     -1.707250000000    0.778990000000   -0.845180000000
               5 H      0.526950000000   -0.563560000000    0.767720000000
               6 C      0.784530000000    1.496590000000    0.162720000000
               7 H      0.536070000000   -0.322110000000   -0.980600000000
               8 H      0.428530000000    1.919760000000    1.109990000000
               9 H      0.437700000000    2.161140000000   -0.638050000000
              10 C      2.312290000000    1.450560000000    0.164380000000
              11 H      2.664220000000    0.790800000000    0.965990000000
              12 C      2.911190000000    2.834450000000    0.358570000000
              13 H      2.673390000000    1.032170000000   -0.782340000000
              14 H      2.595150000000    3.268370000000    1.312600000000
              15 H      2.604400000000    3.511060000000   -0.445430000000
              16 H      4.004230000000    2.778110000000    0.356550000000
------------------------ !GEOMETRY! -------------------------
    Number of atoms:    17 
    Geometry Index:     2 
    Coordinates:
               0 C     -1.365739598283    0.124542830494   -0.038040475675
               1 C      0.167620798285    0.096451494456   -0.033750587051
               2 H     -1.758389059096    0.518531644216    0.914585780860
               3 H     -1.780508715396   -0.887465294017   -0.180529378228
               4 H     -1.748852793227    0.763188290072   -0.851820797590
               5 H      0.516589434272   -0.577663790348    0.769134555868
               6 C      0.791203347184    1.486246239571    0.161716144032
               7 H      0.526180065365   -0.334730528954   -0.985762914518
               8 H      0.430151770925    1.916622596828    1.113949310307
               9 H      0.439217108769    2.159476376395   -0.641558041758
              10 C      2.326858054983    1.464584540548    0.166396505580
              11 H      2.680885038699    0.793906929583    0.969969159175
              12 C      2.943579274635    2.855187120940    0.361315402077
              13 H      2.689795562801    1.035866583315   -0.785078440642
              14 H      2.627334062174    3.298478678271    1.320612238955
              15 H      2.637667190016    3.541973139206   -0.445911238893
              16 H      4.045288457893    2.804283149426    0.360592777501
------------------------ !GEOMETRY! -------------------------
    Number of atoms:    17 
    Geometry Index:     3 
    Coordinates:
               0 C     -1.368696619216    0.121913641581   -0.038522704980
               1 C      0.164667623367    0.096697701619   -0.033697165277
               2 H     -1.764080664910    0.516527949266    0.913537349572
               3 H     -1.786373211161   -0.888631199307   -0.181384477977
               4 H     -1.754327668059    0.761755218077   -0.851150323456
               5 H      0.517029128708   -0.579237731075    0.767675105231
               6 C      0.793610934203    1.482499524719    0.161688915640
               7 H      0.526924752507   -0.335970625036   -0.984899796216
               8 H      0.430822674107    1.915532868031    1.113701424703
               9 H      0.439683261043    2.158786936814   -0.640132934250
              10 C      2.327926069459    1.467280663256    0.166908136149
              11 H      2.682156070473    0.793084833992    0.968951940775
              12 C      2.947286790180    2.856765808278    0.361214071478
              13 H      2.690684742487    1.034242555771   -0.783932131387
              14 H      2.630674323959    3.303280598438    1.319712553286
              15 H      2.641955018599    3.545787139424   -0.445309746100
              16 H      4.048936774253    2.809164116153    0.361459782808
------------------------ !GEOMETRY! -------------------------
    Number of atoms:    17 
    Geometry Index:     4 
    Coordinates:
               0 C     -1.367786965028    0.121640313364   -0.038683997671
               1 C      0.163923391044    0.097442444829   -0.033613843089
               2 H     -1.764933418595    0.516689858182    0.912616994686
               3 H     -1.787803844274   -0.887548155085   -0.182005978724
               4 H     -1.755017329256    0.762588860119   -0.849867209320
               5 H      0.518602382889   -0.580013474748    0.765891584520
               6 C      0.794820191755    1.480600636660    0.161985859181
               7 H      0.528737333628   -0.336387910083   -0.983679768840
               8 H      0.430730635148    1.915648901560    1.113142749303
               9 H      0.439330668947    2.159289195600   -0.637796244245
              10 C      2.327618672218    1.468193694806    0.167241510054
              11 H      2.682262316158    0.791718080993    0.967623093468
              12 C      2.947208363803    2.855863345771    0.360694330931
              13 H      2.690353911657    1.031833880644   -0.782453794249
              14 H      2.629894290905    3.304897386632    1.317939004449
              15 H      2.642267904338    3.546059372502   -0.445160794013
              16 H      4.048671494662    2.810963568256    0.361946503559
------------------------ !GEOMETRY! -------------------------
    Number of atoms:    17 
    Geometry Index:     5 
    Coordinates:
               0 C     -1.366667779051    0.122024795308   -0.038686955857
               1 C      0.164190018824    0.097678095161   -0.033625742187
               2 H     -1.764244226496    0.517110642861    0.912354540190
               3 H     -1.787450506660   -0.886755087555   -0.182269222706
               4 H     -1.754306616353    0.763409871140   -0.849254684866
               5 H      0.519430533458   -0.580361096480    0.765093052700
               6 C      0.794809512988    1.480600008732    0.162261065358
               7 H      0.529613759405   -0.336495522283   -0.983262808133
               8 H      0.430369673696    1.916161012279    1.112974034157
               9 H      0.438826345925    2.160053036188   -0.636567965857
              10 C      2.327321013629    1.468020791169    0.167347961004
              11 H      2.682249194302    0.791060779706    0.967147720800
              12 C      2.946404820783    2.855037585512    0.360373207290
              13 H      2.690126270871    1.030652647467   -0.781819351119
              14 H      2.628681674078    3.304952362473    1.317004743504
              15 H      2.641674380410    3.545355486314   -0.445379574264
              16 H      4.047851930191    2.810974592009    0.362129979984
------------------------ !GEOMETRY! -------------------------
    Number of atoms:    17 
    Geometry Index:     6 
    Coordinates:
               0 C     -1.366277175088    0.122180775715   -0.038689814383
               1 C      0.164392376503    0.097686997502   -0.033672569670
               2 H     -1.763941298925    0.517155217316    0.912340769843
               3 H     -1.787275542572   -0.886512269762   -0.182441269170
               4 H     -1.754030535792    0.763748525249   -0.849033610599
               5 H      0.519734446146   -0.580552327211    0.764769697860
               6 C      0.794657601550    1.480821429955    0.162439385057
               7 H      0.529897629185   -0.336486384737   -0.983225521143
               8 H      0.430177824806    1.916383334941    1.113051763298
               9 H      0.438556799709    2.160493010418   -0.636050882473
              10 C      2.327242470490    1.467825594293    0.167408831636
              11 H      2.682278043641    0.790861754313    0.967094227098
              12 C      2.946103760422    2.854766026178    0.360216261715
              13 H      2.690053141213    1.030181243529   -0.781577432921
              14 H      2.628158830943    3.305044030408    1.316582745209
              15 H      2.641568861372    3.544985599497   -0.445668837894
              16 H      4.047582766397    2.810897442397    0.362276256538
