17
Coordinates from ORCA-job pentane_B3LYP_def2-TZVP
  C   -1.36148573341733      0.12549705747151     -0.03879561970594
  C   0.16635710250551      0.09977154273154     -0.03186928343294
  H   -1.75454706719553      0.51753242976818      0.90299115246912
  H   -1.77708867490522     -0.87445622936323     -0.18088815378856
  H   -1.74205728270574      0.76001432619538     -0.84362874506281
  H   0.51597986287681     -0.57017525262472      0.76138801631303
  C   0.79497815086663      1.48012485898432      0.16231375969348
  H   0.52752429920440     -0.33080429171489     -0.97231531484156
  H   0.43552792458311      1.91102579744636      1.10465492307403
  H   0.44212514299992      2.15170130828674     -0.62983281469882
  C   2.32425941207935      1.46735925700796      0.16625975524878
  H   2.67644378629624      0.79743556045929      0.95841074907774
  C   2.94113857503189      2.85183696077538      0.36017788439792
  H   2.68279102453988      1.03688303000695     -0.77521366675152
  H   2.62742878326931      3.29384712555856      1.30954168203723
  H   2.63717312762510      3.53507990359250     -0.43727682514358
  H   4.03233156634566      2.80680661541818      0.35990250111439
