17
Coordinates from ORCA-job pentane_B3LYP_cc-pVDZ
  C   -1.36627717508797      0.12218077571472     -0.03868981438327
  C   0.16439237650331      0.09768699750217     -0.03367256966988
  H   -1.76394129892545      0.51715521731607      0.91234076984319
  H   -1.78727554257214     -0.88651226976198     -0.18244126917027
  H   -1.75403053579160      0.76374852524917     -0.84903361059866
  H   0.51973444614593     -0.58055232721053      0.76476969785982
  C   0.79465760154985      1.48082142995451      0.16243938505695
  H   0.52989762918479     -0.33648638473735     -0.98322552114343
  H   0.43017782480575      1.91638333494140      1.11305176329771
  H   0.43855679970914      2.16049301041791     -0.63605088247304
  C   2.32724247048955      1.46782559429312      0.16740883163560
  H   2.68227804364067      0.79086175431270      0.96709422709826
  C   2.94610376042167      2.85476602617759      0.36021626171490
  H   2.69005314121348      1.03018124352899     -0.78157743292118
  H   2.62815883094338      3.30504403040832      1.31658274520879
  H   2.64156886137230      3.54498559949655     -0.44566883789392
  H   4.04758276639733      2.81089744239661      0.36227625653843
