17
Coordinates from ORCA-job pentane_B3LYP_6-31G_d_
  C   -1.36799338310201      0.12227467067406     -0.03899841513573
  C   0.16467572331461      0.09605049555848     -0.03317470113062
  H   -1.76163119128277      0.51640909634427      0.90651285202376
  H   -1.78558958548086     -0.88155503226263     -0.18093845697264
  H   -1.75042360226419      0.75942121494550     -0.84658223513531
  H   0.51637313018167     -0.57694325706614      0.76235299038018
  C   0.79384376688667      1.48208020728821      0.16242334876397
  H   0.52686812657896     -0.33537396653077     -0.97767701091284
  H   0.43265159294792      1.91437250489494      1.10816544061763
  H   0.44022998010806      2.15642165479699     -0.63267375701972
  C   2.32852279297109      1.46703437228669      0.16679790719559
  H   2.68148870091619      0.79485280256025      0.96247421326616
  C   2.94677122090044      2.85630331967907      0.36080780053375
  H   2.68857089619638      1.03426862524849     -0.77789086884244
  H   2.63102057257724      3.30052407399775      1.31326839005339
  H   2.64126017580828      3.54164486139318     -0.44003489808321
  H   4.04224108274230      2.81169435619165      0.36098740039810
