11
Coordinates from ORCA-job propane_B3LYP_STO-3G
  C   -1.18470729596015      0.21447939810602     -0.02125741208562
  C   0.37133161146073      0.18618546922113     -0.01880931452256
  H   -1.56757022808493      0.61289128730278      0.93106947126534
  H   -1.59067272504428     -0.79953913191766     -0.16008625409277
  H   -1.56050202467263      0.85201080001217     -0.83648744464394
  H   0.72240112858559     -0.47992198124348      0.78893559402614
  C   0.99083352689815      1.60049725308529      0.17610478316750
  H   0.72954130889187     -0.24056410977909     -0.97220242221719
  H   0.66821157287836      2.03705435279120      1.13398361631194
  H   0.67655309275083      2.27733498128807     -0.63345076378546
  H   2.09053003229645      1.54585168113358      0.17380014657663
