# propane
! B3LYP STO-3G Opt Freq

* xyz 0 1
   C       -1.15214        0.23107       -0.01892
   C        0.36672        0.19320       -0.01765
   H       -1.53560        0.62392        0.92820
   H       -1.55655       -0.77648       -0.15744
   H       -1.52818        0.86268       -0.83014
   H        0.71446       -0.46687        0.78471
   C        0.96202        1.57801        0.17288
   H        0.72184       -0.22943       -0.96405
   H        0.64537        2.01344        1.12605
   H        0.65281        2.25217       -0.63229
   H        2.05520        1.52457        0.17025
*