-------------------------------------------------------------
----------------------- !PROPERTIES! ------------------------
-------------------------------------------------------------
# -----------------------------------------------------------
$ SCF_Energy
   description: The SCF energy
   geom. index: 1
   prop. index: 1
        SCF Energy:     -119.0473381678
# -----------------------------------------------------------
$ DFT_Energy
   description: The DFT energy
   geom. index: 1
   prop. index: 1
   Number of Alpha Electrons        13.0000234751 
   Number of Alpha Electrons        13.0000234751 
   Total nuber of  Electrons        26.0000469502 
   Exchange energy                 -14.5730008567 
   Correlation energy               -0.9592532224 
   Correlantion energy NL            0.0000000000 
   Exchange-Correlation energy     -15.5322540791 
   Embedding correction              0.0000000000 
# -----------------------------------------------------------
$ SCF_Energy
   description: The SCF energy
   geom. index: 2
   prop. index: 1
        SCF Energy:     -119.0478673566
# -----------------------------------------------------------
$ DFT_Energy
   description: The DFT energy
   geom. index: 2
   prop. index: 1
   Number of Alpha Electrons        13.0000221124 
   Number of Alpha Electrons        13.0000221124 
   Total nuber of  Electrons        26.0000442248 
   Exchange energy                 -14.5588067178 
   Correlation energy               -0.9580618710 
   Correlantion energy NL            0.0000000000 
   Exchange-Correlation energy     -15.5168685888 
   Embedding correction              0.0000000000 
# -----------------------------------------------------------
$ SCF_Energy
   description: The SCF energy
   geom. index: 3
   prop. index: 1
        SCF Energy:     -119.0478907998
# -----------------------------------------------------------
$ DFT_Energy
   description: The DFT energy
   geom. index: 3
   prop. index: 1
   Number of Alpha Electrons        13.0000215686 
   Number of Alpha Electrons        13.0000215686 
   Total nuber of  Electrons        26.0000431372 
   Exchange energy                 -14.5576542173 
   Correlation energy               -0.9579486488 
   Correlantion energy NL            0.0000000000 
   Exchange-Correlation energy     -15.5156028661 
   Embedding correction              0.0000000000 
# -----------------------------------------------------------
$ SCF_Energy
   description: The SCF energy
   geom. index: 4
   prop. index: 1
        SCF Energy:     -119.0478946389
# -----------------------------------------------------------
$ DFT_Energy
   description: The DFT energy
   geom. index: 4
   prop. index: 1
   Number of Alpha Electrons        13.0000214183 
   Number of Alpha Electrons        13.0000214183 
   Total nuber of  Electrons        26.0000428366 
   Exchange energy                 -14.5577537659 
   Correlation energy               -0.9579594261 
   Correlantion energy NL            0.0000000000 
   Exchange-Correlation energy     -15.5157131920 
   Embedding correction              0.0000000000 
# -----------------------------------------------------------
$ SCF_Energy
   description: The SCF energy
   geom. index: 5
   prop. index: 1
        SCF Energy:     -119.0478954419
# -----------------------------------------------------------
$ DFT_Energy
   description: The DFT energy
   geom. index: 5
   prop. index: 1
   Number of Alpha Electrons        13.0000213985 
   Number of Alpha Electrons        13.0000213985 
   Total nuber of  Electrons        26.0000427969 
   Exchange energy                 -14.5579953865 
   Correlation energy               -0.9579856118 
   Correlantion energy NL            0.0000000000 
   Exchange-Correlation energy     -15.5159809983 
   Embedding correction              0.0000000000 
# -----------------------------------------------------------
$ SCF_Electric_Properties
   description: The SCF Calculated Electric Properties
   geom. index: 5
   prop. index: 1
       Filename                          : propane_B3LYP_6-31G_d_.scfp 
       Do Dipole Moment Calculation      : true 
       Do Quadrupole Moment Calculation  : false 
       Do Polarizability Calculation     : false 
** Dipole moment part of electric properties **
        Magnitude of dipole moment (Debye) :        0.0559503211
        Electronic Contribution:
                  0    
      0       0.251976
      1      -0.386986
      2      -0.051478
        Nuclear Contribution:
                  0    
      0      -0.240034
      1       0.368649
      2       0.049093
        Total Dipole moment:
                  0    
      0       0.011943
      1      -0.018336
      2      -0.002385
# -----------------------------------------------------------
$ Hessian
   description: Details about the Hessian
   geom. index: 5
   prop. index: 1
Normal modes:
Number of Rows: 33 Number of Columns: 33
                  0          1          2          3          4          5    
      0       0.000000   0.000000   0.000000   0.000000   0.000000   0.000000
      1       0.000000   0.000000   0.000000   0.000000   0.000000   0.000000
      2       0.000000   0.000000   0.000000   0.000000   0.000000   0.000000
      3       0.000000   0.000000   0.000000   0.000000   0.000000   0.000000
      4       0.000000   0.000000   0.000000   0.000000   0.000000   0.000000
      5       0.000000   0.000000   0.000000   0.000000   0.000000   0.000000
      6       0.000000   0.000000   0.000000   0.000000   0.000000   0.000000
      7       0.000000   0.000000   0.000000   0.000000   0.000000   0.000000
      8       0.000000   0.000000   0.000000   0.000000   0.000000   0.000000
      9       0.000000   0.000000   0.000000   0.000000   0.000000   0.000000
     10       0.000000   0.000000   0.000000   0.000000   0.000000   0.000000
     11       0.000000   0.000000   0.000000   0.000000   0.000000   0.000000
     12       0.000000   0.000000   0.000000   0.000000   0.000000   0.000000
     13       0.000000   0.000000   0.000000   0.000000   0.000000   0.000000
     14       0.000000   0.000000   0.000000   0.000000   0.000000   0.000000
     15       0.000000   0.000000   0.000000   0.000000   0.000000   0.000000
     16       0.000000   0.000000   0.000000   0.000000   0.000000   0.000000
     17       0.000000   0.000000   0.000000   0.000000   0.000000   0.000000
     18       0.000000   0.000000   0.000000   0.000000   0.000000   0.000000
     19       0.000000   0.000000   0.000000   0.000000   0.000000   0.000000
     20       0.000000   0.000000   0.000000   0.000000   0.000000   0.000000
     21       0.000000   0.000000   0.000000   0.000000   0.000000   0.000000
     22       0.000000   0.000000   0.000000   0.000000   0.000000   0.000000
     23       0.000000   0.000000   0.000000   0.000000   0.000000   0.000000
     24       0.000000   0.000000   0.000000   0.000000   0.000000   0.000000
     25       0.000000   0.000000   0.000000   0.000000   0.000000   0.000000
     26       0.000000   0.000000   0.000000   0.000000   0.000000   0.000000
     27       0.000000   0.000000   0.000000   0.000000   0.000000   0.000000
     28       0.000000   0.000000   0.000000   0.000000   0.000000   0.000000
     29       0.000000   0.000000   0.000000   0.000000   0.000000   0.000000
     30       0.000000   0.000000   0.000000   0.000000   0.000000   0.000000
     31       0.000000   0.000000   0.000000   0.000000   0.000000   0.000000
     32       0.000000   0.000000   0.000000   0.000000   0.000000   0.000000
                  6          7          8          9         10         11    
      0       0.000110   0.000205   0.115449  -0.000100   0.216705   0.000073
      1       0.004032   0.005306   0.140132  -0.002272   0.061514   0.008650
      2      -0.029895  -0.038583   0.019531   0.016500   0.009176  -0.064020
      3      -0.000033  -0.000344   0.093082  -0.000307  -0.109286   0.000130
      4      -0.000023  -0.012584  -0.143384  -0.010415   0.168171  -0.000068
      5       0.000477   0.092213  -0.019159   0.076606   0.022383   0.000016
      6      -0.017176  -0.104321   0.281151  -0.276171   0.061050   0.382746
      7       0.378774  -0.333661   0.274939   0.062971  -0.096971  -0.047317
      8      -0.193794   0.059684   0.032382  -0.127560   0.009055   0.122807
      9      -0.001439   0.001783  -0.205338   0.000359   0.595911  -0.001237
     10      -0.048917   0.062058   0.272587   0.015462  -0.090546  -0.026174
     11       0.359789  -0.456015   0.036703  -0.113733  -0.009689   0.193074
     12       0.018996   0.103788   0.280943   0.277293   0.060332  -0.383975
     13      -0.313539   0.305837   0.272521  -0.026983  -0.091114   0.013421
     14      -0.287489   0.147242   0.043851  -0.137434  -0.033780   0.127891
     15      -0.005231  -0.051442   0.082015   0.251530  -0.105323  -0.302959
     16      -0.002807   0.056247  -0.128234  -0.348373   0.162688  -0.193223
     17       0.000444   0.172638  -0.003951  -0.325535   0.017512  -0.027511
     18      -0.000089   0.000080  -0.176588  -0.000055  -0.146646  -0.000193
     19      -0.004000   0.005262  -0.045937  -0.002221  -0.169575  -0.008640
     20       0.029487  -0.038936  -0.006911   0.016471  -0.023525   0.064022
     21       0.005189   0.050203   0.081936  -0.249218  -0.104516   0.303463
     22       0.002678  -0.100431  -0.124397   0.422989   0.162187   0.193312
     23       0.001232   0.151758  -0.030077  -0.222831   0.025697   0.027362
     24       0.312941   0.332563  -0.368076   0.073975   0.062224   0.131434
     25      -0.193122  -0.050758  -0.139182   0.285987  -0.094958   0.375166
     26       0.221485   0.097281  -0.026389  -0.095671   0.009105  -0.076052
     27      -0.314884  -0.333883  -0.367907  -0.072803   0.062039  -0.130617
     28       0.127502   0.023248  -0.140488  -0.249964  -0.090791  -0.341219
     29       0.262023   0.104164  -0.014672  -0.169155  -0.034268  -0.174592
     30       0.001748   0.002017  -0.165339   0.000550  -0.164301   0.001022
     31       0.049317   0.061484   0.298371   0.015560  -0.576756   0.026714
     32      -0.364511  -0.451850   0.040060  -0.113761  -0.079351  -0.193185
                 12         13         14         15         16         17    
      0      -0.027876  -0.172226  -0.037747  -0.000492  -0.000270   0.013598
      1       0.082842   0.008566   0.127095  -0.015573  -0.009711  -0.051887
      2       0.011129   0.000540   0.016992   0.115389   0.071814  -0.006928
      3       0.038183   0.220320   0.099101   0.000813  -0.000142   0.147616
      4       0.024549   0.140237  -0.152869   0.024001  -0.000073   0.094033
      5       0.003483   0.019922  -0.020178  -0.178018  -0.000020   0.013392
      6      -0.281860  -0.183571  -0.302176  -0.353251  -0.187177  -0.074859
      7      -0.169614   0.040711  -0.193122   0.091816   0.050942   0.083622
      8       0.009702  -0.012950   0.036373  -0.086217  -0.031517  -0.089814
      9       0.468616  -0.235315   0.414535   0.001086   0.000577  -0.254157
     10      -0.123112   0.035244  -0.068194   0.029754   0.012900   0.054172
     11      -0.014802   0.003661  -0.007328  -0.219085  -0.095274   0.006175
     12      -0.281454  -0.183020  -0.302211   0.353462   0.187477  -0.075498
     13      -0.160611   0.035963  -0.175992  -0.066165  -0.041023   0.056670
     14      -0.056863   0.021654  -0.088722  -0.104720  -0.042511   0.108157
     15      -0.168960   0.467201   0.091032  -0.196258  -0.537041  -0.513890
     16      -0.107440   0.297683  -0.142816   0.288630  -0.341970  -0.327328
     17      -0.015325   0.042415  -0.005205   0.135835  -0.048552  -0.046519
     18       0.064231  -0.063678  -0.100987  -0.000557   0.000365  -0.041929
     19      -0.059828  -0.158691   0.086961  -0.015546   0.009738   0.033892
     20      -0.007828  -0.021870   0.011272   0.115427  -0.071810   0.004355
     21      -0.169161   0.467090   0.090960   0.195539   0.537699  -0.512916
     22      -0.107436   0.297329  -0.138405  -0.315000   0.342500  -0.326488
     23      -0.015301   0.042240  -0.032430   0.055360   0.048576  -0.046404
     24      -0.267887  -0.040808   0.294238   0.074472  -0.035617   0.032259
     25      -0.181068  -0.183477   0.187208   0.364420  -0.192871  -0.110869
     26      -0.059693  -0.007312   0.090643  -0.047284   0.011224   0.086092
     27      -0.268305  -0.040475   0.295064  -0.073235   0.035070   0.033312
     28      -0.189931  -0.178352   0.204591  -0.338234   0.182891  -0.083708
     29       0.006892  -0.041954  -0.034586  -0.143578   0.062768  -0.112145
     30       0.080847  -0.065411  -0.109188   0.000997  -0.000422  -0.055613
     31       0.472466  -0.227273  -0.402361   0.029595  -0.012817  -0.252105
     32       0.064558  -0.030972  -0.055093  -0.219441   0.095473  -0.034455
                 18         19         20         21         22         23    
      0       0.101659   0.101186  -0.001445  -0.000135  -0.007970  -0.000191
      1       0.015928  -0.004209  -0.016831  -0.005208   0.036622  -0.004771
      2       0.002554  -0.000141  -0.002023   0.037998   0.005147   0.033740
      3      -0.049436  -0.004563  -0.030138   0.000026   0.028129   0.000101
      4      -0.031476   0.006927   0.046516  -0.000366   0.017754  -0.003930
      5      -0.004445   0.000930   0.006228  -0.000042   0.002539   0.026327
      6      -0.363925  -0.366053  -0.071919   0.220776   0.135270   0.229975
      7      -0.112827  -0.050549   0.218586   0.269642  -0.376329   0.267076
      8      -0.122981  -0.162735  -0.124355  -0.002727   0.228177   0.002590
      9      -0.327630  -0.367321   0.140524   0.002331  -0.230085   0.003341
     10       0.176367   0.174936  -0.062203   0.067756   0.111995   0.066372
     11       0.022592   0.021955  -0.011368  -0.500630   0.011479  -0.494380
     12      -0.364913  -0.367595  -0.076207  -0.220668   0.135127  -0.230703
     13      -0.141041  -0.091881   0.174103  -0.258304  -0.305016  -0.254792
     14       0.085566   0.140329   0.176451  -0.075621  -0.319966  -0.067575
     15       0.133216  -0.011613   0.248235   0.034053  -0.067812   0.020808
     16       0.084716   0.017499  -0.331509   0.024401  -0.042281  -0.032431
     17       0.012012   0.007171  -0.408209   0.005503  -0.005286  -0.002014
     18       0.057076  -0.037818   0.016101  -0.000053   0.030437  -0.000023
     19       0.085579  -0.092402  -0.005694   0.005368  -0.022325  -0.004649
     20       0.011903  -0.012748  -0.000895  -0.037870  -0.003051   0.033803
     21       0.132952  -0.011601   0.244956  -0.036079  -0.068160  -0.022878
     22       0.084668   0.018742  -0.428776  -0.019713  -0.042263   0.035729
     23       0.012041  -0.002321   0.306933  -0.004853  -0.006733   0.003546
     24      -0.269896   0.216807  -0.147807   0.335219  -0.254493  -0.336573
     25      -0.292262   0.320127   0.169745   0.081379   0.300724  -0.094304
     26       0.066097  -0.109155  -0.131507   0.054907  -0.239186  -0.048751
     27      -0.268533   0.215041  -0.152625  -0.331335  -0.259930   0.334988
     28      -0.263496   0.279010   0.127728  -0.096840   0.225545   0.105084
     29      -0.144194   0.192621   0.170894   0.022685   0.308634  -0.016545
     30       0.026350  -0.008369  -0.000678  -0.002368   0.007187   0.002377
     31      -0.370596   0.400761  -0.153544  -0.065863  -0.254282   0.066332
     32      -0.050440   0.054628  -0.018275   0.499722  -0.032352  -0.495392
                 24         25         26         27         28         29    
      0       0.005216   0.003426  -0.035591  -0.034359  -0.000326  -0.000609
      1       0.031675  -0.009775   0.006187   0.003883  -0.003366  -0.011366
      2       0.004508  -0.001011   0.000384   0.000037   0.024946   0.065372
      3      -0.035379  -0.036619   0.000931  -0.003189   0.000862  -0.000003
      4       0.054626   0.056591   0.001161   0.004805   0.010732  -0.000113
      5       0.007425   0.006315   0.000082   0.000943  -0.085030   0.000604
      6       0.099970  -0.026821   0.145805   0.137673   0.068385   0.173320
      7      -0.319840   0.024467  -0.158090  -0.146901  -0.074608  -0.186864
      8       0.183062   0.067203  -0.381917  -0.354552  -0.169356  -0.424943
      9      -0.216038   0.014960   0.127617   0.131021   0.000863   0.009306
     10       0.110889   0.046832   0.339585   0.338631   0.001109   0.020942
     11       0.011473   0.006529   0.046518   0.046419   0.007588   0.019201
     12       0.099393  -0.027895   0.144415   0.136731  -0.065448  -0.175275
     13      -0.262412   0.044296  -0.257056  -0.239312   0.114272   0.301341
     14      -0.261609  -0.061875   0.330544   0.307536  -0.140245  -0.372725
     15       0.155639   0.218209  -0.000158   0.018477   0.207589  -0.004465
     16      -0.204620  -0.417019  -0.004463  -0.035595  -0.391273   0.001023
     17      -0.282444   0.523889   0.003969   0.047055   0.459777  -0.003696
     18      -0.031234   0.007583  -0.008546   0.011189  -0.000025  -0.001967
     19       0.008342  -0.006816  -0.033146   0.034243  -0.003075   0.009325
     20       0.001207  -0.000595  -0.004109   0.004203   0.024779  -0.064172
     21       0.153498   0.216632  -0.000532   0.020421  -0.217793   0.004291
     22      -0.272180  -0.255151  -0.002801  -0.023620   0.262066   0.000097
     23       0.218876  -0.598735  -0.004032  -0.058632   0.562950  -0.003462
     24       0.222389  -0.018283  -0.125132   0.126814   0.060564  -0.148395
     25      -0.240646   0.027424   0.159452  -0.164923  -0.079313   0.196887
     26       0.193726   0.064033   0.365303  -0.372950  -0.169659   0.418548
     27       0.228702  -0.019091  -0.123891   0.125807  -0.057044   0.147370
     28      -0.179233   0.046342   0.255363  -0.263346   0.117471  -0.308776
     29      -0.249066  -0.057856  -0.315391   0.322102  -0.137608   0.361332
     30      -0.011969  -0.052558   0.346705  -0.382867  -0.003198   0.024568
     31       0.240301   0.006180  -0.024592   0.023517  -0.000848   0.001009
     32       0.029413   0.000692  -0.001584   0.001258   0.007235  -0.015746
                 30         31         32    
      0      -0.004479  -0.001339  -0.003719
      1      -0.067567  -0.022513  -0.056722
      2      -0.010966   0.054898  -0.023126
      3      -0.000058   0.001428   0.006108
      4      -0.000778  -0.007254  -0.008069
      5       0.000335   0.035435  -0.010558
      6      -0.096410   0.135707  -0.126513
      7       0.087528  -0.144806   0.117309
      8       0.241495  -0.323515   0.306954
      9       0.238529   0.052186   0.205069
     10       0.586074   0.126568   0.503059
     11       0.080068   0.028587   0.066149
     12      -0.085508  -0.174165  -0.042432
     13       0.132936   0.287796   0.058319
     14      -0.190765  -0.363072  -0.096123
     15      -0.003533  -0.093446  -0.009827
     16       0.004568   0.176700   0.018854
     17      -0.006209  -0.210156  -0.023542
     18      -0.058212   0.016751   0.061080
     19       0.021435  -0.014150  -0.020909
     20       0.005813   0.057691  -0.018475
     21      -0.001684   0.078529  -0.055253
     22       0.000108  -0.094288   0.066205
     23       0.001679  -0.204559   0.145702
     24       0.067057   0.116677  -0.099702
     25      -0.099157  -0.157894   0.148912
     26      -0.230946  -0.325272   0.333385
     27       0.050944  -0.146820  -0.027082
     28      -0.127583   0.323425   0.082178
     29       0.162127  -0.377363  -0.108704
     30       0.578290  -0.169327  -0.600542
     31      -0.025510   0.005801   0.026338
     32      -0.000038   0.011541  -0.002307
# -----------------------------------------------------------
$ THERMOCHEMISTRY_Energies
   description: The Thermochemistry energies
   geom. index: 5
   prop. index: 1
        Temperature (Kelvin)           :        298.1500000000
        Pressure (atm)                 :          1.0000000000
        Total Mass (AMU)               :         44.0970000000
        Spin Degeneracy                :          1.0000000000
        Electronic Energy (Hartree)    :       -119.0478954419
        Translational Energy (Hartree) :          0.0014162714
        Rotational Energy (Hartree)    :          0.0014162714
        Vibrational Energy (Hartree)   :          0.0016794251
        Number of frequencies          :     33      
        Scaling Factor for frequencies :          1.0000000000
        Vibrational frequencies        :     
                  0    
      0       0.000000
      1       0.000000
      2       0.000000
      3       0.000000
      4       0.000000
      5       0.000000
      6     225.180682
      7     273.203591
      8     367.016515
      9     757.206793
     10     879.209280
     11     919.883209
     12     940.821500
     13     1065.983430
     14     1189.308626
     15     1228.146923
     16     1330.760849
     17     1386.331105
     18     1432.807635
     19     1449.460120
     20     1519.511695
     21     1520.251829
     22     1527.835754
     23     1537.474460
     24     1543.667628
     25     3031.405458
     26     3035.190739
     27     3039.502651
     28     3056.164374
     29     3095.871164
     30     3105.564679
     31     3106.787812
     32     3108.160886
        Zero Point Energy (Hartree)    :          0.1040500881
        Inner Energy (Hartree)         :       -118.9393333860
        Enthalpy (Hartree)             :       -118.9383891769
        Electronic entropy             :          0.0000000000
        Rotational entropy             :          0.0107847352
        Vibrational entropy            :          0.0026225223
        Translational entropy          :          0.0107847352
        Entropy                        :          0.0311188872
        Gibbs Energy (Hartree)         :       -118.9695080641
        Is Linear                      :                 false
# -------------------------------------------------------------
----------------------- !GEOMETRIES! ------------------------
# -------------------------------------------------------------
------------------------ !GEOMETRY! -------------------------
    Number of atoms:    11 
    Geometry Index:     1 
    Coordinates:
               0 C     -1.152140000000    0.231070000000   -0.018920000000
               1 C      0.366720000000    0.193200000000   -0.017650000000
               2 H     -1.535600000000    0.623920000000    0.928200000000
               3 H     -1.556550000000   -0.776480000000   -0.157440000000
               4 H     -1.528180000000    0.862680000000   -0.830140000000
               5 H      0.714460000000   -0.466870000000    0.784710000000
               6 C      0.962020000000    1.578010000000    0.172880000000
               7 H      0.721840000000   -0.229430000000   -0.964050000000
               8 H      0.645370000000    2.013440000000    1.126050000000
               9 H      0.652810000000    2.252170000000   -0.632290000000
              10 H      2.055200000000    1.524570000000    0.170250000000
------------------------ !GEOMETRY! -------------------------
    Number of atoms:    11 
    Geometry Index:     2 
    Coordinates:
               0 C     -1.166867727258    0.219401996345   -0.020520065800
               1 C      0.365550854061    0.195045643415   -0.017427959514
               2 H     -1.556777861567    0.613499306909    0.926228280630
               3 H     -1.577173292959   -0.788634017349   -0.159105102300
               4 H     -1.549413896041    0.852033442705   -0.831206997431
               5 H      0.717233110876   -0.470825202928    0.782400477552
               6 C      0.978935186274    1.586436915090    0.174076016146
               7 H      0.724424922553   -0.233844969674   -0.962947956536
               8 H      0.663675782162    2.028066212432    1.127578212485
               9 H      0.671412720257    2.266864959775   -0.629793014765
              10 H      2.074950201641    1.538235713280    0.172318109533
------------------------ !GEOMETRY! -------------------------
    Number of atoms:    11 
    Geometry Index:     3 
    Coordinates:
               0 C     -1.168657813711    0.216874871051   -0.020835303630
               1 C      0.365256623323    0.195530984808   -0.017391597377
               2 H     -1.560168012263    0.612103192248    0.925068324565
               3 H     -1.581714180108   -0.789564086205   -0.159200854518
               4 H     -1.552839389621    0.850312618040   -0.830467741810
               5 H      0.718254001897   -0.472118746384    0.780606852205
               6 C      0.982052404545    1.586999743719    0.174150132846
               7 H      0.725297582409   -0.235556020301   -0.961659315466
               8 H      0.666371799650    2.030538045542    1.126917541730
               9 H      0.674358384918    2.269145765807   -0.628545515686
              10 H      2.077738598961    1.542013631674    0.172957477141
------------------------ !GEOMETRY! -------------------------
    Number of atoms:    11 
    Geometry Index:     4 
    Coordinates:
               0 C     -1.168261072091    0.216391231729   -0.020871897542
               1 C      0.365241620994    0.195576358910   -0.017412402267
               2 H     -1.560315891963    0.612518735514    0.924550195465
               3 H     -1.583083103877   -0.789167196986   -0.159108659214
               4 H     -1.553019451418    0.850517913186   -0.829833451046
               5 H      0.718926807030   -0.472995992087    0.779627839030
               6 C      0.982364175528    1.586442827318    0.174066652824
               7 H      0.725859346979   -0.236642311468   -0.961042833007
               8 H      0.666035899728    2.030852265590    1.126334830087
               9 H      0.674230210300    2.269331100978   -0.627971221659
              10 H      2.077971458789    1.543455067317    0.173260947328
------------------------ !GEOMETRY! -------------------------
    Number of atoms:    11 
    Geometry Index:     5 
    Coordinates:
               0 C     -1.167586690020    0.216499599355   -0.020834170542
               1 C      0.365329935859    0.195453708731   -0.017452081940
               2 H     -1.559797646244    0.613164017360    0.924354874539
               3 H     -1.583423388714   -0.788637850720   -0.158999146301
               4 H     -1.552534356160    0.851043101002   -0.829445248785
               5 H      0.719354887857   -0.473571222052    0.779137515862
               6 C      0.982000302782    1.585882752186    0.173984692171
               7 H      0.726208232265   -0.237299158801   -0.960806226963
               8 H      0.665199409467    2.030670945057    1.125975730640
               9 H      0.673560711749    2.269072910429   -0.627744624373
              10 H      2.077638601156    1.544001197453    0.173428685692
