11
Coordinates from ORCA-job propane_B3LYP_def2-TZVP E -119.097728122515
  C      -1.152140      0.231070     -0.018920
  C       0.366720      0.193200     -0.017650
  H      -1.535600      0.623920      0.928200
  H      -1.556550     -0.776480     -0.157440
  H      -1.528180      0.862680     -0.830140
  H       0.714460     -0.466870      0.784710
  C       0.962020      1.578010      0.172880
  H       0.721840     -0.229430     -0.964050
  H       0.645370      2.013440      1.126050
  H       0.652810      2.252170     -0.632290
  H       2.055200      1.524570      0.170250
11
Coordinates from ORCA-job propane_B3LYP_def2-TZVP E -119.098086728575
  C      -1.163677      0.220808     -0.020295
  C       0.364493      0.196692     -0.017171
  H      -1.551880      0.613023      0.923181
  H      -1.571715     -0.783619     -0.158648
  H      -1.544527      0.851070     -0.828026
  H       0.714622     -0.466420      0.779941
  C       0.976301      1.584154      0.173711
  H       0.721910     -0.230329     -0.959289
  H       0.662266      2.023872      1.123778
  H       0.670042      2.261670     -0.627452
  H       2.068116      1.535359      0.171868
11
Coordinates from ORCA-job propane_B3LYP_def2-TZVP E -119.098113053801
  C      -1.165563      0.217943     -0.020640
  C       0.363825      0.197765     -0.017035
  H      -1.555657      0.610923      0.921831
  H      -1.576245     -0.784656     -0.158933
  H      -1.548367      0.848862     -0.827057
  H       0.715306     -0.467171      0.777919
  C       0.979766      1.584666      0.173750
  H       0.722515     -0.231657     -0.957539
  H       0.665625      2.026533      1.122884
  H       0.673726      2.263996     -0.626072
  H       2.071020      1.539076      0.172491
11
Coordinates from ORCA-job propane_B3LYP_def2-TZVP E -119.098117259643
  C      -1.165115      0.217475     -0.020666
  C       0.363712      0.197964     -0.017018
  H      -1.555914      0.611127      0.921427
  H      -1.577449     -0.784336     -0.158987
  H      -1.548670      0.849096     -0.826409
  H       0.715897     -0.467942      0.777030
  C       0.980039      1.584072      0.173640
  H       0.723047     -0.232687     -0.956898
  H       0.665391      2.026951      1.122330
  H       0.673743      2.264231     -0.625611
  H       2.071270      1.540330      0.172762
11
Coordinates from ORCA-job propane_B3LYP_def2-TZVP E -119.098118291023
  C      -1.164356      0.217619     -0.020614
  C       0.363784      0.197867     -0.017040
  H      -1.555453      0.611693      0.921302
  H      -1.577744     -0.783797     -0.158999
  H      -1.548247      0.849753     -0.825940
  H       0.716360     -0.468574      0.776561
  C       0.979607      1.583454      0.173529
  H       0.723462     -0.233460     -0.956626
  H       0.664522      2.026876      1.121943
  H       0.673089      2.264014     -0.625442
  H       2.070926      1.540836      0.172926
11
Coordinates from ORCA-job propane_B3LYP_def2-TZVP E -119.098118320825
  C      -1.164173      0.217751     -0.020586
  C       0.363848      0.197769     -0.017054
  H      -1.555266      0.611827      0.921336
  H      -1.577685     -0.783642     -0.159013
  H      -1.548072      0.849961     -0.825854
  H       0.716449     -0.468697      0.776527
  C       0.979410      1.583347      0.173504
  H       0.723537     -0.233597     -0.956629
  H       0.664248      2.026814      1.121876
  H       0.672890      2.263906     -0.625473
  H       2.070764      1.540843      0.172966
