3
Coordinates from ORCA-job .\O3_UKS_t E -225.393451334670
  O       0.000000      0.000000      0.000000
  O       1.272000      0.000000      0.000000
  O       1.845516      1.135369      0.000000
3
Coordinates from ORCA-job .\O3_UKS_t E -225.401548943142
  O      -0.039713     -0.060658      0.000000
  O       1.239662      0.052554      0.000000
  O       1.917567      1.143473      0.000000
3
Coordinates from ORCA-job .\O3_UKS_t E -225.402024796355
  O      -0.037904     -0.068421      0.000000
  O       1.231726      0.065409      0.000000
  O       1.923694      1.138381      0.000000
3
Coordinates from ORCA-job .\O3_UKS_t E -225.402093981564
  O      -0.035752     -0.071418      0.000000
  O       1.227860      0.071666      0.000000
  O       1.925408      1.135122      0.000000
3
Coordinates from ORCA-job .\O3_UKS_t E -225.402094119297
  O      -0.035636     -0.071196      0.000000
  O       1.227994      0.071445      0.000000
  O       1.925159      1.135121      0.000000
