
                                 *****************
                                 * O   R   C   A *
                                 *****************

                                            #,                                       
                                            ###                                      
                                            ####                                     
                                            #####                                    
                                            ######                                   
                                           ########,                                 
                                     ,,################,,,,,                         
                               ,,#################################,,                 
                          ,,##########################################,,             
                       ,#########################################, ''#####,          
                    ,#############################################,,   '####,        
                  ,##################################################,,,,####,       
                ,###########''''           ''''###############################       
              ,#####''   ,,,,##########,,,,          '''####'''          '####       
            ,##' ,,,,###########################,,,                        '##       
           ' ,,###''''                  '''############,,,                           
         ,,##''                                '''############,,,,        ,,,,,,###''
      ,#''                                            '''#######################'''  
     '                                                          ''''####''''         
             ,#######,   #######,   ,#######,      ##                                
            ,#'     '#,  ##    ##  ,#'     '#,    #''#        ######   ,####,        
            ##       ##  ##   ,#'  ##            #'  '#       #        #'  '#        
            ##       ##  #######   ##           ,######,      #####,   #    #        
            '#,     ,#'  ##    ##  '#,     ,#' ,#      #,         ##   #,  ,#        
             '#######'   ##     ##  '#######'  #'      '#     #####' # '####'        



                  #######################################################
                  #                        -***-                        #
                  #          Department of theory and spectroscopy      #
                  #    Directorship and core code : Frank Neese         #
                  #        Max Planck Institute fuer Kohlenforschung    #
                  #                Kaiser Wilhelm Platz 1               #
                  #                 D-45470 Muelheim/Ruhr               #
                  #                      Germany                        #
                  #                                                     #
                  #                  All rights reserved                #
                  #                        -***-                        #
                  #######################################################


                         Program Version 5.0.1  -   Release   -


 With contributions from (in alphabetic order):
   Daniel Aravena         : Magnetic Suceptibility
   Michael Atanasov       : Ab Initio Ligand Field Theory (pilot matlab implementation)
   Alexander A. Auer      : GIAO ZORA, VPT2 properties, NMR spectrum
   Ute Becker             : Parallelization
   Giovanni Bistoni       : ED, misc. LED, open-shell LED, HFLD
   Martin Brehm           : Molecular dynamics
   Dmytro Bykov           : SCF Hessian
   Vijay G. Chilkuri      : MRCI spin determinant printing, contributions to CSF-ICE
   Dipayan Datta          : RHF DLPNO-CCSD density
   Achintya Kumar Dutta   : EOM-CC, STEOM-CC
   Dmitry Ganyushin       : Spin-Orbit,Spin-Spin,Magnetic field MRCI
   Miquel Garcia          : C-PCM and meta-GGA Hessian, CC/C-PCM, Gaussian charge scheme
   Yang Guo               : DLPNO-NEVPT2, F12-NEVPT2, CIM, IAO-localization
   Andreas Hansen         : Spin unrestricted coupled pair/coupled cluster methods
   Benjamin Helmich-Paris : MC-RPA, TRAH-SCF, COSX integrals
   Lee Huntington         : MR-EOM, pCC
   Robert Izsak           : Overlap fitted RIJCOSX, COSX-SCS-MP3, EOM
   Marcus Kettner         : VPT2
   Christian Kollmar      : KDIIS, OOCD, Brueckner-CCSD(T), CCSD density, CASPT2, CASPT2-K
   Simone Kossmann        : Meta GGA functionals, TD-DFT gradient, OOMP2, MP2 Hessian
   Martin Krupicka        : Initial AUTO-CI
   Lucas Lang             : DCDCAS
   Marvin Lechner         : AUTO-CI (C++ implementation), FIC-MRCC
   Dagmar Lenk            : GEPOL surface, SMD
   Dimitrios Liakos       : Extrapolation schemes; Compound Job, initial MDCI parallelization
   Dimitrios Manganas     : Further ROCIS development; embedding schemes
   Dimitrios Pantazis     : SARC Basis sets
   Anastasios Papadopoulos: AUTO-CI, single reference methods and gradients
   Taras Petrenko         : DFT Hessian,TD-DFT gradient, ASA, ECA, R-Raman, ABS, FL, XAS/XES, NRVS
   Peter Pinski           : DLPNO-MP2, DLPNO-MP2 Gradient
   Christoph Reimann      : Effective Core Potentials
   Marius Retegan         : Local ZFS, SOC
   Christoph Riplinger    : Optimizer, TS searches, QM/MM, DLPNO-CCSD(T), (RO)-DLPNO pert. Triples
   Tobias Risthaus        : Range-separated hybrids, TD-DFT gradient, RPA, STAB
   Michael Roemelt        : Original ROCIS implementation
   Masaaki Saitow         : Open-shell DLPNO-CCSD energy and density
   Barbara Sandhoefer     : DKH picture change effects
   Avijit Sen             : IP-ROCIS
   Kantharuban Sivalingam : CASSCF convergence, NEVPT2, FIC-MRCI
   Bernardo de Souza      : ESD, SOC TD-DFT
   Georgi Stoychev        : AutoAux, RI-MP2 NMR, DLPNO-MP2 response
   Willem Van den Heuvel  : Paramagnetic NMR
   Boris Wezisla          : Elementary symmetry handling
   Frank Wennmohs         : Technical directorship


 We gratefully acknowledge several colleagues who have allowed us to
 interface, adapt or use parts of their codes:
   Stefan Grimme, W. Hujo, H. Kruse, P. Pracht,  : VdW corrections, initial TS optimization,
                  C. Bannwarth, S. Ehlert          DFT functionals, gCP, sTDA/sTD-DF
   Ed Valeev, F. Pavosevic, A. Kumar             : LibInt (2-el integral package), F12 methods
   Garnet Chan, S. Sharma, J. Yang, R. Olivares  : DMRG
   Ulf Ekstrom                                   : XCFun DFT Library
   Mihaly Kallay                                 : mrcc  (arbitrary order and MRCC methods)
   Jiri Pittner, Ondrej Demel                    : Mk-CCSD
   Frank Weinhold                                : gennbo (NPA and NBO analysis)
   Christopher J. Cramer and Donald G. Truhlar   : smd solvation model
   Lars Goerigk                                  : TD-DFT with DH, B97 family of functionals
   V. Asgeirsson, H. Jonsson                     : NEB implementation
   FAccTs GmbH                                   : IRC, NEB, NEB-TS, DLPNO-Multilevel, CI-OPT
                                                   MM, QMMM, 2- and 3-layer-ONIOM, Crystal-QMMM,
                                                   LR-CPCM, SF, NACMEs, symmetry and pop. for TD-DFT,
                                                   nearIR, NL-DFT gradient (VV10), updates on ESD,
                                                   ML-optimized integration grids
   S Lehtola, MJT Oliveira, MAL Marques          : LibXC Library
   Liviu Ungur et al                             : ANISO software


 Your calculation uses the libint2 library for the computation of 2-el integrals
 For citations please refer to: http://libint.valeyev.net

 Your ORCA version has been built with support for libXC version: 5.1.0
 For citations please refer to: https://tddft.org/programs/libxc/

 This ORCA versions uses:
   CBLAS   interface :  Fast vector & matrix operations
   LAPACKE interface :  Fast linear algebra routines
   Shared memory     :  Shared parallel matrices


Your calculation utilizes the atom-pairwise dispersion correction
with the zero-damping scheme (D30)
Cite in your paper:
S.Grimme, J.Antony, S.Ehrlich and H.Krieg, J.Chem.Phys., 132, (2010), 154104 
   

XCFun DFT library Copyright 2009-2010 Ulf Ekstrom and contributors.
See http://admol.org/xcfun for more information.
This is free software; see the source code for copying conditions.
There is ABSOLUTELY NO WARRANTY; not even for MERCHANTABILITY or FITNESS FOR A PARTICULAR PURPOSE.
For details see the documentation.
Scientific users of this library should cite U. Ekstrom, L. Visscher, R. Bast, A. J. Thorvaldsen and K. Ruud;
J.Chem.Theor.Comp. 2010, DOI: 10.1021/ct100117s
XCFun Version 0.99 

================================================================================

----- Orbital basis set information -----
Your calculation utilizes the basis: def2-TZVPP
   F. Weigend and R. Ahlrichs, Phys. Chem. Chem. Phys. 7, 3297 (2005).

----- AuxJ basis set information -----
Your calculation utilizes the auxiliary basis: def2/J
   F. Weigend, Phys. Chem. Chem. Phys. 8, 1057 (2006).

================================================================================
                                        WARNINGS
                       Please study these warnings very carefully!
================================================================================


INFO   : the flag for use of the SHARK integral package has been found!

================================================================================
                                       INPUT FILE
================================================================================
NAME = .\O2_UKS_t_stab.inp
|  1> # First stage: Stability Check

|  2> ! UKS wB97X-D3 def2-TZVPP

|  3> %scf

|  4>    Stabperform true

|  5>    STABRestartUHFifUnstable true

|  6> end

|  7> * gzmt 0 3

|  8>    O

|  9>    O     1        1.21000

| 10> *

| 11> 
| 12>                          ****END OF INPUT****
================================================================================

                       ****************************
                       * Single Point Calculation *
                       ****************************

---------------------------------
CARTESIAN COORDINATES (ANGSTROEM)
---------------------------------
  O      0.000000    0.000000    0.000000
  O      1.210000    0.000000    0.000000

----------------------------
CARTESIAN COORDINATES (A.U.)
----------------------------
  NO LB      ZA    FRAG     MASS         X           Y           Z
   0 O     8.0000    0    15.999    0.000000    0.000000    0.000000
   1 O     8.0000    0    15.999    2.286569    0.000000    0.000000

--------------------------------
INTERNAL COORDINATES (ANGSTROEM)
--------------------------------
 O      0   0   0     0.000000000000     0.00000000     0.00000000
 O      1   0   0     1.210000000000     0.00000000     0.00000000

---------------------------
INTERNAL COORDINATES (A.U.)
---------------------------
 O      0   0   0     0.000000000000     0.00000000     0.00000000
 O      1   0   0     2.286568622045     0.00000000     0.00000000

---------------------
BASIS SET INFORMATION
---------------------
There are 1 groups of distinct atoms

 Group   1 Type O   : 11s6p2d1f contracted to 5s3p2d1f pattern {62111/411/11/1}

Atom   0O    basis set group =>   1
Atom   1O    basis set group =>   1
---------------------------------
AUXILIARY/J BASIS SET INFORMATION
---------------------------------
There are 1 groups of distinct atoms

 Group   1 Type O   : 12s5p4d2f1g contracted to 6s4p3d1f1g pattern {711111/2111/211/2/1}

Atom   0O    basis set group =>   1
Atom   1O    basis set group =>   1
------------------------------------------------------------------------------
                           ORCA GTO INTEGRAL CALCULATION
                           -- RI-GTO INTEGRALS CHOSEN --
------------------------------------------------------------------------------
------------------------------------------------------------------------------
                   ___                                                        
                  /   \      - P O W E R E D   B Y -                         
                 /     \                                                     
                 |  |  |   _    _      __       _____    __    __             
                 |  |  |  | |  | |    /  \     |  _  \  |  |  /  |          
                  \  \/   | |  | |   /    \    | | | |  |  | /  /          
                 / \  \   | |__| |  /  /\  \   | |_| |  |  |/  /          
                |  |  |   |  __  | /  /__\  \  |    /   |      \           
                |  |  |   | |  | | |   __   |  |    \   |  |\   \          
                \     /   | |  | | |  |  |  |  | |\  \  |  | \   \       
                 \___/    |_|  |_| |__|  |__|  |_| \__\ |__|  \__/        
                                                                              
                      - O R C A' S   B I G   F R I E N D -                    
                                      &                                       
                       - I N T E G R A L  F E E D E R -                       
                                                                              
 v1 FN, 2020, v2 2021                                                         
------------------------------------------------------------------------------


Reading SHARK input file .\O2_UKS_t_stab.SHARKINP.tmp ... ok
----------------------
SHARK INTEGRAL PACKAGE
----------------------

Number of atoms                             ...      2
Number of basis functions                   ...     62
Number of shells                            ...     22
Maximum angular momentum                    ...      3
Integral batch strategy                     ... SHARK/LIBINT Hybrid
RI-J (if used) integral strategy            ... SPLIT-RIJ (Revised 2003 algorithm where possible)
Printlevel                                  ...      1
Contraction scheme used                     ... SEGMENTED contraction
Coulomb Range Separation                    ... NOT USED
Exchange Range Separation                   ... Long Range
   Mu parameter                             ...  0.250000
   Scaling (regular/separated)              ...  0.195728  0.804272
Finite Nucleus Model                        ... NOT USED
Auxiliary Coulomb fitting basis             ... AVAILABLE
   # of basis functions in Aux-J            ...     98
   # of shells in Aux-J                     ...     30
   Maximum angular momentum in Aux-J        ...      4
Auxiliary J/K fitting basis                 ... NOT available
Auxiliary Correlation fitting basis         ... NOT available
Auxiliary 'external' fitting basis          ... NOT available
Integral threshold                          ...     1.000000e-10
Primitive cut-off                           ...     1.000000e-11
Primitive pair pre-selection threshold      ...     1.000000e-11

Calculating pre-screening integrals         ... done (  0.0 sec) Dimension = 22
Organizing shell pair data                  ... done (  0.0 sec)
Shell pair information
Total number of shell pairs                 ...       253
Shell pairs after pre-screening             ...       252
Total number of primitive shell pairs       ...       864
Primitive shell pairs kept                  ...       783
          la=0 lb=0:     54 shell pairs
          la=1 lb=0:     60 shell pairs
          la=1 lb=1:     21 shell pairs
          la=2 lb=0:     40 shell pairs
          la=2 lb=1:     24 shell pairs
          la=2 lb=2:     10 shell pairs
          la=3 lb=0:     20 shell pairs
          la=3 lb=1:     12 shell pairs
          la=3 lb=2:      8 shell pairs
          la=3 lb=3:      3 shell pairs

Calculating one electron integrals          ... done (  0.0 sec)
Calculating RI/J V-Matrix + Cholesky decomp.... done (  0.0 sec)
Calculating Nuclear repulsion               ... done (  0.0 sec) ENN=     27.989538290248 Eh

SHARK setup successfully completed in   0.1 seconds

Maximum memory used throughout the entire GTOINT-calculation: 13.7 MB
-------------------------------------------------------------------------------
                                 ORCA SCF
-------------------------------------------------------------------------------

------------
SCF SETTINGS
------------
Hamiltonian:
 Density Functional     Method          .... DFT(GTOs)
 Exchange Functional    Exchange        .... WB97X-D3
 Correlation Functional Correlation     .... WB97X-D3
 Gradients option       PostSCFGGA      .... off
 Hybrid DFT is turned on
   Fraction HF Exchange ScalHFX         ....  0.195728
   Scaling of DF-GGA-X  ScalDFX         ....  0.000000
   Scaling of DF-GGA-C  ScalDFC         ....  1.000000
   Scaling of DF-LDA-C  ScalLDAC        ....  1.000000
   Perturbative correction              ....  0.000000
   Density functional embedding theory  .... OFF
 Long-range corrected/Screened/Range-Separated Hybrid DFT is turned on
   Amount of maximum screened exact exchange              ....  0.804272
   Range separation parameter mu (erf(mu*r12)/r12)        ....  0.250000
 RI-approximation to the Coulomb term is turned on
   Number of AuxJ basis functions       .... 98
   RIJ-COSX (HFX calculated with COS-X)).... on


General Settings:
 Integral files         IntName         .... .\O2_UKS_t_stab
 Hartree-Fock type      HFTyp           .... UHF
 Total Charge           Charge          ....    0
 Multiplicity           Mult            ....    3
 Number of Electrons    NEL             ....   16
 Basis Dimension        Dim             ....   62
 Nuclear Repulsion      ENuc            ....     27.9895382902 Eh

Convergence Acceleration:
 DIIS                   CNVDIIS         .... on
   Start iteration      DIISMaxIt       ....    12
   Startup error        DIISStart       ....  0.200000
   # of expansion vecs  DIISMaxEq       ....     5
   Bias factor          DIISBfac        ....   1.050
   Max. coefficient     DIISMaxC        ....  10.000
 Trust-Rad. Augm. Hess. CNVTRAH         .... auto
   Auto Start mean grad. ratio tolernc. ....  1.125000
   Auto Start start iteration           ....    20
   Auto Start num. interpolation iter.  ....    10
   Max. Number of Micro iterations      ....    16
   Max. Number of Macro iterations      .... Maxiter - #DIIS iter
   Number of Davidson start vectors     ....     2
   Converg. threshold I  (grad. norm)   ....   5.000e-05
   Converg. threshold II (energy diff.) ....   1.000e-06
   Grad. Scal. Fac. for Micro threshold ....   0.100
   Minimum threshold for Micro iter.    ....   0.010
   NR start threshold (gradient norm)   ....   0.001
   Initial trust radius                 ....   0.400
   Minimum AH scaling param. (alpha)    ....   1.000
   Maximum AH scaling param. (alpha)    .... 1000.000
   Orbital update algorithm             .... Taylor
   White noise on init. David. guess    .... on
   Maximum white noise                  ....   0.010
   Quad. conv. algorithm                .... NR
 SOSCF                  CNVSOSCF        .... off
 Level Shifting         CNVShift        .... on
   Level shift para.    LevelShift      ....    0.2500
   Turn off err/grad.   ShiftErr        ....    0.0010
 Zerner damping         CNVZerner       .... off
 Static damping         CNVDamp         .... on
   Fraction old density DampFac         ....    0.7000
   Max. Damping (<1)    DampMax         ....    0.9800
   Min. Damping (>=0)   DampMin         ....    0.0000
   Turn off err/grad.   DampErr         ....    0.1000
 Fernandez-Rico         CNVRico         .... off

SCF Procedure:
 Maximum # iterations   MaxIter         ....   125
 SCF integral mode      SCFMode         .... Direct
   Integral package                     .... SHARK and LIBINT hybrid scheme
 Reset frequency        DirectResetFreq ....    20
 Integral Threshold     Thresh          ....  1.000e-10 Eh
 Primitive CutOff       TCut            ....  1.000e-11 Eh

Convergence Tolerance:
 Convergence Check Mode ConvCheckMode   .... Total+1el-Energy
 Convergence forced     ConvForced      .... 0
 Energy Change          TolE            ....  1.000e-06 Eh
 1-El. energy change                    ....  1.000e-03 Eh
 DIIS Error             TolErr          ....  1.000e-06


Diagonalization of the overlap matrix:
Smallest eigenvalue                        ... 1.927e-03
Time for diagonalization                   ...    0.001 sec
Threshold for overlap eigenvalues          ... 1.000e-08
Number of eigenvalues below threshold      ... 0
Time for construction of square roots      ...    0.001 sec
Total time needed                          ...    0.002 sec

Time for model grid setup =    0.011 sec

------------------------------
INITIAL GUESS: MODEL POTENTIAL
------------------------------
Loading Hartree-Fock densities                     ... done
Calculating cut-offs                               ... done
Initializing the effective Hamiltonian             ... done
Setting up the integral package (SHARK)            ... done
Starting the Coulomb interaction                   ... done (   0.0 sec)
Reading the grid                                   ... done
Mapping shells                                     ... done
Starting the XC term evaluation                    ... done (   0.0 sec)
  promolecular density results
     # of electrons  =     16.000035738
     EX              =    -16.215132680
     EC              =     -0.534081592
     EX+EC           =    -16.749214272
Transforming the Hamiltonian                       ... done (   0.0 sec)
Diagonalizing the Hamiltonian                      ... done (   0.0 sec)
Back transforming the eigenvectors                 ... done (   0.0 sec)
Now organizing SCF variables                       ... done
                      ------------------
                      INITIAL GUESS DONE (   0.0 sec)
                      ------------------
-------------------
DFT GRID GENERATION
-------------------

General Integration Accuracy     IntAcc      ... 4.388
Radial Grid Type                 RadialGrid  ... OptM3 with GC (2021)
Angular Grid (max. ang.)         AngularGrid ... 4 (Lebedev-302)
Angular grid pruning method      GridPruning ... 4 (adaptive)
Weight generation scheme         WeightScheme... Becke
Basis function cutoff            BFCut       ... 1.0000e-10
Integration weight cutoff        WCut        ... 1.0000e-14
Angular grids for H and He will be reduced by one unit
Partially contracted basis set               ... off
Rotationally invariant grid construction     ... off

Total number of grid points                  ...    12260
Total number of batches                      ...      192
Average number of points per batch           ...       63
Average number of grid points per atom       ...     6130
Time for grid setup =    0.052 sec

--------------------
COSX GRID GENERATION
--------------------

GRIDX 1
-------
General Integration Accuracy     IntAcc      ... 3.816
Radial Grid Type                 RadialGrid  ... OptM3 with GC (2021)
Angular Grid (max. ang.)         AngularGrid ... 1 (Lebedev-50)
Angular grid pruning method      GridPruning ... 4 (adaptive)
Weight generation scheme         WeightScheme... Becke
Basis function cutoff            BFCut       ... 1.0000e-10
Integration weight cutoff        WCut        ... 1.0000e-14
Angular grids for H and He will be reduced by one unit
Partially contracted basis set               ... on
Rotationally invariant grid construction     ... off

Total number of grid points                  ...     1534
Total number of batches                      ...       24
Average number of points per batch           ...       63
Average number of grid points per atom       ...      767
UseSFitting                                  ... on

GRIDX 2
-------
General Integration Accuracy     IntAcc      ... 4.020
Radial Grid Type                 RadialGrid  ... OptM3 with GC (2021)
Angular Grid (max. ang.)         AngularGrid ... 2 (Lebedev-110)
Angular grid pruning method      GridPruning ... 4 (adaptive)
Weight generation scheme         WeightScheme... Becke
Basis function cutoff            BFCut       ... 1.0000e-10
Integration weight cutoff        WCut        ... 1.0000e-14
Angular grids for H and He will be reduced by one unit
Partially contracted basis set               ... on
Rotationally invariant grid construction     ... off

Total number of grid points                  ...     3764
Total number of batches                      ...       60
Average number of points per batch           ...       62
Average number of grid points per atom       ...     1882
UseSFitting                                  ... on

GRIDX 3
-------
General Integration Accuracy     IntAcc      ... 4.338
Radial Grid Type                 RadialGrid  ... OptM3 with GC (2021)
Angular Grid (max. ang.)         AngularGrid ... 3 (Lebedev-194)
Angular grid pruning method      GridPruning ... 4 (adaptive)
Weight generation scheme         WeightScheme... Becke
Basis function cutoff            BFCut       ... 1.0000e-10
Integration weight cutoff        WCut        ... 1.0000e-14
Angular grids for H and He will be reduced by one unit
Partially contracted basis set               ... on
Rotationally invariant grid construction     ... off

Total number of grid points                  ...     8424
Total number of batches                      ...      132
Average number of points per batch           ...       63
Average number of grid points per atom       ...     4212
UseSFitting                                  ... on

Time for X-Grid setup             =    0.069 sec

--------------
SCF ITERATIONS
--------------
ITER       Energy         Delta-E        Max-DP      RMS-DP      [F,P]     Damp
               ***  Starting incremental Fock matrix formation  ***
  0   -150.3343074292   0.000000000000 0.00435806  0.00027542  0.0511854 0.7000
  1   -150.3375857751  -0.003278345937 0.00384973  0.00023355  0.0327947 0.7000
                               ***Turning on DIIS***
  2   -150.3399055344  -0.002319759309 0.00944759  0.00058954  0.0199469 0.0000
  3   -150.3456031199  -0.005697585509 0.00262112  0.00014591  0.0068942 0.0000
  4   -150.3459028625  -0.000299742542 0.00170434  0.00009085  0.0014355 0.0000
  5   -150.3459866556  -0.000083793158 0.00111513  0.00005877  0.0006023 0.0000
               *** Restarting incremental Fock matrix formation ***
                                   *** Resetting DIIS ***
  6   -150.3460045696  -0.000017913950 0.00007482  0.00000508  0.0001114 0.0000
                 **** Energy Check signals convergence ****

               *****************************************************
               *                     SUCCESS                       *
               *           SCF CONVERGED AFTER   7 CYCLES          *
               *****************************************************


------------------------------------------------------------------------------
                          SCF STABILITY ANALYSIS                              
------------------------------------------------------------------------------


---------------
TD-DFT XC SETUP
---------------

DFT calculation                         ... on
Name of the grid file                   ... .\O2_UKS_t_stab.grid.tmp
Exchange functional (SCF)               ... WB97X-D3
Exchange functional (TD-DFT)            ... WB97X-D3
Correlation functional (SCF)            ... WB97X-D3
Correlation functional (TD-DFT)         ... WB97X-D3
Hybrid DFT                              ... on
   Exchange mixing (SCF)                ...  0.196
   Exchange mixing (TD-DFT)             ...  0.196
   GGA exch. scaling(SCF)               ...  0.000
   GGA exch. scaling (TD-DFT)           ...  0.000
   GGA corr. scaling (SCF)              ...  1.000
   GGA corr. scaling (TD-DFT)           ...  1.000
Range-Separated Exchange                ... on
   Range Range separation parameter mu  .... 0.250
   Max. amount of RS exchange (SCF)     ...  0.804
   Max. amount of RS exchange (TD-DFT)  ...  0.804

Electron density on the grid   ... found on disk
Building xc-kernel on the grid ... done
                    *** TD-DFT CALCULATION INITIALIZED ***

                       ****Iteration    0****

   Memory handling for direct AO based CIS:
   Memory per vector needed      ...     1 MB
   Memory needed                 ...     1 MB
   Memory available              ...  1024 MB
   Number of vectors per batch   ...  1024
   Number of batches             ...     1
   Time for densities:     0.001
   Time for XC-Integration:     0.348
   Time for K (COSX):     0.657
   Time for RI-J (Direct):     0.111
   Time for Sigma-Completion:     0.017
   Lowest Energy          :     0.189345933262
   Maximum Energy change  :     0.276520750287 (vector 2)
   Maximum residual norm  :     0.025871045695

                       ****Iteration    1****
   Time for densities:     0.003
   Time for XC-Integration:     0.179
   Time for K (COSX):     0.536
   Time for RI-J (Direct):     0.097
   Time for Sigma-Completion:     0.008
   Lowest Energy          :     0.177695910425
   Maximum Energy change  :     0.011650022837 (vector 0)
   Maximum residual norm  :     0.000652797804

                       ****Iteration    2****
   Time for densities:     0.005
   Time for XC-Integration:     0.186
   Time for K (COSX):     0.499
   Time for RI-J (Direct):     0.097
   Time for Sigma-Completion:     0.008
   Lowest Energy          :     0.177437106683
   Maximum Energy change  :     0.000258818648 (vector 1)
   Maximum residual norm  :     0.000012416161

      *** CONVERGENCE OF RESIDUAL NORM REACHED ***

----------------------------- 
SCF STABILITY ANALYSIS RESULT 
----------------------------- 

UHF/UKS->UHF/UKS - singlet - internal

   Root    Eigenvalue (au) 
     0       0.177437 
     1       0.177441 
     2       0.275811 

Stability Analysis indicates a stable HF/KS wave function.


Total time for performing the stability analysis:     3.044sec

Old exchange energy                            =     -4.939101169 Eh
New exchange energy                            =     -4.939104726 Eh
Exchange energy change after final integration =     -0.000003557 Eh
Total energy after final integration           =   -150.346008291 Eh
Final COS-X integration done in                =     0.382 sec

----------------
TOTAL SCF ENERGY
----------------

Total Energy       :         -150.34600829 Eh           -4091.12287 eV

Components:
Nuclear Repulsion  :           27.98953829 Eh             761.63406 eV
Electronic Energy  :         -178.33554658 Eh           -4852.75693 eV
One Electron Energy:         -261.79508717 Eh           -7123.80649 eV
Two Electron Energy:           83.45954059 Eh            2271.04956 eV
Max COSX asymmetry :            0.00000009 Eh               0.00000 eV

Virial components:
Potential Energy   :         -300.20579403 Eh           -8169.01496 eV
Kinetic Energy     :          149.85978574 Eh            4077.89209 eV
Virial Ratio       :            2.00324452


DFT components:
N(Alpha)           :        8.999998574643 electrons
N(Beta)            :        7.000000214515 electrons
N(Total)           :       15.999998789158 electrons
E(XC)              :      -12.060954939522 Eh       
DFET-embed. en.    :        0.000000000000 Eh       

---------------
SCF CONVERGENCE
---------------

  Last Energy change         ...   -1.6457e-07  Tolerance :   1.0000e-06
  Last MAX-Density change    ...    0.0000e+00  Tolerance :   1.0000e-05
  Last RMS-Density change    ...    0.0000e+00  Tolerance :   1.0000e-06
  Last DIIS Error            ...    3.3511e-05  Tolerance :   1.0000e-06

             **** THE GBW FILE WAS UPDATED (.\O2_UKS_t_stab.gbw) ****
             **** DENSITY .\O2_UKS_t_stab.scfp WAS UPDATED ****
             **** ENERGY FILE WAS UPDATED (.\O2_UKS_t_stab.en.tmp) ****
----------------------
UHF SPIN CONTAMINATION
----------------------

Warning: in a DFT calculation there is little theoretical justification to 
         calculate <S**2> as in Hartree-Fock theory. We will do it anyways
         but you should keep in mind that the values have only limited relevance

Expectation value of <S**2>     :     2.009591
Ideal value S*(S+1) for S=1.0   :     2.000000
Deviation                       :     0.009591

             **** THE GBW FILE WAS UPDATED (.\O2_UKS_t_stab.gbw) ****
             **** DENSITY .\O2_UKS_t_stab.scfp WAS UPDATED ****
----------------
ORBITAL ENERGIES
----------------
                 SPIN UP ORBITALS
  NO   OCC          E(Eh)            E(eV) 
   0   1.0000     -19.391968      -527.6823 
   1   1.0000     -19.391849      -527.6790 
   2   1.0000      -1.424772       -38.7700 
   3   1.0000      -0.956830       -26.0367 
   4   1.0000      -0.672469       -18.2988 
   5   1.0000      -0.672469       -18.2988 
   6   1.0000      -0.657908       -17.9026 
   7   1.0000      -0.413514       -11.2523 
   8   1.0000      -0.413514       -11.2523 
   9   0.0000       0.261894         7.1265 
  10   0.0000       0.419049        11.4029 
  11   0.0000       0.472071        12.8457 
  12   0.0000       0.472071        12.8457 
  13   0.0000       0.513649        13.9771 
  14   0.0000       0.529561        14.4101 
  15   0.0000       0.582412        15.8482 
  16   0.0000       0.582412        15.8482 
  17   0.0000       0.836980        22.7754 
  18   0.0000       1.301913        35.4269 
  19   0.0000       1.301939        35.4276 
  20   0.0000       1.379659        37.5424 
  21   0.0000       1.379659        37.5424 
  22   0.0000       1.698711        46.2243 
  23   0.0000       1.698743        46.2252 
  24   0.0000       1.930300        52.5261 
  25   0.0000       2.181074        59.3500 
  26   0.0000       2.181074        59.3500 
  27   0.0000       2.190774        59.6140 
  28   0.0000       2.480253        67.4911 
  29   0.0000       2.480253        67.4911 
  30   0.0000       2.602763        70.8248 
  31   0.0000       2.824665        76.8631 
  32   0.0000       2.824665        76.8631 
  33   0.0000       2.834920        77.1421 
  34   0.0000       2.939078        79.9764 
  35   0.0000       4.321597       117.5966 
  36   0.0000       4.656267       126.7035 
  37   0.0000       4.656313       126.7047 
  38   0.0000       4.698034       127.8400 
  39   0.0000       4.698034       127.8400 
  40   0.0000       4.986057       135.6775 
  41   0.0000       4.986057       135.6775 
  42   0.0000       5.046122       137.3119 
  43   0.0000       5.223889       142.1492 
  44   0.0000       5.223889       142.1492 
  45   0.0000       5.753699       156.5661 
  46   0.0000       5.753729       156.5669 
  47   0.0000       6.091298       165.7526 
  48   0.0000       6.091361       165.7544 
  49   0.0000       6.311453       171.7434 
  50   0.0000       6.311488       171.7443 
  51   0.0000       6.342459       172.5871 
  52   0.0000       6.342459       172.5871 
  53   0.0000       6.416976       174.6148 
  54   0.0000       6.456988       175.7036 
  55   0.0000       6.456988       175.7036 
  56   0.0000       7.269789       197.8210 
  57   0.0000       7.269789       197.8210 
  58   0.0000       7.494368       203.9321 
  59   0.0000       8.723191       237.3701 
  60   0.0000      43.023711      1170.7347 
  61   0.0000      43.561424      1185.3666 

                 SPIN DOWN ORBITALS
  NO   OCC          E(Eh)            E(eV) 
   0   1.0000     -19.366764      -526.9964 
   1   1.0000     -19.366444      -526.9877 
   2   1.0000      -1.364973       -37.1428 
   3   1.0000      -0.862664       -23.4743 
   4   1.0000      -0.614807       -16.7297 
   5   1.0000      -0.563554       -15.3351 
   6   1.0000      -0.563554       -15.3351 
   7   0.0000      -0.025150        -0.6844 
   8   0.0000      -0.025150        -0.6844 
   9   0.0000       0.296231         8.0609 
  10   0.0000       0.427615        11.6360 
  11   0.0000       0.492846        13.4110 
  12   0.0000       0.492846        13.4110 
  13   0.0000       0.530359        14.4318 
  14   0.0000       0.539084        14.6692 
  15   0.0000       0.608574        16.5601 
  16   0.0000       0.608574        16.5601 
  17   0.0000       0.848434        23.0871 
  18   0.0000       1.337805        36.4035 
  19   0.0000       1.337821        36.4040 
  20   0.0000       1.410836        38.3908 
  21   0.0000       1.410836        38.3908 
  22   0.0000       1.755018        47.7565 
  23   0.0000       1.755035        47.7569 
  24   0.0000       1.954341        53.1803 
  25   0.0000       2.213875        60.2426 
  26   0.0000       2.219395        60.3928 
  27   0.0000       2.219395        60.3928 
  28   0.0000       2.548503        69.3483 
  29   0.0000       2.548503        69.3483 
  30   0.0000       2.644584        71.9628 
  31   0.0000       2.877670        78.3054 
  32   0.0000       2.884944        78.5033 
  33   0.0000       2.884944        78.5033 
  34   0.0000       2.966811        80.7310 
  35   0.0000       4.349407       118.3534 
  36   0.0000       4.696101       127.7874 
  37   0.0000       4.696128       127.7881 
  38   0.0000       4.733052       128.7929 
  39   0.0000       4.733052       128.7929 
  40   0.0000       5.055003       137.5536 
  41   0.0000       5.055003       137.5536 
  42   0.0000       5.090793       138.5275 
  43   0.0000       5.296891       144.1357 
  44   0.0000       5.296891       144.1357 
  45   0.0000       5.809590       158.0870 
  46   0.0000       5.809607       158.0874 
  47   0.0000       6.196207       168.6074 
  48   0.0000       6.196238       168.6082 
  49   0.0000       6.407891       174.3676 
  50   0.0000       6.407891       174.3676 
  51   0.0000       6.408480       174.3836 
  52   0.0000       6.408491       174.3839 
  53   0.0000       6.463429       175.8788 
  54   0.0000       6.518553       177.3788 
  55   0.0000       6.518553       177.3788 
  56   0.0000       7.308633       198.8780 
  57   0.0000       7.308633       198.8780 
  58   0.0000       7.531032       204.9298 
  59   0.0000       8.761668       238.4171 
  60   0.0000      43.054323      1171.5677 
  61   0.0000      43.591455      1186.1838 

                    ********************************
                    * MULLIKEN POPULATION ANALYSIS *
                    ********************************

--------------------------------------------
MULLIKEN ATOMIC CHARGES AND SPIN POPULATIONS
--------------------------------------------
   0 O :   -0.000000    1.000000
   1 O :    0.000000    1.000000
Sum of atomic charges         :    0.0000000
Sum of atomic spin populations:    2.0000000

-----------------------------------------------------
MULLIKEN REDUCED ORBITAL CHARGES AND SPIN POPULATIONS
-----------------------------------------------------
CHARGE
  0 O s       :     3.915606  s :     3.915606
      pz      :     1.481518  p :     4.027527
      px      :     1.064491
      py      :     1.481518
      dz2     :     0.004498  d :     0.052096
      dxz     :     0.017053
      dyz     :     0.000000
      dx2y2   :     0.013493
      dxy     :     0.017053
      f0      :     0.000536  f :     0.004770
      f+1     :     0.000717
      f-1     :     0.000089
      f+2     :     0.000893
      f-2     :     0.000000
      f+3     :     0.001195
      f-3     :     0.001340
  1 O s       :     3.915606  s :     3.915606
      pz      :     1.481518  p :     4.027527
      px      :     1.064491
      py      :     1.481518
      dz2     :     0.004498  d :     0.052096
      dxz     :     0.017053
      dyz     :     0.000000
      dx2y2   :     0.013493
      dxy     :     0.017053
      f0      :     0.000536  f :     0.004770
      f+1     :     0.000717
      f-1     :     0.000089
      f+2     :     0.000893
      f-2     :     0.000000
      f+3     :     0.001195
      f-3     :     0.001340

SPIN
  0 O s       :     0.010336  s :     0.010336
      pz      :     0.500927  p :     0.990982
      px      :    -0.010872
      py      :     0.500927
      dz2     :     0.000201  d :    -0.001017
      dxz     :    -0.000910
      dyz     :     0.000000
      dx2y2   :     0.000602
      dxy     :    -0.000910
      f0      :    -0.000007  f :    -0.000302
      f+1     :    -0.000100
      f-1     :    -0.000001
      f+2     :    -0.000011
      f-2     :     0.000000
      f+3     :    -0.000166
      f-3     :    -0.000017
  1 O s       :     0.010336  s :     0.010336
      pz      :     0.500927  p :     0.990982
      px      :    -0.010872
      py      :     0.500927
      dz2     :     0.000201  d :    -0.001017
      dxz     :    -0.000910
      dyz     :     0.000000
      dx2y2   :     0.000602
      dxy     :    -0.000910
      f0      :    -0.000007  f :    -0.000302
      f+1     :    -0.000100
      f-1     :    -0.000001
      f+2     :    -0.000011
      f-2     :    -0.000000
      f+3     :    -0.000166
      f-3     :    -0.000017


                     *******************************
                     * LOEWDIN POPULATION ANALYSIS *
                     *******************************

-------------------------------------------
LOEWDIN ATOMIC CHARGES AND SPIN POPULATIONS
-------------------------------------------
   0 O :   -0.000000    1.000000
   1 O :    0.000000    1.000000

----------------------------------------------------
LOEWDIN REDUCED ORBITAL CHARGES AND SPIN POPULATIONS
----------------------------------------------------
CHARGE
  0 O s       :     3.640686  s :     3.640686
      pz      :     1.451748  p :     4.187903
      px      :     1.284408
      py      :     1.451748
      dz2     :     0.016904  d :     0.153054
      dxz     :     0.042719
      dyz     :     0.000000
      dx2y2   :     0.050712
      dxy     :     0.042719
      f0      :     0.002075  f :     0.018357
      f+1     :     0.002734
      f-1     :     0.000346
      f+2     :     0.003458
      f-2     :     0.000000
      f+3     :     0.004556
      f-3     :     0.005188
  1 O s       :     3.640686  s :     3.640686
      pz      :     1.451748  p :     4.187903
      px      :     1.284408
      py      :     1.451748
      dz2     :     0.016904  d :     0.153054
      dxz     :     0.042719
      dyz     :     0.000000
      dx2y2   :     0.050712
      dxy     :     0.042719
      f0      :     0.002075  f :     0.018357
      f+1     :     0.002734
      f-1     :     0.000346
      f+2     :     0.003458
      f-2     :     0.000000
      f+3     :     0.004556
      f-3     :     0.005188

SPIN
  0 O s       :     0.009441  s :     0.009441
      pz      :     0.479430  p :     0.946736
      px      :    -0.012125
      py      :     0.479430
      dz2     :     0.000693  d :     0.038392
      dxz     :     0.017811
      dyz     :     0.000000
      dx2y2   :     0.002078
      dxy     :     0.017811
      f0      :     0.001035  f :     0.005431
      f+1     :    -0.000032
      f-1     :     0.000172
      f+2     :     0.001724
      f-2     :     0.000000
      f+3     :    -0.000054
      f-3     :     0.002586
  1 O s       :     0.009441  s :     0.009441
      pz      :     0.479431  p :     0.946736
      px      :    -0.012125
      py      :     0.479431
      dz2     :     0.000693  d :     0.038392
      dxz     :     0.017811
      dyz     :     0.000000
      dx2y2   :     0.002078
      dxy     :     0.017811
      f0      :     0.001035  f :     0.005431
      f+1     :    -0.000032
      f-1     :     0.000172
      f+2     :     0.001724
      f-2     :    -0.000000
      f+3     :    -0.000054
      f-3     :     0.002586


                      *****************************
                      * MAYER POPULATION ANALYSIS *
                      *****************************

  NA   - Mulliken gross atomic population
  ZA   - Total nuclear charge
  QA   - Mulliken gross atomic charge
  VA   - Mayer's total valence
  BVA  - Mayer's bonded valence
  FA   - Mayer's free valence

  ATOM       NA         ZA         QA         VA         BVA        FA
  0 O      8.0000     8.0000    -0.0000     2.3759     1.8314     0.5445
  1 O      8.0000     8.0000     0.0000     2.3759     1.8314     0.5445

  Mayer bond orders larger than 0.100000
B(  0-O ,  1-O ) :   1.8314 

-------
TIMINGS
-------

Total SCF time: 0 days 0 hours 0 min 5 sec 

Total time                  ....       5.571 sec
Sum of individual times     ....       5.432 sec  ( 97.5%)

Fock matrix formation       ....       2.157 sec  ( 38.7%)
  Split-RI-J                ....       0.149 sec  (  6.9% of F)
  Chain of spheres X        ....       1.360 sec  ( 63.1% of F)
  XC integration            ....       0.613 sec  ( 28.4% of F)
    Basis function eval.    ....       0.095 sec  ( 15.5% of XC)
    Density eval.           ....       0.191 sec  ( 31.2% of XC)
    XC-Functional eval.     ....       0.143 sec  ( 23.3% of XC)
    XC-Potential eval.      ....       0.153 sec  ( 25.0% of XC)
Diagonalization             ....       0.009 sec  (  0.2%)
Density matrix formation    ....       0.000 sec  (  0.0%)
Population analysis         ....       0.008 sec  (  0.1%)
Initial guess               ....       0.021 sec  (  0.4%)
Orbital Transformation      ....       0.000 sec  (  0.0%)
Orbital Orthonormalization  ....       0.000 sec  (  0.0%)
DIIS solution               ....       0.061 sec  (  1.1%)
Grid generation             ....       0.132 sec  (  2.4%)
SCF Stability Analysis      ....       3.044 sec  ( 54.6%)

Maximum memory used throughout the entire SCF-calculation: 68.5 MB


-------------------------------------------------------------------------------
                          DFT DISPERSION CORRECTION                            
                                                                               
                              DFTD3 V3.1  Rev 1                                
                              USING zero damping                               
-------------------------------------------------------------------------------
The omegaB97X-D3 functional is recognized. Fit by Chai et al.
Active option DFTDOPT                   ...         3   

molecular C6(AA) [au] = 51.245358 


            DFT-D V3
 parameters
 s6 scaling factor         :     1.0000 
 rs6 scaling factor        :     1.2810 
 s8 scaling factor         :     1.0000 
 rs8 scaling factor        :     1.0940 
 Damping factor alpha6     :    14.0000 
 Damping factor alpha8     :    16.0000 
 ad hoc parameters k1-k3   :    16.0000     1.3333    -4.0000 

 Edisp/kcal,au: -0.000100218248  -0.000000159708 
 E6   /kcal   :  -0.000012554 
 E8   /kcal   :  -0.000087664 
 % E8         :  87.473512465 

-------------------------   ----------------
Dispersion correction           -0.000000160
-------------------------   ----------------


-------------------------   --------------------
FINAL SINGLE POINT ENERGY      -150.346008450388
-------------------------   --------------------


                            ***************************************
                            *     ORCA property calculations      *
                            ***************************************

                                    ---------------------
                                    Active property flags
                                    ---------------------
   (+) Dipole Moment


------------------------------------------------------------------------------
                       ORCA ELECTRIC PROPERTIES CALCULATION
------------------------------------------------------------------------------

Dipole Moment Calculation                       ... on
Quadrupole Moment Calculation                   ... off
Polarizability Calculation                      ... off
GBWName                                         ... .\O2_UKS_t_stab.gbw
Electron density                                ... .\O2_UKS_t_stab.scfp
The origin for moment calculation is the CENTER OF MASS  = ( 1.143284,  0.000000  0.000000)

-------------
DIPOLE MOMENT
-------------
                                X             Y             Z
Electronic contribution:      0.00000       0.00000      -0.00000
Nuclear contribution   :      0.00000       0.00000       0.00000
                        -----------------------------------------
Total Dipole Moment    :      0.00000       0.00000      -0.00000
                        -----------------------------------------
Magnitude (a.u.)       :      0.00000
Magnitude (Debye)      :      0.00000



--------------------
Rotational spectrum 
--------------------
 
Rotational constants in cm-1:     0.000000     1.439340     1.439340 
Rotational constants in MHz :     0.000000 43150.319982 43150.319982 

 Dipole components along the rotational axes: 
x,y,z [a.u.] :     0.000000     0.000000    -0.000000 
x,y,z [Debye]:     0.000000     0.000000    -0.000000 

 

Timings for individual modules:

Sum of individual times         ...        7.374 sec (=   0.123 min)
GTO integral calculation        ...        1.786 sec (=   0.030 min)  24.2 %
SCF iterations                  ...        5.588 sec (=   0.093 min)  75.8 %
                             ****ORCA TERMINATED NORMALLY****
TOTAL RUN TIME: 0 days 0 hours 0 minutes 7 seconds 569 msec
