
                                 *****************
                                 * O   R   C   A *
                                 *****************

                                            #,                                       
                                            ###                                      
                                            ####                                     
                                            #####                                    
                                            ######                                   
                                           ########,                                 
                                     ,,################,,,,,                         
                               ,,#################################,,                 
                          ,,##########################################,,             
                       ,#########################################, ''#####,          
                    ,#############################################,,   '####,        
                  ,##################################################,,,,####,       
                ,###########''''           ''''###############################       
              ,#####''   ,,,,##########,,,,          '''####'''          '####       
            ,##' ,,,,###########################,,,                        '##       
           ' ,,###''''                  '''############,,,                           
         ,,##''                                '''############,,,,        ,,,,,,###''
      ,#''                                            '''#######################'''  
     '                                                          ''''####''''         
             ,#######,   #######,   ,#######,      ##                                
            ,#'     '#,  ##    ##  ,#'     '#,    #''#        ######   ,####,        
            ##       ##  ##   ,#'  ##            #'  '#       #        #'  '#        
            ##       ##  #######   ##           ,######,      #####,   #    #        
            '#,     ,#'  ##    ##  '#,     ,#' ,#      #,         ##   #,  ,#        
             '#######'   ##     ##  '#######'  #'      '#     #####' # '####'        



                  #######################################################
                  #                        -***-                        #
                  #          Department of theory and spectroscopy      #
                  #    Directorship and core code : Frank Neese         #
                  #        Max Planck Institute fuer Kohlenforschung    #
                  #                Kaiser Wilhelm Platz 1               #
                  #                 D-45470 Muelheim/Ruhr               #
                  #                      Germany                        #
                  #                                                     #
                  #                  All rights reserved                #
                  #                        -***-                        #
                  #######################################################


                         Program Version 5.0.1  -   Release   -


 With contributions from (in alphabetic order):
   Daniel Aravena         : Magnetic Suceptibility
   Michael Atanasov       : Ab Initio Ligand Field Theory (pilot matlab implementation)
   Alexander A. Auer      : GIAO ZORA, VPT2 properties, NMR spectrum
   Ute Becker             : Parallelization
   Giovanni Bistoni       : ED, misc. LED, open-shell LED, HFLD
   Martin Brehm           : Molecular dynamics
   Dmytro Bykov           : SCF Hessian
   Vijay G. Chilkuri      : MRCI spin determinant printing, contributions to CSF-ICE
   Dipayan Datta          : RHF DLPNO-CCSD density
   Achintya Kumar Dutta   : EOM-CC, STEOM-CC
   Dmitry Ganyushin       : Spin-Orbit,Spin-Spin,Magnetic field MRCI
   Miquel Garcia          : C-PCM and meta-GGA Hessian, CC/C-PCM, Gaussian charge scheme
   Yang Guo               : DLPNO-NEVPT2, F12-NEVPT2, CIM, IAO-localization
   Andreas Hansen         : Spin unrestricted coupled pair/coupled cluster methods
   Benjamin Helmich-Paris : MC-RPA, TRAH-SCF, COSX integrals
   Lee Huntington         : MR-EOM, pCC
   Robert Izsak           : Overlap fitted RIJCOSX, COSX-SCS-MP3, EOM
   Marcus Kettner         : VPT2
   Christian Kollmar      : KDIIS, OOCD, Brueckner-CCSD(T), CCSD density, CASPT2, CASPT2-K
   Simone Kossmann        : Meta GGA functionals, TD-DFT gradient, OOMP2, MP2 Hessian
   Martin Krupicka        : Initial AUTO-CI
   Lucas Lang             : DCDCAS
   Marvin Lechner         : AUTO-CI (C++ implementation), FIC-MRCC
   Dagmar Lenk            : GEPOL surface, SMD
   Dimitrios Liakos       : Extrapolation schemes; Compound Job, initial MDCI parallelization
   Dimitrios Manganas     : Further ROCIS development; embedding schemes
   Dimitrios Pantazis     : SARC Basis sets
   Anastasios Papadopoulos: AUTO-CI, single reference methods and gradients
   Taras Petrenko         : DFT Hessian,TD-DFT gradient, ASA, ECA, R-Raman, ABS, FL, XAS/XES, NRVS
   Peter Pinski           : DLPNO-MP2, DLPNO-MP2 Gradient
   Christoph Reimann      : Effective Core Potentials
   Marius Retegan         : Local ZFS, SOC
   Christoph Riplinger    : Optimizer, TS searches, QM/MM, DLPNO-CCSD(T), (RO)-DLPNO pert. Triples
   Tobias Risthaus        : Range-separated hybrids, TD-DFT gradient, RPA, STAB
   Michael Roemelt        : Original ROCIS implementation
   Masaaki Saitow         : Open-shell DLPNO-CCSD energy and density
   Barbara Sandhoefer     : DKH picture change effects
   Avijit Sen             : IP-ROCIS
   Kantharuban Sivalingam : CASSCF convergence, NEVPT2, FIC-MRCI
   Bernardo de Souza      : ESD, SOC TD-DFT
   Georgi Stoychev        : AutoAux, RI-MP2 NMR, DLPNO-MP2 response
   Willem Van den Heuvel  : Paramagnetic NMR
   Boris Wezisla          : Elementary symmetry handling
   Frank Wennmohs         : Technical directorship


 We gratefully acknowledge several colleagues who have allowed us to
 interface, adapt or use parts of their codes:
   Stefan Grimme, W. Hujo, H. Kruse, P. Pracht,  : VdW corrections, initial TS optimization,
                  C. Bannwarth, S. Ehlert          DFT functionals, gCP, sTDA/sTD-DF
   Ed Valeev, F. Pavosevic, A. Kumar             : LibInt (2-el integral package), F12 methods
   Garnet Chan, S. Sharma, J. Yang, R. Olivares  : DMRG
   Ulf Ekstrom                                   : XCFun DFT Library
   Mihaly Kallay                                 : mrcc  (arbitrary order and MRCC methods)
   Jiri Pittner, Ondrej Demel                    : Mk-CCSD
   Frank Weinhold                                : gennbo (NPA and NBO analysis)
   Christopher J. Cramer and Donald G. Truhlar   : smd solvation model
   Lars Goerigk                                  : TD-DFT with DH, B97 family of functionals
   V. Asgeirsson, H. Jonsson                     : NEB implementation
   FAccTs GmbH                                   : IRC, NEB, NEB-TS, DLPNO-Multilevel, CI-OPT
                                                   MM, QMMM, 2- and 3-layer-ONIOM, Crystal-QMMM,
                                                   LR-CPCM, SF, NACMEs, symmetry and pop. for TD-DFT,
                                                   nearIR, NL-DFT gradient (VV10), updates on ESD,
                                                   ML-optimized integration grids
   S Lehtola, MJT Oliveira, MAL Marques          : LibXC Library
   Liviu Ungur et al                             : ANISO software


 Your calculation uses the libint2 library for the computation of 2-el integrals
 For citations please refer to: http://libint.valeyev.net

 Your ORCA version has been built with support for libXC version: 5.1.0
 For citations please refer to: https://tddft.org/programs/libxc/

 This ORCA versions uses:
   CBLAS   interface :  Fast vector & matrix operations
   LAPACKE interface :  Fast linear algebra routines
   Shared memory     :  Shared parallel matrices


Your calculation utilizes the atom-pairwise dispersion correction
with the zero-damping scheme (D30)
Cite in your paper:
S.Grimme, J.Antony, S.Ehrlich and H.Krieg, J.Chem.Phys., 132, (2010), 154104 
   

XCFun DFT library Copyright 2009-2010 Ulf Ekstrom and contributors.
See http://admol.org/xcfun for more information.
This is free software; see the source code for copying conditions.
There is ABSOLUTELY NO WARRANTY; not even for MERCHANTABILITY or FITNESS FOR A PARTICULAR PURPOSE.
For details see the documentation.
Scientific users of this library should cite U. Ekstrom, L. Visscher, R. Bast, A. J. Thorvaldsen and K. Ruud;
J.Chem.Theor.Comp. 2010, DOI: 10.1021/ct100117s
XCFun Version 0.99 

================================================================================

----- Orbital basis set information -----
Your calculation utilizes the basis: def2-TZVPP
   F. Weigend and R. Ahlrichs, Phys. Chem. Chem. Phys. 7, 3297 (2005).

----- AuxJ basis set information -----
Your calculation utilizes the auxiliary basis: def2/J
   F. Weigend, Phys. Chem. Chem. Phys. 8, 1057 (2006).

================================================================================
                                        WARNINGS
                       Please study these warnings very carefully!
================================================================================


INFO   : the flag for use of the SHARK integral package has been found!

================================================================================
                                       INPUT FILE
================================================================================
NAME = .\O2_UKS_s_stab_v2.inp
|  1> # 

|  2> ! UKS wB97X-D3 def2-TZVPP moread

|  3> %moinp "O2_UKS_s_stab.gbw"

|  4> 

|  5> %scf

|  6> 	Stabperform true

|  7>    STABRestartUHFifUnstable true

|  8> end

|  9> 

| 10> * gzmt 0 1

| 11>    O

| 12>    O     1        1.21000

| 13> *

| 14> 
| 15>                          ****END OF INPUT****
================================================================================

                       ****************************
                       * Single Point Calculation *
                       ****************************

---------------------------------
CARTESIAN COORDINATES (ANGSTROEM)
---------------------------------
  O      0.000000    0.000000    0.000000
  O      1.210000    0.000000    0.000000

----------------------------
CARTESIAN COORDINATES (A.U.)
----------------------------
  NO LB      ZA    FRAG     MASS         X           Y           Z
   0 O     8.0000    0    15.999    0.000000    0.000000    0.000000
   1 O     8.0000    0    15.999    2.286569    0.000000    0.000000

--------------------------------
INTERNAL COORDINATES (ANGSTROEM)
--------------------------------
 O      0   0   0     0.000000000000     0.00000000     0.00000000
 O      1   0   0     1.210000000000     0.00000000     0.00000000

---------------------------
INTERNAL COORDINATES (A.U.)
---------------------------
 O      0   0   0     0.000000000000     0.00000000     0.00000000
 O      1   0   0     2.286568622045     0.00000000     0.00000000

---------------------
BASIS SET INFORMATION
---------------------
There are 1 groups of distinct atoms

 Group   1 Type O   : 11s6p2d1f contracted to 5s3p2d1f pattern {62111/411/11/1}

Atom   0O    basis set group =>   1
Atom   1O    basis set group =>   1
---------------------------------
AUXILIARY/J BASIS SET INFORMATION
---------------------------------
There are 1 groups of distinct atoms

 Group   1 Type O   : 12s5p4d2f1g contracted to 6s4p3d1f1g pattern {711111/2111/211/2/1}

Atom   0O    basis set group =>   1
Atom   1O    basis set group =>   1
------------------------------------------------------------------------------
                           ORCA GTO INTEGRAL CALCULATION
                           -- RI-GTO INTEGRALS CHOSEN --
------------------------------------------------------------------------------
------------------------------------------------------------------------------
                   ___                                                        
                  /   \      - P O W E R E D   B Y -                         
                 /     \                                                     
                 |  |  |   _    _      __       _____    __    __             
                 |  |  |  | |  | |    /  \     |  _  \  |  |  /  |          
                  \  \/   | |  | |   /    \    | | | |  |  | /  /          
                 / \  \   | |__| |  /  /\  \   | |_| |  |  |/  /          
                |  |  |   |  __  | /  /__\  \  |    /   |      \           
                |  |  |   | |  | | |   __   |  |    \   |  |\   \          
                \     /   | |  | | |  |  |  |  | |\  \  |  | \   \       
                 \___/    |_|  |_| |__|  |__|  |_| \__\ |__|  \__/        
                                                                              
                      - O R C A' S   B I G   F R I E N D -                    
                                      &                                       
                       - I N T E G R A L  F E E D E R -                       
                                                                              
 v1 FN, 2020, v2 2021                                                         
------------------------------------------------------------------------------


Reading SHARK input file .\O2_UKS_s_stab_v2.SHARKINP.tmp ... ok
----------------------
SHARK INTEGRAL PACKAGE
----------------------

Number of atoms                             ...      2
Number of basis functions                   ...     62
Number of shells                            ...     22
Maximum angular momentum                    ...      3
Integral batch strategy                     ... SHARK/LIBINT Hybrid
RI-J (if used) integral strategy            ... SPLIT-RIJ (Revised 2003 algorithm where possible)
Printlevel                                  ...      1
Contraction scheme used                     ... SEGMENTED contraction
Coulomb Range Separation                    ... NOT USED
Exchange Range Separation                   ... Long Range
   Mu parameter                             ...  0.250000
   Scaling (regular/separated)              ...  0.195728  0.804272
Finite Nucleus Model                        ... NOT USED
Auxiliary Coulomb fitting basis             ... AVAILABLE
   # of basis functions in Aux-J            ...     98
   # of shells in Aux-J                     ...     30
   Maximum angular momentum in Aux-J        ...      4
Auxiliary J/K fitting basis                 ... NOT available
Auxiliary Correlation fitting basis         ... NOT available
Auxiliary 'external' fitting basis          ... NOT available
Integral threshold                          ...     1.000000e-10
Primitive cut-off                           ...     1.000000e-11
Primitive pair pre-selection threshold      ...     1.000000e-11

Calculating pre-screening integrals         ... done (  0.0 sec) Dimension = 22
Organizing shell pair data                  ... done (  0.0 sec)
Shell pair information
Total number of shell pairs                 ...       253
Shell pairs after pre-screening             ...       252
Total number of primitive shell pairs       ...       864
Primitive shell pairs kept                  ...       783
          la=0 lb=0:     54 shell pairs
          la=1 lb=0:     60 shell pairs
          la=1 lb=1:     21 shell pairs
          la=2 lb=0:     40 shell pairs
          la=2 lb=1:     24 shell pairs
          la=2 lb=2:     10 shell pairs
          la=3 lb=0:     20 shell pairs
          la=3 lb=1:     12 shell pairs
          la=3 lb=2:      8 shell pairs
          la=3 lb=3:      3 shell pairs

Calculating one electron integrals          ... done (  0.0 sec)
Calculating RI/J V-Matrix + Cholesky decomp.... done (  0.0 sec)
Calculating Nuclear repulsion               ... done (  0.0 sec) ENN=     27.989538290248 Eh

SHARK setup successfully completed in   0.1 seconds

Maximum memory used throughout the entire GTOINT-calculation: 13.7 MB
-------------------------------------------------------------------------------
                                 ORCA SCF
-------------------------------------------------------------------------------

------------
SCF SETTINGS
------------
Hamiltonian:
 Density Functional     Method          .... DFT(GTOs)
 Exchange Functional    Exchange        .... WB97X-D3
 Correlation Functional Correlation     .... WB97X-D3
 Gradients option       PostSCFGGA      .... off
 Hybrid DFT is turned on
   Fraction HF Exchange ScalHFX         ....  0.195728
   Scaling of DF-GGA-X  ScalDFX         ....  0.000000
   Scaling of DF-GGA-C  ScalDFC         ....  1.000000
   Scaling of DF-LDA-C  ScalLDAC        ....  1.000000
   Perturbative correction              ....  0.000000
   Density functional embedding theory  .... OFF
 Long-range corrected/Screened/Range-Separated Hybrid DFT is turned on
   Amount of maximum screened exact exchange              ....  0.804272
   Range separation parameter mu (erf(mu*r12)/r12)        ....  0.250000
 RI-approximation to the Coulomb term is turned on
   Number of AuxJ basis functions       .... 98
   RIJ-COSX (HFX calculated with COS-X)).... on


General Settings:
 Integral files         IntName         .... .\O2_UKS_s_stab_v2
 Hartree-Fock type      HFTyp           .... UHF
 Total Charge           Charge          ....    0
 Multiplicity           Mult            ....    1
 Number of Electrons    NEL             ....   16
 Basis Dimension        Dim             ....   62
 Nuclear Repulsion      ENuc            ....     27.9895382902 Eh

Convergence Acceleration:
 DIIS                   CNVDIIS         .... on
   Start iteration      DIISMaxIt       ....    12
   Startup error        DIISStart       ....  0.200000
   # of expansion vecs  DIISMaxEq       ....     5
   Bias factor          DIISBfac        ....   1.050
   Max. coefficient     DIISMaxC        ....  10.000
 Trust-Rad. Augm. Hess. CNVTRAH         .... auto
   Auto Start mean grad. ratio tolernc. ....  1.125000
   Auto Start start iteration           ....     1
   Auto Start num. interpolation iter.  ....    10
   Max. Number of Micro iterations      ....    16
   Max. Number of Macro iterations      .... Maxiter - #DIIS iter
   Number of Davidson start vectors     ....     2
   Converg. threshold I  (grad. norm)   ....   5.000e-05
   Converg. threshold II (energy diff.) ....   1.000e-06
   Grad. Scal. Fac. for Micro threshold ....   0.100
   Minimum threshold for Micro iter.    ....   0.010
   NR start threshold (gradient norm)   ....   0.001
   Initial trust radius                 ....   0.400
   Minimum AH scaling param. (alpha)    ....   1.000
   Maximum AH scaling param. (alpha)    .... 1000.000
   Orbital update algorithm             .... Taylor
   White noise on init. David. guess    .... on
   Maximum white noise                  ....   0.010
   Quad. conv. algorithm                .... NR
 SOSCF                  CNVSOSCF        .... off
 Level Shifting         CNVShift        .... on
   Level shift para.    LevelShift      ....    0.2500
   Turn off err/grad.   ShiftErr        ....    0.0010
 Zerner damping         CNVZerner       .... off
 Static damping         CNVDamp         .... on
   Fraction old density DampFac         ....    0.7000
   Max. Damping (<1)    DampMax         ....    0.9800
   Min. Damping (>=0)   DampMin         ....    0.0000
   Turn off err/grad.   DampErr         ....    0.1000
 Fernandez-Rico         CNVRico         .... off

SCF Procedure:
 Maximum # iterations   MaxIter         ....   125
 SCF integral mode      SCFMode         .... Direct
   Integral package                     .... SHARK and LIBINT hybrid scheme
 Reset frequency        DirectResetFreq ....    20
 Integral Threshold     Thresh          ....  1.000e-10 Eh
 Primitive CutOff       TCut            ....  1.000e-11 Eh

Convergence Tolerance:
 Convergence Check Mode ConvCheckMode   .... Total+1el-Energy
 Convergence forced     ConvForced      .... 0
 Energy Change          TolE            ....  1.000e-06 Eh
 1-El. energy change                    ....  1.000e-03 Eh
 DIIS Error             TolErr          ....  1.000e-06


Diagonalization of the overlap matrix:
Smallest eigenvalue                        ... 1.927e-03
Time for diagonalization                   ...    0.001 sec
Threshold for overlap eigenvalues          ... 1.000e-08
Number of eigenvalues below threshold      ... 0
Time for construction of square roots      ...    0.001 sec
Total time needed                          ...    0.002 sec

---------------------
INITIAL GUESS: MOREAD
---------------------
Guess MOs are being read from file: O2_UKS_s_stab.gbw
Input Geometry matches current geometry (good)
Input basis set matches current basis set (good)
MOs were renormalized
MOs were reorthogonalized (Cholesky)
                      ------------------
                      INITIAL GUESS DONE (   0.0 sec)
                      ------------------
-------------------
DFT GRID GENERATION
-------------------

General Integration Accuracy     IntAcc      ... 4.388
Radial Grid Type                 RadialGrid  ... OptM3 with GC (2021)
Angular Grid (max. ang.)         AngularGrid ... 4 (Lebedev-302)
Angular grid pruning method      GridPruning ... 4 (adaptive)
Weight generation scheme         WeightScheme... Becke
Basis function cutoff            BFCut       ... 1.0000e-10
Integration weight cutoff        WCut        ... 1.0000e-14
Angular grids for H and He will be reduced by one unit
Partially contracted basis set               ... off
Rotationally invariant grid construction     ... off

Total number of grid points                  ...    12260
Total number of batches                      ...      192
Average number of points per batch           ...       63
Average number of grid points per atom       ...     6130
Time for grid setup =    0.052 sec

--------------------
COSX GRID GENERATION
--------------------

GRIDX 1
-------
General Integration Accuracy     IntAcc      ... 3.816
Radial Grid Type                 RadialGrid  ... OptM3 with GC (2021)
Angular Grid (max. ang.)         AngularGrid ... 1 (Lebedev-50)
Angular grid pruning method      GridPruning ... 4 (adaptive)
Weight generation scheme         WeightScheme... Becke
Basis function cutoff            BFCut       ... 1.0000e-10
Integration weight cutoff        WCut        ... 1.0000e-14
Angular grids for H and He will be reduced by one unit
Partially contracted basis set               ... on
Rotationally invariant grid construction     ... off

Total number of grid points                  ...     1534
Total number of batches                      ...       24
Average number of points per batch           ...       63
Average number of grid points per atom       ...      767
UseSFitting                                  ... on

GRIDX 2
-------
General Integration Accuracy     IntAcc      ... 4.020
Radial Grid Type                 RadialGrid  ... OptM3 with GC (2021)
Angular Grid (max. ang.)         AngularGrid ... 2 (Lebedev-110)
Angular grid pruning method      GridPruning ... 4 (adaptive)
Weight generation scheme         WeightScheme... Becke
Basis function cutoff            BFCut       ... 1.0000e-10
Integration weight cutoff        WCut        ... 1.0000e-14
Angular grids for H and He will be reduced by one unit
Partially contracted basis set               ... on
Rotationally invariant grid construction     ... off

Total number of grid points                  ...     3764
Total number of batches                      ...       60
Average number of points per batch           ...       62
Average number of grid points per atom       ...     1882
UseSFitting                                  ... on

GRIDX 3
-------
General Integration Accuracy     IntAcc      ... 4.338
Radial Grid Type                 RadialGrid  ... OptM3 with GC (2021)
Angular Grid (max. ang.)         AngularGrid ... 3 (Lebedev-194)
Angular grid pruning method      GridPruning ... 4 (adaptive)
Weight generation scheme         WeightScheme... Becke
Basis function cutoff            BFCut       ... 1.0000e-10
Integration weight cutoff        WCut        ... 1.0000e-14
Angular grids for H and He will be reduced by one unit
Partially contracted basis set               ... on
Rotationally invariant grid construction     ... off

Total number of grid points                  ...     8424
Total number of batches                      ...      132
Average number of points per batch           ...       63
Average number of grid points per atom       ...     4212
UseSFitting                                  ... on

Time for X-Grid setup             =    0.073 sec

--------------
SCF ITERATIONS
--------------
ITER       Energy         Delta-E        Max-DP      RMS-DP      [F,P]     Damp
               ***  Starting incremental Fock matrix formation  ***
  0   -150.3274488879   0.000000000000 0.00000008  0.00000001  0.0000016 0.7000
                 **** Energy Check signals convergence ****

               *****************************************************
               *                     SUCCESS                       *
               *           SCF CONVERGED AFTER   1 CYCLES          *
               *****************************************************


------------------------------------------------------------------------------
                          SCF STABILITY ANALYSIS                              
------------------------------------------------------------------------------


---------------
TD-DFT XC SETUP
---------------

DFT calculation                         ... on
Name of the grid file                   ... .\O2_UKS_s_stab_v2.grid.tmp
Exchange functional (SCF)               ... WB97X-D3
Exchange functional (TD-DFT)            ... WB97X-D3
Correlation functional (SCF)            ... WB97X-D3
Correlation functional (TD-DFT)         ... WB97X-D3
Hybrid DFT                              ... on
   Exchange mixing (SCF)                ...  0.196
   Exchange mixing (TD-DFT)             ...  0.196
   GGA exch. scaling(SCF)               ...  0.000
   GGA exch. scaling (TD-DFT)           ...  0.000
   GGA corr. scaling (SCF)              ...  1.000
   GGA corr. scaling (TD-DFT)           ...  1.000
Range-Separated Exchange                ... on
   Range Range separation parameter mu  .... 0.250
   Max. amount of RS exchange (SCF)     ...  0.804
   Max. amount of RS exchange (TD-DFT)  ...  0.804

Electron density on the grid   ... found on disk
Building xc-kernel on the grid ... done
                    *** TD-DFT CALCULATION INITIALIZED ***

                       ****Iteration    0****

   Memory handling for direct AO based CIS:
   Memory per vector needed      ...     1 MB
   Memory needed                 ...     1 MB
   Memory available              ...  1024 MB
   Number of vectors per batch   ...  1024
   Number of batches             ...     1
   Time for densities:     0.000
   Time for XC-Integration:     0.348
   Time for K (COSX):     0.714
   Time for RI-J (Direct):     0.111
   Time for Sigma-Completion:     0.030
   Lowest Energy          :     0.010471480334
   Maximum Energy change  :     0.154796563286 (vector 2)
   Maximum residual norm  :     0.020606954146

                       ****Iteration    1****
   Time for densities:     0.002
   Time for XC-Integration:     0.182
   Time for K (COSX):     0.521
   Time for RI-J (Direct):     0.097
   Time for Sigma-Completion:     0.010
   Lowest Energy          :     0.000110465573
   Maximum Energy change  :     0.016593881690 (vector 2)
   Maximum residual norm  :     0.001722938025

                       ****Iteration    2****
   Time for densities:     0.002
   Time for XC-Integration:     0.183
   Time for K (COSX):     0.503
   Time for RI-J (Direct):     0.098
   Time for Sigma-Completion:     0.010
   Lowest Energy          :     0.000038754342
   Maximum Energy change  :     0.000693872391 (vector 2)
   Maximum residual norm  :     0.000069814320

      *** CONVERGENCE OF RESIDUAL NORM REACHED ***

----------------------------- 
SCF STABILITY ANALYSIS RESULT 
----------------------------- 

UHF/UKS->UHF/UKS - singlet - internal

   Root    Eigenvalue (au) 
     0       0.000039 
     1       0.085459 
     2       0.137509 

Stability Analysis indicates a stable HF/KS wave function.


Total time for performing the stability analysis:     3.053sec

Old exchange energy                            =     -4.932474997 Eh
New exchange energy                            =     -4.932479355 Eh
Exchange energy change after final integration =     -0.000004358 Eh
Total energy after final integration           =   -150.327453242 Eh
Final COS-X integration done in                =     0.387 sec

----------------
TOTAL SCF ENERGY
----------------

Total Energy       :         -150.32745324 Eh           -4090.61797 eV

Components:
Nuclear Repulsion  :           27.98953829 Eh             761.63406 eV
Electronic Energy  :         -178.31699153 Eh           -4852.25202 eV
One Electron Energy:         -261.77171266 Eh           -7123.17044 eV
Two Electron Energy:           83.45472113 Eh            2270.91841 eV
Max COSX asymmetry :            0.00000007 Eh               0.00000 eV

Virial components:
Potential Energy   :         -300.16408877 Eh           -8167.88010 eV
Kinetic Energy     :          149.83663553 Eh            4077.26214 eV
Virial Ratio       :            2.00327569


DFT components:
N(Alpha)           :        7.999999337982 electrons
N(Beta)            :        7.999999337983 electrons
N(Total)           :       15.999998675965 electrons
E(XC)              :      -12.043527729470 Eh       
DFET-embed. en.    :        0.000000000000 Eh       

---------------
SCF CONVERGENCE
---------------

  Last Energy change         ...    4.6672e-09  Tolerance :   1.0000e-06
  Last MAX-Density change    ...    2.5321e-08  Tolerance :   1.0000e-05
  Last RMS-Density change    ...    1.7044e-09  Tolerance :   1.0000e-06
  Last DIIS Error            ...    1.0786e-06  Tolerance :   1.0000e-06

             **** THE GBW FILE WAS UPDATED (.\O2_UKS_s_stab_v2.gbw) ****
             **** DENSITY .\O2_UKS_s_stab_v2.scfp WAS UPDATED ****
             **** ENERGY FILE WAS UPDATED (.\O2_UKS_s_stab_v2.en.tmp) ****
----------------------
UHF SPIN CONTAMINATION
----------------------

Warning: in a DFT calculation there is little theoretical justification to 
         calculate <S**2> as in Hartree-Fock theory. We will do it anyways
         but you should keep in mind that the values have only limited relevance

Expectation value of <S**2>     :     1.004351
Ideal value S*(S+1) for S=0.0   :     0.000000
Deviation                       :     1.004351

             **** THE GBW FILE WAS UPDATED (.\O2_UKS_s_stab_v2.gbw) ****
             **** DENSITY .\O2_UKS_s_stab_v2.scfp WAS UPDATED ****
----------------
ORBITAL ENERGIES
----------------
                 SPIN UP ORBITALS
  NO   OCC          E(Eh)            E(eV) 
   0   1.0000     -19.382763      -527.4318 
   1   1.0000     -19.382541      -527.4258 
   2   1.0000      -1.396888       -38.0113 
   3   1.0000      -0.911683       -24.8081 
   4   1.0000      -0.659632       -17.9495 
   5   1.0000      -0.637971       -17.3601 
   6   1.0000      -0.579836       -15.7781 
   7   1.0000      -0.396778       -10.7969 
   8   0.0000      -0.044853        -1.2205 
   9   0.0000       0.278116         7.5679 
  10   0.0000       0.422812        11.5053 
  11   0.0000       0.474536        12.9128 
  12   0.0000       0.488601        13.2955 
  13   0.0000       0.524645        14.2763 
  14   0.0000       0.529634        14.4121 
  15   0.0000       0.584705        15.9106 
  16   0.0000       0.603654        16.4263 
  17   0.0000       0.842097        22.9146 
  18   0.0000       1.318866        35.8882 
  19   0.0000       1.319040        35.8929 
  20   0.0000       1.381018        37.5794 
  21   0.0000       1.407181        38.2913 
  22   0.0000       1.725840        46.9625 
  23   0.0000       1.726222        46.9729 
  24   0.0000       1.941691        52.8361 
  25   0.0000       2.185812        59.4790 
  26   0.0000       2.201309        59.9007 
  27   0.0000       2.212599        60.2079 
  28   0.0000       2.490105        67.7592 
  29   0.0000       2.532755        68.9198 
  30   0.0000       2.621787        71.3425 
  31   0.0000       2.833258        77.0969 
  32   0.0000       2.854514        77.6753 
  33   0.0000       2.871161        78.1283 
  34   0.0000       2.950813        80.2957 
  35   0.0000       4.334042       117.9353 
  36   0.0000       4.674682       127.2046 
  37   0.0000       4.674991       127.2130 
  38   0.0000       4.702304       127.9562 
  39   0.0000       4.724700       128.5656 
  40   0.0000       5.019442       136.5860 
  41   0.0000       5.019494       136.5874 
  42   0.0000       5.066595       137.8691 
  43   0.0000       5.258939       143.1030 
  44   0.0000       5.259081       143.1069 
  45   0.0000       5.780034       157.2827 
  46   0.0000       5.780715       157.3012 
  47   0.0000       6.138553       167.0385 
  48   0.0000       6.142587       167.1483 
  49   0.0000       6.353670       172.8922 
  50   0.0000       6.353893       172.8982 
  51   0.0000       6.354940       172.9267 
  52   0.0000       6.391492       173.9213 
  53   0.0000       6.443171       175.3276 
  54   0.0000       6.467322       175.9848 
  55   0.0000       6.503937       176.9811 
  56   0.0000       7.274824       197.9580 
  57   0.0000       7.300995       198.6702 
  58   0.0000       7.510822       204.3798 
  59   0.0000       8.740790       237.8490 
  60   0.0000      43.034688      1171.0334 
  61   0.0000      43.572126      1185.6578 

                 SPIN DOWN ORBITALS
  NO   OCC          E(Eh)            E(eV) 
   0   1.0000     -19.382763      -527.4318 
   1   1.0000     -19.382541      -527.4258 
   2   1.0000      -1.396888       -38.0113 
   3   1.0000      -0.911683       -24.8081 
   4   1.0000      -0.659632       -17.9495 
   5   1.0000      -0.637971       -17.3601 
   6   1.0000      -0.579836       -15.7782 
   7   1.0000      -0.396778       -10.7969 
   8   0.0000      -0.044853        -1.2205 
   9   0.0000       0.278116         7.5679 
  10   0.0000       0.422812        11.5053 
  11   0.0000       0.474536        12.9128 
  12   0.0000       0.488601        13.2955 
  13   0.0000       0.524645        14.2763 
  14   0.0000       0.529634        14.4121 
  15   0.0000       0.584705        15.9106 
  16   0.0000       0.603654        16.4263 
  17   0.0000       0.842097        22.9146 
  18   0.0000       1.318866        35.8882 
  19   0.0000       1.319040        35.8929 
  20   0.0000       1.381018        37.5794 
  21   0.0000       1.407180        38.2913 
  22   0.0000       1.725840        46.9625 
  23   0.0000       1.726222        46.9729 
  24   0.0000       1.941691        52.8361 
  25   0.0000       2.185812        59.4790 
  26   0.0000       2.201309        59.9007 
  27   0.0000       2.212599        60.2079 
  28   0.0000       2.490105        67.7592 
  29   0.0000       2.532755        68.9198 
  30   0.0000       2.621787        71.3425 
  31   0.0000       2.833258        77.0969 
  32   0.0000       2.854514        77.6753 
  33   0.0000       2.871161        78.1283 
  34   0.0000       2.950813        80.2957 
  35   0.0000       4.334042       117.9353 
  36   0.0000       4.674682       127.2046 
  37   0.0000       4.674991       127.2130 
  38   0.0000       4.702304       127.9562 
  39   0.0000       4.724700       128.5656 
  40   0.0000       5.019442       136.5860 
  41   0.0000       5.019494       136.5874 
  42   0.0000       5.066595       137.8691 
  43   0.0000       5.258939       143.1030 
  44   0.0000       5.259081       143.1069 
  45   0.0000       5.780034       157.2827 
  46   0.0000       5.780715       157.3012 
  47   0.0000       6.138553       167.0385 
  48   0.0000       6.142587       167.1483 
  49   0.0000       6.353670       172.8922 
  50   0.0000       6.353893       172.8982 
  51   0.0000       6.354940       172.9267 
  52   0.0000       6.391492       173.9213 
  53   0.0000       6.443171       175.3276 
  54   0.0000       6.467322       175.9848 
  55   0.0000       6.503937       176.9811 
  56   0.0000       7.274824       197.9580 
  57   0.0000       7.300995       198.6702 
  58   0.0000       7.510822       204.3798 
  59   0.0000       8.740790       237.8490 
  60   0.0000      43.034688      1171.0334 
  61   0.0000      43.572126      1185.6578 

                    ********************************
                    * MULLIKEN POPULATION ANALYSIS *
                    ********************************

--------------------------------------------
MULLIKEN ATOMIC CHARGES AND SPIN POPULATIONS
--------------------------------------------
   0 O :   -0.000001    0.000000
   1 O :    0.000001   -0.000000
Sum of atomic charges         :   -0.0000000
Sum of atomic spin populations:    0.0000000

-----------------------------------------------------
MULLIKEN REDUCED ORBITAL CHARGES AND SPIN POPULATIONS
-----------------------------------------------------
CHARGE
  0 O s       :     3.916994  s :     3.916994
      pz      :     1.481607  p :     4.026075
      px      :     1.062861
      py      :     1.481608
      dz2     :     0.004488  d :     0.052259
      dxz     :     0.017016
      dyz     :     0.000274
      dx2y2   :     0.013465
      dxy     :     0.017016
      f0      :     0.000400  f :     0.004673
      f+1     :     0.000715
      f-1     :     0.000161
      f+2     :     0.000977
      f-2     :     0.000010
      f+3     :     0.001192
      f-3     :     0.001216
  1 O s       :     3.916993  s :     3.916993
      pz      :     1.481605  p :     4.026074
      px      :     1.062863
      py      :     1.481605
      dz2     :     0.004488  d :     0.052259
      dxz     :     0.017016
      dyz     :     0.000274
      dx2y2   :     0.013465
      dxy     :     0.017016
      f0      :     0.000400  f :     0.004673
      f+1     :     0.000715
      f-1     :     0.000161
      f+2     :     0.000977
      f-2     :     0.000010
      f+3     :     0.001192
      f-3     :     0.001216

SPIN
  0 O s       :    -0.000000  s :    -0.000000
      pz      :    -0.009561  p :     0.000000
      px      :     0.000000
      py      :     0.009561
      dz2     :    -0.000015  d :    -0.000000
      dxz     :     0.000007
      dyz     :    -0.000000
      dx2y2   :     0.000015
      dxy     :    -0.000007
      f0      :     0.000002  f :    -0.000000
      f+1     :     0.000003
      f-1     :     0.000001
      f+2     :    -0.000002
      f-2     :    -0.000000
      f+3     :    -0.000003
      f-3     :    -0.000000
  1 O s       :     0.000000  s :     0.000000
      pz      :    -0.009562  p :    -0.000000
      px      :    -0.000000
      py      :     0.009562
      dz2     :    -0.000015  d :     0.000000
      dxz     :     0.000007
      dyz     :    -0.000000
      dx2y2   :     0.000015
      dxy     :    -0.000007
      f0      :     0.000002  f :     0.000000
      f+1     :     0.000003
      f-1     :     0.000001
      f+2     :    -0.000002
      f-2     :    -0.000000
      f+3     :    -0.000003
      f-3     :    -0.000000


                     *******************************
                     * LOEWDIN POPULATION ANALYSIS *
                     *******************************

-------------------------------------------
LOEWDIN ATOMIC CHARGES AND SPIN POPULATIONS
-------------------------------------------
   0 O :   -0.000001    0.000000
   1 O :    0.000001   -0.000000

----------------------------------------------------
LOEWDIN REDUCED ORBITAL CHARGES AND SPIN POPULATIONS
----------------------------------------------------
CHARGE
  0 O s       :     3.641377  s :     3.641377
      pz      :     1.451438  p :     4.186169
      px      :     1.283293
      py      :     1.451439
      dz2     :     0.016937  d :     0.154169
      dxz     :     0.043074
      dyz     :     0.000274
      dx2y2   :     0.050811
      dxy     :     0.043074
      f0      :     0.001922  f :     0.018286
      f+1     :     0.002737
      f-1     :     0.000428
      f+2     :     0.003566
      f-2     :     0.000011
      f+3     :     0.004561
      f-3     :     0.005060
  1 O s       :     3.641377  s :     3.641377
      pz      :     1.451437  p :     4.186167
      px      :     1.283294
      py      :     1.451437
      dz2     :     0.016937  d :     0.154169
      dxz     :     0.043074
      dyz     :     0.000274
      dx2y2   :     0.050810
      dxy     :     0.043074
      f0      :     0.001922  f :     0.018286
      f+1     :     0.002737
      f-1     :     0.000428
      f+2     :     0.003566
      f-2     :     0.000011
      f+3     :     0.004561
      f-3     :     0.005060

SPIN
  0 O s       :    -0.000000  s :    -0.000000
      pz      :    -0.009145  p :     0.000000
      px      :     0.000000
      py      :     0.009145
      dz2     :    -0.000020  d :    -0.000000
      dxz     :    -0.000357
      dyz     :    -0.000000
      dx2y2   :     0.000020
      dxy     :     0.000357
      f0      :    -0.000019  f :    -0.000000
      f+1     :     0.000004
      f-1     :     0.000003
      f+2     :    -0.000034
      f-2     :    -0.000000
      f+3     :    -0.000004
      f-3     :     0.000050
  1 O s       :    -0.000000  s :    -0.000000
      pz      :    -0.009147  p :    -0.000000
      px      :    -0.000000
      py      :     0.009146
      dz2     :    -0.000020  d :     0.000000
      dxz     :    -0.000357
      dyz     :    -0.000000
      dx2y2   :     0.000020
      dxy     :     0.000357
      f0      :    -0.000019  f :    -0.000000
      f+1     :     0.000004
      f-1     :     0.000003
      f+2     :    -0.000034
      f-2     :    -0.000000
      f+3     :    -0.000004
      f-3     :     0.000050


                      *****************************
                      * MAYER POPULATION ANALYSIS *
                      *****************************

  NA   - Mulliken gross atomic population
  ZA   - Total nuclear charge
  QA   - Mulliken gross atomic charge
  VA   - Mayer's total valence
  BVA  - Mayer's bonded valence
  FA   - Mayer's free valence

  ATOM       NA         ZA         QA         VA         BVA        FA
  0 O      8.0000     8.0000    -0.0000     2.3550     1.8259     0.5290
  1 O      8.0000     8.0000     0.0000     2.3550     1.8259     0.5290

  Mayer bond orders larger than 0.100000
B(  0-O ,  1-O ) :   1.8259 

-------
TIMINGS
-------

Total SCF time: 0 days 0 hours 0 min 4 sec 

Total time                  ....       4.299 sec
Sum of individual times     ....       4.177 sec  ( 97.2%)

Fock matrix formation       ....       0.987 sec  ( 23.0%)
  Split-RI-J                ....       0.107 sec  ( 10.8% of F)
  Chain of spheres X        ....       0.727 sec  ( 73.7% of F)
  XC integration            ....       0.144 sec  ( 14.6% of F)
    Basis function eval.    ....       0.026 sec  ( 18.1% of XC)
    Density eval.           ....       0.046 sec  ( 31.9% of XC)
    XC-Functional eval.     ....       0.039 sec  ( 27.1% of XC)
    XC-Potential eval.      ....       0.026 sec  ( 18.1% of XC)
Diagonalization             ....       0.002 sec  (  0.0%)
Density matrix formation    ....       0.000 sec  (  0.0%)
Population analysis         ....       0.008 sec  (  0.2%)
Initial guess               ....       0.002 sec  (  0.0%)
Orbital Transformation      ....       0.000 sec  (  0.0%)
Orbital Orthonormalization  ....       0.001 sec  (  0.0%)
DIIS solution               ....       0.000 sec  (  0.0%)
Grid generation             ....       0.125 sec  (  2.9%)
SCF Stability Analysis      ....       3.053 sec  ( 71.0%)

Maximum memory used throughout the entire SCF-calculation: 68.5 MB


-------------------------------------------------------------------------------
                          DFT DISPERSION CORRECTION                            
                                                                               
                              DFTD3 V3.1  Rev 1                                
                              USING zero damping                               
-------------------------------------------------------------------------------
The omegaB97X-D3 functional is recognized. Fit by Chai et al.
Active option DFTDOPT                   ...         3   

molecular C6(AA) [au] = 51.245358 


            DFT-D V3
 parameters
 s6 scaling factor         :     1.0000 
 rs6 scaling factor        :     1.2810 
 s8 scaling factor         :     1.0000 
 rs8 scaling factor        :     1.0940 
 Damping factor alpha6     :    14.0000 
 Damping factor alpha8     :    16.0000 
 ad hoc parameters k1-k3   :    16.0000     1.3333    -4.0000 

 Edisp/kcal,au: -0.000100218248  -0.000000159708 
 E6   /kcal   :  -0.000012554 
 E8   /kcal   :  -0.000087664 
 % E8         :  87.473512465 

-------------------------   ----------------
Dispersion correction           -0.000000160
-------------------------   ----------------


-------------------------   --------------------
FINAL SINGLE POINT ENERGY      -150.327453401211
-------------------------   --------------------


                            ***************************************
                            *     ORCA property calculations      *
                            ***************************************

                                    ---------------------
                                    Active property flags
                                    ---------------------
   (+) Dipole Moment


------------------------------------------------------------------------------
                       ORCA ELECTRIC PROPERTIES CALCULATION
------------------------------------------------------------------------------

Dipole Moment Calculation                       ... on
Quadrupole Moment Calculation                   ... off
Polarizability Calculation                      ... off
GBWName                                         ... .\O2_UKS_s_stab_v2.gbw
Electron density                                ... .\O2_UKS_s_stab_v2.scfp
The origin for moment calculation is the CENTER OF MASS  = ( 1.143284,  0.000000  0.000000)

-------------
DIPOLE MOMENT
-------------
                                X             Y             Z
Electronic contribution:      0.00000      -0.00000       0.00000
Nuclear contribution   :      0.00000       0.00000       0.00000
                        -----------------------------------------
Total Dipole Moment    :      0.00000      -0.00000       0.00000
                        -----------------------------------------
Magnitude (a.u.)       :      0.00000
Magnitude (Debye)      :      0.00001



--------------------
Rotational spectrum 
--------------------
 
Rotational constants in cm-1:     0.000000     1.439340     1.439340 
Rotational constants in MHz :     0.000000 43150.319982 43150.319982 

 Dipole components along the rotational axes: 
x,y,z [a.u.] :     0.000002    -0.000000     0.000000 
x,y,z [Debye]:     0.000006    -0.000001     0.000000 

 

Timings for individual modules:

Sum of individual times         ...        6.138 sec (=   0.102 min)
GTO integral calculation        ...        1.822 sec (=   0.030 min)  29.7 %
SCF iterations                  ...        4.316 sec (=   0.072 min)  70.3 %
                             ****ORCA TERMINATED NORMALLY****
TOTAL RUN TIME: 0 days 0 hours 0 minutes 6 seconds 321 msec
