14
Coordinates from ORCA-job butane_VWN5_6-31G_d_ E -156.906290381058
  C      -1.265080      0.193850     -0.025430
  C       0.255200      0.179570     -0.022990
  H      -1.655350      0.575980      0.923260
  H      -1.653420     -0.819310     -0.169030
  H      -1.650210      0.823100     -0.834170
  H       0.607390     -0.483440      0.775850
  C       0.827700      1.581540      0.175840
  H       0.612500     -0.237690     -0.971680
  H       0.470410      1.998790      1.124540
  H       0.475480      2.244560     -0.622990
  C       2.347970      1.567260      0.178250
  H       2.733130      0.937990      0.986960
  H       2.736320      2.580420      0.321870
  H       2.738230      1.185160     -0.770460
14
Coordinates from ORCA-job butane_VWN5_6-31G_d_ E -156.907619511462
  C      -1.269409      0.189973     -0.025942
  C       0.251009      0.185680     -0.022096
  H      -1.666202      0.578148      0.930171
  H      -1.669452     -0.830095     -0.170638
  H      -1.660827      0.827193     -0.840207
  H       0.616135     -0.482759      0.782864
  C       0.831888      1.575429      0.174942
  H       0.621196     -0.235116     -0.978119
  H       0.461711      1.996217      1.130973
  H       0.466741      2.243873     -0.630005
  C       2.352302      1.571140      0.178763
  H       2.743744      0.933902      0.993004
  H       2.752350      2.591204      0.323476
  H       2.749086      1.182991     -0.777365
14
Coordinates from ORCA-job butane_VWN5_6-31G_d_ E -156.907796129267
  C      -1.268484      0.187749     -0.026206
  C       0.248494      0.189015     -0.021585
  H      -1.668002      0.578896      0.929712
  H      -1.676143     -0.830326     -0.170763
  H      -1.662436      0.827920     -0.839453
  H       0.621261     -0.480995      0.782107
  C       0.834402      1.572094      0.174427
  H       0.626248     -0.233687     -0.976783
  H       0.456655      1.994790      1.129631
  H       0.461620      2.242107     -0.629256
  C       2.351378      1.573364      0.179030
  H       2.745346      0.933179      0.992259
  H       2.759041      2.591436      0.323601
  H       2.750889      1.182237     -0.776900
14
Coordinates from ORCA-job butane_VWN5_6-31G_d_ E -156.907839467934
  C      -1.266639      0.186458     -0.026345
  C       0.247399      0.189891     -0.021418
  H      -1.667655      0.579486      0.928200
  H      -1.679668     -0.828768     -0.170643
  H      -1.661947      0.828216     -0.837711
  H       0.624839     -0.480928      0.779798
  C       0.835497      1.571219      0.174256
  H       0.629745     -0.234354     -0.974428
  H       0.453156      1.995461      1.127270
  H       0.458049      2.242040     -0.626955
  C       2.349535      1.574654      0.179171
  H       2.744850      0.932887      0.990526
  H       2.762564      2.589878      0.323480
  H       2.750546      1.181641     -0.775381
14
Coordinates from ORCA-job butane_VWN5_6-31G_d_ E -156.907844948048
  C      -1.265710      0.186282     -0.026349
  C       0.247582      0.189456     -0.021450
  H      -1.667155      0.579821      0.927486
  H      -1.680518     -0.827820     -0.170579
  H      -1.661389      0.828438     -0.836848
  H       0.626280     -0.481450      0.778615
  C       0.835314      1.571655      0.174286
  H       0.631140     -0.235263     -0.973360
  H       0.451760      1.996372      1.126198
  H       0.456611      2.242562     -0.625776
  C       2.348606      1.574830      0.179178
  H       2.744289      0.932666      0.989668
  H       2.763414      2.588931      0.323416
  H       2.750047      1.181301     -0.774663
14
Coordinates from ORCA-job butane_VWN5_6-31G_d_ E -156.907845594443
  C      -1.265374      0.186374     -0.026325
  C       0.247901      0.189101     -0.021478
  H      -1.666936      0.579983      0.927332
  H      -1.680687     -0.827475     -0.170586
  H      -1.661138      0.828628     -0.836588
  H       0.626864     -0.481695      0.778330
  C       0.834995      1.572010      0.174313
  H       0.631699     -0.235645     -0.973094
  H       0.451200      1.996754      1.125930
  H       0.456029      2.242806     -0.625494
  C       2.348270      1.574738      0.179154
  H       2.744037      0.932478      0.989411
  H       2.763583      2.588586      0.323422
  H       2.749829      1.181136     -0.774507
