14
Coordinates from ORCA-job butane_VWN5_6-31G_d_
  C   -1.26537382869440      0.18637388558458     -0.02632483123837
  C   0.24790079067193      0.18910138142943     -0.02147849933408
  H   -1.66693642733929      0.57998294552011      0.92733219351039
  H   -1.68068696460600     -0.82747519344860     -0.17058610424229
  H   -1.66113824965590      0.82862801939340     -0.83658811229541
  H   0.62686370359486     -0.48169453832264      0.77832978421871
  C   0.83499490942335      1.57200957265275      0.17431267322418
  H   0.63169862511688     -0.23564452701287     -0.97309354039215
  H   0.45120000361901      1.99675396160243      1.12592955597716
  H   0.45602907494943      2.24280640581930     -0.62549351622655
  C   2.34826953563991      1.57473792532184      0.17915413645221
  H   2.74403671001294      0.93247783608174      0.98941140226807
  H   2.76358268355703      2.58858608400571      0.32342191515963
  H   2.74982943371026      1.18113624137282     -0.77450705708151
