14
Coordinates from ORCA-job butane_VWN5_6-311G_d-p_ E -156.964371836074
  C      -1.265080      0.193850     -0.025430
  C       0.255200      0.179570     -0.022990
  H      -1.655350      0.575980      0.923260
  H      -1.653420     -0.819310     -0.169030
  H      -1.650210      0.823100     -0.834170
  H       0.607390     -0.483440      0.775850
  C       0.827700      1.581540      0.175840
  H       0.612500     -0.237690     -0.971680
  H       0.470410      1.998790      1.124540
  H       0.475480      2.244560     -0.622990
  C       2.347970      1.567260      0.178250
  H       2.733130      0.937990      0.986960
  H       2.736320      2.580420      0.321870
  H       2.738230      1.185160     -0.770460
14
Coordinates from ORCA-job butane_VWN5_6-311G_d-p_ E -156.965395788010
  C      -1.267585      0.190862     -0.025808
  C       0.251147      0.186639     -0.021953
  H      -1.663291      0.577773      0.928250
  H      -1.666193     -0.826878     -0.170188
  H      -1.657904      0.826317     -0.838437
  H       0.615304     -0.479925      0.781385
  C       0.831750      1.574471      0.174799
  H       0.620334     -0.232813     -0.975911
  H       0.462573      1.993914      1.128765
  H       0.467571      2.241039     -0.628527
  C       2.350478      1.570251      0.178629
  H       2.740820      0.934778      0.991233
  H       2.749091      2.587987      0.323026
  H       2.746175      1.183366     -0.775445
14
Coordinates from ORCA-job butane_VWN5_6-311G_d-p_ E -156.965591997973
  C      -1.266318      0.188605     -0.026066
  C       0.248182      0.190872     -0.021303
  H      -1.665068      0.578508      0.927865
  H      -1.673215     -0.826942     -0.170312
  H      -1.659437      0.827088     -0.837729
  H       0.620896     -0.477143      0.780792
  C       0.834713      1.570237      0.174144
  H       0.625824     -0.230386     -0.974427
  H       0.457080      1.991490      1.127274
  H       0.461985      2.238255     -0.627941
  C       2.349213      1.572508      0.178889
  H       2.742347      0.934011      0.990535
  H       2.756112      2.588052      0.323150
  H       2.747955      1.182626     -0.775053
14
Coordinates from ORCA-job butane_VWN5_6-311G_d-p_ E -156.965629563688
  C      -1.264627      0.187491     -0.026180
  C       0.247201      0.191458     -0.021173
  H      -1.664731      0.578908      0.926499
  H      -1.676264     -0.825449     -0.170207
  H      -1.658954      0.827254     -0.836172
  H       0.623925     -0.477281      0.778657
  C       0.835695      1.569651      0.174011
  H       0.628770     -0.231215     -0.972291
  H       0.454131      1.992321      1.125133
  H       0.458962      2.238393     -0.625814
  C       2.347523      1.573621      0.179006
  H       2.741858      0.933848      0.988986
  H       2.759161      2.586560      0.323045
  H       2.747621      1.182220     -0.773681
14
Coordinates from ORCA-job butane_VWN5_6-311G_d-p_ E -156.965637095584
  C      -1.263541      0.187219     -0.026191
  C       0.247350      0.190897     -0.021212
  H      -1.664264      0.579258      0.925640
  H      -1.677438     -0.824341     -0.170146
  H      -1.658406      0.827489     -0.835135
  H       0.625670     -0.478045      0.777193
  C       0.835546      1.570214      0.174048
  H       0.630457     -0.232464     -0.970989
  H       0.452443      1.993572      1.123827
  H       0.457221      2.239157     -0.624354
  C       2.346437      1.573893      0.179019
  H       2.741305      0.933615      0.987954
  H       2.760334      2.585452      0.322983
  H       2.747156      1.181865     -0.772818
14
Coordinates from ORCA-job butane_VWN5_6-311G_d-p_ E -156.965637822146
  C      -1.263230      0.187314     -0.026165
  C       0.247683      0.190526     -0.021240
  H      -1.664117      0.579418      0.925490
  H      -1.677635     -0.824022     -0.170165
  H      -1.658223      0.827692     -0.834868
  H       0.626275     -0.478325      0.776905
  C       0.835213      1.570585      0.174074
  H       0.631038     -0.232892     -0.970718
  H       0.451861      1.994001      1.123554
  H       0.456618      2.239437     -0.624068
  C       2.346126      1.573798      0.178994
  H       2.741121      0.933413      0.987691
  H       2.760530      2.585133      0.323002
  H       2.747010      1.181702     -0.772666
