14
Coordinates from ORCA-job butane_VWN5_aug-cc-pVTZ
  C   -1.25861064956871      0.18885452941573     -0.02588625467454
  C   0.24902700834826      0.19192796092522     -0.02093108191358
  H   -1.65823485169830      0.58090249212092      0.92415694366241
  H   -1.67322037482396     -0.82036487657327     -0.16990950264043
  H   -1.65218437434881      0.82913322512828     -0.83281493639368
  H   0.62773931069651     -0.47541035975705      0.77579622191958
  C   0.83386868750986      1.56918299706426      0.17376547502356
  H   0.63243270762925     -0.23072487482205     -0.96853126023670
  H   0.45046627646392      1.99183429913578      1.12136765273301
  H   0.45515323779583      2.23652229666257     -0.62295958645513
  C   2.34150632251657      1.57225726478069      0.17871539529204
  H   2.73508296945254      0.93197215707459      0.98563761080892
  H   2.75611610214937      2.58147566739441      0.32274561183935
  H   2.74112762787766      1.18021722144991     -0.77133228896480
