14
Coordinates from ORCA-job butane_VWN5_cc-pVDZ E -156.912727449446
  C      -1.265080      0.193850     -0.025430
  C       0.255200      0.179570     -0.022990
  H      -1.655350      0.575980      0.923260
  H      -1.653420     -0.819310     -0.169030
  H      -1.650210      0.823100     -0.834170
  H       0.607390     -0.483440      0.775850
  C       0.827700      1.581540      0.175840
  H       0.612500     -0.237690     -0.971680
  H       0.470410      1.998790      1.124540
  H       0.475480      2.244560     -0.622990
  C       2.347970      1.567260      0.178250
  H       2.733130      0.937990      0.986960
  H       2.736320      2.580420      0.321870
  H       2.738230      1.185160     -0.770460
14
Coordinates from ORCA-job butane_VWN5_cc-pVDZ E -156.915144613555
  C      -1.269257      0.190068     -0.025933
  C       0.250968      0.185886     -0.022074
  H      -1.668480      0.580050      0.934994
  H      -1.671096     -0.834985     -0.171320
  H      -1.663094      0.830350     -0.844330
  H       0.617907     -0.485887      0.787090
  C       0.831929      1.575223      0.174920
  H       0.623034     -0.236946     -0.983032
  H       0.459873      1.998046      1.135887
  H       0.464967      2.247001     -0.634230
  C       2.352150      1.571045      0.178753
  H       2.746012      0.930745      0.997126
  H       2.753994      2.596094      0.324158
  H       2.751363      1.181090     -0.782189
14
Coordinates from ORCA-job butane_VWN5_cc-pVDZ E -156.915365576973
  C      -1.268435      0.187800     -0.026210
  C       0.248146      0.189372     -0.021551
  H      -1.671075      0.580631      0.934611
  H      -1.677869     -0.835582     -0.171483
  H      -1.665526      0.830936     -0.843697
  H       0.622693     -0.484385      0.786404
  C       0.834750      1.571737      0.174393
  H       0.627800     -0.235729     -0.981833
  H       0.455104      1.996832      1.134682
  H       0.460188      2.245497     -0.633552
  C       2.351330      1.573313      0.179033
  H       2.748437      0.930163      0.996502
  H       2.760767      2.596691      0.324321
  H       2.753962      1.180504     -0.781800
14
Coordinates from ORCA-job butane_VWN5_cc-pVDZ E -156.915439378265
  C      -1.266446      0.185998     -0.026418
  C       0.246335      0.190964     -0.021285
  H      -1.671748      0.581166      0.932621
  H      -1.682877     -0.833945     -0.171353
  H      -1.666054      0.831072     -0.841495
  H       0.627170     -0.484138      0.783497
  C       0.836560      1.570146      0.174122
  H       0.632234     -0.236382     -0.978831
  H       0.450667      1.997489      1.131672
  H       0.455718      2.245249     -0.630654
  C       2.349341      1.575115      0.179245
  H       2.748957      0.930031      0.994310
  H       2.765774      2.595056      0.324190
  H       2.754639      1.179960     -0.779801
14
Coordinates from ORCA-job butane_VWN5_cc-pVDZ E -156.915447902325
  C      -1.265479      0.185728     -0.026439
  C       0.246469      0.190566     -0.021315
  H      -1.671482      0.581506      0.931666
  H      -1.684050     -0.832867     -0.171264
  H      -1.665741      0.831232     -0.840402
  H       0.628880     -0.484747      0.781994
  C       0.836427      1.570544      0.174150
  H       0.633910     -0.237458     -0.977480
  H       0.448990      1.998567      1.130318
  H       0.454012      2.245858     -0.629156
  C       2.348375      1.575385      0.179267
  H       2.748641      0.929873      0.993223
  H       2.766946      2.593978      0.324101
  H       2.754374      1.179615     -0.778843
14
Coordinates from ORCA-job butane_VWN5_cc-pVDZ E -156.915449212735
  C      -1.265017      0.185821     -0.026415
  C       0.246898      0.190110     -0.021357
  H      -1.671236      0.581752      0.931364
  H      -1.684332     -0.832369     -0.171252
  H      -1.665466      0.831466     -0.839974
  H       0.629726     -0.485141      0.781465
  C       0.835998      1.571001      0.174191
  H       0.634730     -0.238055     -0.977018
  H       0.448168      1.999165      1.129853
  H       0.453168      2.246253     -0.628629
  C       2.347913      1.575291      0.179244
  H       2.748364      0.929641      0.992799
  H       2.767227      2.593480      0.324087
  H       2.754130      1.179366     -0.778538
