-------------------------------------------------------------
----------------------- !PROPERTIES! ------------------------
-------------------------------------------------------------
# -----------------------------------------------------------
$ SCF_Energy
   description: The SCF energy
   geom. index: 1
   prop. index: 1
        SCF Energy:     -156.9825750341
# -----------------------------------------------------------
$ DFT_Energy
   description: The DFT energy
   geom. index: 1
   prop. index: 1
   Number of Alpha Electrons        17.0000585968 
   Number of Alpha Electrons        17.0000585968 
   Total nuber of  Electrons        34.0001171937 
   Exchange energy                 -21.7275930758 
   Correlation energy               -2.0839973573 
   Correlantion energy NL            0.0000000000 
   Exchange-Correlation energy     -23.8115904331 
   Embedding correction              0.0000000000 
# -----------------------------------------------------------
$ SCF_Energy
   description: The SCF energy
   geom. index: 2
   prop. index: 1
        SCF Energy:     -156.9834776993
# -----------------------------------------------------------
$ DFT_Energy
   description: The DFT energy
   geom. index: 2
   prop. index: 1
   Number of Alpha Electrons        17.0000582121 
   Number of Alpha Electrons        17.0000582121 
   Total nuber of  Electrons        34.0001164242 
   Exchange energy                 -21.7133448067 
   Correlation energy               -2.0830955202 
   Correlantion energy NL            0.0000000000 
   Exchange-Correlation energy     -23.7964403269 
   Embedding correction              0.0000000000 
# -----------------------------------------------------------
$ SCF_Energy
   description: The SCF energy
   geom. index: 3
   prop. index: 1
        SCF Energy:     -156.9837013853
# -----------------------------------------------------------
$ DFT_Energy
   description: The DFT energy
   geom. index: 3
   prop. index: 1
   Number of Alpha Electrons        17.0000556989 
   Number of Alpha Electrons        17.0000556989 
   Total nuber of  Electrons        34.0001113979 
   Exchange energy                 -21.7132718402 
   Correlation energy               -2.0830712808 
   Correlantion energy NL            0.0000000000 
   Exchange-Correlation energy     -23.7963431209 
   Embedding correction              0.0000000000 
# -----------------------------------------------------------
$ SCF_Energy
   description: The SCF energy
   geom. index: 4
   prop. index: 1
        SCF Energy:     -156.9837336108
# -----------------------------------------------------------
$ DFT_Energy
   description: The DFT energy
   geom. index: 4
   prop. index: 1
   Number of Alpha Electrons        17.0000540306 
   Number of Alpha Electrons        17.0000540306 
   Total nuber of  Electrons        34.0001080613 
   Exchange energy                 -21.7150072077 
   Correlation energy               -2.0831759455 
   Correlantion energy NL            0.0000000000 
   Exchange-Correlation energy     -23.7981831532 
   Embedding correction              0.0000000000 
# -----------------------------------------------------------
$ SCF_Energy
   description: The SCF energy
   geom. index: 5
   prop. index: 1
        SCF Energy:     -156.9837421473
# -----------------------------------------------------------
$ DFT_Energy
   description: The DFT energy
   geom. index: 5
   prop. index: 1
   Number of Alpha Electrons        17.0000527703 
   Number of Alpha Electrons        17.0000527703 
   Total nuber of  Electrons        34.0001055406 
   Exchange energy                 -21.7160838596 
   Correlation energy               -2.0832438064 
   Correlantion energy NL            0.0000000000 
   Exchange-Correlation energy     -23.7993276660 
   Embedding correction              0.0000000000 
# -----------------------------------------------------------
$ SCF_Energy
   description: The SCF energy
   geom. index: 6
   prop. index: 1
        SCF Energy:     -156.9837427016
# -----------------------------------------------------------
$ DFT_Energy
   description: The DFT energy
   geom. index: 6
   prop. index: 1
   Number of Alpha Electrons        17.0000525108 
   Number of Alpha Electrons        17.0000525108 
   Total nuber of  Electrons        34.0001050216 
   Exchange energy                 -21.7160522792 
   Correlation energy               -2.0832431993 
   Correlantion energy NL            0.0000000000 
   Exchange-Correlation energy     -23.7992954786 
   Embedding correction              0.0000000000 
# -----------------------------------------------------------
$ SCF_Electric_Properties
   description: The SCF Calculated Electric Properties
   geom. index: 6
   prop. index: 1
       Filename                          : butane_VWN5_aug-cc-pVTZ.scfp 
       Do Dipole Moment Calculation      : true 
       Do Quadrupole Moment Calculation  : false 
       Do Polarizability Calculation     : false 
** Dipole moment part of electric properties **
        Magnitude of dipole moment (Debye) :        0.0000005070
        Electronic Contribution:
                  0    
      0      -0.000000
      1      -0.000000
      2       0.000002
        Nuclear Contribution:
                  0    
      0       0.000000
      1       0.000000
      2      -0.000002
        Total Dipole moment:
                  0    
      0      -0.000000
      1      -0.000000
      2       0.000000
# -----------------------------------------------------------
$ Hessian
   description: Details about the Hessian
   geom. index: 6
   prop. index: 1
Normal modes:
Number of Rows: 42 Number of Columns: 42
                  0          1          2          3          4          5    
      0       0.000000   0.000000   0.000000   0.000000   0.000000   0.000000
      1       0.000000   0.000000   0.000000   0.000000   0.000000   0.000000
      2       0.000000   0.000000   0.000000   0.000000   0.000000   0.000000
      3       0.000000   0.000000   0.000000   0.000000   0.000000   0.000000
      4       0.000000   0.000000   0.000000   0.000000   0.000000   0.000000
      5       0.000000   0.000000   0.000000   0.000000   0.000000   0.000000
      6       0.000000   0.000000   0.000000   0.000000   0.000000   0.000000
      7       0.000000   0.000000   0.000000   0.000000   0.000000   0.000000
      8       0.000000   0.000000   0.000000   0.000000   0.000000   0.000000
      9       0.000000   0.000000   0.000000   0.000000   0.000000   0.000000
     10       0.000000   0.000000   0.000000   0.000000   0.000000   0.000000
     11       0.000000   0.000000   0.000000   0.000000   0.000000   0.000000
     12       0.000000   0.000000   0.000000   0.000000   0.000000   0.000000
     13       0.000000   0.000000   0.000000   0.000000   0.000000   0.000000
     14       0.000000   0.000000   0.000000   0.000000   0.000000   0.000000
     15       0.000000   0.000000   0.000000   0.000000   0.000000   0.000000
     16       0.000000   0.000000   0.000000   0.000000   0.000000   0.000000
     17       0.000000   0.000000   0.000000   0.000000   0.000000   0.000000
     18       0.000000   0.000000   0.000000   0.000000   0.000000   0.000000
     19       0.000000   0.000000   0.000000   0.000000   0.000000   0.000000
     20       0.000000   0.000000   0.000000   0.000000   0.000000   0.000000
     21       0.000000   0.000000   0.000000   0.000000   0.000000   0.000000
     22       0.000000   0.000000   0.000000   0.000000   0.000000   0.000000
     23       0.000000   0.000000   0.000000   0.000000   0.000000   0.000000
     24       0.000000   0.000000   0.000000   0.000000   0.000000   0.000000
     25       0.000000   0.000000   0.000000   0.000000   0.000000   0.000000
     26       0.000000   0.000000   0.000000   0.000000   0.000000   0.000000
     27       0.000000   0.000000   0.000000   0.000000   0.000000   0.000000
     28       0.000000   0.000000   0.000000   0.000000   0.000000   0.000000
     29       0.000000   0.000000   0.000000   0.000000   0.000000   0.000000
     30       0.000000   0.000000   0.000000   0.000000   0.000000   0.000000
     31       0.000000   0.000000   0.000000   0.000000   0.000000   0.000000
     32       0.000000   0.000000   0.000000   0.000000   0.000000   0.000000
     33       0.000000   0.000000   0.000000   0.000000   0.000000   0.000000
     34       0.000000   0.000000   0.000000   0.000000   0.000000   0.000000
     35       0.000000   0.000000   0.000000   0.000000   0.000000   0.000000
     36       0.000000   0.000000   0.000000   0.000000   0.000000   0.000000
     37       0.000000   0.000000   0.000000   0.000000   0.000000   0.000000
     38       0.000000   0.000000   0.000000   0.000000   0.000000   0.000000
     39       0.000000   0.000000   0.000000   0.000000   0.000000   0.000000
     40       0.000000   0.000000   0.000000   0.000000   0.000000   0.000000
     41       0.000000   0.000000   0.000000   0.000000   0.000000   0.000000
                  6          7          8          9         10         11    
      0      -0.000407  -0.000071  -0.002540   0.000019  -0.198129  -0.000035
      1      -0.018969  -0.004981  -0.146270  -0.000484  -0.099864  -0.001373
      2       0.136134   0.027543  -0.020841   0.003539  -0.014573   0.009692
      3       0.000467   0.000024  -0.008574  -0.000146  -0.144590  -0.000156
      4       0.020823   0.006266   0.176584  -0.009966   0.034597  -0.007204
      5      -0.149590  -0.034774   0.025178   0.070830   0.004486   0.051389
      6       0.180132   0.053246  -0.151405  -0.054178  -0.324435  -0.173149
      7      -0.173251   0.361319  -0.272086  -0.341896  -0.211068   0.053652
      8       0.275526  -0.099921  -0.032373   0.120386  -0.022752  -0.087631
      9      -0.000669   0.000877   0.282235   0.001074   0.038396   0.000328
     10      -0.008973  -0.065171  -0.261388   0.055159  -0.197885   0.008768
     11       0.066869   0.446320  -0.043067  -0.389212  -0.027949  -0.062388
     12      -0.181515  -0.054745  -0.150531   0.053441  -0.324560   0.173671
     13       0.091246  -0.323645  -0.259678   0.295427  -0.208282  -0.027522
     14       0.311686  -0.197131  -0.037695   0.210825  -0.037816  -0.097922
     15       0.154223   0.027323   0.075758  -0.038542  -0.205841   0.177179
     16      -0.017608   0.028788   0.216803   0.081915  -0.025584  -0.304065
     17      -0.253755  -0.028373   0.021303   0.165865  -0.015129  -0.286857
     18       0.000467   0.000024  -0.008574   0.000147   0.144590  -0.000156
     19       0.020823   0.006266   0.176585   0.009956  -0.034597  -0.007204
     20      -0.149590  -0.034773   0.025171  -0.070832  -0.004486   0.051388
     21      -0.152891  -0.026143   0.076370   0.037907  -0.205973  -0.175763
     22       0.086499  -0.016609   0.215125  -0.124428  -0.028732   0.371367
     23      -0.240000  -0.034743   0.040214   0.137151   0.006476  -0.193019
     24      -0.152891  -0.026143   0.076367  -0.037912   0.205974  -0.175764
     25       0.086499  -0.016610   0.215137   0.124416   0.028731   0.371367
     26      -0.239999  -0.034742   0.040201  -0.137153  -0.006475  -0.193017
     27       0.154222   0.027322   0.075762   0.038538   0.205840   0.177178
     28      -0.017608   0.028788   0.216795  -0.081926   0.025585  -0.304064
     29      -0.253756  -0.028372   0.021287  -0.165867   0.015130  -0.286857
     30      -0.000406  -0.000071  -0.002540  -0.000019   0.198129  -0.000034
     31      -0.018969  -0.004980  -0.146270   0.000493   0.099864  -0.001373
     32       0.136135   0.027543  -0.020842  -0.003538   0.014572   0.009692
     33      -0.181513  -0.054745  -0.150538  -0.053433   0.324562   0.173670
     34       0.091245  -0.323641  -0.259712  -0.295412   0.208282  -0.027521
     35       0.311688  -0.197132  -0.037719  -0.210827   0.037815  -0.097923
     36      -0.000670   0.000879   0.282234  -0.001089  -0.038396   0.000329
     37      -0.008972  -0.065174  -0.261394  -0.055148   0.197885   0.008769
     38       0.066869   0.446317  -0.043023   0.389217   0.027949  -0.062388
     39       0.180134   0.053245  -0.151398   0.054187   0.324434  -0.173148
     40      -0.173251   0.361318  -0.272047   0.341915   0.211068   0.053653
     41       0.275525  -0.099917  -0.032387  -0.120382   0.022751  -0.087630
                 12         13         14         15         16         17    
      0      -0.000162   0.097306  -0.000431  -0.028068  -0.198335   0.112344
      1      -0.005164   0.080581  -0.009259  -0.084646   0.045036  -0.042640
      2       0.036336   0.011647   0.061834  -0.012430   0.005692  -0.005647
      3      -0.000151  -0.026176   0.000178   0.002753   0.224937  -0.140703
      4      -0.008698   0.139077   0.005331   0.023682  -0.024384  -0.071662
      5       0.061472   0.019510  -0.036804   0.003605  -0.002730  -0.010412
      6      -0.323427  -0.119305  -0.306424   0.184839  -0.357446   0.222050
      7       0.051976  -0.151857   0.047822   0.163674  -0.085369   0.036387
      8      -0.127152   0.012967  -0.096515  -0.020683  -0.007354   0.004773
      9       0.000444   0.585291  -0.002281  -0.475033  -0.099768   0.028179
     10       0.022981  -0.117872   0.024933   0.100930  -0.004384  -0.005453
     11      -0.162539  -0.015049  -0.172119   0.014071  -0.000538  -0.000765
     12       0.324196  -0.119064   0.309032   0.180622  -0.357823   0.222196
     13      -0.015050  -0.141781  -0.017809   0.151236  -0.083659   0.036085
     14      -0.134394  -0.055166  -0.103175   0.067535  -0.018623   0.006885
     15       0.278963  -0.100059   0.227133   0.204093   0.248854  -0.354305
     16      -0.099091   0.076826   0.265046   0.154224  -0.035053  -0.228604
     17      -0.151441   0.004919   0.075115   0.016568  -0.015113  -0.039791
     18       0.000151   0.026176   0.000178   0.002753   0.224937   0.140703
     19       0.008698  -0.139077   0.005331   0.023682  -0.024384   0.071662
     20      -0.061472  -0.019511  -0.036804   0.003605  -0.002730   0.010411
     21      -0.278038  -0.100641  -0.224454   0.207128   0.249195  -0.353993
     22       0.136975   0.075587  -0.273187   0.156361  -0.037621  -0.229997
     23      -0.119770   0.015651  -0.001550   0.027667   0.006331  -0.026538
     24       0.278039   0.100640  -0.224455   0.207127   0.249195   0.353992
     25      -0.136976  -0.075589  -0.273187   0.156360  -0.037620   0.229998
     26       0.119769  -0.015651  -0.001549   0.027666   0.006330   0.026537
     27      -0.278962   0.100061   0.227133   0.204093   0.248852   0.354307
     28       0.099091  -0.076824   0.265046   0.154225  -0.035055   0.228603
     29       0.151442  -0.004919   0.075115   0.016568  -0.015115   0.039789
     30       0.000161  -0.097306  -0.000430  -0.028068  -0.198334  -0.112344
     31       0.005164  -0.080581  -0.009259  -0.084646   0.045036   0.042640
     32      -0.036336  -0.011646   0.061834  -0.012430   0.005692   0.005647
     33      -0.324195   0.119068   0.309030   0.180624  -0.357824  -0.222197
     34       0.015050   0.141780  -0.017809   0.151236  -0.083660  -0.036085
     35       0.134395   0.055165  -0.103177   0.067535  -0.018623  -0.006885
     36      -0.000446  -0.585291  -0.002277  -0.475033  -0.099768  -0.028179
     37      -0.022982   0.117872   0.024934   0.100929  -0.004384   0.005452
     38       0.162539   0.015050  -0.172119   0.014072  -0.000536   0.000766
     39       0.323429   0.119301  -0.306426   0.184837  -0.357444  -0.222050
     40      -0.051976   0.151858   0.047821   0.163675  -0.085369  -0.036387
     41       0.127150  -0.012967  -0.096513  -0.020683  -0.007353  -0.004772
                 18         19         20         21         22         23    
      0      -0.020408   0.000296   0.000220   0.004696  -0.000170  -0.069092
      1       0.107879   0.014814   0.011910  -0.060155  -0.004806   0.024811
      2       0.015038  -0.105802  -0.083886  -0.008589   0.034055   0.003269
      3       0.079321  -0.000475  -0.000323   0.081043  -0.000076  -0.078524
      4      -0.193398  -0.021504  -0.009222   0.083466  -0.005923  -0.057860
      5      -0.026763   0.154066   0.064716   0.012069   0.042763  -0.008367
      6      -0.246346   0.299576   0.191977  -0.016507  -0.094512   0.292276
      7      -0.204669  -0.093755  -0.083956   0.091844   0.012317  -0.028296
      8       0.041827   0.076306   0.044709  -0.069217  -0.009205   0.164201
      9       0.294799  -0.001100  -0.000161  -0.235978   0.000160   0.332196
     10      -0.034762  -0.030255  -0.023467   0.037829   0.002992  -0.130318
     11      -0.003605   0.213934   0.165030   0.004732  -0.021576  -0.017276
     12      -0.246401  -0.299543  -0.191998  -0.017658   0.094684   0.293494
     13      -0.184349   0.069646   0.068263   0.069166  -0.009243   0.018066
     14      -0.098090   0.097432   0.064547   0.091993  -0.011634  -0.163681
     15      -0.057980   0.192316   0.408025  -0.374883  -0.356504   0.219909
     16      -0.263656  -0.229191   0.136783  -0.237124  -0.328815   0.130250
     17      -0.024017  -0.123045  -0.003192  -0.041016  -0.060683   0.013596
     18      -0.079321   0.000475  -0.000323   0.081043   0.000077   0.078524
     19       0.193398   0.021504  -0.009222   0.083466   0.005923   0.057860
     20       0.026763  -0.154066   0.064716   0.012069  -0.042763   0.008366
     21      -0.057765  -0.191529  -0.406614  -0.376603   0.356723   0.219817
     22      -0.259370   0.254544  -0.129660  -0.239478   0.332898   0.128589
     23      -0.049731  -0.056085  -0.042672  -0.027965   0.033972   0.023922
     24       0.057764   0.191529  -0.406614  -0.376600  -0.356725  -0.219817
     25       0.259370  -0.254544  -0.129659  -0.239476  -0.332900  -0.128588
     26       0.049731   0.056084  -0.042672  -0.027964  -0.033972  -0.023921
     27       0.057980  -0.192315   0.408023  -0.374885   0.356502  -0.219909
     28       0.263656   0.229191   0.136782  -0.237126   0.328814  -0.130251
     29       0.024017   0.123046  -0.003193  -0.041016   0.060683  -0.013595
     30       0.020408  -0.000296   0.000220   0.004696   0.000170   0.069092
     31      -0.107879  -0.014814   0.011910  -0.060155   0.004806  -0.024811
     32      -0.015038   0.105802  -0.083886  -0.008589  -0.034055  -0.003270
     33       0.246404   0.299541  -0.191997  -0.017657  -0.094686  -0.293493
     34       0.184347  -0.069647   0.068263   0.069165   0.009243  -0.018068
     35       0.098090  -0.097434   0.064549   0.091993   0.011635   0.163682
     36      -0.294799   0.001100  -0.000161  -0.235978  -0.000162  -0.332196
     37       0.034762   0.030257  -0.023468   0.037829  -0.002992   0.130318
     38       0.003604  -0.213934   0.165030   0.004732   0.021577   0.017277
     39       0.246344  -0.299578   0.191977  -0.016509   0.094511  -0.292276
     40       0.204670   0.093754  -0.083956   0.091845  -0.012317   0.028298
     41      -0.041827  -0.076304   0.044707  -0.069216   0.009204  -0.164200
                 24         25         26         27         28         29    
      0      -0.112120   0.102872  -0.002433   0.004664  -0.000150   0.000132
      1      -0.011975   0.023682   0.003232  -0.023735  -0.004596   0.003902
      2      -0.002023   0.003677   0.000407  -0.003291   0.032796  -0.028231
      3       0.030469  -0.131942   0.032609  -0.030467   0.000014   0.000041
      4       0.013670  -0.065607  -0.038035   0.016055  -0.002829   0.002304
      5       0.001980  -0.009532  -0.005237   0.002181   0.019968  -0.016667
      6       0.364254  -0.248608   0.038285  -0.109833   0.236346  -0.244289
      7       0.100602  -0.147247  -0.077206   0.295777   0.264915  -0.259794
      8       0.140950  -0.066383   0.048337  -0.174949   0.007200  -0.008871
      9       0.344735  -0.235927  -0.048770   0.200734   0.001434  -0.001050
     10      -0.182739   0.149439   0.016176  -0.089355   0.069282  -0.068521
     11      -0.024670   0.020210   0.002572  -0.012767  -0.489348   0.482696
     12       0.365267  -0.249077   0.039092  -0.112087  -0.235779   0.243413
     13       0.135264  -0.159688  -0.060352   0.235022  -0.256985   0.253301
     14      -0.105225   0.021351  -0.067428   0.249083  -0.068780   0.066617
     15      -0.050781   0.252519  -0.228170   0.164901   0.017316  -0.054880
     16      -0.036996   0.203716   0.259172  -0.148313  -0.023132  -0.006034
     17      -0.003086   0.031357   0.344078  -0.213760  -0.006373  -0.003665
     18       0.030461   0.131945  -0.032609  -0.030467  -0.000014   0.000041
     19       0.013666   0.065608   0.038035   0.016055   0.002830   0.002304
     20       0.001979   0.009532   0.005238   0.002181  -0.019968  -0.016667
     21      -0.050537   0.252757  -0.226698   0.163747  -0.017748   0.054734
     22      -0.036328   0.204538   0.343941  -0.201618   0.024322   0.007107
     23      -0.007448   0.027246  -0.260786   0.165624  -0.000226  -0.001789
     24      -0.050521  -0.252761   0.226698   0.163747   0.017748   0.054736
     25      -0.036315  -0.204541  -0.343942  -0.201618  -0.024323   0.007104
     26      -0.007446  -0.027246   0.260785   0.165622   0.000226  -0.001787
     27      -0.050764  -0.252525   0.228170   0.164900  -0.017316  -0.054878
     28      -0.036982  -0.203720  -0.259171  -0.148312   0.023131  -0.006037
     29      -0.003084  -0.031357  -0.344080  -0.213760   0.006372  -0.003668
     30      -0.112113  -0.102881   0.002433   0.004664   0.000150   0.000132
     31      -0.011973  -0.023683  -0.003232  -0.023735   0.004597   0.003902
     32      -0.002023  -0.003676  -0.000407  -0.003291  -0.032795  -0.028231
     33       0.365251   0.249108  -0.039095  -0.112087   0.235777   0.243414
     34       0.135255   0.159699   0.060349   0.235019   0.256983   0.253305
     35      -0.105224  -0.021359   0.067428   0.249085   0.068781   0.066621
     36       0.344720   0.235956   0.048771   0.200734  -0.001432  -0.001047
     37      -0.182729  -0.149454  -0.016175  -0.089355  -0.069286  -0.068526
     38      -0.024671  -0.020215  -0.002578  -0.012770   0.489344   0.482700
     39       0.364239   0.248638  -0.038283  -0.109833  -0.236344  -0.244292
     40       0.100592   0.147255   0.077210   0.295779  -0.264912  -0.259793
     41       0.140946   0.066395  -0.048337  -0.174946  -0.007201  -0.008874
                 30         31         32         33         34         35    
      0       0.001920   0.000215   0.002612   0.007416  -0.034620   0.005120
      1      -0.028378  -0.023361  -0.004567  -0.006205   0.006310   0.000424
      2      -0.003978  -0.003260  -0.000641  -0.000777   0.000688  -0.011326
      3      -0.012441   0.027647  -0.026890  -0.027733  -0.004886   0.000023
      4      -0.046139  -0.048410   0.039130   0.038670   0.008518  -0.009060
      5      -0.006493  -0.006672   0.005384   0.005270   0.001227   0.061723
      6      -0.134067  -0.098778  -0.017690  -0.034763   0.145923  -0.055146
      7       0.359899   0.233097   0.013827   0.036912  -0.149084   0.055855
      8      -0.211481  -0.144122   0.040396   0.093732  -0.369812   0.132854
      9       0.270491   0.147985   0.002437  -0.009236   0.119135  -0.016947
     10      -0.122684  -0.075039   0.016225  -0.024279   0.316792  -0.044426
     11      -0.016923  -0.011016   0.002293  -0.003425   0.045173  -0.009313
     12      -0.136318  -0.100939  -0.017414  -0.034581   0.144080   0.012048
     13       0.286901   0.183225   0.024456   0.062158  -0.246601  -0.017441
     14       0.301908   0.202175  -0.035043  -0.080905   0.315942   0.019069
     15       0.015412  -0.140635   0.161647   0.159481   0.030452  -0.168697
     16       0.074187   0.222200  -0.291915  -0.286137  -0.060121   0.298138
     17       0.079354   0.283497   0.368046   0.360894   0.074301  -0.348996
     18       0.012441   0.027647   0.026890  -0.027732  -0.004886  -0.000021
     19       0.046139  -0.048410  -0.039130   0.038669   0.008522   0.009056
     20       0.006493  -0.006672  -0.005384   0.005269   0.001206  -0.061724
     21       0.015703  -0.139622   0.163651   0.161193   0.031144   0.167528
     22       0.093156   0.291720  -0.179337  -0.175488  -0.037667  -0.187639
     23      -0.055808  -0.212192  -0.432892  -0.423840  -0.088426  -0.408153
     24      -0.015703  -0.139623  -0.163651   0.161187   0.031090  -0.167542
     25      -0.093156   0.291720   0.179338  -0.175481  -0.037606   0.187657
     26       0.055808  -0.212191   0.432897  -0.423827  -0.088295   0.408198
     27      -0.015412  -0.140634  -0.161652   0.159483   0.030512   0.168685
     28      -0.074186   0.222199   0.291922  -0.286138  -0.060225  -0.298112
     29      -0.079354   0.283498  -0.368053   0.360893   0.074424   0.348962
     30      -0.001920   0.000215  -0.002612   0.007416  -0.034629  -0.005107
     31       0.028378  -0.023361   0.004568  -0.006205   0.006311  -0.000426
     32       0.003979  -0.003260   0.000641  -0.000777   0.000692   0.011325
     33       0.136318  -0.100938   0.017415  -0.034582   0.144109  -0.012103
     34      -0.286897   0.183224  -0.024457   0.062160  -0.246653   0.017536
     35      -0.301911   0.202177   0.035044  -0.080906   0.316004  -0.019190
     36      -0.270491   0.147985  -0.002437  -0.009236   0.119166   0.016901
     37       0.122684  -0.075039  -0.016225  -0.024280   0.316873   0.044303
     38       0.016927  -0.011016  -0.002293  -0.003425   0.045188   0.009296
     39       0.134066  -0.098779   0.017690  -0.034762   0.145973   0.055090
     40      -0.359902   0.233098  -0.013827   0.036910  -0.149133  -0.055797
     41       0.211478  -0.144120  -0.040397   0.093731  -0.369940  -0.132714
                 36         37         38         39         40         41    
      0      -0.034978   0.000112   0.000330   0.000300   0.005864   0.005408
      1       0.008253   0.002635   0.009519   0.009206   0.063714   0.063745
      2      -0.000625  -0.018255  -0.063378  -0.061511   0.009605   0.009559
      3      -0.001418  -0.000210   0.000019   0.000012  -0.002305  -0.002454
      4       0.001675  -0.008749   0.001815   0.002748   0.003816   0.003474
      5       0.008852   0.062767  -0.012749  -0.019223   0.000634   0.000569
      6       0.143074  -0.048299  -0.175625  -0.173176   0.085566   0.087799
      7      -0.147887   0.054134   0.179724   0.174633  -0.071313  -0.072382
      8      -0.366858   0.123013   0.418179   0.407422  -0.207735  -0.211210
      9       0.116610  -0.000355  -0.002215  -0.001954  -0.231917  -0.230073
     10       0.308315   0.000069  -0.003530  -0.003033  -0.571008  -0.567770
     11       0.043558  -0.007475  -0.015691  -0.014560  -0.081374  -0.080924
     12       0.150449   0.047339   0.173981   0.171636   0.081158   0.083593
     13      -0.259619  -0.085741  -0.290032  -0.282203  -0.120988  -0.123388
     14       0.331700   0.103081   0.355241   0.346330   0.174086   0.177643
     15      -0.011321  -0.161503   0.033827   0.047425   0.012207   0.011451
     16       0.021086   0.290732  -0.052915  -0.086897  -0.018030  -0.022523
     17      -0.021006  -0.340922   0.066831   0.102050   0.023084   0.026373
     18       0.001417  -0.000210  -0.000019   0.000012   0.002306  -0.002453
     19      -0.001674  -0.008749  -0.001816   0.002748  -0.003817   0.003473
     20      -0.008852   0.062766   0.012752  -0.019220  -0.000634   0.000569
     21       0.034863   0.163981  -0.034088  -0.047649   0.012886   0.012026
     22      -0.037301  -0.186339   0.032407   0.055065  -0.011523  -0.014898
     23      -0.086997  -0.408079   0.078390   0.120761  -0.028349  -0.032561
     24      -0.034857   0.163980   0.034097  -0.047643  -0.012890   0.012023
     25       0.037293  -0.186339  -0.032417   0.055059   0.011528  -0.014895
     26       0.086980  -0.408080  -0.078413   0.120746   0.028360  -0.032554
     27       0.011327  -0.161502  -0.033836   0.047419  -0.012210   0.011448
     28      -0.021098   0.290729   0.052932  -0.086887   0.018034  -0.022518
     29       0.021021  -0.340917  -0.066850   0.102037  -0.023090   0.026366
     30       0.034970   0.000112  -0.000330   0.000300  -0.005866   0.005407
     31      -0.008251   0.002635  -0.009522   0.009205  -0.063731   0.063728
     32       0.000625  -0.018255   0.063389  -0.061500  -0.009609   0.009557
     33      -0.150420   0.047339  -0.174015   0.171605  -0.081180   0.083570
     34       0.259570  -0.085741   0.290087  -0.282153   0.121020  -0.123355
     35      -0.331630   0.103079  -0.355303   0.346262  -0.174130   0.177593
     36      -0.116584  -0.000355   0.002217  -0.001956   0.231979  -0.230010
     37      -0.308246   0.000070   0.003534  -0.003038   0.571161  -0.567615
     38      -0.043551  -0.007475   0.015694  -0.014558   0.081400  -0.080906
     39      -0.143041  -0.048299   0.175656  -0.173142  -0.085591   0.087776
     40       0.147852   0.054134  -0.179752   0.174596   0.071333  -0.072362
     41       0.366779   0.123014  -0.418256   0.407345   0.207796  -0.211157
# -----------------------------------------------------------
$ THERMOCHEMISTRY_Energies
   description: The Thermochemistry energies
   geom. index: 6
   prop. index: 1
        Temperature (Kelvin)           :        298.1500000000
        Pressure (atm)                 :          1.0000000000
        Total Mass (AMU)               :         58.1240000000
        Spin Degeneracy                :          1.0000000000
        Electronic Energy (Hartree)    :       -156.9837427016
        Translational Energy (Hartree) :          0.0014162714
        Rotational Energy (Hartree)    :          0.0014162714
        Vibrational Energy (Hartree)   :          0.0030757662
        Number of frequencies          :     42      
        Scaling Factor for frequencies :          1.0000000000
        Vibrational frequencies        :     
                  0    
      0       0.000000
      1       0.000000
      2       0.000000
      3       0.000000
      4       0.000000
      5       0.000000
      6     121.490476
      7     214.114463
      8     245.819401
      9     254.051674
     10     418.632532
     11     707.972046
     12     772.442685
     13     836.471945
     14     915.426208
     15     934.428368
     16     1034.465041
     17     1078.362674
     18     1137.136620
     19     1151.990574
     20     1223.454511
     21     1253.159095
     22     1265.730276
     23     1328.800143
     24     1335.153287
     25     1335.625978
     26     1400.329661
     27     1404.618493
     28     1412.369935
     29     1414.309797
     30     1421.991708
     31     1428.658711
     32     2919.143871
     33     2930.626160
     34     2944.729072
     35     2944.870943
     36     2945.279217
     37     2970.785993
     38     3014.373739
     39     3015.168000
     40     3030.019697
     41     3030.389193
        Zero Point Energy (Hartree)    :          0.1271044219
        Inner Energy (Hartree)         :       -156.8507299707
        Enthalpy (Hartree)             :       -156.8497857617
        Electronic entropy             :          0.0000000000
        Rotational entropy             :          0.0116272303
        Vibrational entropy            :          0.0051412072
        Translational entropy          :          0.0116272303
        Entropy                        :          0.0348712227
        Gibbs Energy (Hartree)         :       -156.8846569844
        Is Linear                      :                 false
# -------------------------------------------------------------
----------------------- !GEOMETRIES! ------------------------
# -------------------------------------------------------------
------------------------ !GEOMETRY! -------------------------
    Number of atoms:    14 
    Geometry Index:     1 
    Coordinates:
               0 C     -1.265080000000    0.193850000000   -0.025430000000
               1 C      0.255200000000    0.179570000000   -0.022990000000
               2 H     -1.655350000000    0.575980000000    0.923260000000
               3 H     -1.653420000000   -0.819310000000   -0.169030000000
               4 H     -1.650210000000    0.823100000000   -0.834170000000
               5 H      0.607390000000   -0.483440000000    0.775850000000
               6 C      0.827700000000    1.581540000000    0.175840000000
               7 H      0.612500000000   -0.237690000000   -0.971680000000
               8 H      0.470410000000    1.998790000000    1.124540000000
               9 H      0.475480000000    2.244560000000   -0.622990000000
              10 C      2.347970000000    1.567260000000    0.178250000000
              11 H      2.733130000000    0.937990000000    0.986960000000
              12 H      2.736320000000    2.580420000000    0.321870000000
              13 H      2.738230000000    1.185160000000   -0.770460000000
------------------------ !GEOMETRY! -------------------------
    Number of atoms:    14 
    Geometry Index:     2 
    Coordinates:
               0 C     -1.263755634725    0.192409196435   -0.025568918160
               1 C      0.252325363528    0.187761632784   -0.021767416498
               2 H     -1.658273927906    0.578960070552    0.926974118828
               3 H     -1.661739517103   -0.823643297866   -0.169780607736
               4 H     -1.652861448728    0.827183160623   -0.836784594719
               5 H      0.615945091820   -0.477368646516    0.780335984384
               6 C      0.830572040960    1.573347746008    0.174613633427
               7 H      0.620947966863   -0.230719652139   -0.974129880751
               8 H      0.461958539884    1.991820705892    1.126983680377
               9 H      0.466930021418    2.238482550377   -0.627477361048
              10 C      2.346648361091    1.568703205713    0.178390017460
              11 H      2.735778141963    0.933912097833    0.989581065819
              12 H      2.744637579175    2.584752358457    0.322618624923
              13 H      2.741157421759    1.182178871846   -0.774168346305
------------------------ !GEOMETRY! -------------------------
    Number of atoms:    14 
    Geometry Index:     3 
    Coordinates:
               0 C     -1.261132414318    0.190282460407   -0.025784018513
               1 C      0.249370297167    0.192949843271   -0.020942075100
               2 H     -1.658708837039    0.580266087839    0.926408209345
               3 H     -1.668487594130   -0.823008216814   -0.169898455114
               4 H     -1.652976804296    0.828585095688   -0.835625654520
               5 H      0.622625408006   -0.473521518643    0.779617404282
               6 C      0.833525391114    1.568159410239    0.173783304393
               7 H      0.627490301943   -0.227408962955   -0.972119861307
               8 H      0.455412906270    1.988512641088    1.124966478855
               9 H      0.460256988197    2.234632878550   -0.626767062981
              10 C      2.344027362668    1.570830719503    0.178608106488
              11 H      2.735886047023    0.932514649597    0.988432502407
              12 H      2.751384431456    2.584118206333    0.322736087441
              13 H      2.741596515938    1.180866705896   -0.773594965675
------------------------ !GEOMETRY! -------------------------
    Number of atoms:    14 
    Geometry Index:     4 
    Coordinates:
               0 C     -1.259822846768    0.189155791796   -0.025895920441
               1 C      0.248553508858    0.193035725645   -0.020866813394
               2 H     -1.658549925016    0.580487858407    0.925147612968
               3 H     -1.671435307639   -0.821723949455   -0.169867564954
               4 H     -1.652659589910    0.828671637916   -0.834166570943
               5 H      0.625220141599   -0.474156839078    0.777577145117
               6 C      0.834342026034    1.568074112672    0.173704861071
               7 H      0.630003179854   -0.228747540440   -0.970161096580
               8 H      0.452898384365    1.989853711327    1.123003123844
               9 H      0.457667218608    2.235268261364   -0.624733284519
              10 C      2.342718342104    1.571956949964    0.178722295641
              11 H      2.735563480372    0.932430401980    0.986980558217
              12 H      2.754331522380    2.582834506761    0.322705025694
              13 H      2.741439865161    1.180639371141   -0.772329371721
------------------------ !GEOMETRY! -------------------------
    Number of atoms:    14 
    Geometry Index:     5 
    Coordinates:
               0 C     -1.258851271210    0.188739781277   -0.025916831209
               1 C      0.248704591891    0.192237370973   -0.020917196050
               2 H     -1.658319919357    0.580772478753    0.924239188149
               3 H     -1.673064344871   -0.820618016264   -0.169866485291
               4 H     -1.652312268785    0.828918182746   -0.833026273699
               5 H      0.627192353275   -0.475225433236    0.775965979553
               6 C      0.834191053344    1.568873278210    0.173752481111
               7 H      0.631906763793   -0.230402913992   -0.968732502042
               8 H      0.450993090321    1.991511523114    1.121570369327
               9 H      0.455699049481    2.236337287853   -0.623127695366
              10 C      2.341746940254    1.572372274971    0.178745276678
              11 H      2.735211898713    0.932186072769    0.985846665126
              12 H      2.755960158762    2.581728795935    0.322703312576
              13 H      2.741211904388    1.180349316891   -0.771416288863
------------------------ !GEOMETRY! -------------------------
    Number of atoms:    14 
    Geometry Index:     6 
    Coordinates:
               0 C     -1.258610649569    0.188854529416   -0.025886254675
               1 C      0.249027008348    0.191927960925   -0.020931081914
               2 H     -1.658234851698    0.580902492121    0.924156943662
               3 H     -1.673220374824   -0.820364876573   -0.169909502640
               4 H     -1.652184374349    0.829133225128   -0.832814936394
               5 H      0.627739310697   -0.475410359757    0.775796221920
               6 C      0.833868687510    1.569182997064    0.173765475024
               7 H      0.632432707629   -0.230724874822   -0.968531260237
               8 H      0.450466276464    1.991834299136    1.121367652733
               9 H      0.455153237796    2.236522296663   -0.622959586455
              10 C      2.341506322517    1.572257264781    0.178715395292
              11 H      2.735082969453    0.931972157075    0.985637610809
              12 H      2.756116102149    2.581475667394    0.322745611839
              13 H      2.741127627878    1.180217221450   -0.771332288965
