-------------------------------------------------------------
----------------------- !PROPERTIES! ------------------------
-------------------------------------------------------------
# -----------------------------------------------------------
$ SCF_Energy
   description: The SCF energy
   geom. index: 1
   prop. index: 1
        SCF Energy:     -156.9801775819
# -----------------------------------------------------------
$ DFT_Energy
   description: The DFT energy
   geom. index: 1
   prop. index: 1
   Number of Alpha Electrons        17.0000734660 
   Number of Alpha Electrons        17.0000734660 
   Total nuber of  Electrons        34.0001469320 
   Exchange energy                 -21.7386173554 
   Correlation energy               -2.0842194019 
   Correlantion energy NL            0.0000000000 
   Exchange-Correlation energy     -23.8228367572 
   Embedding correction              0.0000000000 
# -----------------------------------------------------------
$ SCF_Energy
   description: The SCF energy
   geom. index: 2
   prop. index: 1
        SCF Energy:     -156.9811514860
# -----------------------------------------------------------
$ DFT_Energy
   description: The DFT energy
   geom. index: 2
   prop. index: 1
   Number of Alpha Electrons        17.0000744306 
   Number of Alpha Electrons        17.0000744306 
   Total nuber of  Electrons        34.0001488613 
   Exchange energy                 -21.7223820452 
   Correlation energy               -2.0831932544 
   Correlantion energy NL            0.0000000000 
   Exchange-Correlation energy     -23.8055752996 
   Embedding correction              0.0000000000 
# -----------------------------------------------------------
$ SCF_Energy
   description: The SCF energy
   geom. index: 3
   prop. index: 1
        SCF Energy:     -156.9813755843
# -----------------------------------------------------------
$ DFT_Energy
   description: The DFT energy
   geom. index: 3
   prop. index: 1
   Number of Alpha Electrons        17.0000723718 
   Number of Alpha Electrons        17.0000723718 
   Total nuber of  Electrons        34.0001447436 
   Exchange energy                 -21.7221246471 
   Correlation energy               -2.0831573766 
   Correlantion energy NL            0.0000000000 
   Exchange-Correlation energy     -23.8052820237 
   Embedding correction              0.0000000000 
# -----------------------------------------------------------
$ SCF_Energy
   description: The SCF energy
   geom. index: 4
   prop. index: 1
        SCF Energy:     -156.9814097070
# -----------------------------------------------------------
$ DFT_Energy
   description: The DFT energy
   geom. index: 4
   prop. index: 1
   Number of Alpha Electrons        17.0000704445 
   Number of Alpha Electrons        17.0000704445 
   Total nuber of  Electrons        34.0001408890 
   Exchange energy                 -21.7240151887 
   Correlation energy               -2.0832708089 
   Correlantion energy NL            0.0000000000 
   Exchange-Correlation energy     -23.8072859976 
   Embedding correction              0.0000000000 
# -----------------------------------------------------------
$ SCF_Energy
   description: The SCF energy
   geom. index: 5
   prop. index: 1
        SCF Energy:     -156.9814182551
# -----------------------------------------------------------
$ DFT_Energy
   description: The DFT energy
   geom. index: 5
   prop. index: 1
   Number of Alpha Electrons        17.0000689436 
   Number of Alpha Electrons        17.0000689436 
   Total nuber of  Electrons        34.0001378873 
   Exchange energy                 -21.7251331252 
   Correlation energy               -2.0833409564 
   Correlantion energy NL            0.0000000000 
   Exchange-Correlation energy     -23.8084740816 
   Embedding correction              0.0000000000 
# -----------------------------------------------------------
$ SCF_Energy
   description: The SCF energy
   geom. index: 6
   prop. index: 1
        SCF Energy:     -156.9814188784
# -----------------------------------------------------------
$ DFT_Energy
   description: The DFT energy
   geom. index: 6
   prop. index: 1
   Number of Alpha Electrons        17.0000685838 
   Number of Alpha Electrons        17.0000685838 
   Total nuber of  Electrons        34.0001371677 
   Exchange energy                 -21.7251275352 
   Correlation energy               -2.0833416797 
   Correlantion energy NL            0.0000000000 
   Exchange-Correlation energy     -23.8084692148 
   Embedding correction              0.0000000000 
# -----------------------------------------------------------
$ SCF_Electric_Properties
   description: The SCF Calculated Electric Properties
   geom. index: 6
   prop. index: 1
       Filename                          : butane_VWN5_def2-TZVP.scfp 
       Do Dipole Moment Calculation      : true 
       Do Quadrupole Moment Calculation  : false 
       Do Polarizability Calculation     : false 
** Dipole moment part of electric properties **
        Magnitude of dipole moment (Debye) :        0.0000003359
        Electronic Contribution:
                  0    
      0      -0.000000
      1      -0.000000
      2       0.000002
        Nuclear Contribution:
                  0    
      0       0.000000
      1       0.000000
      2      -0.000002
        Total Dipole moment:
                  0    
      0       0.000000
      1      -0.000000
      2       0.000000
# -----------------------------------------------------------
$ Hessian
   description: Details about the Hessian
   geom. index: 6
   prop. index: 1
Normal modes:
Number of Rows: 42 Number of Columns: 42
                  0          1          2          3          4          5    
      0       0.000000   0.000000   0.000000   0.000000   0.000000   0.000000
      1       0.000000   0.000000   0.000000   0.000000   0.000000   0.000000
      2       0.000000   0.000000   0.000000   0.000000   0.000000   0.000000
      3       0.000000   0.000000   0.000000   0.000000   0.000000   0.000000
      4       0.000000   0.000000   0.000000   0.000000   0.000000   0.000000
      5       0.000000   0.000000   0.000000   0.000000   0.000000   0.000000
      6       0.000000   0.000000   0.000000   0.000000   0.000000   0.000000
      7       0.000000   0.000000   0.000000   0.000000   0.000000   0.000000
      8       0.000000   0.000000   0.000000   0.000000   0.000000   0.000000
      9       0.000000   0.000000   0.000000   0.000000   0.000000   0.000000
     10       0.000000   0.000000   0.000000   0.000000   0.000000   0.000000
     11       0.000000   0.000000   0.000000   0.000000   0.000000   0.000000
     12       0.000000   0.000000   0.000000   0.000000   0.000000   0.000000
     13       0.000000   0.000000   0.000000   0.000000   0.000000   0.000000
     14       0.000000   0.000000   0.000000   0.000000   0.000000   0.000000
     15       0.000000   0.000000   0.000000   0.000000   0.000000   0.000000
     16       0.000000   0.000000   0.000000   0.000000   0.000000   0.000000
     17       0.000000   0.000000   0.000000   0.000000   0.000000   0.000000
     18       0.000000   0.000000   0.000000   0.000000   0.000000   0.000000
     19       0.000000   0.000000   0.000000   0.000000   0.000000   0.000000
     20       0.000000   0.000000   0.000000   0.000000   0.000000   0.000000
     21       0.000000   0.000000   0.000000   0.000000   0.000000   0.000000
     22       0.000000   0.000000   0.000000   0.000000   0.000000   0.000000
     23       0.000000   0.000000   0.000000   0.000000   0.000000   0.000000
     24       0.000000   0.000000   0.000000   0.000000   0.000000   0.000000
     25       0.000000   0.000000   0.000000   0.000000   0.000000   0.000000
     26       0.000000   0.000000   0.000000   0.000000   0.000000   0.000000
     27       0.000000   0.000000   0.000000   0.000000   0.000000   0.000000
     28       0.000000   0.000000   0.000000   0.000000   0.000000   0.000000
     29       0.000000   0.000000   0.000000   0.000000   0.000000   0.000000
     30       0.000000   0.000000   0.000000   0.000000   0.000000   0.000000
     31       0.000000   0.000000   0.000000   0.000000   0.000000   0.000000
     32       0.000000   0.000000   0.000000   0.000000   0.000000   0.000000
     33       0.000000   0.000000   0.000000   0.000000   0.000000   0.000000
     34       0.000000   0.000000   0.000000   0.000000   0.000000   0.000000
     35       0.000000   0.000000   0.000000   0.000000   0.000000   0.000000
     36       0.000000   0.000000   0.000000   0.000000   0.000000   0.000000
     37       0.000000   0.000000   0.000000   0.000000   0.000000   0.000000
     38       0.000000   0.000000   0.000000   0.000000   0.000000   0.000000
     39       0.000000   0.000000   0.000000   0.000000   0.000000   0.000000
     40       0.000000   0.000000   0.000000   0.000000   0.000000   0.000000
     41       0.000000   0.000000   0.000000   0.000000   0.000000   0.000000
                  6          7          8          9         10         11    
      0      -0.000395  -0.000080  -0.002546  -0.000007   0.198511  -0.000036
      1      -0.018892  -0.004900  -0.146315   0.000489   0.100076  -0.001381
      2       0.135203   0.028917  -0.020806  -0.003582   0.014608   0.009745
      3       0.000453   0.000051  -0.008634   0.000166   0.144808  -0.000153
      4       0.020721   0.006161   0.176658   0.009986  -0.034731  -0.007202
      5      -0.148422  -0.036465   0.025126  -0.070964  -0.004490   0.051315
      6       0.178126   0.055765  -0.151029   0.054491   0.324559  -0.173612
      7      -0.179049   0.360902  -0.270737   0.342019   0.211046   0.054459
      8       0.276159  -0.097096  -0.032887  -0.120189   0.022838  -0.088171
      9      -0.000497   0.000304   0.282486  -0.001107  -0.037714   0.000286
     10      -0.007949  -0.064795  -0.261449  -0.055039   0.197753   0.008591
     11       0.058697   0.447953  -0.041284   0.389169   0.027849  -0.061091
     12      -0.179631  -0.056660  -0.150293  -0.053655   0.324592   0.174161
     13       0.096479  -0.323018  -0.261212  -0.295570   0.208471  -0.028151
     14       0.313844  -0.194005  -0.038736  -0.210518   0.037874  -0.098659
     15       0.153387   0.028262   0.075774   0.039261   0.205533   0.177298
     16      -0.018190   0.028991   0.216887  -0.081398   0.024950  -0.303658
     17      -0.252555  -0.030201   0.021302  -0.165931   0.014979  -0.286730
     18       0.000453   0.000051  -0.008634  -0.000166  -0.144808  -0.000153
     19       0.020721   0.006161   0.176659  -0.009976   0.034731  -0.007202
     20      -0.148422  -0.036464   0.025119   0.070966   0.004489   0.051315
     21      -0.152075  -0.027320   0.076276  -0.038544   0.205653  -0.175882
     22       0.086908  -0.017103   0.214948   0.123990   0.028002   0.371031
     23      -0.238640  -0.036716   0.040187  -0.137318  -0.006437  -0.192920
     24      -0.152075  -0.027320   0.076272   0.038549  -0.205654  -0.175883
     25       0.086908  -0.017104   0.214960  -0.123978  -0.028001   0.371031
     26      -0.238639  -0.036715   0.040174   0.137320   0.006436  -0.192919
     27       0.153386   0.028261   0.075778  -0.039256  -0.205532   0.177297
     28      -0.018190   0.028991   0.216880   0.081409  -0.024951  -0.303658
     29      -0.252556  -0.030200   0.021286   0.165933  -0.014981  -0.286731
     30      -0.000394  -0.000080  -0.002546   0.000007  -0.198511  -0.000036
     31      -0.018892  -0.004900  -0.146315  -0.000497  -0.100076  -0.001381
     32       0.135203   0.028917  -0.020806   0.003580  -0.014608   0.009745
     33      -0.179628  -0.056660  -0.150300   0.053647  -0.324594   0.174160
     34       0.096478  -0.323014  -0.261244   0.295556  -0.208471  -0.028151
     35       0.313846  -0.194006  -0.038759   0.210519  -0.037873  -0.098660
     36      -0.000499   0.000305   0.282486   0.001121   0.037714   0.000286
     37      -0.007948  -0.064797  -0.261454   0.055028  -0.197753   0.008591
     38       0.058698   0.447950  -0.041242  -0.389174  -0.027849  -0.061090
     39       0.178128   0.055765  -0.151022  -0.054499  -0.324558  -0.173611
     40      -0.179049   0.360901  -0.270700  -0.342037  -0.211046   0.054459
     41       0.276157  -0.097092  -0.032900   0.120185  -0.022837  -0.088170
                 12         13         14         15         16         17    
      0      -0.000138   0.096954  -0.000360  -0.027641  -0.198263   0.112236
      1      -0.005123   0.080589  -0.009020  -0.084888   0.044296  -0.043127
      2       0.036234   0.011632   0.061806  -0.012277   0.005597  -0.005713
      3      -0.000147  -0.025927   0.000182   0.002096   0.224616  -0.140750
      4      -0.008695   0.139152   0.005279   0.023901  -0.024107  -0.069736
      5       0.061650   0.019497  -0.036904   0.003524  -0.002702  -0.010155
      6      -0.323441  -0.120140  -0.307167   0.185886  -0.355966   0.223254
      7       0.051630  -0.152309   0.046855   0.164547  -0.084265   0.037332
      8      -0.127229   0.012752  -0.096590  -0.020592  -0.007576   0.004706
      9       0.000508   0.584867  -0.001076  -0.474240  -0.103738   0.028023
     10       0.022843  -0.117270   0.024511   0.100162  -0.003399  -0.005956
     11      -0.161785  -0.014859  -0.171247   0.013390  -0.000473  -0.000830
     12       0.324193  -0.119988   0.308815   0.183310  -0.356423   0.223438
     13      -0.014766  -0.142381  -0.017628   0.152113  -0.082697   0.036968
     14      -0.134419  -0.055031  -0.103308   0.067125  -0.018001   0.007155
     15       0.279017  -0.099386   0.226263   0.203837   0.250853  -0.354787
     16      -0.099396   0.077850   0.264764   0.154660  -0.033798  -0.226810
     17      -0.151484   0.005288   0.075623   0.016688  -0.015350  -0.039596
     18       0.000147   0.025927   0.000182   0.002096   0.224615   0.140751
     19       0.008695  -0.139152   0.005280   0.023901  -0.024107   0.069736
     20      -0.061650  -0.019497  -0.036904   0.003524  -0.002702   0.010155
     21      -0.278143  -0.099731  -0.224722   0.205586   0.251270  -0.354475
     22       0.137352   0.076562  -0.273933   0.155230  -0.036405  -0.228218
     23      -0.119696   0.015668  -0.001200   0.027691   0.006897  -0.026286
     24       0.278143   0.099730  -0.224723   0.205585   0.251269   0.354474
     25      -0.137353  -0.076564  -0.273933   0.155229  -0.036403   0.228219
     26       0.119695  -0.015668  -0.001200   0.027690   0.006896   0.026284
     27      -0.279016   0.099387   0.226262   0.203838   0.250851   0.354788
     28       0.099396  -0.077848   0.264764   0.154661  -0.033800   0.226809
     29       0.151486  -0.005287   0.075622   0.016688  -0.015351   0.039594
     30       0.000138  -0.096954  -0.000359  -0.027641  -0.198263  -0.112237
     31       0.005123  -0.080589  -0.009020  -0.084888   0.044296   0.043127
     32      -0.036234  -0.011632   0.061806  -0.012277   0.005598   0.005713
     33      -0.324192   0.119991   0.308813   0.183312  -0.356424  -0.223439
     34       0.014766   0.142380  -0.017629   0.152112  -0.082698  -0.036968
     35       0.134420   0.055031  -0.103310   0.067125  -0.018000  -0.007155
     36      -0.000510  -0.584867  -0.001072  -0.474240  -0.103738  -0.028023
     37      -0.022844   0.117270   0.024511   0.100162  -0.003399   0.005956
     38       0.161785   0.014860  -0.171247   0.013391  -0.000471   0.000831
     39       0.323443   0.120136  -0.307169   0.185884  -0.355965  -0.223254
     40      -0.051630   0.152310   0.046855   0.164547  -0.084265  -0.037332
     41       0.127227  -0.012753  -0.096589  -0.020592  -0.007575  -0.004705
                 18         19         20         21         22         23    
      0      -0.019295   0.000283   0.000219   0.004839  -0.000162  -0.075219
      1       0.107249   0.014944   0.011899  -0.060093  -0.004755   0.023128
      2       0.015081  -0.105939  -0.083845  -0.008581   0.033800   0.003014
      3       0.078158  -0.000417  -0.000314   0.081108  -0.000104  -0.068355
      4      -0.193315  -0.021687  -0.009219   0.083290  -0.005991  -0.052533
      5      -0.026983   0.153858   0.064659   0.012052   0.042965  -0.007608
      6      -0.246172   0.300363   0.191825  -0.017516  -0.093949   0.304754
      7      -0.204907  -0.093601  -0.083926   0.092031   0.012394  -0.017814
      8       0.041201   0.076555   0.044647  -0.069765  -0.009297   0.166815
      9       0.292229  -0.000714  -0.000134  -0.235915   0.000191   0.345054
     10      -0.033427  -0.030187  -0.023437   0.037684   0.002739  -0.138659
     11      -0.003713   0.213529   0.165175   0.004719  -0.019851  -0.018422
     12      -0.245477  -0.300854  -0.191952  -0.018709   0.094102   0.305967
     13      -0.185077   0.069005   0.068302   0.069254  -0.009323   0.028777
     14      -0.097767   0.097373   0.064538   0.092556  -0.011764  -0.163255
     15      -0.061902   0.192965   0.408083  -0.375159  -0.356163   0.201279
     16      -0.264623  -0.228083   0.136682  -0.236594  -0.329163   0.110851
     17      -0.023905  -0.122518  -0.003126  -0.040621  -0.061332   0.007859
     18      -0.078158   0.000417  -0.000314   0.081108   0.000105   0.068355
     19       0.193315   0.021687  -0.009219   0.083290   0.005991   0.052533
     20       0.026983  -0.153858   0.064659   0.012052  -0.042965   0.007608
     21      -0.061322  -0.192308  -0.406690  -0.376814   0.356594   0.201035
     22      -0.260980   0.252847  -0.129555  -0.238786   0.333401   0.108221
     23      -0.050068  -0.055913  -0.042618  -0.028247   0.033577   0.024006
     24       0.061322   0.192309  -0.406691  -0.376811  -0.356596  -0.201035
     25       0.260979  -0.252847  -0.129554  -0.238783  -0.333402  -0.108221
     26       0.050068   0.055912  -0.042617  -0.028245  -0.033576  -0.024005
     27       0.061902  -0.192964   0.408081  -0.375162   0.356161  -0.201279
     28       0.264623   0.228083   0.136682  -0.236596   0.329161  -0.110852
     29       0.023905   0.122519  -0.003127  -0.040621   0.061332  -0.007859
     30       0.019295  -0.000282   0.000219   0.004839   0.000162   0.075219
     31      -0.107249  -0.014944   0.011899  -0.060093   0.004754  -0.023128
     32      -0.015081   0.105939  -0.083845  -0.008581  -0.033800  -0.003014
     33       0.245479   0.300853  -0.191951  -0.018708  -0.094103  -0.305964
     34       0.185075  -0.069006   0.068302   0.069252   0.009323  -0.028778
     35       0.097767  -0.097375   0.064540   0.092556   0.011765   0.163255
     36      -0.292230   0.000715  -0.000135  -0.235915  -0.000193  -0.345052
     37       0.033427   0.030189  -0.023439   0.037684  -0.002739   0.138658
     38       0.003713  -0.213529   0.165175   0.004719   0.019851   0.018423
     39       0.246170  -0.300364   0.191826  -0.017518   0.093948  -0.304753
     40       0.204908   0.093600  -0.083926   0.092032  -0.012394   0.017817
     41      -0.041200  -0.076553   0.044646  -0.069764   0.009296  -0.166813
                 24         25         26         27         28         29    
      0      -0.112084   0.097977  -0.002864   0.005249  -0.000146   0.000112
      1      -0.012024   0.026341   0.003284  -0.023349  -0.004546   0.003916
      2      -0.002031   0.004027   0.000396  -0.003271   0.032897  -0.028282
      3       0.030535  -0.141205   0.031795  -0.031020   0.000052   0.000117
      4       0.013731  -0.071343  -0.038637   0.016603  -0.002752   0.002237
      5       0.001995  -0.010395  -0.005340   0.002232   0.019989  -0.016666
      6       0.362728  -0.222449   0.039862  -0.110764   0.235800  -0.243440
      7       0.102549  -0.154221  -0.076344   0.291845   0.264437  -0.260223
      8       0.140123  -0.050686   0.048838  -0.173897   0.007695  -0.008818
      9       0.346826  -0.211038  -0.046062   0.197656   0.000842  -0.001217
     10      -0.183286   0.140376   0.014961  -0.087723   0.069476  -0.068377
     11      -0.024743   0.019008   0.002695  -0.011784  -0.489831   0.483141
     12       0.363678  -0.222775   0.040931  -0.112217  -0.234671   0.242757
     13       0.136899  -0.162076  -0.059134   0.232424  -0.257863   0.253313
     14      -0.103959   0.004567  -0.067575   0.247123  -0.069304   0.066254
     15      -0.050852   0.276128  -0.225706   0.166683   0.016854  -0.055813
     16      -0.038458   0.216430   0.260613  -0.150958  -0.023341  -0.005850
     17      -0.004129   0.031437   0.344801  -0.217616  -0.006297  -0.002978
     18       0.030532   0.141206  -0.031795  -0.031020  -0.000052   0.000116
     19       0.013729   0.071343   0.038637   0.016603   0.002753   0.002237
     20       0.001995   0.010395   0.005341   0.002232  -0.019989  -0.016667
     21      -0.050662   0.276164  -0.224138   0.165713  -0.017617   0.054989
     22      -0.038029   0.216543   0.345640  -0.205199   0.024536   0.007826
     23      -0.006863   0.030822  -0.260958   0.168556  -0.000151  -0.002006
     24      -0.050656  -0.276165   0.224139   0.165714   0.017616   0.054991
     25      -0.038025  -0.216544  -0.345640  -0.205199  -0.024537   0.007822
     26      -0.006863  -0.030821   0.260957   0.168555   0.000152  -0.002004
     27      -0.050844  -0.276130   0.225707   0.166682  -0.016853  -0.055811
     28      -0.038452  -0.216432  -0.260612  -0.150957   0.023340  -0.005853
     29      -0.004128  -0.031436  -0.344803  -0.217616   0.006296  -0.002981
     30      -0.112083  -0.097980   0.002864   0.005249   0.000146   0.000112
     31      -0.012024  -0.026341  -0.003284  -0.023349   0.004546   0.003916
     32      -0.002031  -0.004027  -0.000396  -0.003271  -0.032896  -0.028283
     33       0.363675   0.222786  -0.040934  -0.112216   0.234668   0.242759
     34       0.136896   0.162080   0.059131   0.232421   0.257859   0.253319
     35      -0.103960  -0.004570   0.067575   0.247124   0.069305   0.066259
     36       0.346824   0.211047   0.046062   0.197656  -0.000840  -0.001214
     37      -0.183284  -0.140381  -0.014960  -0.087723  -0.069479  -0.068382
     38      -0.024746  -0.019012  -0.002700  -0.011787   0.489823   0.483148
     39       0.362725   0.222459  -0.039859  -0.110764  -0.235796  -0.243445
     40       0.102544   0.154224   0.076348   0.291847  -0.264432  -0.260224
     41       0.140122   0.050690  -0.048838  -0.173894  -0.007697  -0.008821
                 30         31         32         33         34         35    
      0       0.002351   0.000297   0.002477   0.007517   0.001496  -0.034677
      1      -0.028167  -0.023590  -0.004470  -0.006270   0.001242   0.006301
      2      -0.003876  -0.003261  -0.000603  -0.000762  -0.011090   0.000688
      3      -0.013369   0.027127  -0.026877  -0.027737  -0.000186  -0.004916
      4      -0.046657  -0.048272   0.039251   0.038706  -0.008772   0.008601
      5      -0.006526  -0.006648   0.005278   0.005213   0.062420   0.001198
      6      -0.134760  -0.100426  -0.016904  -0.035219  -0.039511   0.146252
      7       0.359831   0.236821   0.012993   0.037143   0.039647  -0.148933
      8      -0.211873  -0.146467   0.038350   0.094492   0.092768  -0.369643
      9       0.270520   0.150547   0.002770  -0.009227  -0.004880   0.118847
     10      -0.122131  -0.076074   0.017172  -0.024206  -0.012499   0.316536
     11      -0.017850  -0.011578   0.002432  -0.003395  -0.004722   0.045048
     12      -0.137937  -0.102989  -0.016788  -0.035153   0.026856   0.144430
     13       0.285802   0.185803   0.023294   0.062775  -0.043001  -0.246317
     14       0.301902   0.205285  -0.033586  -0.081839   0.051811   0.315909
     15       0.017844  -0.137442   0.161999   0.159589  -0.168666   0.030886
     16       0.074207   0.220401  -0.293015  -0.286678   0.298713  -0.060919
     17       0.078512   0.280909   0.368572   0.360770  -0.348906   0.075152
     18       0.013369   0.027127   0.026877  -0.027736   0.000186  -0.004916
     19       0.046657  -0.048272  -0.039252   0.038706   0.008771   0.008601
     20       0.006526  -0.006648  -0.005278   0.005212  -0.062421   0.001201
     21       0.018009  -0.136463   0.163318   0.160942   0.170663   0.031369
     22       0.093036   0.289326  -0.179382  -0.175538  -0.191291  -0.037935
     23      -0.054958  -0.210082  -0.432078  -0.423068  -0.416617  -0.088945
     24      -0.018009  -0.136463  -0.163318   0.160935  -0.170664   0.031379
     25      -0.093036   0.289326   0.179383  -0.175531   0.191293  -0.037946
     26       0.054957  -0.210081   0.432082  -0.423055   0.416624  -0.088971
     27      -0.017844  -0.137441  -0.162004   0.159591   0.168666   0.030882
     28      -0.074206   0.220401   0.293021  -0.286679  -0.298712  -0.060910
     29      -0.078511   0.280910  -0.368579   0.360771   0.348903   0.075142
     30      -0.002351   0.000297  -0.002477   0.007517  -0.001497  -0.034686
     31       0.028167  -0.023590   0.004470  -0.006270  -0.001242   0.006303
     32       0.003876  -0.003261   0.000603  -0.000762   0.011090   0.000688
     33       0.137937  -0.102989   0.016788  -0.035154  -0.026850   0.144470
     34      -0.285798   0.185802  -0.023296   0.062777   0.042992  -0.246387
     35      -0.301904   0.205288   0.033587  -0.081839  -0.051798   0.315993
     36      -0.270520   0.150548  -0.002770  -0.009227   0.004885   0.118876
     37       0.122131  -0.076074  -0.017172  -0.024207   0.012511   0.316614
     38       0.017854  -0.011579  -0.002432  -0.003395   0.004723   0.045061
     39       0.134759  -0.100428   0.016904  -0.035218   0.039517   0.146286
     40      -0.359834   0.236823  -0.012993   0.037141  -0.039653  -0.148967
     41       0.211869  -0.146465  -0.038351   0.094490  -0.092785  -0.369736
                 36         37         38         39         40         41    
      0      -0.035369   0.000108   0.000353   0.000322   0.005830   0.005372
      1       0.008210   0.002658   0.009734   0.009422   0.063705   0.063728
      2       0.000488  -0.018211  -0.063410  -0.061509   0.009815   0.009775
      3      -0.001265  -0.000243   0.000010   0.000002  -0.002264  -0.002483
      4       0.002391  -0.008708   0.001797   0.002760   0.003789   0.003520
      5       0.002770   0.062770  -0.012501  -0.019190   0.000654   0.000609
      6       0.148175  -0.048308  -0.175791  -0.173191   0.086157   0.088452
      7      -0.152524   0.053887   0.179371   0.174172  -0.071903  -0.073021
      8      -0.378035   0.122608   0.417834   0.406796  -0.208738  -0.212318
      9       0.117204  -0.000451  -0.003035  -0.002791  -0.231538  -0.229673
     10       0.310379  -0.000152  -0.005579  -0.005128  -0.571524  -0.568172
     11       0.044055  -0.007450  -0.015826  -0.014703  -0.081248  -0.080780
     12       0.148992   0.047501   0.174704   0.172239   0.080553   0.083000
     13      -0.256475  -0.085561  -0.290220  -0.282252  -0.119737  -0.122141
     14       0.328352   0.103087   0.356187   0.347087   0.172450   0.176014
     15       0.004462  -0.161107   0.033139   0.047385   0.012007   0.011536
     16      -0.006870   0.290610  -0.051880  -0.086848  -0.017723  -0.022738
     17       0.011536  -0.340474   0.065543   0.101964   0.022586   0.026545
     18       0.001264  -0.000243  -0.000010   0.000002   0.002264  -0.002482
     19      -0.002389  -0.008707  -0.001797   0.002759  -0.003790   0.003518
     20      -0.002770   0.062769   0.012504  -0.019188  -0.000655   0.000608
     21       0.017613   0.163971  -0.033302  -0.047512   0.012799   0.012255
     22      -0.018106  -0.186694   0.031664   0.054904  -0.011458  -0.015222
     23      -0.044924  -0.408712   0.076685   0.120439  -0.028065  -0.033183
     24      -0.017605   0.163969   0.033309  -0.047506  -0.012804   0.012251
     25       0.018096  -0.186693  -0.031673   0.054899   0.011464  -0.015218
     26       0.044903  -0.408713  -0.076704   0.120427   0.028078  -0.033175
     27      -0.004455  -0.161106  -0.033146   0.047381  -0.012010   0.011532
     28       0.006855   0.290607   0.051893  -0.086840   0.017729  -0.022732
     29      -0.011517  -0.340469  -0.065559   0.101954  -0.022593   0.026537
     30       0.035360   0.000108  -0.000353   0.000322  -0.005832   0.005371
     31      -0.008208   0.002658  -0.009736   0.009421  -0.063725   0.063707
     32      -0.000488  -0.018211   0.063419  -0.061499  -0.009820   0.009772
     33      -0.148957   0.047501  -0.174732   0.172214  -0.080579   0.082974
     34       0.256416  -0.085561   0.290266  -0.282210   0.119774  -0.122102
     35      -0.328270   0.103085  -0.356238   0.347030  -0.172501   0.175955
     36      -0.117174  -0.000451   0.003037  -0.002793   0.231611  -0.229599
     37      -0.310298  -0.000152   0.005585  -0.005134   0.571706  -0.567988
     38      -0.044046  -0.007450   0.015829  -0.014701   0.081277  -0.080758
     39      -0.148136  -0.048308   0.175816  -0.173162  -0.086186   0.088425
     40       0.152482   0.053887  -0.179394   0.174141   0.071927  -0.072997
     41       0.377941   0.122609  -0.417898   0.406733   0.208811  -0.212255
# -----------------------------------------------------------
$ THERMOCHEMISTRY_Energies
   description: The Thermochemistry energies
   geom. index: 6
   prop. index: 1
        Temperature (Kelvin)           :        298.1500000000
        Pressure (atm)                 :          1.0000000000
        Total Mass (AMU)               :         58.1240000000
        Spin Degeneracy                :          1.0000000000
        Electronic Energy (Hartree)    :       -156.9814188784
        Translational Energy (Hartree) :          0.0014162714
        Rotational Energy (Hartree)    :          0.0014162714
        Vibrational Energy (Hartree)   :          0.0030652277
        Number of frequencies          :     42      
        Scaling Factor for frequencies :          1.0000000000
        Vibrational frequencies        :     
                  0    
      0       0.000000
      1       0.000000
      2       0.000000
      3       0.000000
      4       0.000000
      5       0.000000
      6     120.318992
      7     215.748745
      8     246.836397
      9     255.725306
     10     419.841804
     11     711.341139
     12     775.086248
     13     838.486924
     14     917.923603
     15     936.854066
     16     1037.451463
     17     1081.478805
     18     1138.717943
     19     1153.839762
     20     1225.554609
     21     1255.003184
     22     1267.442645
     23     1330.794236
     24     1336.866224
     25     1338.612540
     26     1401.831155
     27     1405.777942
     28     1413.355174
     29     1415.032011
     30     1423.321064
     31     1429.372396
     32     2923.575612
     33     2935.269965
     34     2949.630260
     35     2950.399071
     36     2950.890911
     37     2975.618952
     38     3020.370816
     39     3021.296548
     40     3036.187566
     41     3036.584988
        Zero Point Energy (Hartree)    :          0.1273323454
        Inner Energy (Hartree)         :       -156.8481887624
        Enthalpy (Hartree)             :       -156.8472445533
        Electronic entropy             :          0.0000000000
        Rotational entropy             :          0.0116276370
        Vibrational entropy            :          0.0051226838
        Translational entropy          :          0.0116276370
        Entropy                        :          0.0348531061
        Gibbs Energy (Hartree)         :       -156.8820976594
        Is Linear                      :                 false
# -------------------------------------------------------------
----------------------- !GEOMETRIES! ------------------------
# -------------------------------------------------------------
------------------------ !GEOMETRY! -------------------------
    Number of atoms:    14 
    Geometry Index:     1 
    Coordinates:
               0 C     -1.265080000000    0.193850000000   -0.025430000000
               1 C      0.255200000000    0.179570000000   -0.022990000000
               2 H     -1.655350000000    0.575980000000    0.923260000000
               3 H     -1.653420000000   -0.819310000000   -0.169030000000
               4 H     -1.650210000000    0.823100000000   -0.834170000000
               5 H      0.607390000000   -0.483440000000    0.775850000000
               6 C      0.827700000000    1.581540000000    0.175840000000
               7 H      0.612500000000   -0.237690000000   -0.971680000000
               8 H      0.470410000000    1.998790000000    1.124540000000
               9 H      0.475480000000    2.244560000000   -0.622990000000
              10 C      2.347970000000    1.567260000000    0.178250000000
              11 H      2.733130000000    0.937990000000    0.986960000000
              12 H      2.736320000000    2.580420000000    0.321870000000
              13 H      2.738230000000    1.185160000000   -0.770460000000
------------------------ !GEOMETRY! -------------------------
    Number of atoms:    14 
    Geometry Index:     2 
    Coordinates:
               0 C     -1.263810761556    0.192421144196   -0.025574032881
               1 C      0.252081340851    0.187877363876   -0.021764303224
               2 H     -1.658676151558    0.579071702415    0.927526550388
               3 H     -1.661693743702   -0.824359099537   -0.169843235747
               4 H     -1.653280509724    0.827385443890   -0.837343746803
               5 H      0.615752048368   -0.477862714875    0.780818868942
               6 C      0.830816041845    1.573231988757    0.174610530695
               7 H      0.620739537735   -0.231019960997   -0.974781950806
               8 H      0.462166978817    1.992120919654    1.127635786790
               9 H      0.467123011399    2.238976610085   -0.627960154205
              10 C      2.346703509153    1.568691283614    0.178395097332
              11 H      2.736197271123    0.933709714953    0.990140071243
              12 H      2.744591782940    2.585468150711    0.322681382145
              13 H      2.741559644311    1.182067453257   -0.774720863868
------------------------ !GEOMETRY! -------------------------
    Number of atoms:    14 
    Geometry Index:     3 
    Coordinates:
               0 C     -1.261372539047    0.190371092088   -0.025790012877
               1 C      0.248951282577    0.193058474830   -0.020963221268
               2 H     -1.659451885681    0.580243520728    0.927014472567
               3 H     -1.668032139802   -0.823952977800   -0.169932596309
               4 H     -1.653771029132    0.828578406109   -0.836357918493
               5 H      0.621864951973   -0.474283316739    0.780094887857
               6 C      0.833944441208    1.568050775422    0.173804653093
               7 H      0.626705433456   -0.227896561232   -0.972919425255
               8 H      0.456197954271    1.989000034187    1.125766391157
               9 H      0.461017173440    2.235394844410   -0.627244161037
              10 C      2.344267432807    1.570742070068    0.178613944034
              11 H      2.736680523440    0.932520998967    0.989164214078
              12 H      2.750929022709    2.585062926845    0.322770409367
              13 H      2.742339377781    1.180889712116   -0.774201636916
------------------------ !GEOMETRY! -------------------------
    Number of atoms:    14 
    Geometry Index:     4 
    Coordinates:
               0 C     -1.260099604409    0.189231864957   -0.025908711069
               1 C      0.247980857908    0.193323710424   -0.020876990582
               2 H     -1.659494796059    0.580438103965    0.925679233735
               3 H     -1.670985919063   -0.822682807153   -0.169864855190
               4 H     -1.653669426458    0.828557969024   -0.834886820363
               5 H      0.624422822617   -0.474855759127    0.777948045781
               6 C      0.834914683263    1.567786105000    0.173715118117
               7 H      0.629175473262   -0.229154479383   -0.970889777003
               8 H      0.453726181188    1.990260471718    1.123731971736
               9 H      0.458464414354    2.235967268646   -0.625103989323
              10 C      2.342995091219    1.571880889125    0.178735004318
              11 H      2.736573421055    0.932543832835    0.987700482464
              12 H      2.753882141157    2.583793352147    0.322702517543
              13 H      2.742384659967    1.180689477822   -0.772861230165
------------------------ !GEOMETRY! -------------------------
    Number of atoms:    14 
    Geometry Index:     5 
    Coordinates:
               0 C     -1.259186318219    0.188834845643   -0.025932968008
               1 C      0.248074405127    0.192613166747   -0.020930082614
               2 H     -1.659378054652    0.580714080488    0.924740285045
               3 H     -1.672548455456   -0.821606538914   -0.169826781945
               4 H     -1.653453694503    0.828725302445   -0.833773000912
               5 H      0.626312420156   -0.475890512838    0.776290620770
               6 C      0.834821242182    1.568497433800    0.173765431352
               7 H      0.630996403497   -0.230737971187   -0.969457798066
               8 H      0.451903496824    1.991846410892    1.122295790547
               9 H      0.456578866690    2.237002360010   -0.623452163514
              10 C      2.342081990620    1.572277253041    0.178761345154
              11 H      2.736353434774    0.932378797290    0.986593135661
              12 H      2.755444260848    2.582717336341    0.322663759941
              13 H      2.742270002110    1.180408036241   -0.771917573409
------------------------ !GEOMETRY! -------------------------
    Number of atoms:    14 
    Geometry Index:     6 
    Coordinates:
               0 C     -1.258928143882    0.188945447705   -0.025904330946
               1 C      0.248407040193    0.192281329082   -0.020951249107
               2 H     -1.659291101786    0.580866087007    0.924633213651
               3 H     -1.672733421544   -0.821335056052   -0.169854827814
               4 H     -1.653328429572    0.828935673055   -0.833547602904
               5 H      0.626901320255   -0.476122804539    0.776068873307
               6 C      0.834488649770    1.568829621398    0.173785473834
               7 H      0.631562850383   -0.231103264425   -0.969235016180
               8 H      0.451335982266    1.992212692056    1.122071167035
               9 H      0.455991325316    2.237234694168   -0.623232485751
              10 C      2.341823831330    1.572166364411    0.178733571559
              11 H      2.736226866429    0.932169827628    0.986370554198
              12 H      2.755629157800    2.582445884974    0.322690970487
              13 H      2.742184073041    1.180253503532   -0.771808311368
