20
Coordinates from ORCA-job hexane_VWN5_aug-cc-pVTZ E -234.894591187746
  C      -5.596720     -0.895900     -0.007080
  C      -4.348320     -0.028410     -0.029150
  H      -6.493920     -0.269800     -0.037940
  H      -5.636900     -1.502500      0.903270
  H      -5.622170     -1.568810     -0.870150
  C      -3.076790     -0.875590      0.013070
  H      -4.369730      0.654290      0.828270
  H      -4.355090      0.588360     -0.935380
  C      -1.823340      0.000710     -0.009260
  H      -3.062370     -1.559510     -0.844320
  H      -3.077030     -1.493600      0.919240
  C      -0.551820     -0.846470      0.032960
  H      -1.837760      0.684620      0.848150
  H      -1.823110      0.618730     -0.915420
  C       0.696580      0.021020      0.010930
  H      -0.530400     -1.529150     -0.824480
  H      -0.545060     -1.463280      0.939160
  H       0.736770      0.627660     -0.899400
  H       1.593780     -0.605080      0.041770
  H       0.722030      0.693890      0.874030
20
Coordinates from ORCA-job hexane_VWN5_aug-cc-pVTZ E -234.896252989948
  C      -5.595199     -0.893430     -0.007126
  C      -4.345853     -0.034651     -0.028735
  H      -6.503119     -0.271863     -0.038386
  H      -5.635187     -1.506285      0.906772
  H      -5.619714     -1.573276     -0.872920
  C      -3.077515     -0.864072      0.012594
  H      -4.360075      0.655837      0.831836
  H      -4.345552      0.589678     -0.938564
  C      -1.822620     -0.010808     -0.008777
  H      -3.065242     -1.555524     -0.848721
  H      -3.079809     -1.489539      0.923038
  C      -0.554285     -0.840230      0.032546
  H      -1.834892      0.680632      0.852549
  H      -1.820335      0.614668     -0.919213
  C       0.695061      0.018549      0.010971
  H      -0.540055     -1.530698     -0.828042
  H      -0.554593     -1.464591      0.942352
  H       0.735054      0.631437     -0.902906
  H       1.602982     -0.603018      0.042212
  H       0.719577      0.698363      0.876791
20
Coordinates from ORCA-job hexane_VWN5_aug-cc-pVTZ E -234.896675494001
  C      -5.592966     -0.890029     -0.007176
  C      -4.345460     -0.038723     -0.028401
  H      -6.508186     -0.277922     -0.038832
  H      -5.632568     -1.507300      0.906113
  H      -5.616199     -1.574959     -0.871464
  C      -3.078252     -0.854370      0.012146
  H      -4.353367      0.658387      0.830498
  H      -4.339061      0.592454     -0.936893
  C      -1.821886     -0.020512     -0.008321
  H      -3.067639     -1.552802     -0.847972
  H      -3.082055     -1.487334      0.921598
  C      -0.554676     -0.836158      0.032215
  H      -1.832497      0.677913      0.851802
  H      -1.818088      0.612461     -0.917768
  C       0.692829      0.015147      0.011013
  H      -0.546764     -1.533252     -0.826696
  H      -0.561079     -1.467357      0.940693
  H       0.732432      0.632443     -0.902259
  H       1.608050     -0.596961      0.042653
  H       0.716064      0.700054      0.875320
20
Coordinates from ORCA-job hexane_VWN5_aug-cc-pVTZ E -234.896717617823
  C      -5.592611     -0.888813     -0.007175
  C      -4.346553     -0.038430     -0.028348
  H      -6.509922     -0.281021     -0.039120
  H      -5.632113     -1.507299      0.905080
  H      -5.615262     -1.575404     -0.869933
  C      -3.078620     -0.852916      0.012020
  H      -4.352879      0.660912      0.828690
  H      -4.338683      0.595234     -0.935048
  C      -1.821517     -0.021966     -0.008193
  H      -3.068427     -1.553895     -0.846173
  H      -3.082789     -1.488907      0.919503
  C      -0.553584     -0.836452      0.032166
  H      -1.831708      0.679008      0.850005
  H      -1.817353      0.614031     -0.915672
  C       0.692474      0.013931      0.011008
  H      -0.547255     -1.535781     -0.824882
  H      -0.561456     -1.470131      0.938856
  H       0.731975      0.632435     -0.901234
  H       1.609786     -0.593861      0.042940
  H       0.715127      0.700505      0.873780
20
Coordinates from ORCA-job hexane_VWN5_aug-cc-pVTZ E -234.896731928379
  C      -5.591803     -0.887998     -0.007140
  C      -4.346989     -0.037431     -0.028328
  H      -6.510832     -0.283552     -0.039501
  H      -5.631377     -1.507312      0.904310
  H      -5.613983     -1.576042     -0.868504
  C      -3.078729     -0.852769      0.011912
  H      -4.352133      0.663532      0.827068
  H      -4.338051      0.598135     -0.933381
  C      -1.821408     -0.022113     -0.008084
  H      -3.068974     -1.555538     -0.844509
  H      -3.083309     -1.491140      0.917429
  C      -0.553148     -0.837451      0.032149
  H      -1.831161      0.680653      0.848340
  H      -1.816830      0.616262     -0.913599
  C       0.691666      0.013116      0.010970
  H      -0.548004     -1.538406     -0.823252
  H      -0.562087     -1.473025      0.937197
  H       0.731239      0.632441     -0.900472
  H       1.610695     -0.591331      0.043321
  H       0.713848      0.701149      0.872343
20
Coordinates from ORCA-job hexane_VWN5_aug-cc-pVTZ E -234.896732503851
  C      -5.591480     -0.887969     -0.007114
  C      -4.346747     -0.037151     -0.028326
  H      -6.510778     -0.283813     -0.039667
  H      -5.631176     -1.507270      0.904356
  H      -5.613592     -1.576285     -0.868281
  C      -3.078642     -0.853027      0.011874
  H      -4.351712      0.663893      0.826963
  H      -4.337671      0.598569     -0.933229
  C      -1.821495     -0.021855     -0.008046
  H      -3.069004     -1.555812     -0.844446
  H      -3.083354     -1.491619      0.917149
  C      -0.553390     -0.837731      0.032148
  H      -1.831131      0.680928      0.848276
  H      -1.816785      0.616740     -0.913319
  C       0.691343      0.013087      0.010943
  H      -0.548425     -1.538768     -0.823145
  H      -0.562467     -1.473458      0.937047
  H       0.731037      0.632397     -0.900520
  H       1.610641     -0.591070      0.043488
  H       0.713457      0.701394      0.872117
