20
Coordinates from ORCA-job hexane_VWN5_6-311G_d-p_
  C   -5.59923780202426     -0.88916493662728     -0.00715324994857
  C   -4.35144844030033     -0.03711719436523     -0.02842183153572
  H   -6.51928777825966     -0.28275352063122     -0.03953604763114
  H   -5.64011342333357     -1.50933615985414      0.90593385856832
  H   -5.62284023220833     -1.57817884485764     -0.87011372158731
  C   -3.07993748161942     -0.85438935591912      0.01194714608369
  H   -4.35676653924508      0.66489944431434      0.82851221919828
  H   -4.34259847439154      0.59936215791490     -0.93510432249851
  C   -1.82019953775144     -0.02049290925616     -0.00811875692657
  H   -3.06975925714887     -1.55796405478805     -0.84611034265306
  H   -3.08415843826906     -1.49350349610560      0.91911650166175
  C   -0.54868840788799     -0.83776503919891      0.03224446221273
  H   -1.83037577568328      0.68307916396420      0.84994094163104
  H   -1.81598065397535      0.61862416182418     -0.91528609200973
  C   0.69910070625954      0.01428318773600      0.01098262103591
  H   -0.54336971288368     -1.53977525614439     -0.82469482426914
  H   -0.55753869289011     -1.47425113954669      0.93892224664467
  H   0.73997433266774      0.63446401213010     -0.90209812911832
  H   1.61915081092793     -0.59212842713160      0.04335720234326
  H   0.72270479801677      0.70328820654228      0.87395011879843
