5
Coordinates from ORCA-job methane_VWN5_6-311G_d-p_ E -40.112670821980
  C      -0.857070      0.342760      0.000000
  H       0.235130      0.342760     -0.000000
  H      -1.221130      0.729800      0.954230
  H      -1.221130     -0.677150     -0.141920
  H      -1.221130      0.975630     -0.812300
5
Coordinates from ORCA-job methane_VWN5_6-311G_d-p_ E -40.112781261614
  C      -0.857069      0.342762      0.000002
  H       0.241578      0.342757     -0.000000
  H      -1.223280      0.732089      0.959866
  H      -1.223277     -0.683173     -0.142761
  H      -1.223281      0.979366     -0.817096
5
Coordinates from ORCA-job methane_VWN5_6-311G_d-p_ E -40.112781496888
  C      -0.857069      0.342763      0.000003
  H       0.241886      0.342755     -0.000000
  H      -1.223384      0.732199      0.960135
  H      -1.223378     -0.683460     -0.142803
  H      -1.223385      0.979543     -0.817325
