# pentane
! VWN5 6-311G(d,p) Opt Freq

* xyz 0 1
   C       -1.33320        0.14491       -0.03501
   C        0.18662        0.10359       -0.03278
   H       -1.71642        0.53617        0.91283
   H       -1.73952       -0.86152       -0.17614
   H       -1.70725        0.77899       -0.84518
   H        0.52695       -0.56356        0.76772
   C        0.78453        1.49659        0.16272
   H        0.53607       -0.32211       -0.98060
   H        0.42853        1.91976        1.10999
   H        0.43770        2.16114       -0.63805
   C        2.31229        1.45056        0.16438
   H        2.66422        0.79080        0.96599
   C        2.91119        2.83445        0.35857
   H        2.67339        1.03217       -0.78234
   H        2.59515        3.26837        1.31260
   H        2.60440        3.51106       -0.44543
   H        4.00423        2.77811        0.35655
*