-------------------------------------------------------------
----------------------- !PROPERTIES! ------------------------
-------------------------------------------------------------
# -----------------------------------------------------------
$ SCF_Energy
   description: The SCF energy
   geom. index: 1
   prop. index: 1
        SCF Energy:     -118.0245174110
# -----------------------------------------------------------
$ DFT_Energy
   description: The DFT energy
   geom. index: 1
   prop. index: 1
   Number of Alpha Electrons        13.0000357335 
   Number of Alpha Electrons        13.0000357335 
   Total nuber of  Electrons        26.0000714669 
   Exchange energy                 -16.4469876038 
   Correlation energy               -1.5867618024 
   Correlantion energy NL            0.0000000000 
   Exchange-Correlation energy     -18.0337494062 
   Embedding correction              0.0000000000 
# -----------------------------------------------------------
$ SCF_Energy
   description: The SCF energy
   geom. index: 2
   prop. index: 1
        SCF Energy:     -118.0250232958
# -----------------------------------------------------------
$ DFT_Energy
   description: The DFT energy
   geom. index: 2
   prop. index: 1
   Number of Alpha Electrons        13.0000349992 
   Number of Alpha Electrons        13.0000349992 
   Total nuber of  Electrons        26.0000699984 
   Exchange energy                 -16.4317406120 
   Correlation energy               -1.5858090423 
   Correlantion energy NL            0.0000000000 
   Exchange-Correlation energy     -18.0175496543 
   Embedding correction              0.0000000000 
# -----------------------------------------------------------
$ SCF_Energy
   description: The SCF energy
   geom. index: 3
   prop. index: 1
        SCF Energy:     -118.0251356738
# -----------------------------------------------------------
$ DFT_Energy
   description: The DFT energy
   geom. index: 3
   prop. index: 1
   Number of Alpha Electrons        13.0000338037 
   Number of Alpha Electrons        13.0000338037 
   Total nuber of  Electrons        26.0000676075 
   Exchange energy                 -16.4300629137 
   Correlation energy               -1.5856971845 
   Correlantion energy NL            0.0000000000 
   Exchange-Correlation energy     -18.0157600982 
   Embedding correction              0.0000000000 
# -----------------------------------------------------------
$ SCF_Energy
   description: The SCF energy
   geom. index: 4
   prop. index: 1
        SCF Energy:     -118.0251605953
# -----------------------------------------------------------
$ DFT_Energy
   description: The DFT energy
   geom. index: 4
   prop. index: 1
   Number of Alpha Electrons        13.0000329328 
   Number of Alpha Electrons        13.0000329328 
   Total nuber of  Electrons        26.0000658656 
   Exchange energy                 -16.4316542347 
   Correlation energy               -1.5857932519 
   Correlantion energy NL            0.0000000000 
   Exchange-Correlation energy     -18.0174474866 
   Embedding correction              0.0000000000 
# -----------------------------------------------------------
$ SCF_Energy
   description: The SCF energy
   geom. index: 5
   prop. index: 1
        SCF Energy:     -118.0251640806
# -----------------------------------------------------------
$ DFT_Energy
   description: The DFT energy
   geom. index: 5
   prop. index: 1
   Number of Alpha Electrons        13.0000326030 
   Number of Alpha Electrons        13.0000326030 
   Total nuber of  Electrons        26.0000652059 
   Exchange energy                 -16.4326192678 
   Correlation energy               -1.5858535227 
   Correlantion energy NL            0.0000000000 
   Exchange-Correlation energy     -18.0184727905 
   Embedding correction              0.0000000000 
# -----------------------------------------------------------
$ SCF_Energy
   description: The SCF energy
   geom. index: 6
   prop. index: 1
        SCF Energy:     -118.0251643651
# -----------------------------------------------------------
$ DFT_Energy
   description: The DFT energy
   geom. index: 6
   prop. index: 1
   Number of Alpha Electrons        13.0000325392 
   Number of Alpha Electrons        13.0000325392 
   Total nuber of  Electrons        26.0000650784 
   Exchange energy                 -16.4327502104 
   Correlation energy               -1.5858621682 
   Correlantion energy NL            0.0000000000 
   Exchange-Correlation energy     -18.0186123786 
   Embedding correction              0.0000000000 
# -----------------------------------------------------------
$ SCF_Electric_Properties
   description: The SCF Calculated Electric Properties
   geom. index: 6
   prop. index: 1
       Filename                          : propane_VWN5_def2-TZVP.scfp 
       Do Dipole Moment Calculation      : true 
       Do Quadrupole Moment Calculation  : false 
       Do Polarizability Calculation     : false 
** Dipole moment part of electric properties **
        Magnitude of dipole moment (Debye) :        0.0988538618
        Electronic Contribution:
                  0    
      0       0.278404
      1      -0.427297
      2      -0.057663
        Nuclear Contribution:
                  0    
      0      -0.257411
      1       0.394841
      2       0.053370
        Total Dipole moment:
                  0    
      0       0.020993
      1      -0.032456
      2      -0.004292
# -----------------------------------------------------------
$ Hessian
   description: Details about the Hessian
   geom. index: 6
   prop. index: 1
Normal modes:
Number of Rows: 33 Number of Columns: 33
                  0          1          2          3          4          5    
      0       0.000000   0.000000   0.000000   0.000000   0.000000   0.000000
      1       0.000000   0.000000   0.000000   0.000000   0.000000   0.000000
      2       0.000000   0.000000   0.000000   0.000000   0.000000   0.000000
      3       0.000000   0.000000   0.000000   0.000000   0.000000   0.000000
      4       0.000000   0.000000   0.000000   0.000000   0.000000   0.000000
      5       0.000000   0.000000   0.000000   0.000000   0.000000   0.000000
      6       0.000000   0.000000   0.000000   0.000000   0.000000   0.000000
      7       0.000000   0.000000   0.000000   0.000000   0.000000   0.000000
      8       0.000000   0.000000   0.000000   0.000000   0.000000   0.000000
      9       0.000000   0.000000   0.000000   0.000000   0.000000   0.000000
     10       0.000000   0.000000   0.000000   0.000000   0.000000   0.000000
     11       0.000000   0.000000   0.000000   0.000000   0.000000   0.000000
     12       0.000000   0.000000   0.000000   0.000000   0.000000   0.000000
     13       0.000000   0.000000   0.000000   0.000000   0.000000   0.000000
     14       0.000000   0.000000   0.000000   0.000000   0.000000   0.000000
     15       0.000000   0.000000   0.000000   0.000000   0.000000   0.000000
     16       0.000000   0.000000   0.000000   0.000000   0.000000   0.000000
     17       0.000000   0.000000   0.000000   0.000000   0.000000   0.000000
     18       0.000000   0.000000   0.000000   0.000000   0.000000   0.000000
     19       0.000000   0.000000   0.000000   0.000000   0.000000   0.000000
     20       0.000000   0.000000   0.000000   0.000000   0.000000   0.000000
     21       0.000000   0.000000   0.000000   0.000000   0.000000   0.000000
     22       0.000000   0.000000   0.000000   0.000000   0.000000   0.000000
     23       0.000000   0.000000   0.000000   0.000000   0.000000   0.000000
     24       0.000000   0.000000   0.000000   0.000000   0.000000   0.000000
     25       0.000000   0.000000   0.000000   0.000000   0.000000   0.000000
     26       0.000000   0.000000   0.000000   0.000000   0.000000   0.000000
     27       0.000000   0.000000   0.000000   0.000000   0.000000   0.000000
     28       0.000000   0.000000   0.000000   0.000000   0.000000   0.000000
     29       0.000000   0.000000   0.000000   0.000000   0.000000   0.000000
     30       0.000000   0.000000   0.000000   0.000000   0.000000   0.000000
     31       0.000000   0.000000   0.000000   0.000000   0.000000   0.000000
     32       0.000000   0.000000   0.000000   0.000000   0.000000   0.000000
                  6          7          8          9         10         11    
      0       0.000054   0.000434  -0.110119   0.000172   0.000335   0.196108
      1       0.004202   0.005420  -0.132839   0.002562   0.009488   0.058098
      2      -0.031174  -0.037328  -0.018688  -0.018456  -0.066101   0.008770
      3      -0.000038  -0.000148  -0.090191   0.000277   0.000075  -0.091416
      4       0.000071  -0.012683   0.138845   0.010091   0.000289   0.131612
      5       0.000105   0.090698   0.018941  -0.074278   0.000071   0.017602
      6      -0.010526  -0.115069  -0.285321   0.273444   0.377263   0.087490
      7       0.380213  -0.329004  -0.275886  -0.072858  -0.062504  -0.069444
      8      -0.196209   0.058023  -0.030109   0.128629   0.124898   0.016082
      9      -0.001298   0.001091   0.211616  -0.000021   0.002683   0.517974
     10      -0.048520   0.062098  -0.273177  -0.015515  -0.028626  -0.077721
     11       0.359517  -0.454731  -0.038751   0.114530   0.205450  -0.008867
     12       0.011977   0.116030  -0.283834  -0.274491  -0.381585   0.089401
     13      -0.314951   0.303481  -0.270419   0.036359   0.025271  -0.063147
     14      -0.289718   0.144059  -0.044892   0.141234   0.133351  -0.033881
     15      -0.007186  -0.049073  -0.077908  -0.250050  -0.300219  -0.050912
     16      -0.004424   0.053099   0.122087   0.345548  -0.191090   0.157504
     17      -0.000497   0.168154   0.002182   0.329205  -0.027220   0.022304
     18      -0.000032  -0.000282   0.167695  -0.000007  -0.000064  -0.160805
     19      -0.004235   0.004970   0.044182   0.002480  -0.009469  -0.134464
     20       0.031092  -0.037460   0.006438  -0.018425   0.066079  -0.019014
     21       0.007203   0.048192  -0.077272   0.247754   0.298325  -0.051745
     22       0.004581  -0.096727   0.116827  -0.421282   0.190396   0.157713
     23       0.000802   0.148043   0.031622   0.226779   0.026953   0.020013
     24       0.314247   0.336087   0.370012  -0.063982   0.116032   0.123305
     25      -0.187387  -0.040720   0.142426  -0.287870   0.376549  -0.049184
     26       0.223786   0.098508   0.029036   0.097833  -0.079877   0.034845
     27      -0.316236  -0.339209   0.367867   0.062801  -0.117992   0.124071
     28       0.121333   0.012587   0.144227   0.251238  -0.343840  -0.038693
     29       0.262460   0.102200   0.013634   0.171906  -0.178900  -0.045563
     30       0.002020   0.001915   0.163464  -0.000709   0.001378  -0.170973
     31       0.048702   0.062502  -0.304108  -0.015944   0.030168  -0.675323
     32      -0.360408  -0.453835  -0.042441   0.114420  -0.205245  -0.092606
                 12         13         14         15         16         17    
      0      -0.003653  -0.152604   0.049592  -0.000529   0.000239  -0.029522
      1      -0.090298   0.025409  -0.132475  -0.016103   0.009989   0.047585
      2      -0.012658   0.003040  -0.017488   0.120267  -0.074104   0.006278
      3      -0.013527   0.185330  -0.112907   0.000925   0.000253  -0.138139
      4      -0.027411   0.117902   0.174297   0.024375   0.000187  -0.087974
      5      -0.003772   0.016682   0.022813  -0.182092   0.000017  -0.012555
      6       0.264432  -0.233434   0.322439  -0.333486   0.169484   0.180241
      7       0.185089   0.006718   0.216237   0.115098  -0.066206  -0.077121
      8      -0.017861  -0.017099  -0.047168  -0.086533   0.030091   0.131391
      9      -0.523352  -0.163220  -0.333383   0.001163  -0.000812   0.308889
     10       0.138769   0.028066   0.048915   0.033445  -0.015746  -0.093538
     11       0.018252   0.002747   0.005038  -0.248511   0.117903  -0.011604
     12       0.258863  -0.232513   0.322887   0.333395  -0.170240   0.180898
     13       0.173936   0.002123   0.195432  -0.088769   0.056075  -0.039956
     14       0.069939   0.016372   0.104602  -0.111507   0.045459  -0.145776
     15       0.200160   0.471893  -0.104610  -0.197210   0.539551   0.435206
     16       0.108640   0.300831   0.164170   0.288972   0.343569   0.277163
     17       0.015442   0.042988   0.008181   0.138673   0.048751   0.039319
     18      -0.055252  -0.040205   0.101012  -0.000691  -0.000383   0.031301
     19       0.062535  -0.147969  -0.099972  -0.016066  -0.010089  -0.046653
     20       0.008641  -0.020382  -0.012922   0.120283   0.074103  -0.006093
     21       0.203976   0.472596  -0.103852   0.196380  -0.540097   0.433737
     22       0.111079   0.300578   0.158940  -0.316942  -0.344130   0.275886
     23       0.015996   0.042770   0.035424   0.057776  -0.048741   0.039309
     24       0.259065  -0.092150  -0.322386   0.045638   0.014300   0.022716
     25       0.173616  -0.214004  -0.195058   0.356748   0.183372   0.207332
     26       0.062243  -0.012313  -0.105739  -0.051799  -0.013271  -0.113317
     27       0.258205  -0.091818  -0.323589  -0.043628  -0.014105   0.021030
     28       0.179128  -0.208942  -0.216597  -0.329112  -0.173636   0.168863
     29      -0.013283  -0.046006   0.046131  -0.145999  -0.062319   0.164630
     30      -0.058271  -0.042234   0.093316   0.001260   0.000618   0.042095
     31      -0.412822  -0.159865   0.320846   0.033434   0.015661   0.318540
     32      -0.057924  -0.021590   0.044062  -0.248666  -0.118065   0.043453
                 18         19         20         21         22         23    
      0       0.114293  -0.109377  -0.000017   0.005405   0.013207  -0.000111
      1       0.027781   0.007740   0.004551   0.013700  -0.031119  -0.004081
      2       0.004171   0.000655  -0.032797   0.001838  -0.004362   0.028460
      3      -0.099787   0.010846   0.000255   0.025836  -0.042072   0.000130
      4      -0.063698  -0.015945   0.000076  -0.040313  -0.026303  -0.005050
      5      -0.009053  -0.002107   0.000015  -0.005450  -0.003778   0.033570
      6      -0.332267   0.364954  -0.240337   0.070431  -0.145209   0.248847
      7      -0.159745   0.035986  -0.261388  -0.220591   0.364487   0.258401
      8      -0.088224   0.170659  -0.000603   0.122864  -0.228891   0.006499
      9      -0.286899   0.362550  -0.002609  -0.163307   0.241259   0.003442
     10       0.185768  -0.185413  -0.065566   0.074528  -0.114950   0.064543
     11       0.024142  -0.023830   0.489278   0.009765  -0.011374  -0.485554
     12      -0.332309   0.365929   0.241712   0.071960  -0.144186  -0.250676
     13      -0.176778   0.079190   0.249630  -0.179962   0.294354  -0.246540
     14       0.040497  -0.152479   0.067504  -0.176245   0.316970  -0.059537
     15       0.220902   0.008031  -0.054028  -0.243767   0.094107   0.025880
     16       0.140400  -0.014632  -0.033946   0.327202   0.057018  -0.039972
     17       0.019900   0.004154  -0.004466   0.400131   0.005802  -0.003719
     18       0.073460   0.037504  -0.000044  -0.014972  -0.023170   0.000008
     19       0.092853   0.100624  -0.004660   0.001075   0.024799  -0.003923
     20       0.013010   0.013882   0.032757   0.000043   0.003383   0.028473
     21       0.220739   0.008049   0.052706  -0.241147   0.094468  -0.028517
     22       0.140227  -0.012855   0.034140   0.422167   0.056505   0.044683
     23       0.019986  -0.007914   0.004492  -0.300048   0.010360   0.002947
     24      -0.295729  -0.201894  -0.335481   0.155988   0.239707  -0.336308
     25      -0.242837  -0.324334  -0.104994  -0.170142  -0.304385  -0.115753
     26       0.032792   0.118062  -0.051894   0.132411   0.237190  -0.046000
     27      -0.294614  -0.199967   0.333103   0.156756   0.245060   0.334349
     28      -0.224427  -0.280424   0.117219  -0.129147  -0.229340   0.125211
     29      -0.099615  -0.202547  -0.014910  -0.171448  -0.307559  -0.007362
     30       0.052001   0.019532   0.002621  -0.000770  -0.005187   0.002656
     31      -0.341034  -0.398747   0.065295   0.180242   0.265040   0.064965
     32      -0.046330  -0.054227  -0.489099   0.025089   0.034177  -0.485680
                 24         25         26         27         28         29    
      0      -0.008549   0.021836   0.034977   0.028215   0.000090   0.000443
      1      -0.027079  -0.011241  -0.008794  -0.001818   0.003593   0.009762
      2      -0.003878  -0.001276  -0.000887  -0.000152  -0.025991  -0.065120
      3       0.040274  -0.029174  -0.001229   0.022541  -0.000569  -0.000006
      4      -0.062321   0.045000  -0.001068  -0.034790  -0.010900   0.000093
      5      -0.008563   0.005621  -0.000105  -0.004250   0.083044  -0.000512
      6      -0.107855  -0.098858  -0.143115  -0.109536  -0.071477  -0.173035
      7       0.307739   0.104936   0.160023   0.121092   0.079148   0.191954
      8      -0.179670   0.256521   0.380131   0.284899   0.175779   0.428177
      9       0.223183  -0.059666  -0.123970  -0.117110  -0.000254  -0.004107
     10      -0.116953  -0.140436  -0.310199  -0.289894   0.000493  -0.007515
     11      -0.011606  -0.019077  -0.042200  -0.039526  -0.007793  -0.017520
     12      -0.106190  -0.097910  -0.141341  -0.107464   0.070689   0.171850
     13       0.252668   0.170595   0.256524   0.192068  -0.123588  -0.301060
     14       0.254700  -0.222096  -0.327119  -0.243299   0.150044   0.367229
     15      -0.158966   0.172510   0.000581  -0.133841  -0.208586   0.003734
     16       0.208321  -0.329001   0.002567   0.255595   0.392267  -0.000921
     17       0.296581   0.409151  -0.001906  -0.319935  -0.455672   0.003122
     18       0.028315   0.001280   0.006433  -0.010058   0.000066   0.000451
     19      -0.003362  -0.024063   0.035336  -0.026219   0.003527  -0.008859
     20      -0.000561  -0.003099   0.004635  -0.003605  -0.025880   0.063957
     21      -0.156803   0.173937   0.000792  -0.134480   0.215406  -0.003624
     22       0.279373  -0.205567   0.001720   0.158568  -0.260083  -0.000069
     23      -0.231429  -0.475857   0.001981   0.370447  -0.550525   0.002928
     24      -0.207529  -0.085396   0.134134  -0.100365  -0.064150   0.153505
     25       0.241720   0.111237  -0.166339   0.126876   0.083476  -0.198714
     26      -0.187374   0.254472  -0.382392   0.285977   0.176190  -0.422269
     27      -0.215658  -0.083685   0.131365  -0.097644   0.062434  -0.149925
     28       0.180879   0.177018  -0.264754   0.199033  -0.127718   0.306392
     29       0.243134  -0.218245   0.327663  -0.242835   0.148192  -0.357583
     30       0.014399   0.151264  -0.337239   0.315497   0.000872  -0.008983
     31      -0.248423  -0.004322   0.016922  -0.014702   0.001047  -0.001933
     32      -0.029414   0.000276   0.000436  -0.000324  -0.007665   0.015872
                 30         31         32    
      0       0.000391   0.007173   0.006764
      1       0.008838   0.067544   0.059319
      2      -0.057832   0.010222   0.008984
      3       0.000090  -0.000091  -0.005758
      4       0.005432   0.000649   0.008793
      5      -0.039245   0.000174   0.001590
      6      -0.158122   0.089394   0.082440
      7       0.169268  -0.082078  -0.072448
      8       0.379863  -0.224934  -0.201401
      9      -0.004174  -0.257783  -0.227745
     10      -0.008219  -0.596990  -0.525744
     11      -0.012821  -0.081168  -0.071513
     12       0.157767   0.082206   0.075935
     13      -0.267186  -0.128849  -0.114486
     14       0.327598   0.183840   0.165009
     15       0.094065   0.002152   0.026939
     16      -0.177527  -0.002187  -0.051133
     17       0.209398   0.003263   0.061329
     18      -0.000499   0.058170  -0.064468
     19       0.008285  -0.019258   0.020785
     20      -0.059401  -0.003078   0.003377
     21      -0.095235   0.002643   0.029371
     22       0.114545  -0.001686  -0.035226
     23       0.247067  -0.004771  -0.077596
     24      -0.139518  -0.058438   0.063680
     25       0.188184   0.085652  -0.098474
     26       0.392507   0.201221  -0.227180
     27       0.136622  -0.052946   0.057448
     28      -0.289220   0.129314  -0.147285
     29       0.332707  -0.163255   0.183502
     30       0.008816  -0.584753   0.648134
     31       0.001404   0.013733  -0.014476
     32      -0.011778  -0.001391   0.001604
# -----------------------------------------------------------
$ THERMOCHEMISTRY_Energies
   description: The Thermochemistry energies
   geom. index: 6
   prop. index: 1
        Temperature (Kelvin)           :        298.1500000000
        Pressure (atm)                 :          1.0000000000
        Total Mass (AMU)               :         44.0970000000
        Spin Degeneracy                :          1.0000000000
        Electronic Energy (Hartree)    :       -118.0251643651
        Translational Energy (Hartree) :          0.0014162714
        Rotational Energy (Hartree)    :          0.0014162714
        Vibrational Energy (Hartree)   :          0.0017678962
        Number of frequencies          :     33      
        Scaling Factor for frequencies :          1.0000000000
        Vibrational frequencies        :     
                  0    
      0       0.000000
      1       0.000000
      2       0.000000
      3       0.000000
      4       0.000000
      5       0.000000
      6     221.930507
      7     268.582478
      8     356.212545
      9     722.343059
     10     869.524658
     11     887.658219
     12     888.041826
     13     1076.274602
     14     1135.100257
     15     1156.648431
     16     1256.426675
     17     1301.177229
     18     1330.902542
     19     1343.209824
     20     1404.019986
     21     1408.219567
     22     1413.025052
     23     1422.987165
     24     1431.746291
     25     2943.517131
     26     2948.230134
     27     2951.969969
     28     2974.218102
     29     3016.938954
     30     3024.117179
     31     3034.700159
     32     3035.820229
        Zero Point Energy (Hartree)    :          0.0998373766
        Inner Energy (Hartree)         :       -117.9207265495
        Enthalpy (Hartree)             :       -117.9197823404
        Electronic entropy             :          0.0000000000
        Rotational entropy             :          0.0107538845
        Vibrational entropy            :          0.0027533808
        Translational entropy          :          0.0107538845
        Entropy                        :          0.0312188949
        Gibbs Energy (Hartree)         :       -117.9510012353
        Is Linear                      :                 false
# -------------------------------------------------------------
----------------------- !GEOMETRIES! ------------------------
# -------------------------------------------------------------
------------------------ !GEOMETRY! -------------------------
    Number of atoms:    11 
    Geometry Index:     1 
    Coordinates:
               0 C     -1.152140000000    0.231070000000   -0.018920000000
               1 C      0.366720000000    0.193200000000   -0.017650000000
               2 H     -1.535600000000    0.623920000000    0.928200000000
               3 H     -1.556550000000   -0.776480000000   -0.157440000000
               4 H     -1.528180000000    0.862680000000   -0.830140000000
               5 H      0.714460000000   -0.466870000000    0.784710000000
               6 C      0.962020000000    1.578010000000    0.172880000000
               7 H      0.721840000000   -0.229430000000   -0.964050000000
               8 H      0.645370000000    2.013440000000    1.126050000000
               9 H      0.652810000000    2.252170000000   -0.632290000000
              10 H      2.055200000000    1.524570000000    0.170250000000
------------------------ !GEOMETRY! -------------------------
    Number of atoms:    11 
    Geometry Index:     2 
    Coordinates:
               0 C     -1.148888594051    0.228526335153   -0.019213505358
               1 C      0.365047712909    0.195892479836   -0.017407879977
               2 H     -1.534561084221    0.627987865181    0.932574615344
               3 H     -1.566141338322   -0.781326854026   -0.157839009716
               4 H     -1.527335128651    0.867338632212   -0.833443256615
               5 H      0.717287615618   -0.471552898116    0.787304117846
               6 C      0.963074214685    1.574032823523    0.172344936372
               7 H      0.724497939699   -0.233193792883   -0.968103207065
               8 H      0.640666490712    2.013637830023    1.129947535840
               9 H      0.648648993472    2.253703724238   -0.636022866145
              10 H      2.063653178151    1.531233854859    0.171458519473
------------------------ !GEOMETRY! -------------------------
    Number of atoms:    11 
    Geometry Index:     3 
    Coordinates:
               0 C     -1.145365951284    0.226463569668   -0.019432316998
               1 C      0.364269917959    0.197193034020   -0.017386896858
               2 H     -1.532270539647    0.630858935852    0.932151406030
               3 H     -1.573987859352   -0.779942407087   -0.157301935608
               4 H     -1.525332335430    0.869435377688   -0.832460108747
               5 H      0.719767333842   -0.475040787911    0.785101747494
               6 C      0.963571836242    1.570028445601    0.171809501091
               7 H      0.726733824048   -0.237001136933   -0.967322713705
               8 H      0.637143389766    2.012606141643    1.129033388077
               9 H      0.645769466649    2.252767635270   -0.635455742794
              10 H      2.065650917206    1.538911192189    0.172863672016
------------------------ !GEOMETRY! -------------------------
    Number of atoms:    11 
    Geometry Index:     4 
    Coordinates:
               0 C     -1.143385335285    0.225547163515   -0.019514240910
               1 C      0.364583965503    0.196761798821   -0.017570305231
               2 H     -1.530939813401    0.632693209561    0.930617401812
               3 H     -1.578776651153   -0.777344952286   -0.156628894263
               4 H     -1.524255825575    0.870302452035   -0.830684508528
               5 H      0.721836830122   -0.477832614783    0.782181987113
               6 C      0.963624625376    1.567887417143    0.171534666966
               7 H      0.728607028997   -0.240298962297   -0.965613192081
               8 H      0.635147116238    2.012174076671    1.127246975268
               9 H      0.644266766467    2.252074363586   -0.633865186438
              10 H      2.065241292711    1.544316048035    0.173895296289
------------------------ !GEOMETRY! -------------------------
    Number of atoms:    11 
    Geometry Index:     5 
    Coordinates:
               0 C     -1.142773406824    0.225548597372   -0.019496937001
               1 C      0.365141555053    0.195915404049   -0.017752040421
               2 H     -1.530485473571    0.633597262211    0.929786742420
               3 H     -1.580355067265   -0.775942824036   -0.156230410827
               4 H     -1.523947053331    0.870644101707   -0.829787885742
               5 H      0.722889611033   -0.479266510535    0.780724522884
               6 C      0.963372912656    1.567345526871    0.171477653697
               7 H      0.729559888368   -0.241933044525   -0.964807161414
               8 H      0.634298479007    2.012156551072    1.126346712161
               9 H      0.643663418683    2.251902612488   -0.632994385895
              10 H      2.064585136191    1.546312323327    0.174333190138
------------------------ !GEOMETRY! -------------------------
    Number of atoms:    11 
    Geometry Index:     6 
    Coordinates:
               0 C     -1.142644134883    0.225718158963   -0.019468931350
               1 C      0.365411120115    0.195500429792   -0.017838081387
               2 H     -1.530332418550    0.633965105618    0.929623118381
               3 H     -1.580561429261   -0.775590631775   -0.156067029378
               4 H     -1.523860614615    0.870786678619   -0.829624434099
               5 H      0.723208568901   -0.479717368220    0.780391421135
               6 C      0.963158751666    1.567299594601    0.171483821912
               7 H      0.729835659010   -0.242368690906   -0.964717458555
               8 H      0.633970268827    2.012160970943    1.126175353909
               9 H      0.643435813436    2.251892207372   -0.632813763990
              10 H      2.064328415354    1.546633544992    0.174455983424
