11
Coordinates from ORCA-job propane_VWN5_cc-pVDZ
  C   -1.14660694925221      0.22316824568224     -0.01982263446896
  C   0.36621844732906      0.19422268055972     -0.01792669990795
  H   -1.54076052933129      0.63441636341320      0.93682856283795
  H   -1.58945324595860     -0.78637482578372     -0.15793044832061
  H   -1.53407512685318      0.87383993549640     -0.83602379607857
  H   0.72800622593861     -0.48809029298340      0.78630808991525
  C   0.96715416005066      1.56982969915605      0.17180161370796
  H   0.73483341985954     -0.24898135938362     -0.97234488919665
  H   0.63656383436061      2.02142847330183      1.13427065698342
  H   0.64609022301550      2.26271527020160     -0.63845093193776
  H   2.07797954084129      1.55010581033970      0.17489047646592
