11
Coordinates from ORCA-job propane_VWN5_6-311G_d-p_
  C   -1.14553585957947      0.22449848527875     -0.01965553558226
  C   0.36611140584113      0.19441749318059     -0.01795166517190
  H   -1.53403499205798      0.63269780165931      0.93053067451395
  H   -1.58387897896270     -0.77792719717874     -0.15647015835292
  H   -1.52747755341003      0.86992483205177     -0.83082815958051
  H   0.72417557975345     -0.48136645442186      0.78122352162906
  C   0.96548797897963      1.56940280804657      0.17178291150991
  H   0.73085589202535     -0.24377035765299     -0.96585830906126
  H   0.63650719163046      2.01488387551504      1.12764761292763
  H   0.64587067369103      2.25486444944079     -0.63347325358235
  H   2.06786866208914      1.54865426408077      0.17465236075066
