# 
! UKS wB97X-D3 def2-TZVPP moread
%moinp "O3_UKS_s_stab.gbw"

%scf
	Stabperform true
   STABRestartUHFifUnstable true
end
* gzmt 0 1
   O
   O     1        1.27200
   O     2        1.27200     1      116.80000
*
