3
Coordinates from ORCA-job o3ukstopt
  O   -0.02059958192335      0.02955438736569      0.00000000000000
  O   1.30971627316142     -0.06120600561984      0.00000000000000
  O   1.82839954051890      1.16702077932525      0.00000000000000
